,title,text
0,Italy's Marcucci: Progress has been made on government deal with 5-Star,"Italy’s Democratic Party (PD) Senate leader Andrea Marcucci crossed the wires in the last minutes saying that progress had been made on a government deal with the 5-Star Movement, as reported by Reuters.The shared currency showed little to no reaction to this comment. As of writing, the EUR/USD pair was virtually unchanged on a daily basis near the 1.11 handle and the EUR/GBP pair, which touched its lowest level since late July at 0.9018 earlier in the session, was down 0.55% on the day at 0.9035."
1,AUD/CNY: Risks are to the upside – Westpac,"Westpac analysts note that the Australian dollar and Chinese yuan have both fallen about 2-3% against the US dollar over the past 3 months, leaving the cross only slightly higher overall.“At times the correlation is very high e.g. on the break of USD/CNY 7.00, but there is still plenty of room for volatility given divergent domestic factors.”“We expect the RBA to hold steady at 1% in Sep then cut the cash rate in Oct, while maintaining a dovish tone. This should continue to weigh on AUD on crosses but markets are already priced for -36bp of easing by end-2019.”“AUD/USD probably also has a lot of bad news on US-China trade priced in, judging by spec positioning. And while the best is surely past in terms of commodity prices, Australia’s latest trade report showed a record surplus.”“The trade-weighted yuan is already at lows since 2014 and capital outflows remain a concern for Chinese policymakers. So sharp yuan depreciation against US$ seems unlikely. Our base case for USD/CNY year-end is 7.20. With AUD/USD at 0.6700, AUD/CNY would be around 4.82, but nearer term, risks are to the upside, to 4.90.”"
2,Venezuela has launched a cryptocurrency remittance platform as they look to boost capital inflows,"
 The Venezuelan government noted that the state-run remittance platform Patria Remesa is officially operational. Venezuelans can receive Bitcoin and Litecoin payments but as a mandatory requirement, they have to be exchanged for sovereign Bolívars or Petros. Patria Teresa will be regulated by Venezuela’s crypto regulator Superintendency of Cryptoassets and Related Activities (Sunacrip).For the use of the service, there will be a know your customer (KYC) and anti-money laundering (AML) procedure in order to use cryptocurrencies. It could be argued that it is a centralized state service, opposite to regular cryptocurrencies which should be free of government control.


 "
3,BCH/USD technical analysis: Trendline break on the 4-hour could send Bitcoin Cash higher,"Bitcoin Cash breaks higher on the 4-hour chart as bulls take out a key intraday trendline. Next up the 320 and 330 resistance levels as we head into the mid-US session.On the support side, 300 has been a formidable support zone which has been tested six times in the last 12 sessions to no avail.Both the indicators on the chart above have crossed into the positive zone but on the daily have flatlined as volatility remains low.The main level to break for an upside breakout on the daily chart remains 357 and if bulls manage it, it would indicate a major signal for a potential test of the old highs."
4,,
5,,
