,title,text
0,"EUR/USD dives to over 1-week lows, below 1.1100 handle ahead of US data","The selling pressure around the shared currency picked up some additional pace in the last hour and dragged the EUR/USD pair to over one-week lows, below the 1.1100 handle.Following a brief consolidation, the pair came under some aggressive selling pressure during the mid-European session on Friday and extended the previous session's intraday pullback from the vicinity of the very important 200-day SMA. The latest leg of a sudden fall over the past couple of hours lacked any obvious fundamental catalyst and could be solely attributed to some renewed US dollar buying interest.Despite the US President Donald Trump’s impeachment by the House of Representatives, the greenback managed to regain some positive traction on the last day of the trading week. A strong intraday upsurge in the US Treasury bond yields turned out to be one of the key factors underpinning the buck, which eventually exerted some heavy downward pressure on the major.This coupled with possibilities of some intraday trading stops being triggered below the Asian session swing lows, around the 1.1115 region, further collaborated towards aggravating the bearish pressure. Meanwhile, the downside is likely to remain limited, at least for the time being, as investors now look forward to a slew of important US macro data for some meaningful impetus.Friday’s US economic docket highlights the release of the final Q3 GDP growth figures. This will be followed by the release of personal income/spending data and the Core PCE price index, which might influence the USD price dynamics and assist traders to grab some short-term opportunities.  "
1,USD/JPY Price Forecast 2020: A journey from trade fears to high-stakes elections,"“Bye bye bye” – N-Sync’s greatest hit from the 1990s can be used to say farewell’s the 21st century’s second decade. The global economy is in-sync once again – but political uncertainty remains elevated and will likely be enhanced in 2020. 2019 was dominated by trade talks as the primary driver for the safe-haven Japanese yen while the Federal Reserve’s shift from raising rates to cutting them weighed on the US dollar. Nevertheless, brighter prospects for the US economy – despite external headwinds – kept the currency pair in check. It is ending the year at the 109 handle it kicked off the year, completed a 700-pip journey.In 2020, central banks on both sides of the Pacific will likely try to stay in the shadows, with their success in doing so depending on the government. The fate of global commerce will likely remain high on the agenda, but gradually make way for another political drama – the US Presidential elections. Jerome Powell, Chairman of the Federal Reserve, will remember 2019 as the year he reversed policy – cutting interest rates for the first time since 2008. At the beginning of the year, the Fed’s projection of future interest rates was still showing higher borrowing costs. Yet already in January, Powell signaled his reluctance to take the path of hiking rates. He then moved to sit on the fence in March, and by June, the Chairman already opened the door to cutting rates.What caused the dovish shift? The Fed’s higher rates seemed to choke the domestic housing market early and inflation was nowhere to be seen. And while wage growth accelerated and surpassed the 3% mark in annual terms, there seemed to be no imminent need to stay ahead of raging price rises. The historic cut came in July and while Powell’s message was mixed, he followed through by overseeing two more reductions later on. The “mid-cycle adjustment” ended with three cuts. For dollar/yen, lower rates somewhat weighed on the dollar, but also allowed the global economy – dependent on the greenback – to lift its head The Fed’s willingness to act by cutting rates and also ending its Quantitative Tightening program helped support global markets and diminished demand for the safe-haven yen. US real-estate also recovered. While the business cycle is now more in-sync all over the world, America leads to global growth. The Washington-based institution’s moves were accompanied by dissent and criticism, but by year-end, the decision to sit on the fence and wait for more data was already accepted in harmony. Even President Donald Trump – who vehemently criticized the bank throughout the year – seemed to moderate his tone. Trump’s trade war with China has also reached a calm of sorts, but developments during the year were far more erratic and caused jitters. USD/JPY was often whipsawed on trade headlines. While negotiators from the world’s largest economies failed to meet the early March deadline, reports were optimistic until early May, when China had second thoughts about certain aspects of the deal. Washington slapped Beijing with new tariffs and relations remained sour for around two months. During June, Powell cited uncertainty coming from commerce as one of the main drivers of opening the door to rate cuts. Trump met his Chinese counterpart Xi Jinping in late June and both leaders agreed on a trade truce. New negotiations held only until mid-August when talks broke down and Trump announced substantially higher levies from September – only to regret some of them and push them back to December. As autumn leaves were falling, the economic giants agreed to settle for an accord in two phases, with Phase One serving as a platform for reducing tensions.Despite upbeat comments, a deal was reached only at the last moment, and at the time of writing, its details are uncertain. Overall, it seems easier to agree on Chinese buying of US agrifoods and the removal of tariffs, but harder to come to terms with structural changes in China. Moreover, Beijing is angered by Washington’s criticism of its actions in Hong Kong and Xinjiang. And the most significant development is that both countries have begun to gradually move away from dependence on each other – the Great Decoupling – a topic that may rise to higher prominence in 2020. In the US political scene, the Democrat-led House of Representatives moved forward with impeaching Trump – yet not in relation to Russian connections in the 2016 elections. Robert Mueller, the former FBI Director who was appointed Special Counsel, filed his report in which he said there was no collusion between the Trump campaign and Russia. However, he stated that his findings do not exonerate the president. A redacted version was made public and for Nancy Pelosi, the House Speaker, it was insufficient to move forward with impeachment. Things changed in the summer when the Ukraine scandal broke out. Trump allegedly pressed the eastern European nation to dig up dirt on rival Joe Biden – even withholding vital military aid for this domestic political need. Pelosi pushed forward with an impeachment inquiry which convinced a small majority of Americans to support the investigation, but most Republicans remained loyal to their standard-bearer. The administration did not cooperate with the move that Trump labeled as a “witch hunt.” At the time of writing, the House is set to impeach the president but the Senate is highly unlikely to remove him from office. USD/JPY and broader markets, which prefer stability, mostly shrugged off the drama, but politics will likely have a more significant role in 2020.When reviewing dollar/yen in 2019, the focus is on the US. The Bank of Japan left its interest rate unchanged at -0.10% throughout the year and only made minor tweaks – pledging to hold borrowing costs at low levels for as much as needed. Haruhiko Kuroda, Governor of the BOJ, held the door open to doing more but seemed to have no new tools. The current negative rates already hurt banks’ profits and have done little to lift meager inflation. Close to year-end, the government laid down plans for fiscal stimulus, a move that may come to the forefront in 2020. The safe-haven yen did react – albeit only temporarily – to flareups in the Middle East. An attack, perhaps by Iran, on Saudi oil installations, sent investors to the Japanese currency as oil priced leaped.  Protests have rocked several countries in the oil-producing region but have failed to make their mark. More surprisingly, deteriorating relations between the US and North Korea have failed to move the yen in the past. Negotiations on denuclearization remained stuck and the Pyongyang has resumed its missile tests and upped its rhetoric. Kim Jong-un, North Korea’s dictator seems willing to confront America once again. This geopolitical issue may have a greater impact on markets in 2020.
 “Nothing happens on New Year’s Day” sang U2 and that may be relevant for the first months of 2020, but not the latter half. Sino-American relations will likely continue moving markets early in the year. Financial markets will likely seek assurances that the world’s largest economies are not on course to any deterioration. Back in 2018, Trump tweeted that he is “tariff man” and that continues echoing. Most Americans justify his efforts to confront China on forced transfer of technology, intellectual property rights and its significance as a rising power. The world’s second-largest economy has moved away from basic manufacturing and now rivals America also in advanced fields such as artificial intelligence. Moreover, the People’s Liberation Army has strengthened and its maneuvers in the South China Sea are worrying the surrounding nations and the US.And while many also support Trump’s means of dealing with China – tariffs on the flood of Chinese goods – markets find the erratic nature of these moves unnerving. USD/JPY may have room to rise if no new levies are imposed during the year, and could even rise further if previous ones are removed. Yet most importantly, having a dose of certainty would help businesses return to healthy investment, taking the burden of growth off consumers’ shoulders. Implementation of the Phase One accord is critical to stability early in the year. China has committed to buying American goods on a vast scale. The US has practically given up on trying to turn its rival into a market economy but only seems to seek Beijing to favor American goods. As long as the implementation is smooth and nothing moves on the tariffs’ front, markets have room to rise, carrying dollar/yen with them. As the elections draw near, Trump will likely refrain from rocking the boat. Investors are unlikely to expect a broader “Phase Two”  accord or any serious talks toward a wider deal before 2021. However, markets will watch the Great Decoupling with concern. Signs that the world’s largest economies are moving away from each other may come in various forms. Monthly trade balance figures that show reduced trade may move USD/JPY to the downside. Huawei – China’s controversial telecommunications giant – has already moved to free itself from its dependence on US providers following its stint in the spotlight and allegations of spying. US companies have looked to Vietnam for some supplies instead of China and may find other sources. If such interdependency is diminished, global growth could suffer in 2020. For the longer term, a lack of commercial dependency may push countries from a trade war to a real war – but that is improbable in 2020.The more likely scenario is that the US and China maintain the current truce but gradually move away from each other rather than advance to a broader trade deal.The Federal Reserve will likely stick to its neutral stance early in the year. The current rate is appropriate – as the Fed says – for Americans to continue shopping and for the housing market Student debt is growing and remains a worry for policymakers, but while the issue may arise in importance around the elections, its size is not a threat to the US economy. The same applies to car loans. Clunkers have become endangered species in America, and consumers have piled up debt. Nevertheless, the scale is far from worrying. Mortgages comprise the vast majority of consumer debt, and they are likely to remain in control beyond 2020. However, the Fed may find itself concerned about corporate debt. Long-term cheap lending rates have pushed companies to accumulate loans, with a significant chunk going to stock buyback – and not enough moving to investment. While data from late 2019 showed an increase in expenditure, companies’ activities could become a more substantial worry in 2020. Should the Fed lower interest rates to ease the debt burden on firms and encourage investment? Or should it acknowledge that companies are investing in pushing the share prices higher and refrain from cutting rates?Powell clarified that the bar for raising rates is higher than for lowering them, so firms with liabilities have little to worry about in 2020, but things may change later on.The central bank may sail through the beginning of the year easily, but in addition to worrying about corporate debt, it may come under political pressure. Should the economy slow down, President Donald Trump could elevate his criticism against the bank and demand rate cuts. That would help his reelection chances. While Powell will likely resist and keep rates unchanged, he may be ready to resume the Federal Reserve’s bond-buying scheme.The bank began squeezing its balance sheet in late 2017 in what Janet Yellen – then-Fed Chair – called “watching paint dry.” As part of the reversing course in 2019, Powell stopped this process of Quantitative Tightening and Fed now maintains its portfolio balanced. However, jitters in money markets have already pushed the central bank to intervene and supply liquidity. While that does not constitute QE, additional jumps of the repo rate may cause second thoughts. If the Washington-based institution kicks off “QE4”, the dollar may plunge across the board, but perhaps not against the safe-haven yen.Americans go to the polls only in November, but electioneering is already in full swing. Trump’s alleged attempt to obtain dirt on rival Joe Biden began well over a year before the elections – and the former VP’s chances of winning are far from certain.  The impeachment trial in the Senate will likely kick off the year, but Senate Republicans are set for a swift procedure, ending in an acquittal. The president is ousted only if two-thirds of upper house members vote to remove him. The opposition Democratic party has only 47 out of 100 seats, so no fewer than 20 senators from the president’s party are needed – and having even one dissenter, such as Mitt Romney, will be news. While traders will likely be fascinated by the political drama, markets will likely remain stable. The process will likely end in January or February, with the focus remaining on the Democratic primaries – learning who Trump’s challenger will be.The opposition party is divided between the centrist flank – which markets prefer – and the left-leaning one. USD/JPY would likely rise if one of the moderates advances in the long contest and would fall if one of the populists makes headways.Among the centrists, Biden is the top contender on the national level and would seem like a safe pair of hands. However, the aging politician is prone to gaffes and is lagging behind in funding. Pete Buttigieg, from Southbend, Indiana, is a rising star in the first state to hold a competition – Iowa. If he wins the caucuses in the Hawkeye State, he may enjoy momentum in polls – and in donations. Another centrist that has no funding issues is Michael Bloomberg, former mayor of New York. The billionaire businessman decided to skip the initial primaries and caucuses and go directly fro the big prize – “Super Tuesday” – a long list of contests held in early March. As an outsider and a late entrant, Bloomberg’s chances are considered slim.If any of these three take the lead, USD/JPY has room to rise.On the left-leaning wing, senators Elisabeth Warren and Bernie Sanders stand out. Warren topped some national polls and competes for head to head with Biden. As a champion of consumers’ financial rights and sometimes seen as a “warrior” against banks, investors fear her. She laid out detailed healthcare plans which were criticized for being expensive. If her lead in polls turns into one in delegates, USD/JPY has room to fall. Bernie Sanders is competing with her and is trailing behind. His run in 2016 pushed the party to the left and despite his age and health issues, he received an endorsement from Alexandra Ocasio Cortez (AOC), the young rising star at the party. While Sanders’ chances are slim, he may be pivotal to markets if he quits the race and throws his weight behind Warren.Initial indications to who will confront Trump are expected in February, with a clear picture in March. If the race remains wide open, every additional contest throughout April, May, and June will move markets. Each state elects delegates who are divided proportionally according to voting. That may lengthen the process. By June, a clear winner will emerge and the focus will shift to national polls. If Warren or Sanders are nominated, markets will likely favor Trump. Yet if Buttigieg or Biden win, investors would likely prefer the Democrats. A mostly market-friendly president with no plans for an erratic trade war is what markets could best hope for. The main parties hold their conferences during the summer, where they will share ideas about their policies. That could also sharpen investors’ minds. A Democrat moderate may move to the left to appease the losing side in the primaries and bring the party together. A left-leaning leader may water down some of the more radical ideas in order to appeal to the center. However, the winner may also opt to move to their direction rather than ease their stance. The Republican Party’s conference will likely be of less interest, as Trump’s record in power speaks for itself. That includes business-friendly tax cuts but unfriendly erratic trade wars.Most Americans tune into the elections after Labor Day in September, and that is when national and battleground state polls may rock markets. Closer to the finish line, Senate races may also be of high interest. If Warren is the Democratic nominee but Republicans are on course to win the Senate, any radical proposal may be blocked. A disunited government may, therefore, moderate market movements. The Bank of Japan is unlikely to move, but would probably like to keep on waving its stick and threaten more action. That may help in keeping the yen from revaluation – at least as long as markets believe it and do not see it as the boy who cried wolf.And while the BOJ is likely to stay on the sidelines, the actions of the government may move the currency. Prime Minister Shinzo Abe announced another stimulus package in late 2019 and its implementation may boost the economy – and perhaps even inflation. That may inadvertently strengthen the yen. And if economic growth remains tepid, Abe – who has significant power – may introduce another plan. Conversely, he may finally take more than baby steps with the “third arrow of Abenomics” – structural reforms. Monetary and fiscal stimuli have probably run their road. Japan has pioneered QE and may find itself once again at the forefront of economic innovation with new policies, perhaps already in 2020. Worsening relations between North Korea and the US have been ignored by markets, but if the rogue regime conducts new missile and nuclear tests, the world may listen. The safe-haven yen will likely jump if fears rise – even if Japan is in Pyongyang’s firing line. The next escalation may come early in the year. However, President Trump may try to avoid a full-blown crisis that will endanger his reelection chances. He sees the detente with North Korea as one of his achievements and is unlikely to let that fall apart. If Washington steers toward a quick resolution, the issue may only have a temporary impact. However, Kim Jong-un is aware of the political calendar and may press America harder. The Middle East’s issues are far from over. Iran has upped its military game and Saudi Arabia seems to have taken a step back. The Middle Eastern “cold war” may turn hot if simmering discontent threatens the regimes in both countries and their allies. Oil-producing Algeria is also experiencing discontent and Libya remains a defunct state. If oil supply is reduced from these countries, the yen has room to rise. Massive protests in Lebanon, Iraq, and Iran seem to be under control, but they may erupt again. If the Iranian regime or its allies in Iraq come under pressure, one way to divert attention from economic problems is to find an external enemy. If tensions result in the blockage of the Straits of Hormuz – where a substantial chunk of petrol flows to the world, safe-haven assets may leap. Iran and the US seem reluctant to strike any new deal after the US pulled out of the JCPOA – the Iran nuclear deal – in 2018. Any concession from Trump to the nation with which his predecessor Barrack Obama got close to is unlikely. While nobody wants a war, a chain of uncontrollable events that leads to one cannot be ruled out.Nobody has 20/20 vision for 2020, but assessing that US politics will grow in importance as the year progresses is a safe bet. Markets prefer a Democrats moderate or Trump over a left-leaning candidate. US-Sino relations will likely top the agenda early in the year with implementation and tariffs remaining the major market movers. The Federal Reserve will do its best not to change interest rates and if economic growth continues at its current slow pace, there will be no need to succumb to political pressures and do so. However, resuming QE cannot be ruled out and corporate debt may turn into a growing worry.The yen is set to remain the safe-haven of choice, with North Korea and a potential flare-up around Iran moving it in addition to global growth.In order to have a broad look at technical levels, the weekly chart comes in handy. Here are the levels to watch, from top to bottom:114.60 capped USD/JPY in October 2018, November 2017, and also in May 2017 – making it a critical level of resistance. It is followed by 113.15, a peak in July 2018, and by 112.50, the 2019 high recorded in April. 111.75 worked as resistance and as support in mid-2017 and is followed by 110.90, the gap line from May 2019. The next line is 109.70, which provided support in March 2019 and also held dollar/yen down toward the end of the year. Moreover, it converges with the 100 and 200-week Simple Moving Averages. 108.50 provided support in late 2019 and worked as resistance around September. Another line from that time is 107.80 and it also held USD/JPY up in January. 106.50 was a support line in October.105.75 is another support line dating back to September, and also in April. It is followed by 105, a psychologically significant level and also a support line from August, before the all-important 104.60 line. That final level worked as support in August 2019 and almost perfectly converges with the flash crash trough from January and a swing low from March 2018. Nenad Kerkez provides his Camarilla Pivot Point Forecast seeing some bullish continuation with only a potential mid-term change later on the year: by Nenad KerkezThe USD/JPY has formed a bullish SHS Pattern on the Daily TF. This is suggesting a further push up towards Q and M levels.""Q"" are Quarterly Camarilla Pivots and ""M"" are Monthly Camarilla Pivots. We need to use both if we apply the analysis on the Daily timeframe. Green highlight shows possible bounce spots and I expect bullish continuation from any of those zones. Targets are 110.74 and 111.23 followed by 113.10. Have in mind that the ATR(5) is app 32 pips per day so this accounts to a mid-term analysis. It might take some time for the price to get there, but the overall picture is bullish.Only below Q L4 105.38, we will see a mid-term trend change. Camarilla Quarterly pivots change once in 3 months while monthly pivots change once in a month. Gregor Horvat sees potential bullish waves on both of his Elliott Wave counts: by Gregor HorvatUSDJPY is trading sideways for 4 years which more and more looks like a triangle formation. Well, at this stage we are observing 2 counts; as a primary count we are tracking a bullish triangle in wave B that can still take some time, at least in the 1st quarter of 2020 to fully complete the final wave E) before a break out higher back to highs for wave C. But, in case of US Dollar and stock market sell-off, while bond market may rally in 2020, we also have to consider even a potential bearish triangle in wave B) of B that can push the price below 100 level to complete a corrective decline from the highs before the real bull run for wave C shows up. 
<!--td {border: 1px solid #ccc;}br {mso-data-placement:same-cell;}-->

Risk on in Trump's election year will see a run on stocks and depress JPY. Higher bond yields to support USD. by Andrew Lockwood
<!--td {border: 1px solid #ccc;}br {mso-data-placement:same-cell;}-->

US 10-year yields could fall to 1.25 % in 2020, so given the USD/JPY correlation to US yields, I expect USD/JPY to fall.by Stephen Innes EUR/USD: Lean times soon to turn into flush times for euro dollarGBP/USD: Pound may continue to fall on hard Brexit deadlineAUD/USD: May the aussie live in interesting timesUSD/CAD: Canada and loonie are well positioned but not in controlGold: XAU/USD bulls likely to remain in controlCrude Oil: WTI bulls to hold their horses despite tighter market, rosier economyUSD/INR: Domestic factors barely support a turnaround for Indian rupeeBitcoin: BTC, the ultimate store of valueEthereum: Calm on ETH/USD after the storm is overRipple's XRP: The glimpse of hope "
2,GBP/USD suffers worst weekly slide in years despite UK Parliament’s Brexit vote,"The GBP/USD lost more than 300 pips during the week, making a sharp reversal from 19-month highs it reached above 1.3500 a week ago following the general election. The decline found support near 1.3000 and then rebounded modestly, being unable to surpass 1.3050. Traders likely took profit after a significant advance in the pound before and immediately after the general election in the United Kingdom. The move lower was also aggravated amid concerns of a hard Brexit following Prime Minister Boris Johnson's decision to rule out the possibility of extending the transition period beyond December 2020.On Friday, the new Parliament voted to back Johnson’s Brexit deal. The bill goes for another vote in the House of Commons. It is expected to pass easily. The move was already priced in and markets ignored the vote. Also on Friday, it was announced that Andrew Bailey will replace Mark Carney in March as Bank of England’s governor. Trading volume is likely to be low next week amid holidays. The economic calendar shows a few releases. On Monday in the US, the Durable Goods Order report is due. Trump’s impeachment and the negotiations between the US and China could dominate headlines. “In the UK, focus is on the Brexit process but given PM Boris Johnson’s large majority, it seems that nothing can prevent the UK from leaving the EU by 31 January. Focus is set to turn to the upcoming negotiations on the future relationship. Investors, who initially rallied on Johnson’s big election victory, have become more concerned this week, as he intends to write into law that the transition period cannot be extended”, explained analysts at Danske Bank.   "
3,US: Annual core PCE Price Index ticks down to 1.6% in November as expected,"The core Personal Consumption Expenditures (PCE) Price Index, the Federal Reserve preferred gauge of inflation, ticked down to 1.6% on a yearly basis in November from 1.7% in October and came in line with the market expectation. On a monthly basis, the core PCE Price Index remained steady at 0.1%.Further details of the publication revealed that Personal Income in the same period increased by 0.5% to beat analysts' estimate for an increase of 0.3% while Personal Spending rose to 0.4% from 0.3%.The US Dollar Index edged higher on the back of the upbeat data and was last up 0.23% on the day at 97.63."
4,Palladium - Potential Head and Shoulder Pattern,"The Head and Shoulder pattern is possibly the most popular and common technical reversal formation. In this setup, we have identified the potential development of an H&S structure.Palladium, in its hourly chart, is forming a potential head and shoulders formation that could take this precious metal to the bearish side. Currently, the price is moving in what could be its second shoulder in progress.A short trade will trigger if the Palladium breaks and closes below $1,921.07 per ounce.Our conservative bearish target is located at $1,890.14 per ounce. An extension of the downward movement could drag  Palladium to touch the $1,861.46. The last bearish technical target of this Head and Shoulder setup is placed at the $1,837.26 level.A protective stop level should be placed at $1,957.82 per ounce. Entry Level: $1,921.07.Protective Stop: $1,957.82.1st Profit Target: $1,890.14.2nd Profit Target: $1,861.26.3rd Profit Target: $1,837.26.  Try Secure Leveraged Trading with EagleFX!"
5,USD/JPY: concerns for the rally on Dollar/Yen have been building in recent days [Video],"Our concerns for the rally on Dollar/Yen have been building in recent days. The resistance has been growing at 109.70 and the near term support at 109.40 has now been breached. A bearish outside day session with a decisive negative candle now open the likelihood of yet another retracement within the run higher. Momentum indicators have been struggling for traction in recent sessions and now following yesterday’s decline, the RSI is backing below 60, and Stochastics looking for a bear cross. There is a shallow uptrend since early September that comes in at 108.65 today and the rising 55 day moving average which is a basis of support on recent corrections at 108.75 today. Given the way that Dollar/Yen will tend to retrace breakouts in recent months, a retreat back towards the 109.00 breakout is now likely.  Risk Warning for Financial PromotionsHantec Markets' various market reports and commentary are issued by Hantec Markets Limited, who is authorised and regulated by the Financial Conduct Authority (FCA) in the UK, No. 502635. The reports are prepared and distributed for information purposes only.Trading in Foreign Exchange (FX), Bullion and Contracts for Differences (CFDs) is not be suitable for all investors due to the high risk nature of these products. Forex, Bullion and CFDs are leveraged products that can result in losses greater than your initial deposit. The value of an FX, Bullion or CFD position may be affected by a variety of factors, including but not limited to, price volatility, market volume, foreign exchange rates and liquidity. You may lose your entire initial stake and you may be required to make additional payments. Please ensure you fully understand the risks involved, seeking independent advice if necessary prior to entering into such transactions. Before deciding to enter into FX, Bullion and/or CFD trading, you should carefully consider your investment objectives, level of experience, and risk appetite. You should only invest in FX, Bullion and/or CFD trading with funds you are prepared to lose entirely. Therefore, only your excess funds should be placed at risk and anyone who does not have such excess funds should completely refrain from engaging in FX and/or CFD trading. Do not rely on past performance figures. If you are in any doubt, please seek further independent advice.The reports do not constitute personal investment advice, nor do they take into account the individual financial circumstances or objectives of the clients who receive it. All information and research produced by Hantec Markets is intended to be general in nature; it does not constitute a recommendation or offer for the purchase or sale of any financial instrument, nor should it be construed as such. All of the views or suggestions within the reports are those solely and exclusively of the authors, and accurately reflect their personal views about any and all of the subject instruments and are presented to the best of the authors' knowledge. Any person relying on these reports to undertake trading does so entirely at his/her own risk and Hantec Markets does not accept any liability.© 2014 Hantec Markets Limited"
6,GBP/USD Bullish Bounce at 1.30 Might Trigger Triangle Pattern,"The GBP/USD bearish decline has managed to reach the round psychological support level at 1.30, which has provided a bounce as expected. Will the Cable reverse?  4 hour The GBP/USD is likely to use the 1.30 support zone as a strong bouncing spot for more upside. The expected wave outlook is an ABCDE triangle (green) pattern, which means that price could move up al the way to the 61.8-78.6% Fib zone of wave B. A break below 1.30 and the 50% Fib makes the wave 4 (blue) less likely (red x) and a bearish reversal becomes the main scenario. 1 hourThe GBP/USD seems to have completed 5 bearish waves (dark red) within wave C (orange) of a wave A (green). A bullish breakout above the resistance (red) of the bearish channel could confirm (green check) the ABC (orange) within the wave B (green) whereas a bearish breakout (orange dotted arrow) would make a trend change (red x) more likely.  The analysis has been done with the CAMMACD.MTF template.For more daily technical and wave analysis and updates, sign-up up to our ecs.LIVE channel."
7,Gold Price Forecast 2020: XAU/USD bulls likely to remain in control,"Gold looks set to end the year with double-digit gains and is likely to maintain its upward trajectory in 2020.At press time, the yellow metal is trading at $1477 per Oz, representing 15.25% gains on a year-to-date basis. Anything above 13.2% would be the biggest yearly gain since 2010 when prices had rallied by 29.6%. The year gone by will be remembered for the US-China trade war escalation, persistent recession fears and more importantly, for the US Federal Reserve’s remarkable dovish U-turn. The Fed had raised rates by 25 basis points in December 2018 and penciled in two rate hikes for 2019. However, the central bank reversed course in the first quarter and officially confirmed rate hike pause. The metal gained just 0.76% in the first quarter, as the rate hike pause was already priced in the last quarter of 2018, but picked up a strong bid and rose 9 percent in the April to June period with markets increasingly betting on rate cuts. The Fed reduced borrowing costs by 25 basis points in July – the first rate cut since 2008 – and announced quarter-point reductions in September and October. As a result, gold eked out 4.48% gains in the third quarter. Apart from the Fed’s dovish turn, the metal also drew haven bids, courtesy of the US-China trade war and the resulting fears of recession in the world’s two biggest economies. Throughout the year, the pendulum of trade-related headlines kept swinging between extremes with both sides backtracking from positive comments several times. The resulting uncertainty and market volatility likely boded well for gold. Meanwhile, the treasury yield curve, which had inverted (10s2s) in December 2018, kept recession talk alive throughout the year. Occasionally, the German economic slowdown also garnered attention from gold traders. The US central bank signaled rate cut pause for 2020 earlier this month. As a result, some observers are worried that next year could prove to be a difficult one for gold prices. While the central bank has officially announced an end of the easing cycle, it is unlikely to start raising rates anytime soon. In fact, the Fed is willing to allow inflation to run hot and will consider raising rates only if inflation persistently remains above its target of 2%, Chairman Powell said on Dec. 11. Put simply, the Fed is still tilting slightly toward a dovish stance and that will likely bode well for the yellow metal. The metal’s drop from Septembre highs above $1550 to $1440 in November indicates the market has priced in Fed’s rate cut pause. On a quarter-to-date basis, gold is currently up just 0.34%. Federal Reserve's balance sheet may hit record highs above $4.516 trillion in May 2020 if the rapid pace of expansion witnessed over the last 3.5 months sustains, according to the popular investor and analyst Charlie Bilello. The central bank started buying treasuries in mid-September in order to calm money markets and has expanded its balance sheet by more than $330 billion since September. At press time, balance sheet is at $4.10 trillion. Historically, Fed’s balance sheet expansion programs (QE 1, QE 2 and QE 3) have put a strong bid under the yellow metal. For instance, the Fed began expanding its balance sheet in 2009, when the balance sheet was below $1 trillion. By 2014, it had increased to $4.5 trillion. During that time frame, gold rose from $800 to $1200, having peaked at a record high of $1921 in September 2011. The pullback from record highs to $1200 was mainly due to Fed taper tantrum. The likes of Bank of Japan (BOJ), European Central Bank (ECB) and Swiss National Bank (SNB) are running negative interest rate policy and seem to have run out of ammo. For example, the BOJ is running its QE program for the seventh straight years and now owns a major chunk of the ETF market. Even so, inflation remains miles away from the target of 2 percent. So, there is growing fear in the market that these central banks would be mere spectators during the next bout of recession. At the most, they can cut rates further into negative territory, making the zero-yielding yellow metal more attractive.There is already a large amount of negative-yielding debt around the world, which creates a favorable backdrop for gold. What’s more, rates are on a downward trajectory in Australia and New Zealand and also in south-east Asian countries. Further, the current bull market in US equities that started in March 2009 is the longest on record. The magnitude of the rally is looking increasingly unreal and could force investors to diversify into gold. The US and China recently agreed to phase one of the most difficult bilateral economic negotiations. Under the phase one deal, the US will halve the 15% penalty tariff on $300 billion of China imports imposed in September and has canceled bigger rounds of tariffs, which were set to take effect this month. Many believe the phase-one deal is heavy on the window dressing and does not address contentious issues such as intellectual property theft, state subsidies and support for industrial initiatives. That said, with the election due in November 2020, President Trump has a strong reason to strike a comprehensive deal, as said by Ethan Harris, head of global economics at BoAML. Even if there is no comprehensive deal, there will at least be a cease-fire ahead of the election. Put simply, the odds of risk assets putting on a good show and weakening demand for gold in 2020 are high. The IMF and other forecasters expect 2020 to be better than in 2019. Markets are also expecting growth to rebound in 2020. Copper, which is correlated to global growth prospects, has risen by 13 percent since bottoming out at $2.47 per pound in early September. Government bond yields, a good indicator of economic optimism, have also risen across the globe.The recently released macro data does indicate the slide in the global economy is coming to an end, but there are no signs of recovery gaining traction. Further, investor enthusiasm is often overblown and tends to run ahead of itself. Not to forget, hard Brexit is still on the table and could rock the equity markets, sending gold higher. All in all, the odds appear stacked in favor of gold bulls. Dips, if any, due to trade optimism will likely be short-lived. Gold jumped nearly 8 percent in June, confirming a bullish breakout from the three-year-long sideways channel. The 5- and 10-month averages are trending north, indicating strong upward momentum. The bullish case would be invalidated if and when prices find acceptance under the 10-month MA, currently at $1414. Gold has formed a classic bull flag pattern – a pause that usually refreshes the preceding bull move. A breakout looks likely and would imply a continuation of the rally from lows near $1265 in April and open the doors to $1,850 (target as per the measured move method). On the way higher, gold will likely encounter resistance at the September 2019 high of $1557 and $1600 (psychological resistance). If prices find acceptance under the November low of $1445, then a deeper pullback to $1400-$1300 could be seen.  Gregor Horvat sees potential bearish action when conducting his Elliott Wave counts: by Gregor HorvatGold made a sharp and impulsive move up in 2019, which was seen out of a wave B consolidation. The move was strong but it's probably part of a corrective recovery if we respect a five-wave sell-off from 2011 highs. However, current recovery extends a little bit higher, but then it may find resistance in the 1st quarter or half of 2020, ideally around 61,8% Fibonacci retracement level, near 1600 area. That being said, be careful with Gold, because the market may see a strong sell-off in the second half of 2020, based on our Elliott Wave look. 
<!--td {border: 1px solid #ccc;}br {mso-data-placement:same-cell;}-->

We still have to watch how real rates track as a core input for gold, but for much of 2019 gold tracked the global pool of negative yielding bond yields, where at one point more than 30% of all outstanding global govt. debt commanded a negative yield - that figure now sits closer to 20%. Gold has broken from that correlation and we look for the next clear reasoning as to why we should hold gold as a core portfolio hedge against the madness we see in the world. We know there will be new themes and higher vol periods in 2020 and gold, along with JPY and duration assets, will be there to offer variance in the portfolio to offset more risk-friendly assets by Chris Weston
<!--td {border: 1px solid #ccc;}br {mso-data-placement:same-cell;}-->

The XAU/USD pair has been on an upward trend since October 2015, where it had reached a low of 1046. The pair hit a high of 1556 in 2019. In 2020, the pair will be affected by several factors. First, the dovish Federal Reserve could lead to a weaker dollar and a higher gold price. Second, the uncertainties of the upcoming US election could see gold price move higher. Third, weak corporate earnings from the US could raise the likelihood of a corporate recession. This tends to be positive for gold price. On the other hand, a trade deal between the US and China would be negative for gold. The potential scenario is where the XAU/USD pair retests the 38.2% Fibonacci Retracement level of 1360 by June. It could then end the year at 1500.by OctaFx Analyst Team EUR/USD: Lean times soon to turn into flush times for euro dollarGBP/USD: Pound may continue to fall on hard Brexit deadlineUSD/JPY: A journey from trade fears to high-stakes electionsAUD/USD: May the aussie live in interesting timesUSD/CAD: Canada and loonie are well positioned but not in controlCrude Oil: WTI bulls to hold their horses despite tighter market, rosier economyUSD/INR: Domestic factors barely support a turnaround for Indian rupeeBitcoin: BTC, the ultimate store of valueEthereum: Calm on ETH/USD after the storm is overRipple's XRP: The glimpse of hope "
8,USD/CAD Price Forecast 2020: Canada and loonie are well positioned but not in control,"The Canadian Dollar’s fortunes in 2019 were dominated by the trans-Pacific trade war between the United States and China, a dispute in which Canada’s resource economy has a large interest but virtually no say.Presidents Trump and Xi have agreed on a phase-one trade deal that alters the discussion from antagonism to accommodation and aims to foster a relationship between the two economic titans that will lead to a more comprehensive arrangement in the future.China will increase purchases of US agricultural goods and make structural changes to intellectual property and technology issues and Washington will forgo a scheduled 15% tariff on $160 billion in Chinese consumer goods and reduce other duties in phases.  The agreement is expected to be signed by the two leaders in February.The US-China trade deal joins Brexit, secured by Boris Johnson’s victory in the general election, and the United States-Mexico-Canada Agreement (USMCA), which Congressional Democrats have agreed to pass after delaying for a year, as developments having the potential to free the US and Canadian economies from the concerns that have crimped growth for the past year.How the two economies respond to the political and trade improvements, particularly will the business sector resume investment, will go a long way to determining the economic outlook for the year. There should be sure indications by the end of the first quarter.The Federal Reserve and the Bank of Canada are awaiting the data promising to be patient and if necessary to act as warranted.Except for a decline in business optimism, the Canadian economy performed well in 2019.Annualized economic growth in the first three quarters averaged 1.77% a slight advance over the 1.65% pace in 2018. Retail Sales have averaged 0.267% monthly through September this year compared with 0.117% per month in 2018.  ReutersThe labor market improved. Job creation was more than one-third higher in 2019, averaging 25900 a month through November – and that includes a loss of 71,200 that month in the largest single-month drop since the financial crisis. In 2018, the Canadian economy created 16300 new positions each month. Unemployment reached its lowest point in 45 years in May of this year at 5.4%. The monthly average through November of 5.664% was slightly better than 2018’s average of 5.825%.ReutersBusiness sentiment was on a slide in throughout most of 2019. The Ivey Business conditions index averaged 60.375 for all of 2018. In November of 2019, the average for the year was 54.136 and that covers a jump to 60 in the final month.  The Markit Manufacturing PMI registered 55.575 for the year in December 2018. By April, it had dipped below 50 – into contraction at 49.7 – and for the year scored 50.636 in November. The prime drag on business outlook, as in the United States, was the trade war with China, which had seen increasing tariffs and fractured negotiations for much of the year.The Bank of Canada and Governor Stephen Poloz were secure enough about the strength of the economy to avoid the 75 basis points of rate cuts that came from the Reserve Bank of New Zealand, the Reserve Bank of Australia and the Federal Reserve from May to October.Bank of Canada Interest RatesFXStreetThese reductions left the BOC with the highest base rate in the developed world at 1.75%. The Fed’s official funds rate is actually a target range (1.5%-1.75%) and the effective rate is normally below the upper target.  The BOC’s last rate adjustment was a 0.25% increase in October 2018 to the current 1.75%.After the policy decision on December 4th, the bank statement said “there is nascent evidence that the global economy is stabilizing, with growth still expected to edge higher over the next couple of years. Financial markets have been supported by central bank actions and waning recession concerns, while being buffeted by news on the trade front. Indeed, ongoing trade conflicts and related uncertainty are still weighing on global economic activity and remain the biggest source of risk to the outlook.”With the Federal Reserve on hold and projecting no change through the end of 2020 and the Canadian economy performing well, the BOC governors would need an extraordinary economic reason to re-open the interest rate discussion.Prime Minister Justin Trudeau’s Liberals held on to power in the October Federal elections while losing the popular vote to the Conservatives. Finishing with 157 seats, 13 seats short of a majority but far ahead of the Conservatives at 121, Trudeau’s minority government will depend on votes from the New Democratic Party’s 24 members, or the Bloc Quebecois’ 32.Prime Minister Trudeau's priorities for his second term – climate change, expanding healthcare and gun control – do not have a specific economic focus though he also promised lower taxes and expanded trade.Liberal governance will fall only when major legislation, such as a budget fails to pass Parliament.   The Trudeau government’s first real test is likely to come in February or March when it presents its first minority budget.The United States-Mexico-Canada Agreement (USMCA) which replaces the 25-year old North American Free Trade Agreement (NAFTA) aims to modernize trading between the three countries. Mexico has already ratified the deal. The Democrats in the US Congress have ended their year-long objection and American approval could come soon. Canadian legislators, however, are not due back from their winter break until January 27th. The Trudeau government requires the support of the Conservative opposition, the minority New Democrats or Bloc Quebecois for passage. Prime Minister Trudeau has said he was reasonably confident that his government would find the votes needed to approve the treaty.  Crude oil had a volatile first half and a restrained second. West Texas Intermediate (WTI) opened on January 2nd at $45.94, the low for the year and then executed a four-month climb to the 12-month high at $66.17 on April 23rd.  By mid-June, WTI was back to $52.0 and until early October traded in a range up to $60.0 and back. The US-China phase one trade first announced on October 13th provided WTI with new impetus and crude rose steadily reaching $61.18 on the 18th of December. That was the highest for the commodity since late May, excepting the two-day surge and collapse in mid-September around the Iranian attack on a Saudi oil refinery.Easily the most volatile political and meaningful economic topic on the global stage, the alternating hot-and-cold relationship between the two economic superpowers has roiled markets for close to two years.Throughout that period, despite the imposition of tariffs and the occasional harsh rhetoric, the underlying market assumption has been that the two sides would eventually find an agreement.Equities have been the strongest believers in this scenario and the stock averages have climbed steadily higher this year. The US S&P 500, the broadest major average, has added 7.8% in the two months since the US and China announced their phase one deal on October 13th and is 27.3% higher on the year.  The Toronto Stock Exchange (S&P/TSX) is up 18.1% on the year.The trade war has had a damaging impact on manufacturing in Canada as in the United States. The factory sectors have been in or near recession in both countries for much of 2019. But the overall economies, driven by a vibrant consumption and a strong labor economy have maintained positive GDP rates. In one important measure, the threat of an all-out US-China trade has had more impact than the actual trade imposition. Businesses have largely stopped spending and investing, preferring to wait on the denouement of the trade conflict. Their logic is simple.  Whatever the delay, projects can always be completed in the future, but investment spending that has no market because the global economy has dropped into a trade war recession can never be recouped.  The fear of a global recession may be exaggerated but the rationality of the hesitation is accurate.And that brings us to the largest question for 2020, the Canadian economy and indeed global growth. Will the US-China trade accord, and to a lesser degree Brexit, unleash business spending and propel a new round of economic expansion?   The economic fundamentals in Canada as in the United States are healthy.  The consumer economy backed by a robust labor market has kept the economy growing. But an unremitted trade conflict between the US and China that had broken all lines of communication would inevitably damage consumer outlook and begin a downward spiral. That threat, however unlikely has kept business investment locked in bank accounts.Anticipation of the beneficial effects of the accord has pushed WTI to a six month high and that is a good sign for the resource-heavy Canadian economy.China is the world’s largest consumer of many raw materials. The mainland’s recessionary manufacturing sector and 6.2% official GDP in the first three quarters of 2019 have lowered global demand and prices.The Bloomberg Commodity Index ((BCOM:IND) has been declining for the better part of two years. This year’s high of 82.71 was in April and the low was 76.07 in late August. In the past three weeks, the index has gained 4% to 80.15 (12/18/19).The Canadian economy is well situated to profit from a surge of growth in China, the US and around the world.Whether that growth takes place is a function of the US-China trade agreement and the tenor of the continuing relationship. Even after this accord many of the tariffs imposed over the last two years will remain in place. The trade, ownership and technology practices of Chinese companies for the past two decades will not vanish overnight, nor will optimism of US and Canadian executives return with two signatures.   If China and the United States maintain a cordial relationship in the months after the agreement is signed and talks continue toward a second deal, the global economy may prosper. There should be definite indications by the end of the first quarter.Given that start, the trading level as of this writing at 1.3116 (12/19/19) represents a great deal of movement throughout the year with no discernible direction.  Neither the three Fed rate cuts from July to October, bringing the US base rate upper target from 2.5% to 1.75%, while the BOC stayed put nor the weakened government of Prime Minister Justin Trudeau after the federal election in October produced a standard currency reaction. After the Federal Reserve began cutting rates on July 31st, the Dollar Canada (USD/CAD) rose almost three figures in the following six weeks. Subsequent to the October 21st Canadian elections the Canadian dollar fell for five weeks from 1.3135 to 1.3307 and then rose for two, ending within 20 points of where it started art 1.3115 (12/19/19).The lack of trend over the year and the restricted ranges of the last six months can be laid at the feet of the US-China trade dispute. Like so much else in the global economy, a breakdown in the relationship between the two largest economies would drive markets and currencies in the direction of safety. USD/CAD would have soared as traders and investors looked for security in the assumed to be oncoming recession. The likelihood of such an outcome did not detract from its stultifying effect on trading.With the pending trade agreement, the USD/CAD direction will be again be determined by the relative strengths of the two economies and the impact on the interest rate policies of the respective central banks. In that, the US probably has a modest advantage as its economy has been more directly affected by the trade war and so has more to recover.  Slated against that support for the USD/CAD is the continuing withdrawal of the safety trade to the US dollar as the tensions between Washington and Beijing slowly ebb. That move is likely to have greater impact on the USD/CAD in the first quarter as the US economy will take several months to register the impact of the trade agreement.The restricted range over the past six months has left the support and resistance lines essentially unchanged through the latter part of the year.The 21, 100 and 200-day moving averages are all trending lower. The 21-day turned south in early December. The 100-day has been trending lower since the first week of September and the 200-day since late June. The relative strength index has moved to oversold in the second week of December.The 200-day moving average is of the most importance in positioning for a lower trend.The breakout from the upward channel initiated in late October and breached on December 4th is now conclusive, as the USD/CAD has moved further and lower from its initial break.The slight downward tilt of the pennant from early October is another indicator that the first attempt to move outside of the ranges of the last six months could be lower.Major support and resistance levels for the USD/CAD are where they have been for the past two months.The first support line is at 1.3050 with a band to 1.3018, the low in October 2018. There is another strip at 1.2900-1.2880 the reach of several lows late from August to mid-October 2018. Below that are the lows in October and May 2018, 1.2800-1.2760. Finally, there is a support line at 1.2550, the two-year low from April 2018.Above the current level of 1.3117 (12/19/19), there is mild resistance at 1.3200. Beyond that, there is the strip at 1.3330-1.3350 high in the second half.  Between 1.3475 and 1.3500 are a series of levels that marked the top from late April to early June. Though pierced numerous times the Dollar Canada only closed above the upper limit at the very beginning and the very end of the period.  The next resistance is minor at 1.3525 just above the May high close. The December 2018 high at 1.3685 is not a resistance level as it was a product of the limited year-end liquidity that occurs each December as the major currency market players close their books.Technical support and resistance lines are indicators of historical price action. They provide signs of trading interest at their designated levels but offer little impediment to any fundamentally based move.   Gregor Horvat sees potential gains for the USD/CAD pair on his Elliott Wave counts: by Gregor HorvatUSDCAD was trading mostly sideways in 2019, mainly because of a correction on Crude oil. But, this may change soon, ideally in 2020 where we can finally see some gains after that corrective sideways price action, especially if we are right about a potential decline on Crude oil. So, on Loonie we are still observing a bullish scenario that can send the price higher, which is also anticipated from an H&S perspective once the neckline around 1.37/1.38 is taken out. 
<!--td {border: 1px solid #ccc;}br {mso-data-placement:same-cell;}-->

The USD/CAD reached a low of 1.3015 in July 2017. This was the lowest level since October 2018. The highest level for the pair in 2019 was 1.3570. There will be several catalysts for the pair in 2020. First, the USMCA, which was negotiated between the United States, Canada, and Mexico. The US side has already reached a deal in support of the deal. This means that the USMCA could be ratified in the coming year. Another catalyst could be central banks. The Fed has pointed that it won’t hike rates in 2020. The BoC, which was relatively passive in 2019, could also hike at least once in 2020. The pair may drop to 1.3015, which is an important support level by June. The pair may also move upwards to the 50% Fibonacci Retracement level of 1.3340 by year end. by OctaFx Analyst Team
<!--td {border: 1px solid #ccc;}br {mso-data-placement:same-cell;}-->

We see improved economic signs into 2020 with the USMCA and stable WTI prices but a rate cut in early 2020 may oppose this. We see a stable US economy into 2020 and no interest rate cuts until 2021 and a resolution to the pointless US/China trade war. Assuming a Biden or Bloomberg win in the November elections, we see USD strength into 2021.by Brad Alexander EUR/USD: Lean times soon to turn into flush times for euro dollarGBP/USD: Pound may continue to fall on hard Brexit deadlineUSD/JPY: A journey from trade fears to high-stakes electionsAUD/USD: May the aussie live in interesting timesGold: XAU/USD bulls likely to remain in controlCrude Oil: WTI bulls to hold their horses despite tighter market, rosier economyUSD/INR: Domestic factors barely support a turnaround for Indian rupeeBitcoin: BTC, the ultimate store of valueEthereum: Calm on ETH/USD after the storm is overRipple's XRP: The glimpse of hope "
9,,
10,,
