,title,text
0,"Forex technical analysis and forecast:  EUR/USD, GBP/USD, USD/RUB, USD/JPY, USD/CHF, AUD/USD, Brent, Gold, BTC/USD, SP500","After finishing the correction at 1.0844 and then rebounding from this level, EURUSD continues forming the fifth descending wave with the target at 1.0747; it has already completed the descending impulse at 1.0775. Possibly, the pair may form a new consolidation range around this level, which may be considered as a downside continuation pattern. Later, the market may break 1.0760 downwards and continue falling to reach the above-mentioned target or even extend this wave down to 1.0700. After completing the correction at 1.2420, GBPUSD is falling towards 1.2300. Possibly, today the pair may reach it and then start a new correction towards 1.2355. After that, the instrument may start another decline to break the short-term target at 1.2255 and then continue moving downwards to reach 1.2190. USD/RUB is forming a new descending impulse towards 73.50 and may later grow to reach 75.50, thus forming a new consolidation range. If later the price breaks this range to the downside, the market may resume trading inside the downtrend to break 71.55 and then continue falling with the target at 69.55. After finishing the ascending structure towards 107.97 along with the descending impulse at 107.50, USDJPY is consolidating around 107.60. Possibly, the pair may break the range to the downside to reach 107.17. After that, the instrument may resume growing with the target at 108.55. After rebounding from 0.9710, USDCHF continues growing with the target at 0.9785. Later, the market may correct towards 0.9750 and then form one more ascending structure to reach 0.9800. After finishing the correction at 0.6400, AUDUSD is falling towards 0.6288. After that, the instrument may correct to reach 0.6340 and then resume trading inside the downtrend with the short-term target at 0.6233. Brent is consolidating around 25.00. Today, the pair may form one more ascending impulse towards 27.05 and then fall to return to 25.00 or even start a new correction with the target at 21.00. However, if the price grows and breaks 27.05, the market may resume trading upwards with the first target at 34.34. Gold is still consolidating around 1729.50. Today, the pair may break the range to the downside and fall with the first target at 1702.70. After that, the instrument may start another growth to reach 1720.40. After reaching the target at 7550.00, BTC/USD is consolidating at this level. According to the main scenario, the price may start a new correction to reach 6700.00 and then form one more ascending structure towards 8500.00. After finishing the ascending impulse at 2845.0, S&P 500 has completed the correction towards 2772.3. Possibly, today the price may resume growing towards 2927.5 and then start another correction with the target at 2660.5."
1,EUR/USD recovery hits resistance at 1.0820,"The euro has staged a solid rebound on Friday, buoyed by a mild recovery of risk appetite. The EUR/USD has bounced up from 1.0727 lows to regain almost 100 pips on the day, reaching 1.0820 area before pulling back to levels right below 1.0800.The euro is trimming losses today, after a four-day losing streak that pulled the pair to one-month lows. The market sentiment, somewhat brighter today, has undermined the dollar supporting the euro in spite of the downbeat German IFO Business Climate Index data.The enthusiasm with the common currency, however, is limited. Investors are focusing on the EU meeting to specify the details of the COVID-19 rescue package, due next Thursday. Yesterday's agreement has failed to calm markets as the differences on the details of the package are threatening with delaying the approval of the recovery fund.From a longer-term perspective, the currency analysts at Credit Suisse remain bearish on the euro, pointing out to the 1.0745 level as an important support level, “We continue to look for a sustained break to see the long-term uptrend break as well as confirm the completion of a bearish ‘triangle’ continuation pattern, to suggest a more sustained down move is underway. Below the 78.6% retracement of the late March rally at 1.0745 should further reinforce the rally to expose the year-to-date low at 1.0635.”   "
2,EUR/USD bounces of weekly lows near 1.0730,"The single currency remains on the defensive for yet another session at the end of the week, forcing EUR/USD to recede further and clinch weekly lows in the vicinity of 1.0720.EUR/USD has been posting losses since Monday without being interrupted, coming under extra selling pressure amidst increased dollar buying, safe haven demand and disappointing figures in the domestic calendar.In fact, another drop of suffering fell on the euro on Friday after the German IFO survey came in short of expectations in all of its components for the month of April, adding to Thursday’s negative surprise from PMIs in core Euroland.Data wise across the pond, Durable Goods Orders for the month of March is coming up next seconded by the final gauge of the Consumer Sentiment for the current month tracked by the U-Mich index.Adding to the sour atmosphere surrounding the single currency, another fiasco at the Eurogroup meeting showed consensus among EU leaders that further action is much needed to counter the devastating (albeit asymmetrical) impact of the coronavirus in the region, although, once again, no decision has been made on the subject. The leaders will meet again on May 6th.The euro remains on a bearish note so far this week, always looking to developments from the coronavirus and its impact on the economy and dollar dynamics as the main drivers of both sentiment and price action. On the more macro view, the single currency is expected to remain under scrutiny in the next periods in light of the forecasted contraction in the economy of the region in the first half of the year, relegating hopes of a strong recovery to Q3 and/or Q4.At the moment, the pair is losing 0.12% at 1.0763 and faces immediate contention at 1.0727 (weekly low Apr.24) followed by 1.0635 (2020 low Mar.23) and finally 1.0569 (monthly low Apr.10 2017). On the upside, a breakout of 1.0814 (78.6% Fibo of the 2017-2018 rally) would target 1.0990 (weekly/monthly high Apr.15) en route to 1.1041 (200-day SMA)."
3,EUR/USD Forecast: Dollar firmer ahead of critical GDP reports,"The EUR/USD pair is down for a second consecutive week, having bottomed at 1.0726, this Friday. The coronavirus pandemic remains as the main market motor, keeping the mood depressed, as there’s no light at the end of the tunnel just yet.The focus was on oil prices at the beginning of the week, as the commodity collapsed. The WTI´s May contract traded as low as $-37.60 a barrel, amid absent demand for the black gold in a paralyzed world. On a positive note, several countries have reported they flattened the coronavirus curves, but they are nowhere close to reopening economies that they were a couple of weeks ago.Indeed, some countries have announced a gradual easing of the lockdown, mainly those that took aggressive measures early March, including social distancing and extensive testing. Nevertheless, there’s no clear picture of whether this could result in a second wave on contagions and therefore, a return to restrictions, which, in turn, will mean a longer-lasting economic recession.The UK and Germany have start vaccine trials, rushing the development process, although the most optimistic perspective points to have an answer for September. A US pharmaceutical company, Gilead,  however, said that clinical trials of remdesivir, a drug expected to be good to treat COVID-19 had flopped, fueling risk-aversion by the end of the week.Data released this week reflect the dismal situation the world is living. The April Markit preliminary estimates of economic activity plunged to record lows, both in the EU and the US.  The German ZEW survey showed that sentiment improved this month, although the assessment of the current situation collapsed. The IFO survey, on the other hand, showed that the Business Climate continued to fall in April.  In the US, March Durable Goods Orders collapsed by 14.4%, much worse than anticipated.The upcoming week will be quite a busy one, as it will include central banks’ meetings and the first estimates of Q1 GDP in the US and the EU. The Federal Reserve is expected to refrain from making new announcements on easing programs, although it could unveil details on what ts has been doing and what’s next in their docket. There are some market talks that suggest that the central bank will disclose the names of the companies that are borrowing money under the emergency leading program. As for the ECB, the market does not expect a change in the current QE programs, with the focus on relief packages.More relevant, growth figures will be out. The US economy is expected to have contracted by 4.1% in the three months to March. The Union’s GDP is seen at -2.0%. Finally, on Friday, the US will release the official ISM Manufacturing PMI for April, foreseen at  42 from 49.1 previously.Overall, numbers are expected to reflect just partially the negative effects of the current crisis. Worse than expected outcomes should not be a big surprise.The EUR/USD pair is trading at around 1.0800, and the weekly chart shows that the risk remains skewed to the downside, with the pair extending its slide below all of its moving averages. Technical indicators have extended their slides within negative levels, although they stand above previous yearly lows and with a limited strength downwards.Readings in the daily chart favour additional slides, as the 20 DMA has accelerated south, now some 100 pips above the current level, while the 100 and 200 DMA maintain their bearish slopes above the shorter one. Technical indicators have recovered some ground, but remain within negative levels, rather reflecting Friday’s bounce than suggesting further recoveries ahead.The pair has also broken below the 61.8% retracement of its latest daily advance at 1.0830, now the immediate resistance. Beyond it, the recovery could extend towards the 1.0900 price zone, with sellers probably surging on approaches to this last. Supports, on the other hand, come at 1.0725, the low for this week, followed by the year bottom at 1.0635.The FXStreet Forecast Poll is showing that the dollar is still the preferred currency. The EUR/USD pair is seen falling in the weekly and monthly perspectives, with 79% of the polled experts expecting a decline in the next few days. The number of bears, however, contracts in the 1-month view to 35%, with bulls then at 31%. In the 3-month view, bulls re-take the lead, accounting 41% of the total polled experts. On average, the pair is seen well below the 1.1000 figure in the next quarter.Regardless of the average targets, the Overview chart indicates an increasing bearish momentum. The three moving averages head firmly lower with the shorter one well below the current level. The longer-term recovery sees some investors betting for a recovery beyond 1.10, although not enough to change the tide at the time being.Gold Price Forecast: More easing in the docket to keep boosting the metalGBP/USD Forecast: How long can it hold on? UK lockdowns and gloomy US data may bring it downAUD/USD Forecast: Ready to go down under? Global gloom likely to overcome Australia's achievements"
4,CBR's Nabiullina: Sold $5.5 billion worth of FX since March 10,"Central Bank of Russia (CBR) chief Elvira Nabiullina announced on Friday that the bank has sold $5.5 billion worth of foreign currency since March 10. Nabiullina further noted that they don't currently see the need to start selling gold from its reserves. Regarding the policy outlook, Nabiullina said a rate cut by another 100 basis points in the near-term was possible and added that the GDP contraction in the second quarter could reach 8%.The USD/RUB largely ignored these remarks and was last seen down 0.5% on the day at 74.3920."
5,HFT algorithms reverse direction on EUR/USD!,"High-frequency trading algorithms are showing today that a reversal may be in the making on the EURUSD pair with potential bullish opportunities ahead.The price reached the light HFT buying pressure zone, noted at 1.0739 and below, where the bearish attempt was soon rejected, and EURUSD has reversed.Moreover, this bounce happens while the advanced FxTR overbought/oversold indicator is inside the oversold area. This usually means a higher probability for a bullish turnaround to be valid.To the upside, traders will have their eyes on the 1.08 round number level and on the light HFT selling pressure zone that is today noted at 1.0829 and above.   FX Trading Revolution - Your Revolutionary Forex SourceHigh Risk Warning: Please note that foreign exchange and other leveraged trading involves significant risk of loss. It is not suitable for all investors and you should make sure you understand the risks involved, seeking independent advice if necessary.ADVISORY WARNING: Any news, opinions, research, data, or other information is provided as general market commentary and does not constitute investment or trading advice. FXTradingRevolution.com expressly disclaims any liability for any lost principal or profits without limitation which may arise directly or indirectly from the use of or reliance on such information."
6,"Murrey math lines: EUR/USD, GBP/USD","In the H4 chart, EURUSD is moving not far from the “oversold area”. In this case, the pair may test 0/8, rebound from it, and then resume growling towards the resistance at 1/8. However, this scenario may no longer be valid if the price breaks 0/8 to the downside. After that, the instrument may continue falling to reach the support at -1/8.As we can see in the M15 chart, the pair is moving quite far away from the upside line of the VoltyChannel indicator, that’s why only a rebound from 0/8 from the H4 chart may confirm further growth. As we can see in the H4 chart, GBPUSD is trading not far from the downside border of the range at 3/8. The main scenario implies that the pair may test this level, rebound from it, and then resume falling towards the support at 2/8. However, this scenario may no longer be valid if the price breaks the resistance at 3/8 to the upside. After that, the instrument may continue growing to reach 4/8.In the M15 chart, the pair may break the downside line of the VoltyChannel indicator and, as a result, continue trading downwards."
7,When are the US durable goods orders and how could they affect EUR/USD?,"Friday's US economic docket highlights the release of durable goods orders data for March. The US Census Bureau is scheduled to release the monthly report at 12:30 GMT. Economists expect that durable goods orders plunged 11.9% during the reported month, the biggest drop since August 2014. Core durable goods orders, which exclude transportation items and tend to have a broader impact than the volatile headline figures, are seen dropping 5.8% for the month. Non-defence capital goods orders (excluding aircraft and parts) - seen as a proxy for business investment - are forecasted to fall by 6%, which will mark the biggest decline since the financial crisis.As Joseph Trevisani, Senior Analyst at FXStreet explains: Even though the vast majority of the unemployed receive benefits, the loss of upwards of half their buying power combined with the social restrictions and store closures in much of the country have crippled an economy that just six weeks ago had near record employment and the longest expansion since the Second World War.The recent price action in the markets has been exclusively driven by developments surrounding the coronavirus saga. Hence, the data – though might influence the USD price dynamics – seems unlikely to be a major gamechanger.Ahead of the release, the EUR/USD pair staged a solid intraday recovery from one-month lows and was last seen trading around the 1.0800 round-figure mark. Meanwhile, Yohay Elam, FXStreet's own analyst provided some important technical levels to trade the major and writes: ""Next up, 1.0850 was a swing high earlier in the week, and 1.0885 was a stubborn cap. Further up, 1.0930 and 1.0995 come into play.""""Support awaits at 1.0720, which was a stepping stone on the way up in mid-March, and the 2020 trough of 1.0640 is already in sight. Further down, 1.0580 and 1.05 are eyed,"" Yohay added further.   •  US Durable Goods Orders March Preview: Ominous portents for consumption   •  EUR/USD Forecast: Tumbling to 1.0640? Failed EU Summit, downbeat data, bearish technicals point down   •  EUR/USD Price Analysis: Still scope for a drop to 1.0635The Durable Goods Orders, released by the US Census Bureau, measures the cost of orders received by manufacturers for durable goods, which means goods planned to last for three years or more, such as motor vehicles and appliances. As those durable products often involve large investments they are sensitive to the US economic situation. The final figure shows the state of US production activity. Generally speaking, a high reading is bullish for the USD."
8,EUR/USD: Break below 1.0770 is proved,"The EUR/USD pair dropped below 1.0770, the precious April low, and this break is now confirmed as Friday's technical picture is showing bears are in the lead, FXStreet’s analyst Yohay Elam briefs.“Momentum on the four-hour chart is pointing to the downside and EUR/USD trades below the 50, 100, and 200 Simple Moving Averages.” “Support awaits at 1.0720, which was a stepping stone on the way up in mid-March, and the 2020 trough of 1.0640 is already in sight.”. “Initial resistance is at 1.0770, and it is followed by last week's trough of 1.0810.” "
9,EUR/USD:  Europe disappoints and flows to remain EUR negative for now – MUFG,"Analysts at MUFG Bank, point out that many factors in place point to continued downside risks for the EUR/USD pair and for a test of the pair to the March low of 1.0636.“The only agreement reached was to carry on the discussions with leaders passing the focus of creating the plan to the European Commission. So taking a positive angle on this we could conclude that a ‘Recovery Fund’ is on its way, and we do believe something will get done (...) But this process is going to take time and what is clear to us at this point is that the ECB is going to have to do more to support the markets in the meantime. Is EUR 750bn under PEPP large enough? More QE by the ECB will be required. That might not happen at next week’s meeting given the forecast update will be in June and by then more will be known about government policy support and the extent lockdowns have reversed.”“Outside of the extreme volatility in March, EUR/USD is now trading at levels last seen in April 2017 and we see this downward pressure persisting for now. Part of the downward pressure may still be emanating from central bank selling. The SNB looks to be actively rebalancing its intervention to support EUR/CHF. Data released by the SNB for Q1 showed USD holdings in reserves increase marginally from 35% to 36%. EUR holdings also increased from 39% to 40%. The limited changes suggest the large scale intervention in Q1 (mainly March) of around CHF 35bn was rebalanced. That would imply the SNB were sellers of EUR/USD. That flow alone wouldn’t necessarily influence EUR/USD but other central banks are likely selling also. Fed holdings of USTs for foreign CBs fell by USD 150bn in March through to 8th April, a sign of CB USD selling intervention. If these central banks want to maintain EUR compositions relative to USD, then this would involve EUR/USD selling.”“It is also notable this week to see the continued rise in EURIBOR. The 3mth rate has jumped from -0.49% in March to -0.19% yesterday, but retraced 3bps today, but credit risks are escalating. The EURIBOR/EOINA spread is at the highest since the debt crisis in 2012.”
 "
10,ECB Preview: EUR/USD to remain weak – Danske Bank,"The ECB meeting next week is not expected to bring new policy measures after the host of measures taken by the ECB over the past six weeks, according to analysts at Danske Bank. “We expect the ECB to reiterate its commitment to stand ready to increase and extend the purchase programme and stand ready to act should more be needed.” “The ECB has made attempts to remedy the market volatility of which European institutions have otherwise proved a source. The upcoming ECB meeting is unlikely to address such issues further and EUR is set to be haunted by this for some time.”“If the ECB sticks to a wait-and-see policy with respect to the effects of what they have done as well as keeping soft guidance, this is unlikely to change much in the FX space. In turn, we look to the US and China to gauge the timing of a cyclical uptick which should instill some EUR confidence at a later point this year.” "
11,EUR/USD outlook: Euro dips through key supports as German business climate hit the record low,"The Euro holds in red for the fifth straight day and extends weakness on Friday after German data showed that business morale in EU's largest economy crashed in April and hit its lowest in history. Rising US dollar on strong safe-haven demand, caused by poor global economic data, contributes to Euro's weakness. Fresh bears broke through key supports at 1.0768/56 (6 Apr low / Fibo 76.4% of 1.0635/1.1147) with close below the latter to generate bearish signal for final push towards key support at 1.0635 (2020 low / the lowest since Apr 2017). Falling daily MA's formed a number of bear-crosses and maintain pressure, however, bears may show hesitation to resume on flat momentum and oversold stochastic.Res: 1.0768; 1.0783; 1.0811; 1.0831
Sup: 1.0727; 1.0700; 1.0635; 1.0600"
12,EUR/USD: The pressure is mounting on the euro [Video],"The pressure is mounting on the euro. Recent support at $1.0810 has been decisively breached and despite not managing to sustain a breach of the support at $1.0770 in yesterday’s session, the market is moving lower once more today. A closing break of $1.0770 leaves the euro with very little real support until $1.0635, the key March low. Yesterday’s low of $1.0755 has now been breached this morning and given the run of negative candles, which are accelerating in magnitude, intraday rallies are a chance to sell. This is reflected in the negative bias now developing on momentum indicators. Stochastics and MACD lines are beginning to pull decisively lower, whilst if the RSI breaks under 40 it would add conviction to the increasingly bearish momentum. The hourly chart shows intraday rallies failing with the hourly RSI around 50/60 now, whilst there is overhead supply between $1.0790/$1.0840. Risk Warning for Financial PromotionsHantec Markets' various market reports and commentary are issued by Hantec Markets Limited, who is authorised and regulated by the Financial Conduct Authority (FCA) in the UK, No. 502635. The reports are prepared and distributed for information purposes only.Trading in Foreign Exchange (FX), Bullion and Contracts for Differences (CFDs) is not be suitable for all investors due to the high risk nature of these products. Forex, Bullion and CFDs are leveraged products that can result in losses greater than your initial deposit. The value of an FX, Bullion or CFD position may be affected by a variety of factors, including but not limited to, price volatility, market volume, foreign exchange rates and liquidity. You may lose your entire initial stake and you may be required to make additional payments. Please ensure you fully understand the risks involved, seeking independent advice if necessary prior to entering into such transactions. Before deciding to enter into FX, Bullion and/or CFD trading, you should carefully consider your investment objectives, level of experience, and risk appetite. You should only invest in FX, Bullion and/or CFD trading with funds you are prepared to lose entirely. Therefore, only your excess funds should be placed at risk and anyone who does not have such excess funds should completely refrain from engaging in FX and/or CFD trading. Do not rely on past performance figures. If you are in any doubt, please seek further independent advice.The reports do not constitute personal investment advice, nor do they take into account the individual financial circumstances or objectives of the clients who receive it. All information and research produced by Hantec Markets is intended to be general in nature; it does not constitute a recommendation or offer for the purchase or sale of any financial instrument, nor should it be construed as such. All of the views or suggestions within the reports are those solely and exclusively of the authors, and accurately reflect their personal views about any and all of the subject instruments and are presented to the best of the authors' knowledge. Any person relying on these reports to undertake trading does so entirely at his/her own risk and Hantec Markets does not accept any liability.© 2014 Hantec Markets Limited"
13,Gold Price Analysis: Gold struggles to break the highs at the end of the week,"It has been an eventful week in the macro markets as risk sentiment flip-flopping from day to day. Having said that the Dow looks set to close lower this week down around 3% or so at the moment leading into the close. The oil sell-off dominated earlier in the week and then there were many other issues including the Eurogroup not being able to come to an agreement, Gilead's drug reportedly not performing well in China and the BoJ stimulus bonanza. COVID-19 issues still persist but it seems that death rates and hospitalizations are slowing down. This is obviously due to the lockdown procedures being put in place. Once the restrictions are lifted medical experts are expecting a second wave of cases and hospitalizations and deaths could increase once again. There are many issues associated with the lockdown that are coming to the forefront. Transport companies have really struggled during this time with some in the UK talking to the government about bailouts. The retail sector has also been damaged along with restaurant business. It will take a long time to count the full cost of the coronavirus pandemic and some analysts fear the current forecasts do not paint the full picture of the damage it has caused to the economy. If that is the case then the gold rally could extend to level never seen before.Italy COVID-19 cases increase +1.6% at 192,994 (prev. +1.4% at 189,973) and the death toll rises by +420 (+1.6%) to 25,969 (Prev. +1.6% at 25,549).The New York COVID-19 death toll rises 1.2% to 15,941 (prev. +2.9% at 15,740).UK COVID-19 cases rise to 143,464 (prev. 138,078) and the death toll rises to 19,506 (prev. 18,738); deaths rise by 684 (+4.10%) vs. yesterday's increase of 616 (+3.52%).The gold bugs were unable to push the yellow metal past the previous wave high of USD 1747.82 and now the price has come off somewhat on Friday. The price is still comfortably above the USD 1700 psychological level. The chart below is the daily, but on the 4-hour chart the price stopped at the 76.4% retracement level which could indicate the start of a new wave 1-2 to the downside but more confirmation is needed to confirm this and that would be a break of the previous wave low at USD 1661.18. Moving back to the daily chart, the relative strength index indicator is showing a massive divergence over the last 3 price waves higher. This is also a negative sign and can indicate upside momentum might be slowing down. If the red trendline on the indicator breaks to the upside there would be a good chance the uptrend could resume and USD 1800 could be tested. All of the support and resistance levels are from the time that gold made a run up to nearly USD 2000 and these levels are still clearly useful today. All in all, the price is still in an uptrend and until the previous wave low has been broken the bulls are still in control.  "
14,"EUR/USD Forecast: Tumbling to 1.0640? Failed EU Summit, downbeat data, bearish technicals point down","Kicking the can down the road – and kicking the euro down. Leaders of the European Union have failed to agree on an ambitious recovery package and this is weighing on EUR/USD. The video summit only resulted in an agreement to study the idea of a €1.5 to €2 trillion packages with a potentially significant portion of grants rather than loans. Spain, Italy, and France – the countries suffering the highest death tolls from COVID-19 – led the camp demanding a significant package. German Chancellor Angela Merkel also spoke of the need for a ""huge"" package, but she remained in her refusal to coronabonds. The Netherlands and Austria insisted on loans rather than outright payments. Christine Lagarde, President of the European Central Bank, told heads of state that the economic downfall could reach 15% of Gross Domestic Product, and recent economic figures are gloomy.Markit's preliminary Purchasing Managers' Indexes collapsed with Services PMIs dropping below 20, hitting record lows. The German IFO Business Climate for April is set to extend its fall even though the parallel ZEW Economic Sentiment beat expectations. In the US, Markit's PMI also plummeted, with the preliminary Services PMI slipping below 30. Any score below 50 represents contraction. More importantly, weekly jobless claims rose by over four million, in the week when the Non-Farm Payrolls surveys are taken. While that was the third consecutive drop, it provides no solace to some 26 million Americans who lost their jobs. See Jobless Claims drop for the third week: What defines progress?Durable Goods Orders figures for March due out on Friday will probably show substantial falls. The data feeds into first-quarter GDP figures which will be published next week. Final Consumer Sentiment figures from the University of Michigan will likely be downgraded from the initial read of 71 points. See Durable Goods Orders Preview: Ominous portents for consumptionThe safe-haven US dollar has been gaining ground amid the scary statistics – even if the dismal data comes from the US. Another development that is souring the mood is the report that a potential cure to coronavirus proved inconclusive.Gilead's Remdesivir – one of the most-watched medications – seemed inefficient in treating COVID-19 patients in China. The California-based firm said that that the study results were not complete and that the initial data was published by mistake, but markets ignored these comments and dropped. The respiratory disease has already taken the lives of over 190,000 people, with nearly 50,000 in the US. President Donald Trump suggested that social distancing guidelines may run through the summer, when better weather may help deal with the illness. He changed his tone after encouraging anti-lockdown protests earlier.The mixed messages from the White House are causing confusion, yet governors have reported progress on curbing the spread, especially in New York, the epicenter of US coronavirus.Updates on the spread of disease, plans to extend or ease lockdowns, and the economic releases mentioned above are all set to move euro/dollar. More: Reopening: Timing is tough and two assets have more room to rise regardlessThe world's most popular currency pair dropped below 1.0770, the previous April low, and this break is now confirmed. Momentum on the four-hour chart is pointing to the downside and EUR/USD trades below the 50, 100, and 200 Simple Moving Averages. Support awaits at 1.0720, which was a stepping stone on the way up in mid-March, and the 2020 trough of 1.0640 is already in sight. Further down, 1.0580 and 1.05 are eyed. Initial resistance is at 1.0770 mentioned earlier, and it is followed by last week's trough of 1.0810. Next up, 1.0850 was a swing high earlier in the week, and 1.0885 was a stubborn cap. Further up, 1.0930 and 1.0995 come into play.Coronavirus: Lack of leadership may lead to L-shaped economy, markets may suffer badly"
15,Gold Futures: Room for extra gains,"Traders increased their open interest positions for the second straight session on Thursday, this time by around 1.8K contracts in light of advanced data from CME Group. Volume, in the same line, extended the erratic performance and rose by nearly 7K contracts.Gold prices surpassed (and closed above) the $1,700 mark per ounce once again on Thursday amidst rising open interest and the continuation of the erratic activity in volume. Against that, a re-visit to the YTD highs near $1,750/oz should not be ruled out in the short-term horizon."
16,Gold Price Forecast: More easing in the docket to keep boosting the metal,"Gold prices recovered their shine this past week, with spot gold soaring to $1,740.00 a troy ounce, not far from the multi-year high reached in the previous week at $1,747.45. The bright metal advanced on to main factors. One is that the coronavirus crisis continues to hit economies, with no clear end at sight. The second is that several policymakers and lawmakers are announcing stimulus packages to boost economies. Easy money rushed into safety.The US Congress has passed another relief package this week, totalling $484B, the fourth aid bill meant to alleviate the effects of the coronavirus pandemic.European leaders, on the other hand, have been discussing a “recovery fund,” although they did not come to an agreement just yet. The main issue is how they would finance such a package and how it would later distribute it. German’s Chancellor, Angela Merkel, said that it needs to be “huge,” but the lack of agreement only highlighted the lack of union within the Union.The commodity ignores the seesawing market’s mood, and is quite logical, as optimism is nowhere to be found. The coronavirus crisis is here to stay, with slow and painful improvements in the related curve numbers granted extended lockdowns. For sure, several counties have reported re-opening strategies, which are meant to be a prolonged return of economic activity.Dismal US data has only fueled demand for the metal, whatever it’s the effect on equities, as the market seems to be pricing in more easing coming ahead. These next days, the US Federal Reserve and the ECB, both will have monetary policy meetings. None is expected to touch rates, but all policymakers are expected to reaffirm their commitment on doing whatever it takes to keep economies are afloat.The US will include in its macroeconomic calendar next week the first estimate of Q1 GDP. The report itself tends to have a significant impact in the financial world, and this time will be exacerbated by the ongoing crisis. The US economy is expected to have shrunk by 4.1% in the three months to March, partially reflecting the effects of the pandemic. The number seems a bit too optimistic and could be even worse.Spot gold eased from its weekly high amid some profit-taking ahead of the weekend, anyway retaining its bullish stance. The weekly chart shows that it has extended further above a firmly bullish 20 SMA, while technical indicators have accelerated their advances, now nearing overbought readings.In the daily chart, technical indicators have lost their bullish momentum, but remain within positive levels, rather reflecting Friday’s slide than suggesting further declines ahead. The metal flirted with a bullish 20 DMA at the beginning of the week, meeting buyers around it. The indicator now stands at around 1,670.Resistance for the upcoming days come at 1,747, the multi-year high, en route to 1,795.80, the high from October 2012. A break through the 1,800 figure will only exacerbate the bullish momentum of gold. Supports, on the other hand, come at 1,700 and the mentioned 1,670 price zone.The FXStreet Forecast Poll offers a neutral sentiment when it comes to gold, as the commodity is seen stable above 1,700 in the three time-frame under study. The number of bulls and bears is equal in the weekly and quarterly perspective, with those unable to make up their minds representing 50% in the 1-month view.Nevertheless, the Overview chart paints a different picture. Moving averages continue to head firmly higher, with targets up to 1,900 in the upcoming weeks. The positive momentum is stronger in the monthly view and eases in the longer-term. Anyway, higher gold prices are still at sight, with a bottom perspective of 1,600.AUD/USD Forecast: Ready to go down under? Global gloom likely to overcome Australia's achievementsGBP/USD Forecast: How long can it hold on? UK lockdowns and gloomy US data may bring it down"
17,Zero lower bound no longer applies to crude oil prices – Rabobank,"""On Monday, the spot May-20 Nymex WTI contract, collapsed on the penultimate trading day prior to its expiration and settled at an unbelievable -$37.63/bbl,"" noted Rabobank Commodity Strategist Ryan Fitzmaurice.""In our view, this historic move was largely the result of a technical squeeze related to contract expiration and the nuances of exchange contract specifications. The May-20 WTI contract had 108mb of open interest outstanding coming into Monday, the day before expiry, or more than three times the available capacity at the delivery point.""""Conventional wisdom assumed a zero lower bound for oil prices, an important condition which no longer applies after this week.""""Looking forward, while it is theoretically possible that we find ourselves in this same position again, it’s worth remembering that this move into negative territory was as much about forced liquidations as it was about storage capacity, at least to our minds."" "
18,Global economy to see a U-shaped recovery – JP Morgan,The JP Morgan analysts believe that the global economy is likely to see a U-shaped recovery amid the coronavirus outbreak led deep contraction expected this year.“The global economy is collapsing at a pace not seen since World War Two.Staggered re-openings of economies until a vaccine is widely available imply more of a U- rather than a V-shaped recovery for the global economy.”
19,ECB Preview: Operating in the twilight zone – Rabobank,"Economists at Rabobank do not expect the ECB to follow up with new stimulus at Thursday’s meeting but the ECB probably cannot escape more action later in the year.“We identify two key risks that could force the ECB to undertake more monetary stimulus. Firstly, a further worsening of the Eurozone economy could require a stronger policy response. Secondly, the previously announced measures have not fully alleviated market stress.” “The ECB’s recent decision to implement asset purchases and discounted (T)LTROs over a rate cut has lowered our conviction of further deposit rate cuts.” “With the heightened threshold for new rate cuts, we expect two more deposit rate cuts, bringing it to -0.70%. This is one cut less than we previously expected as the ECB’s concerns about side-effects appear bigger than we thought.” "
