,title,text
0,"EUR/USD Price Analysis: Consumer Confidence Index misses with 125.9 points, euro positive","The Conference Board's Consumer Confidence measure has dropped from an upward-revised score of 126.3 in September to 125.9 in October but fell short of expectations for rising to 128 points. EUR/USD is up a few points as the US Dollar is on the back foot.- CB Consumer Confidence was expected to rise in October but disappointed with a drop.- EUR/USD was on the back foot ahead of the publication amid concerns about trade and is now rising. - The Fed is closely watching the figure ahead of its critical decision on Wednesday.Consumer sentiment and the Federal ReserveThe US central bank is expected to reduce its base rate by 25 basis points for the third time this year at Wednesday’s meeting. The futures markets rate the odds of a cut at 93.0%.Consumer attitudes are in the center of the Fed’s concerns about the US economy. If they drop below 120, the odds of further rate cuts this year and next will rise.EUR/USD traders have been watching the double-bottom 1.1070 level which has been tested earlier in the day. Further down, 1.10 is a psychologically significant level and also worked as a quadruple resistance line in October. 1.0940, and 1.0905 await below.Looking up, the currency pair is capped by a daily high of 1.1105. Next, we find 1.1140, which was a peak earlier in the month. It is followed by an October high of 1.1180.GBP/USD has been on the rise following news that the opposition Labour Party will back elections in December. Cable has been advancing toward 1.29 after nearing 1.28 earlier in the day.US: CB Consumer Confidence Index dropped to 125.1 in September vs. 133.5 expected. The American shopper has been driving the economy forward, and any sign of weakness is of concern. According to the monthly report published by the Conference Board, consumer confidence in the US deteriorated in September with the Consumer Confidence Index slumping to 125.1 in September and missing the market expectation of 133.5.The Consumer Confidex Index is an economic indicator published by The Conference Board led by Steve Odland as President and Chief Executive Officer. The main aim of this economic indicator is to measure consumer confidence. Each month The Conference Board conducts 5.000 surveys asking for aspects like business conditions, employment conditions, and family incomes. This consumer sentiment survey allows the analyst to understand the expectations of consumers based on their economic circumstances. This indicator not only impacts directly on currencies and stock prices but also could affect some decisions taken by The Federal Reserve of the United States. Decreasing consumer confidence is a sign of slowing economic growth. As mentioned before the previous September report dropped to 125.1 missing the market expectations of 133.5 causing an initial market reaction on the Greenback and some other major currencies.Further Confidence based Indicators will come this week. It is important to pay special attention to economic indicators such as the Consumer Price Index - Core (YoY) (Oct) PREL released by Eurostat and the Harmonized Index of Consumer Prices (YoY) (Oct) PREL calculated and published by Destatis.  Related Links:The Conference Board websiteConference Board Consumer Confidence Index pageThe Federal Reserve SystemRecommended content about CCI and EURUSD:Consumer Confidence DashboardUS: CB Consumer Confidence Index (CCI) dropped to 125.1 in September vs. 133.5 expectedUS Conference Board Consumer Confidence Preview: The FOMC is watching the consumer"
1,EM Currencies: Window of opportunity – Rabobank,"According to Rabobank analysts, with only few days left it is safe to say that October proved to be a very good month for emerging markets.“Excluding the Argentine peso and the Turkish lira, virtually all EM currencies appreciated versus the broadly weaker dollar.”“In the CEEMEA space, gains were led by the Polish zloty (+4%) and the Hungarian forint (+3.7%), which benefited from growing market optimism that a hard Brexit could be avoided, although enthusiasm faded towards the end of the month when political uncertainty increased as a result of PM Johnson pushing hard for an early general election.”“Progress to avert the UK crashing out of the EU without a deal was not the only source of an improved sentiment towards risky assets as the prospect of an interim trade agreement between the US and China also boosted risk appetite.”“While we retain our bearish long-term view on the CEEMEA currencies, we have to acknowledge that in the coming weeks or perhaps even months the global environment may remain conducive for the EM assets. A fresh wave of capital inflows would lead to further currency gains.”"
2,Breaking: UK election will be 12 Dec (GBP positive),"Following another day of voting in UK Parliament, the 3rd bill on an early election has come through, massively in favour of a 12.Dec UK General election. Following Corbyn's defeated amendment to try and make the election on the 9th, instead, Commons has voted for the 12th Dec. Lawmakers have approved 12.Dec (GBP pops to 1.2864).438-20 in favourBill will now go to the House of Lords tomorrow.Amendment 2, was set to be put to a vote was a Jeremy Corbyn amendment that would change the date of the election to Monday 9 December, from Thursday 12 December. However, ""the government was opposed to this, because it would mean parliament proroguing on Thursday, making it hard for the government to pass legislation needed to approve a budget for Northern Ireland, but it has not said that the passing of this amendment would lead to the bill having to be shelved,""  - The Guardian.The final reading was approved and now that an election date has been confirmed,  an election is somewhat GBP bullish. ""UK's deliberation over holding a General Election may allow for a short EUR/GBP position to be entered on the basis that the election could break the Brexit impasse whilst data is likely to affirm the weakness of the Eurozone economy,"" analysts at Westpac argued."
3,USD/INR: Indian Rupee weakness to be contained in recent range – CIBC,"analysts at CIBC, point out the stability in the Indian Ruppe is driven by unwavering investor interest. They see the USD/INR at 72.0 during the fourth quarter and at 71.3 in Q2 2020. “Despite softer growth, higher inflation and lower domestic rates, USD/INR has been locked into a relatively tight and stable range of 70.35-71.90 over the last month.”“We expect some modest weakness in the INR, but to be contained within recent boundaries.”“Like many economies in the region, India’s exposure to trade, and global activity more generally, has seen the economy slow from its previous pace. GDP growth in Q2 was the softest (+5.0% y/y) since early 2013, with headlines heralding India as overtaking China as the fastest growing economy, but not lasting for long. Softer growth prompted the RBI to ease, cutting rates early this month by lowering the repo rate to 5.15% from 6.50%. The bank’s commitment to maintain an accommodative stance ‘as long as it is necessary’ provides encouragement that the economy can receive required support if necessary.”“The global economy will likely be more influential in lending to a recovery. Portfolio flows into equities of $7.4bln and of $4bln into bonds year-to-date are favorable in comparison to recent years, suggesting that investor interest remains robust.”
 "
4,When is the Aussie CPI data and how could it affect AUD/USD?,"Early Wednesday in Asia, the Australian Bureau of Statistics (ABS) will roll out third quarter (Q3) inflation numbers for Australia at 00:30 GMT. The release will include the headline Consumer Price Index (CPI) the Reserve Bank of Australia’s (RBA) Trimmed Mean CPI.Market consensus favor sustained downbeat price pressure in the Australia economy raising support for the RBA’s easy money policy. That said, the CPI is likely being soft around 0.5% from 0.6% prior to the Quarter-on-Quarter (QoQ) basis while expectedly rising to 1.7% from 1.6% earlier on the Year-on-Year (YoY) format. Further, RBA Trimmed Mean CPI could remain static at 0.4% on QoQ and 1.6% on YoY, as per the forecasts.TD Securities seems to have a bit upbeat expectations from the data as it says:We forecast Q3 headline inflation to edge up 0.6%/q (prior 0.4%) on alcohol, food & tobacco, with fuel providing some offset. This takes annual headline CPI to 1.8% from 1.6%. Underlying inflation is expected to remain a touch below 0.4%/q, keeping core inflation ~1.5%/y. However this outcome is unlikely to trigger the RBA to cut next month.Westpac follows the suit but gives details of reaction while saying:Australia’s Q3 CPI data is due at 11:30am Syd/8:30am Sing/HK. The median forecast is 0.5%qtr, 1.7%yr overall (from 1.6% in Q2) and 0.4%qtr, 1.6%yr on the trimmed mean CPI, the RBA’s preferred core measure. Westpac looks for a slightly higher headline reading of 0.6%qtr, 1.8%yr, led by food (drought playing a role), alcohol & tobacco and holiday travel & accommodation. But importantly, we look for a sub-consensus 0.3%qtr, 1.5%yr on the trimmed mean CPI and 0.3%qtr, 1.2%yr on the other RBA core measure, weighted median. While the RBA has been talking mostly about the unemployment rate in recent months, every CPI report is important for its forecasts which are updated just after the release. A core CPI reading in line with our expectations should keep markets pricing in a reasonable risk of another rate cut before year-end.In his recent public appearance, the RBA Governor turned down odds of any negative rates from the Aussie central bank as he said, “it is extraordinarily unlikely that we will see negative interest rates in Australia.” Even if the upbeat tone helped the AUD/USD pair, for the time being, a weak reading will challenge the central banker’s optimism.Considering the recent shift in market’s risk sentiment, mainly due to the political plays surrounding the United States (US), Syria, China and the United Kingdom (UK), any upbeat reading will have to be strong enough to entertain buyers ahead of the key Federal Reserve meeting and the US GDP data. If the price pressure keeps being soft, odds concerning the RBA moving closer to negative rates increase, which in turn will drag AUD/USD down from its multi-day high.Technically, 0.6884/95 area including September/October month high acts as the key upside barrier for the pair that holds the gate for its further run-up to July 10 low of 0.6910 and 0.955 resistance. Meanwhile, the 50-day Exponential Moving Average (EMA) level of 0.6812 can lure sellers during the pullback.AUD/USD stays on the front-foot ahead of Aussie CPI, Fed rate decisionAUD/USD Analysis: Bullish potential, sellers around 0.6900The Consumer Price Index released by the RBA and republished by the Australian Bureau of Statistics is a measure of price movements by the comparison between the retail prices of a representative shopping basket of goods and services . The purchase power of AUD is dragged down by inflation. The CPI is a key indicator to measure inflation and changes in purchasing trends. A high reading is seen as positive (or bullish) for the AUD, while a low reading is seen as negative (or Bearish).The Consumer Price Index released by the RBA and republished by the Australian Bureau of Statistics is a measure of price movements by the comparison between the retail prices of a representative shopping basket of goods and services. The trimmed mean is calculated as the weighted mean of the central 70% of the quarterly price change distribution of all CPI components, with the annual rates based on compounded quarterly calculations."
5,"Patterns: GBP/CAD, GBP/AUD, HKD/JPY, ZAR/JPY","The British Pound has appreciated by about 4.72% in value against the Canadian Dollar since October 10. The currency pair breached May 31 high level at 1.7093 during last week's trading sessions.From a technical point of view, a slight downside potential will likely dominate the exchange rate in the shorter term. The GBP/CAD pair might aim at the 1.6500 area.Though, it is important to note that the currency exchange rate would have to surpass a support cluster, formed by the combination of the weekly S1 and the monthly R1 near the 1.6667 area.Thus, an expected advance might not be immediate. If the given level holds, a reversal north could likely occur.  The Pound Sterling has been appreciating in an ascending channel pattern against the Australian Dollar. The surge began after the currency pair reversed from its lower boundary at 1.8100 on October 10. The GBP/AUD pair has risen by about 5.20% in value during the last two weeks.As for the near future, the exchange rate could aim for the 200– period simple moving average at the 1.8446 area.However, the currency exchange rate will have to surpass a support cluster formed by the weekly S2 and the 100– period SMA at 1.8636 before reaching the given target. The Hong Kong Dollar has been appreciating against the Japanese Yen since the beginning of September. This movement has been bounded in the rising wedge pattern.  As apparent on the chart, the HKD/JPY exchange rate has been trying to breach the given pattern north since the middle of October. Given that the rate is supported by the 55-, 100– and 200-hour SMAs, it is likely that a breakout north could occur in the nearest future. However, note that the rate has to surpass the resistance level—the Fibonacci 50.00% retracement at 13.97. If the given resistance level holds, it is likely that a reversal south could occur, and the currency pair could trade downwards in the short term/ In this case, the pair could gain support of the monthly S1 at the 13.56 mark.    The South African Rand has been appreciating against the Japanese Yen since the beginning of August when the ZAR/JPY currency pair reversed north from the lower boundary of the long-term descending channel at 6.80 (1D time-frame chart).  From a theoretical point of view, it is likely that the exchange rate could reach the upper channel line located circa 7.60 within the following trading sessions.  If the given channel holds, it is likely that a reversal south could occur, and the general direction is expected to remain south for the medium term.  However, note that the exchange rate is supported by the 55-, 100– and 200-hour moving averages. Therefore, it is likely that a breakout north could occur in the nearest future. Important level to look out for is the Fibonacci 39.30% retracement at 7.79."
6,USD/MXN Hoping for Trade Deal to Go Through,"As the pending impeachment of President Trump in the House of Representatives appears to be coming sooner than later,  many are left wondering if the United States-Mexico-Canada Agreement (USMCA) will be ratified.  House Democrats have not yet brought it to the floor for a vote, though Mexico and Canada have both already agreed to it.  There are concerns about enforcement of the agreement.  However, with the strength of the Mexican Peso vs the US Dollar over the last few weeks, it appears the market believes it will be approved.USD/MXN has been trading in a symmetrical triangle since April of 2018.  On Friday the pair closed below the rising tending for the first time and yesterday bounced to retest it.  Today the pair is consolidating just below the trendline.  The trendline and current price (19.1240) are just below the 127.2% Fibonacci extension from the low on September 18th to the high on October 2nd .  First resistance comes in between 19.14 and 19.18. On a 240-minute chart, one can see that horizontal resistance comes across at the September 2nd lows and the 50% Fibonacci retracement level of the move from the high on October 10th to yesterday’s lows at 19.3200/19.3300.  First support comes in at yesterday’s lows just above 19.000 at 19.0222.  Below there is a band of support from a series of prior lows back in June and July down to 18.8500.The question now becomes one of “buy the rumor, sell the fact?” if the USMCA does get ratified.  Bears need to ask themselves how much of this has already been priced into the market.  If USD/MXN breaks below 18.8500, the pair can move quickly to the downside. Watch for headlines over the next few days regarding USMCA, as Brexit and the US-China trade war continue to dominate the focus of the market. (Oh…. and there is also BOC, FOMC, BOJ, and NFP headlines to pay attention to as well!!)"
7,US Pres. Trump and Xi to sign interim trade deal on Nov. 17 - SCMP,"According to the Chinese news outlet South China Morning Post, Chinese President Xi Jinping and US President Donald Trump are set to meet on the sidelines of the APEC summit in Chile on November 17th and are expected to sign an interim trade deal.""The two leaders are expected to come face-to-face immediately after the Asia-Pacific Economic Cooperation (APEC) summit in Santiago, Chile, with a trade truce signed “if everything goes smoothly”, said the person, who declined to be identified,"" wrote SCMP's Zhou Xin.The 10-year US Treasury bond yield pulled away from daily lows on the SCMP's report and was last down 0.5% on the day at 1.837%."
8,GBP/USD Analysis: UK elections saving the Pound,"The GBP/USD pair is seeing some interesting intraday action, following Brexit-related headlines. The pair, however, held within familiar levels, as it traded so far between 1.2806 and 1.2873, now heading into the US opening at the upper end of the range. It recovered from the mentioned daily low after Jeremy Corbyn, opposition Labour´s leader, stated that his party would be supporting a snap election in December. UK PM Johnson’s spokesman later said that the PM will move the second reading of the early election bill to end the paralysis in Parliament and get Brexit done.UK data released earlier today passed unnoticed, with Mortgage Approvals up to 65.919K in September, and monthly M4 Money Supply up by 0.7%, both beating the market’s expectations. Consumer Credit in the same month, however, missed the market’s forecast. The US session will bring September Pending Home Sales, foreseen up by 1.4%, and the CB Consumer Confidence Index, expected to have bounced to 128.2 from the previous 125.1. Still, the US will release the preliminary estimate of its Q3 Gross Domestic Product early Wednesday, while later in the day, the US Federal Reserve will announce its latest monetary policy decision, which means that there are little chances that the dollar has a life of its own ahead of such first-tier events.The GBP/USD pair is trading mute a few pips above the 23.6% retracement of its latest bullish run, underpinned by hopes the UK will avoid a hard-landing. The short-term picture is neutral, as the pair has spent the last three days lifeless. In the 4-hour chart, the pair is battling with a mild-bearish 20 SMA, while technical indicators rest directionless just above their midlines, reflecting the wait-and-see stance ahead of Brexit clarity. The pair bottomed at 1.2788 last week, with the bearish case then being stronger below it. The upside seems limited by selling interest aligned around 1.2880.Support levels: 1.2810 1.2785 1.2750Resistance levels: 1.2880 1.2920 1.2965View Live Chart for the GBP/USD"
9,The BOC and The Canadian Dollar,"The Bank of Canada meets tomorrow and must decide whether they need to cut rates or leave them unchanged at 1.75%. The market is expecting the BOC to leave rates unchanged, as inflation is hovering near 2.0% and GDP has been strong. The more important issue the Committee will have to address is how they will revise (if at all) their growth and inflation outlook.  With much in the world in a manufacturing slowdown and in rate cutting mode, the Members must determine if they feel the need to follow suit and revise their forecasts lower.  It is also possible the United State-Mexico-Canada Agreement (USMCA) may be ratified, as early as this week.  Members will need to determine if this should be factored into the BOC forecasts.Last week we discussed how USD/CAD is breaking, and now consolidating, below a long-term trendline. This breakdown makes sense from a simple fundamental standpoint as the US is in rate cutting mode while Canada is in a holding pattern.  The Canadian Dollar should be stronger than the US Dollar, as the market prices in interest rates differentials.However, as USD/CAD now appears to be breaking out of a descending wedge pattern, we need to see if bears can hold the market below 1.3100, which is the upward sloping long term trendline.  1.3183 remain strong horizontal resistance as well.  If the pair holds below those levels, the price could be down to 1.3000 in a hurry.But USD/CAD isn’t the only CAD pair where the Canadian Dollar is strong.  CAD/JPY has been on a tear since holding support in early October.  The pair then went on to break above the downward sloping trendline from October of last year.   CAD/JPY is currently trading near 83.40, which is the 50% retracement from the October 2018 highs to the January 3rd lows. EUR/CAD has been moving lower as well, as the ECB has been in easing mode.  The pair is currently in a descending triangle and looks like it could break to the downside.  The target for a descending triangle is the height of the triangle added to the breakdown point, which in this case would be below 1.4000!NZD/CAD has retraced the entire move from the lows of August 2015 to the highs of November 2016.  That move was from .9932 down to .8234, almost 1700 pips!!  AUD/CAD looks similar.If the BOC is hawkish or even remains neutral in their forecast or in the press conference to follow, the Canadian Dollar may continue to strengthen vs countries that have an easing monetary policy.  If they turn dovish, watch for a possible reversal."
10,US Third Quarter GDP Preview: How slow is slow?,"The Bureau of Economic Analysis, a part of the Commerce Department will release its preliminary estimate for annualized gross domestic product  (GDP) in the third quarter on Wednesday October 30th at 12:30 GMT, 8:30 EDT.Annualized GDP is predicted to slow to 1.7% in the third quarter from 2.0% in the second quarter and 3.1% in the first.  The range of estimates in the Reuters Survey is 1.0% to 2.2%.Consumer spending in the third quarter declined from the prior three months but remained positive. The control group category of retail sales which is the BEA’s consumption component averaged a 0.57% gain in April, May and June. This dropped to 0.4% monthly in the third quarter. All the increase was in July (0.9%) and August (0.3%) with September flat. October’s sales figures will be released on November 15th.Consumer confidence also ebbed in the third quarter. The Michigan Consumer Sentiment index averaged 98.46 in the second quarter and 93.8 as the second half began.  ReutersJob creation improved slightly in the third quarter rising to 157,000 in July, August and September from 152,000 in the previous three months.  October’s figures will be released on Friday November 1st, 90,000 is forecast for non-farm payrolls.Despite the stability in the middle half of the year, payrolls have declined from 245,000 in the three month moving average in January to 157,000 in September with the 12-month average falling from 235,000 to 179,000.ReutersThe US trade war with China and the pending but not consummated departure of Britain from the European Union and their potential impact on the global economy have been the overriding factors taking businesses sentiment from last year's most optimistic view in a decade to September’s near recessionary outlook.The purchasing manager’s index for manufacturing from the Institute for Supply Management has plunged from 60.8 in August 2018 and 56.6 in January of this year to 49.1 in August and 47.8 in September.ReutersThese are the lowest scores in three years and the first months below the 50 demarcation between expansion and contraction since the run of October 2015 to February 2016.Confidence in the much larger service sector which comprises about  85% of US economic activity, has not fallen into contraction but the decline has been as steep, if not as far.This purchasing managers’ index has dropped from 60.8 in August 2018 to 59.7 in February and 52.6 in September. That is the lowest reading since August 2016 just before the two year surge that began with the November Presidential election.Business capital investment has reflected the precipitous decline in confidence.  The durable goods category of non-defense capital goods ex-aircraft, an oft cited proxy for business spending, has fallen from an average 0.27% gain in the second quarter to a 0.37 decline in the third. Business investment was negative in August and September following a flat July.Of the three spending categories that support GDP, consumption, business investment and government procurement only two, government and the consumer contributed to economic growth in the third quarter.The strong pace of consumer spending (retail sales control group) in April, May and June of 0.57% per month combined with moderately rising government expenditures and the weak but positive 0.27% a month growth in business investment was sufficient to propel GDP to 2.0% in the second quarterBut the drop in consumption to 0.4% a month in Q3 and the direction from 0.9% in July to 0.3% in August to flat in September coupled to the 0.37% monthly decline in business investment in July, August and September means that even the modest pace of second quarter GDP is out of reach.  Considering the movement of consumer and business spending within the quarter, even the 1.7% median forecast may be too optimistic.         "
11,"""Bitcoin"" Google searches hit a 3 month high as volatility returns","The rise and fall with Bitcoin has often been correlated between the amount of Google searches have been made. The chart below clearly shows that the search amount and volatility are related and of course note that this chart is not the BTC/USD vs Google search chart.There is also a case that the price and search amount was correlated in the early days but not anymore that Bitcoin derivatives have entered the market.(Source Reddit)According to Google trends, the current interest is at the highest level since early August,  BTC/USD price was around $11,700. Interestingly, Africa seems to have the most interest as the top five regions are Nigeria, South Africa, Austria, Ghana and Brazil.I was surprised that Honk Kong and Venezuala were not on the list. As civil unrest in the nations has let to increased buying activity.South Africa seems to be going from strength to strength as cryptocurrency trading platform Paxful said its volumes grew 2,800% over the past year in the region.The price of BTC/USD is now pulling back after testing 10K on Saturday but we are firmly in a consolidation mode. The bulls will need to come back with some force if they are to take another run at the big figure but let's hope the volatility continues. It certainly keeps us on our toes!.  "
12,US: How likely is a recession in H1-2020? – Standard Chartered,"Sonia Meskin, US economist at Standard Chartered, suggests that they have recently downgraded their GDP growth forecast on a weaker global growth outlook and the resultant risk to US corporate earnings (FOMC to cut policy rate in October; outlook dims).“We fear that the H2-2019 slowdown in domestic business investment may worsen instead of stabilising. Based on historical correlations, deterioration in these indicators may presage slower hiring and weaker consumer spending. Weaker demand is spilling over into the US services sector and we worry about a broader slowdown in employment.”“For now, we expect slower growth, rather than recession, as Fed policy support may prove sufficient, absent a global growth shock. Stock valuations, corporate profits and the housing sector all benefit from lower domestic rates. Nonetheless, lacklustre global growth implies sluggish domestic investment, in our view. Large US corporates carry much more significant exposures to global dynamics than the US economy overall.”“We think that key prerequisites for a pessimistic US outlook would be persistently sluggish global growth and ongoing trade tensions. Key upside risks would be significant fiscal stimulus from major partners (e.g., the EU and/or China) or solid progress in ending US-China trade tensions.”"
13,"Top 3 price prediction BTC, ETH, XRP: China asks for rationality that Ethereum 2.0 promises","China remains in the spotlight among participants in the cryptocurrencies market. After a day in which everything that smelled of Blockchain became overbought in Chinese bags, authorities have made attempts to curb the euphoria of the state media.In an early morning publication, the People's Daily has launched a warning asking the population to learn to differentiate between cryptocurrencies and companies with some link to blockchain technology.Many Chinese technology companies reached the upper limit of allowed fluctuation of 10% in Monday’s trading. Several of them are dedicated to the Blockchain industry, but also others that take advantage of the situation, adding references to the sector in their names or issuing statements where they indicate their interest in the new myth of El Dorado.How to obtain income from investing in cryptocurrencies.?From within the ecosystem comes a study by Binance on the potential increase of staking in the crypto ecosystem. The next transition to Ethereum 2.0 to a PoS protocol (Proof of Stake), will mean a significant change in the way to make an investment in the Crypto market profitable.Ethereum currently operates under a PoW (Proof of Work) protocol, which uses the computing power to assign rewards and voting power in the consensus. The PoS protocol uses staking volume, which opens up a new market in which token holders can assign tokens to be staked in exchange for an annual return. The ETH/BTC cross continues to be under the control of the selling side despite the bullish attempts of the last few hours. The presence of major moving averages at 0.020 and 0.021 are hampering the upward development.Above the current price, the first resistance level is at 0.020, then the second at 0.021 and the third one at 0.0243.Below the current price, the first support level is at 0.019, then the second at 0.018 and the third one at 0.017.The MACD on the daily chart continues to have a bearish profile. The slope of the moving averages has not increased, although the opening has gained a few points. The situation of the averages, in the transition from the bullish to the bearish side, may help to increase volatility.The DMI on the daily chart shows how bears continue to dominate ETH/BTC and stay above the ADX line. Bulls have become stronger in the last few hours, but far from being able to dispute control of the bears. BTC/USD is currently trading at $9,423 and is already the fourth day without strength to close above the SMA200 at $9.500. The strong support around $9,000 for the SMA100 and EMA50 helps to compress the price as they are titling to the upside. In the next few hours, the price will be unable to stay between moving averages, which could produce a violent breakage.Above the current price, the first resistance level is at $9,500, then the second at $10,600 and the third one at $11,400.Below the current price, the first support level is at $9,150, then the second at $8,800 and the third one at $8,400.The MACD on the daily chart shows the strength of the bullish movement that began over the weekend. Both the slope of the moving averages and the opening between them is strongly bullish. Only the transition that is taking place between the bearish and bullish side of the indicator is an obstacle to consider.The DMI on the daily chart reflects the difficulty that bulls have to overcome the ADX line, a necessary condition to enter an active bullish trend situation. The bears withdraw and show no interest in disputing the leadership of the bulls.
 ETH/USD is currently trading at the $188.14 price level as it moves between significant moving averages with the SMA100 at $190 and the EMA50 at $182.Above the current price, the first resistance level is at $190, then the second at $195 and the third one at $200.Below the current price, the first support level is at $180, then the second at $170 and the third one at $160.The MACD on the daily chart shows an upwardly crossed moving average but with little inclination and even less opening between the lines. The immediate presence of the neutral level of the indicator is a significant obstacle to bullish development in the short term.The DMI on the daily chart shows bulls dominating Ethereum, comfortably above the ADX line but losing strength in recent hours. Bears drill down to level 20 and show no interest in taking advantage of the apparent loss of power of the bulls. XRP/USD is currently priced at $0.2979 and is the only component of the Top3 that enjoys a clean space of significant moving averages.I want to point out that the EMA50 crosses the SMA100 upwards today, which is favorable for future price hikes.Above the current price, the first resistance level is at $0.30, then the second at $0.31 and the third one at $0.32.Below the current price, the first support level is at $0.294, then the second at $0.29 and the third one at $0.28.The MACD on the daily chart shows a total loss of inclination and openness between indicator lines. These types of structures, which reflect a drop in price volatility, often have violent resolutions.The DMI on the daily chart shows bulls with an utterly flat profile that only positively contributes to staying above the ADX line. The bears are slightly downward inclined although they remain very close to the bulls.
Get 24/7 Crypto updates in our social media channels: Give us a follow at @FXSCrypto and our FXStreet Crypto Trading Telegram channel"
14,"Bitstamp transfers 800 million XRP tokens, BitGo provides secure storage","The Whale Alert Twitter account tracked 800 million XRP sent from the Bitstamp exchange to unknown wallets in less than half an hour. The transfers happened as such - three transactions for 200 million XRP each, one transaction of 50 million XRP, and finally one transaction of 150 million XRP. According to Bitstamp, these transfers were a part of their arrangement with BitGo to provide more secure storage.Bitstamp had earlier announced that BitGo will provide secure storage for the exchange’s crypto assets. According to the exchange:We will start transferring assets to BitGo’s wallets on 10 October 2019. Our customers will not be affected by this and you do not need to take any action. The security of our customers’ funds is always our highest priority at Bitstamp. With BitGo Custody, Bitstamp’s assets will be secured on 100% cold storage technology in bank-grade class III vaults and protected by BitGo’s $100 million (USD) insurance policy.
 "
15,,
16,,
