,title,text
0,"EUR/USD Forecast: Risk-off to kick start the week, EUR to keep advancing","The EUR/USD pair neared the 1.1100 figure late Friday, on persistent dollar’s weakness. Risk-off was the main theme, with Wall Street plummeting and soaring demand for safe-haven assets included Treasury bonds. The yield-curve began shrinking, reviving concerns of a US recession and hurting demand for the greenback. Fed´s Vice Chairman Richard Clarida said that he was not worried about it and argued that it was a product of global uncertainty rather than the US outlook when asked about the issue, but the market ignored his word.Meanwhile, weekend news indicated that the coronavirus outbreak continued expanding, with more cases reported outside China and more deadly cases in the Country. Furthermore, a bird flu outbreak, which is considered much deadlier than coronavirus, has been reported in Hunan province, not far from the epicenter of coronavirus. No human cases have been reported, yet the headline will likely add to the ongoing dismal mood.In the macroeconomic front, Markit will release this Monday the final versions of its January Manufacturing PMI, foreseen unchanged in the Union, and the US. This last will also release the more relevant official ISM Manufacturing PMI, seen in January at 48.5, up from the previous 47.2.The EUR/USD pair is a few pips below the 61.8% retracement of its 1.1173/1.0991 decline at 1.1103, the immediate resistance. In the daily chart, the advance is falling short of signaling a bullish continuation as the pair stalled its recovery around a bearish 20 DMA, while technical indicators bounced sharply from oversold levels, but remain within negative levels. In the shorter term, and according to the 4-hour chart, the risk is skewed to the upside, as technical indicators head north almost vertically in overbought levels, while the price surpassed its 20 and 100 SMA.Support levels: 1.1060 1.1020 1.0980  Resistance levels: 1.1105 1.1145 1.1190View Live Chart for the EUR/USD "
1,Forex Today: Coronavirus to keep investors on their toes,"Here is what you need to know on Monday, February 3rd:"
2,CHFJPY – Confirmation Required Before Entering The Trade,"If we look at the daily chart of CHFJPY, we can see that on the open of last week’s session, there was a downward price gap in the currency pair. The downward trend continued Tuesday and Wednesday, followed by a bullish engulfing candle on Thursday and a test of broken support and Kijun on Friday where the initial gap occurred. Should this newfound resistance level at 112.500 holds and the gap fail to close, We are likely to see a continuation in the downward trend. Our entry point on the daily chart would be at a break below price level 112.000 and a stop loss at Tenkan Sen, approximately at price level 112.800, or to provide more price tolerance in the trade put your stop loss at 113.000.Looking at the 1-hour chart of CHFJPY we can see that on Friday’s session there was an evening star candlestick pattern formation followed by a large bearish engulfing candle implying lower prices to come. We can see that the most recent candle has just closed below Kijun – should this hold and we see a break below support level 112.400, we could enter our short position with a half position size with a stop loss at the most recent high 112.700 before waiting for an entry on the daily chart and risk-free our initial short position taken on the 1-hour chart, allowing us to take a full position size on the daily chart setup. "
3,Effective Fed Funds Rates Jumps to Highest All Year,"Highest All YearI do not know the cause but the Effective Rate jump seems unusual.​My Conversation With the 30-Year Long BondIn My Conversation With the 30-Year Long Bond I noted a ""solid wall of inversions"" from the three-year note through the Fed Funds Rate.The Fed Funds rate would not be inverted with the 3-month and 6-month T-Bills without the Fed Funds Rate jump today.Recall that it was a Fed Ends Rate jump that kicked off the Repo Crisis. This material is based upon information that Sitka Pacific Capital Management considers reliable and endeavors to keep current, Sitka Pacific Capital Management does not assure that this material is accurate, current or complete, and it should not be relied upon as such."
4,AUD/USD Forecast: multi-year low about to be challenged,"The Australian dollar continues to be the weakest dollar’s rival, dragged lower by the market’s dismal mood triggered by Chinese woes. The coronavirus outbreak spurred concerns about global growth as many countries are suspending flights to and from the country. Trade would likely be affected next if the situation continues. The AUD/USD pair settled around 0.6690, not far from the one-decade low set last year at 0.6670.Early Monday, Australia will release January TD Securities Inflation, previously at 1.4% YoY, the AIG Performance of Manufacturing Index, previously at 48.2, and December Building Permits, seen down by 3.0% monthly basis. More relevant, China will release the January Caixin Manufacturing PMI, foreseen at 51.3 from 51.5.The AUD/USD pair is extremely oversold in its daily chart, although technical indicators continue heading firmly lower, suggesting sellers are not yet done. The RSI is currently at 22, a level not seen throughout the last two years, while the pair stands far below all of its moving averages. In the shorter term, and according to the 4-hour chart, a bearish 20 SMA continues to head south although now at around 0.6730, reflecting the strength of sellers. Technical indicators have stabilized near oversold readings, without signs of downward exhaustion.Support levels: 0.6730 0.6700 0.6670Resistance levels: 0.6770 0.6805 0.6840View Live Chart for the AUD/USD"
5,GBP/USD Forecast: Bulls aiming to retest 1.3280,"The GBP/USD pair closed the week a few pips above the 1.3200 figure, its highest in almost a month. The Pound kept rallying on the back of a surprisingly hawkish BOE on Thursday, as policymakers voted 7-2 to maintain rates on hold. The greenback, on the other hand, was dumped on the back of a shrinking US Treasury yield-curve as risk aversion led. On Friday, the UK finally left the Union after over three years of struggle. The news has a limited impact as it has already been priced in long ago, while the relationship between the two economies will remain the same. The main risk factor now is Scotland, as the country wants to remain within the EU. PM Sturgeon has again asked UK PM Johnson to authorize a referendum in Scotland.During the last trading day of the week, the UK released December money data, with M4 Money Supply up by 0.1% MoM. Mortgages Approvals were up to 67.241K, while Consumer Credit rose to £1.218B, all of them above the market’s expectations. This Monday, the UK will see the release of the final version of the January Markit Manufacturing PMI, foreseen unchanged at 49.8.The GBP/USD pair is trading around the 50% retracement of its 1.3513/1.2904 decline and technically bullish. In the daily chart, the pair has moved above all of its moving averages, and while the 100 SMA advances, the 20 SMA remains directionless at around 1.3080. Technical indicators in the meantime, head firmly higher within positive levels. In the 4-hour chart, the risk is also skewed to the upside, as the pair has moved well above all of its moving averages, while technical indicators have barely decelerated their advances in overbought levels. The next Fibonacci resistance comes at 1.3280, a possible bullish target for these upcoming sessions.Support levels: 1.3085 1.3040 1.3000Resistance levels: 1.3140 1.3190 1.3220View Live Chart for the GBP/USD"
6,NZD/USD nears two-month low to 0.6465 ahead of China’s Caixin PMI,"NZD/USD fails to ignore the broad risk-off while keeping losses to 0.6465 during the early Monday’s Asian session. The kiwi pair nears the lowest since December 02, 2019, while also extending the downpour after the five consecutive weeks. The reason for the current selling emanates from China where fears of coronavirus outbreak have largely affected the economics. Traders will now concentrate on the Beijing reopen and Caixin Manufacturing PMI for fresh impulse.China’s coronavirus has so far affected 14,557 people across the globe, most of which are in China, according to the World Health Organization (WHO) data conveyed by CNBC. The epidemic also crosses 300 mark as far as the death toll is concerned. To safeguard, global airlines have shut their doors to and from China. Further, the American Airlines Group has recently announced the ban to foreign nationals into the US if they have traveled China within the last 14 days. The group has also extended locks to China till March 27.The WHO has already termed coronavirus as the global health emergency as it surpassed the SARS. Though, another virus from China, H5N1, is in its nascent stage and could add worries to the global economies.While portraying the risk-off, the Australian bonds drop to the historical low of 0.884% by the press time.In addition to the risk aversion that has a negative impact on commodity-linked currencies like the New Zealand dollar, the recent increase in New Zealand’s export of milk and meat to China has also added negatives to the NZD/USD pair.Investors will now concentrate on how Chinese markets perform during their first day of trading after the Lunar New Year break. Regulators from Beijing have taken various steps to identify the fears of bloodshed selling.On the data front, China’s January month Caixin Manufacturing PMI, expected 51.3 versus 51.5 prior, will be closely watched to gain insights into how the dragon nation is being affected by the lethal disease. This is the private version of activity data while the official release has already shown a minimal impact with 50.00 mark versus 50.2 earlier.50% Fibonacci retracement of the pair’s October-December upside, at 0.6480, offers the immediate resistance ahead of 200-day SMA around 0.6510. On the downside, 0.6430 and 61.8% Fibonacci retracement close to 0.6415 can question the sellers.  "
7,Brexit moves back to centre stage - TDS,"Analysts at TD Securities explained that the UK's departure from the EU moves back to centre stage.""With the EU due to publish its draft negotiating mandate (with leaks likely to come out over the weekend), and PM Johnson due to make a significant speech (time unknown at time of writing) on the UK's stance on trade negotiations.""""There are some clear areas of obvious contention already, including Level Playing Field agreements and dynamic alignment, the ability to diverge, and the notion that nothing is agreed until everything is agreed upon. In the first phase of negotiations, the UK let the EU set the narrative from day one, and is keen to avoid that mistake this time around."""
