,title,text
0,GBP/AUD technical analysis: The pair could accelerate through technical pattern," After the Bank of England (BoE) rate decision where the vote split changed from 9-0 to 7-2. GBP has lost ground against all of its major counterparts. Like any other of the worlds central banks, the BoE has moved to take a more dovish stance. Looking at the technical picture now:There has been a strong descending wedge formation on the 4-hour GBP/AUD chart. The market has just printed below the wedge support zone but is finding it hard to hold below. The pattern is pretty steep in any case but if the price breaks lower it would be seen as another bearish acceleration. The RSI has also moved under the 50 mid-line which also indicates bearishness. The key support zone next in line is at 1.8416, this is marked on the chart and has been well used in previous price action. The daily chart shows is that an internal trendline has been broken to the downside. The next support zone still remains the same but there is another trendline support to keep an eye on below 1,8416. The RSI looks like it preparing for a bullish failure swing. This is when the indicator makes a lower low but the price is making higher lows. This could take some time to transpire so the bullish case may have to take a backstep for now.  "
1,"US Dollar Index technical analysis: DXY ends Thursday at its highest in three weeks, nearing 98.30 key level",  
2,When is the BoE rate decision and how could it affect GBP/USD?,"The Bank of England (BoE) is scheduled to announce its latest monetary policy update at 12:00 GMT this Thursday, which will be accompanied by the release of Quarterly Inflation Report (QIR) and the policy meeting minutes. This will be followed by the post-meeting press conference at 12:30 GMT, where comments by the BoE Governor Mark Carney will play a key role in influencing the market sentiment surrounding the British Pound.
 
Meanwhile, Deutsche Bank’s economists expect a dovish message, with the BoE dropping its tightening bias and instead move towards an easing policy stance. “They note that domestically, data have deteriorated sufficiently to warrant more supportive monetary policy. Growth has slowed and is tracking below the Bank's ""speed limit"" of 1.5% with uncertainty likely weighing further on the near-term growth outlook.”As Yohay Elam, FXStreet's own analyst explains – Sterling has dropped below the uptrend support line that has been accompanying it since mid-October. Momentum on the four-hour chart is to the downside and the currency pair has failed to recapture the 50 and 100 Simple Moving Averages.
 
“Support awaits at 1.2785, which was a low point in late October. It is followed by 1.2750, 1.2705, and 1.2655, which were all stepping stones on the way up. Some resistance awaits at 1.2850, which provided support on Wednesday. Next, we find 1.2920, a support line from late October, followed by 1.2950, a resistance line from back then, and finally by 1.2980, he added further.   •   BOE Preview: Three reasons why Carney's last Super Thursday may send GBP/USD down
 
   •   GBP/USD Forecast: BOE's outlook downgrade may hit sterling after losing support
 
   •   GBP/USD faces downside pressure near term – UOBBOE Interest Rate Decision is announced by the Bank of England. If the BOE is hawkish about the inflationary outlook of the economy and raises the interest rates it is positive, or bullish, for the GBP. Likewise, if the BOE has a dovish view on the UK economy and keeps the ongoing interest rate, or cuts the interest rate it is seen as negative, or bearish."
3,"USD/CHF extends rally to 0.9975, highest since mid-October","The USD/CHF pair broke to the upside after trading sideways around 0.9925 for hours. It climbed to 0.9975, reaching a three-week high. Near the end of the session, it is consolidating gains, holding above relevant short-term technical levels. Equity prices are higher in Wall Street amid reports that the US and China have agreed to rescind some existing tariffs on a “phase one” deal. It has not yet been finalized, but all suggest they are getting closer.US yields have been rising all day. The 10-year rose to 1.96%, highest since early August; a week ago was under 1.70%. The dramatic move in yields offered support to the US dollar and reflected less demand for safe-haven assets like the Swiss Franc. From a technical perspective, the pair broke above a downtrend line and is hovering around the 0.9960/65 horizontal resistance. A consolidation on top would point to further gains toward the next resistance at 0.9995. On the flip side, if the pair fails at 0.9960 the bullish pressure would ease, the next support is at 0.9940.   "
4,CAC 40 Shows Exhaustion Signals,"CAC 40 index in its 3-hour chart shows a bearish divergence, which represents an exhaustion signal of the current uptrend. In this post, we expose what to expect before to sell the French stock market.The global leading indices show ending structures. This context makes us expect that a bearish sentiment could drag CAC 40 on leading stock markets.
In Elliott wave terms, the bearish divergence, warns us that CAC 40 runs in the fifth wave. Though this signal does not mean that the trend will reverse, the appearance represents an alert for bull traders. 
The sell-side positioning will come if the price breaks and closes below the 5,818.75 pts. The first potential profit target is at 5,727.5 pts. The following bearish target is at 5,630.75 pts, and finally, at 5,458.75 pts.
The bearish scenario will be invalid if the price pierces but does not close below 5,818.75 pts; or if the French index soars above the 5,910.5 pts.Entry Level: 5,818.75 pts.
Protective Stop: 5,910.50 pts.
1st Profit Target: 5,727.50 pts.
2nd Profit Target: 5,630.75 pts.
3rd Profit Target: 5,458.75 pts.
 "
5,AUD/USD ranges seem set to edge lower – Westpac,"According to Sean Callow, analyst at Westpac, the RBA’s quarterly statement will provide details of the optimistic growth forecast but this week saw a dismal reading on retail sales volumes, which the RBA can only hope is not replicated in the national accounts next month.“The upbeat RBA narrative could be rattled if we see weak Q3 wages data on Wed and an uptick in Oct unemployment on Thu.”“On the positive side, risk appetite remains elevated and spec positioning is already bearish. But with US$ having found its feet as the FOMC’s pause narrative was bolstered by strong NFP and services ISM data, AUD/USD ranges seem set to edge lower.”“The 200dma at 0.6949 remains firmly intact, with the pair near term more likely to spend time between the 50dma at 0.6810 and 100dma at 0.6850.”"
6,BoE press conference: Governor Mark Carney speech live stream - November 7,"Bank of England (BoE) Governor Mark Carney is scheduled to deliver his remarks on the monetary policy outlook at 12:30 GMT, 30 minutes after the BoE publishes its interest rate decision alongside the Quarterly Inflation Report. GBP/USD Forecast BOE's outlook downgrade may hit sterling after losing support GBP/USD?Will the central bank add to the pound's misery? Sterling seems vulnerable as the Bank of England is set to leave interest rates unchanged. The Monetary Policy Committee's meeting minutes are set to show a unanimous vote, but one vote for a rate cut cannot be ruled out. Several MPC members have been dovish of late.GBP/JPY clings to gains near session tops, just below mid-140.00s ahead of BoEInvestors also seemed reluctant, rather preferred to stay on the sidelines ahead of the Bank of England Super Thursday. The BoE is universally expected to maintain the status quo and hence, the key focus will be on the Quarterly Inflation Report (QIR).Mark Carney is Governor of the Bank of England and Chairman of the Monetary Policy Committee, Financial Policy Committee and the Board of the Prudential Regulation Authority. His appointment as Governor was approved by Her Majesty the Queen on 26 November 2012. The Governor joined the Bank on 1 July 2013. This will be his last Super Thursday as the BoE Governor, as his mandate will finish at the end of the year. His successor as head of the Bank of England has not been announced yet. "
7,"Bank of England QIR: GDP growth in 2019 +1.4% (Aug. forecast +1.3%), 2020 +1.2% (Aug. +1.3%)","In its latest Quarterly Inflation Report (QIR), the Bank of England (BoE) announced that the Gross Domestic Product (GDP) in 2019 is now expected to grow 1.4%, slightly higher than the 1.3% announced in August's QIR. On the other hand, the BoE lowered 2020 GDP growth forecast to 1.2% from 1.3%. Below are additional key takeaways, via Reuters.""Inflation in one year's time at 1.51% (Aug. forecast 1.90%), based on market interest rates.""""Inflation in two years' time at 2.03% (Aug. forecast 2.23%), based on market interest rates.""""Inflation in three years' time at 2.25% (Aug. forecast 2.37%), based on market interest rates.""""Market rates imply more BoE loosening than in Aug, point to bank rate at 0.5% in 2022 (Aug 0.6%).""""GDP growth of +0.4% QQ in Q3 2019 (Sept forecast +0.2% QQ), sees +0.2% QQ in Q4 2019.""""Unemployment rate at 3.8% in two years' time (Aug 3.7%), based on market rates.""""Wage growth +3.5% YY in Q4 2019 (Aug +3%), +3.25% yy in Q4 2020 (Aug +3.25%), +3.75% yy in Q4 2021 (Aug +4%), +3.75% YY Q4 2022.""""Overall slack in economy is 0.25% of GDP (Aug 0.25%), sees zero slack in 1 years' time (Aug 0.25% slack), sees excess demand of 1.25% in 3 years' time (Aug excess demand 1.75%).""""UK GDP growth skewed to downside in 2nd and 3rd years of forecast horizon.""""Almost all UK firms surveyed by BoE say they are ""fully ready"" or ""as ready as they can be"" for a no-deal Brexit vs 80% of firms in Sept."""
8,Denmark: economic recovery stronger than expected,"New figures reveal Danish GDP was 1.5% higher in 2018 than previously estimated. A significant revision of the trade surplus is the main reason.  Productivity growth has been significantly stronger than estimated so far and is based on a broadly stronger development across industries. The stronger productivity implies a higher growth potential for the economy.Revisions just keep painting a rosier picture of the Danish economic recovery. This time GDP has been revised up significantly for the years 2016-18, particularly 2018 where GDP is now 1.5% larger measured in volumes. That is the conclusion from Statistics Denmark's annual revision of the national accounts. Production by Danish entities in foreign countries remains a source of much uncertainty and is likely going to cause further large revisions in the future.The number one reason for the higher growth rates is a bigger trade surplus, which we also flagged last month when the current account figures were revised. Particularly service exports were revised significantly by DKK52.6bn, amounting to a 12% revision, which is primarily based on new information about the construction sector. The goods surplus, on the other hand, was revised down on the back of higher expenses for ships' bunkering in foreign harbours. Back in October, we also speculated that investments might be revised somewhat lower as some of the new exports might have been categorized as investments to begin with. Investments are indeed down by 2.3% in 2018 compared to the old figures. Also with the new figures for private consumption, we now estimate the propensity to consume is no longer falling but has been more or less flat since 2015.The revision also paints a stronger productivity picture. In Denmark, as in most other developed countries, the low productivity growth has been a concern for long. The current economic recovery has to a large extent been driven by a strong labour market. To create GDP-growth, productivity growth is needed and the continuous transformation towards a more service-driven economy, where productivity is lower only darkens the outlook. That is also why today's revision is uplifting news for the Danish economy. It gives an indication that the growth potential is bigger than estimated this far. Several sectors contribute to the higher productivity growth. The pharmaceutical industry, which has been the strong driver of industrial production also in 2019, is particularly strong, but also service industries such as trade, advisory and finance and insurance contribute significantly. Download The Full Flash CommentThis publication has been prepared by Danske Bank for information purposes only. It is not an offer or solicitation of any offer to purchase or sell any financial instrument. Whilst reasonable care has been taken to ensure that its contents are not untrue or misleading, no representation is made as to its accuracy or completeness and no liability is accepted for any loss arising from reliance on it. Danske Bank, its affiliates or staff, may perform services for, solicit business from, hold long or short positions in, or otherwise be interested in the investments (including derivatives), of any issuer mentioned herein. Danske Bank's research analysts are not permitted to invest in securities under coverage in their research sector.
This publication is not intended for private customers in the UK or any person in the US. Danske Bank A/S is regulated by the FSA for the conduct of designated investment business in the UK and is a member of the London Stock Exchange.
Copyright () Danske Bank A/S. All rights reserved. This publication is protected by copyright and may not be reproduced in whole or in part without permission."
9,Purchases with Cash App are not free anymore,"A mobile payment service Cash App developed by Square, has started charging fees for buying or selling bitcoin. The information is stated on the official website.“Cash App may charge a fee when you buy or sell bitcoin. If so, the fee will be listed on the trade confirmation before you complete a transaction,” the statement goes. While it is not clear when the information about the fees was added to the site, the users report fees ranging from 1% to 1.75% were charged on purchases on November 5. Notably, in March the statement on the same page promised that bitcoin purchases are not charged with a conversion fee, or any other fees.CoinDesk reports that Square spokesperson confirmed the new fees structure of Cash App and explained that the fees were previously included in the spread. The company hopes to reach more transparency by separating the two.Apart from that, Cash App will charge users another fee that will be determined by bitcoin price volatility.""Cash App charges two kinds of fees for bitcoin transactions: a service fee for each transaction and, depending on market activity, an additional fee determined by price volatility across U.S. exchanges."""
10,EUR/NOK technical analysis: The Norwegian Krone shines today as the EUR slumps," EUR/NOK has taken a hit today as a combination of EUR weakness and NOK strength provides the perfect combination.Even USD/NOK trades lower as the greenback trades well against most of its counterparts. The NOK is a commodities currency and it seems to be benefitting from the higher oil price (WTI +2%) and the improved trade rhetoric between the US and China.Looking at the 4-hour chart, the trendline has now been broken to the downside indicating bearishness.The support level of 10.070 support level has also been taken out and the psychological 10.00 level could be the next support.The RSI indicator is heading lower but has not reached the oversold level so there could be some more space for some weakness.The whole formation is also a head and shoulders pattern and the head and shoulders target would take it to 9.941. "
11,,
12,,
13,,
14,,
