,title,text
0,EUR/USD: Optimistic speculative interest,"The EUR/USD pair recovered the 1.0800 threshold this Wednesday amid a better market mood which limits the dollar’s bullish potential, according to Valeria Bednarik from FXStreet.“The mood remained upbeat as US politicians came to an agreement on a $2B stimulus package that will likely be approved by Congress later this week.”“Germany released the March IFO Survey, which was worse than expected. The Business Climate was confirmed at 86.1, following a preliminary estimate of 87.7.” “The US released February Durable Goods Orders, which were up by 1.2% in the month, much better than anticipated, although Non-defense  Capital Goods Orders ex Aircraft fell by 0.8%. The report was ignored by market players.” "
1,"Forex Technical Analysis and Forecast:  EUR/USD, GBP/USD, USD/CHF, USD/JPY, AUD/USD, USD/RUB, USD/CAD, Gold, Brent, BTC/USD","After forming the ascending impulse towards 1.0887 and completing the correction at 1.0744, EURUSD is moving upwards. If later the price breaks 1.0815 to the upside, the market may continue growing towards 1.0943; if 1.0740 to the downside – resume trading downwards with the target at 1.0700. GBP/USD has finished the ascending impulse towards 1.1800; right now, it is consolidating below this level. Possibly, the pair may break this level to the upside and then trade upwards to reach 1.1910. After that, the instrument may break the latter level as well and then continue growing with the target at 1.2145. After finishing the correction towards 0.9842, USDCHF is falling to break 0.9760. Later, the market may continue trading downwards with the short-term target at 0.9686. USD/JPY is still consolidating around 110.70; it has expanded the range up to 111.70 and right now it falling to test 110.70 from above. After that, the instrument may start another growth to reach 111.90 and then form a new descending structure with the target at 110.70. AUD/USD is still trading upwards to reach 0.6136. After that, the instrument may correct to the downside with the target at 0.5822. USD/RUB is falling towards 78.38. Later, the market may break this level and continue trading downwards with the short-term target at 76.02. USD/CAD is falling. Possibly, today the pair may reach 1.4333 and then consolidate below it. After that, the instrument may break 1.4333 to the downside and continue the descending wave with the target at 1.4171. After completing the ascending structure at 1577.50 and forming a new consolidation range around it, Gold has broken the range to the upside. Possibly, the pair may continue trading upwards. Today, the price may reach 1650.50 and then start another correction with the target at 1577.50. Brent is still consolidating around 27.77. Today, the pair may grow to break 28.70 and then continue trading upwards with the target at 30.80. BTC/USD is consolidating around 6500.00. The main scenario implies that the instrument may resume growing to reach 7500.00 and then correct towards 5700.00. After that, the instrument may start another growth with the target at 7000.00."
2,EUR/USD advances to fresh daily highs above 1.0850 on broad USD weakness,"The EUR/USD pair spent the first half of the day fluctuating around the 1.0800 handle but gained traction during the American session amid a fresh USD-selling wave and touched a daily high of 1.0869. As of writing, the pair was trading at 1.0860, adding 0.67% on a daily basis.The recovering market sentiment after lawmakers in the US reached an agreement on the massive $2 trillion coronavirus emergency stimulus bill makes it difficult for the USD to find demand on Wednesday. The US Dollar Index (DXY), which closed the previous day 0.7% lower, was last down 0.65% on the day at 101.12.Although the DXY rebounded to 101.90 earlier in the session, sharp upsurge witnessed in Wall Street's main indexes confirmed the upbeat mood limited its upside. Republican Senate Majority Leader Mitch McConnell said the legislation is expected to be finalized on Wednesday. “This is a wartime level of investment into our nation,” McConnell added. Meanwhile, the data from Germany showed that the Ifo Business Climate Index slumped to 86.1 in February to miss the market expectation of 87.7. Commenting on the data, ""this is the steepest fall recorded since German reunification and the lowest value since July 2009,"" Ifo President Clemens Fuest noted in a statement and said the German economy could shrink by as much as 20% in 2020.On Thursday, the European Central Bank will release its monthly Economic Bulletin. Later in the day, weekly Initial Jobless Claims, Goods Trade Balance and Q4 Gross Domestic Product (GDP) data from the US will be looked upon for fresh impetus.  "
3,"Weekly Trade Results: EUR/USD, EUR/AUD, USD/JPY, GBP/USD","As mentioned to weekly trade text, ranges this week expanded and the inflated ranges added to higher than normal pip targets. Currency prices permanently left  last weeks instability and allowed targets to achieve its destinations.Present currency market prices  are deviated by 2700 pips yesterday and about 2300 pips today. Expanded ranges and deviations means easily 1000 pip trades remain as markets trade back to normality. But it also means currency prices are actually trading back to normalcy.Normalcy may take as much as 3 months and this allows for plenty more great trade opportunities and easy trades. After normalcy achieves, expertise is required to hit trade targets.Fairly normal functioning currency market price ranges and deviations  run 300 to 600 pips. This means trade targets at the lower 300 pip point contain trade targets at about 100 to 150 pips per currency pair and per weekly trade.Certain pairs EURUSD and USD/CAD for example and CAD related pairs usually encompass range trades to meet the normal 100 to 150 pip target. Range trades as demonstrated here many times means multiple trades per currency pair, per weekly trade. The higher end 600 pip range then targets weekly trades at about 150 - 250 pips. Higher end trades means trend straight to target from entry.As mentioned , trade targets this week were easily achievable as objectives were set at reasonable destinations especially when unknown  corona Virus  and stimulus risk remains elevated. Long 1.0646 and 1.0604 to target 1.0979Lows 1.0638, Highs 1.0888,Trade runs +284 PipsShort 1.8447 and 1.8546 to target 1.7957.Highs ? 1.8500's, lows 1.7957Trade Ran + 589 PipsShort 110.82 and 110.99 to target 108.82Highs 111.40 ? Lows 109.72Trade Runs ? +127 PipsRound 2 shorts from 111.40 to target easily 109.68.Long 1.1646 and 1.1604 to target 1.2062Lows 1.1445 Bonus Points Highs 1.1974Trade Runs from 1.1604 + 370 pips5 trades, 5 entries and current trades run + 1370 pips.And as usual year after year, we are correct, no losses, no charts, graphs, stops nor extraneous market details. 18 weekly trades  are sent every Saturday. The job of traders is set entries and targets at the Sunday open then walk away and go live life as targets are written in mathematical stone. Come correct for trade assistance."
4,"EUR/USD Forecast: Struggling to extend gains, investors cautious","Things were quieter around the FX board this Wednesday, as market players continue to digest the latest announcement to counter the economic effects of the current global health crisis. The announcements, however, are being taken with a pinch of salt, as the coronavirus keeps spreading exponentially, mainly in Europe and the US. A peak, even in Italy, is not yet a sight. Among the latest measures, Germany lawmakers have agreed to suspend limits to the deficit spending, while US lawmakers agreed on a $2T  stimulus package that will likely be approved by Congress later this week.The EUR/USD pair peaked at 1.0881, holding on to modest gains ahead of the Asian opening, as equities posted substantial gains for a second consecutive day. US Treasury yields also advanced a little, but as said, investors remain cautious amid the uncertain future of the world’s economies. Germany released the March IFO Survey, which was worse than expected. The Business Climate was confirmed at 86.1, following a preliminary estimate of 87.7. The US released February Durable Goods Orders, which were up by 1.2% in the month, much better than anticipated, although Non-defense  Capital Goods Orders ex Aircraft fell by 0.8%. This Thursday, Germany will release the April GFK Consumer Confidence Survey, seen at 7.1 vs 9.8 previously. The US will publish the final version of Q4 GDP, seen unchanged at 2.1%, but also weekly unemployment claims for the week ended March 20, seen soaring to 1,000K amid the ongoing crisis.The EUR/USD pair is gaining bullish strength, currently surpassing the 23.6% retracement of its latest daily slump at 1.0840. In the 4-hour chart, the 20 SMA is slowly grinding higher below the current level, although the price remains well below the larger ones. Technical indicators hold above their midlines, the Momentum easing and the RSI flat slowly advancing at around 56. Beyond the weekly high, the pair has room to extend its gains towards the 1.0960 price zone, where it has the 38.2% retracement of the mentioned daily slump.Support levels: 1.0840 1.0800 1.0750  Resistance levels: 1.0885 1.0920 1.0960View Live Chart for the EUR/USD "
5,EUR/USD Outlook: Recovery needs close above pivotal Fibo barrier to signal reversal,"The Euro stands at the front foot on Wednesday and probes again above pivotal Fibo barrier at 1.0838 (23.6% of 1.1494/1.0635 fall) following Tuesday's failure to clearly break above, despite spike to 1.0887. The sentiment has improved on action of global central banks to cushion strong negative impact from corona virus pandemic, with latest Fed's $2 trillion aid package, being the highlight. Traders however remain cautious, as recovery action in past three days faced strong upside rejections (presented by three bullish daily candles with long upper shadows) that weighs on current recovery. Also, momentum on daily chart is pointing down and converging from north-heading RSI and stochastic, while daily MA's remain in full bearish setup. Close above 1.0838 is seen as minimum requirement for initial reversal signal, which would look for confirmation on break of falling 10DMA (1.0906) and Fibo 38.2% (1.0963). Caution on repeated failure to close above 1.0838 Fibo barrier as this could be initial signal that bulls are running out of steam.Res: 1.0849; 1.0878; 1.0906; 1.0963
 Sup: 1.0800; 1.0759; 1.0740; 1.0724"
6,When are the US durable goods orders and how could they affect EUR/USD?,"Wednesday's US economic docket highlights the release of durable goods orders data for February. The US Census Bureau is scheduled to release the monthly report at 12:30 GMT and consensus estimates point to a 0.8% fall during the reported month as compared to January's reading of -0.2%.Meanwhile, core durable goods orders, which exclude transportation items and tend to have a broader impact than the volatile headline figures, are also anticipated to register a decline of 0.4% in February as against a 0.8% rise recorded in the previous month. On the other hand, non-defence capital goods orders (excluding aircraft and parts) - a proxy for business investment - are forecasted to drop by 0.9% as compared to January's strong growth of 3.7%.Given that the recent market action has been exclusively sponsored by the broader market risk sentiment and developments surrounding the coronavirus saga, the data is unlikely to provide any meaningful impetus and pass largely unnoticed. Ahead of the release, the EUR/USD pair held steady above the 1.0800 round-figure mark, albeit lacked any strong follow-through.In the meantime, Yohay Elam, FXStreet's own analyst offered a brief technical outlook and provided some important technical levels to trade the major: ""Momentum on the four-hour chart has turned to the upside, a positive development, yet EUR/USD still trades below the 50, 100, and 200 Simple Moving Averages. The picture is improving.""""Resistance awaits at the daily high of 1.0840, followed by 1.0880, Tuesday's peak, which also converges with the 50 SMA. The next levels to watch are 1.0950 and 1.1050. Support awaits at 1.0750, Tuesday's low, and then by the 2020 trough of 1.0640. Further down, 1.0580 dates back to 2017 and is of interest,"" Yohay added further.   •  US Durable Goods in January: Be surprised it's good news   •  EUR/USD Forecast: Where next from 1.08? Italian hopes battle potential greenback comeback   •  EUR/USD Price Analysis: Extra gains expected to test 1.0990The Durable Goods Orders, released by the US Census Bureau, measures the cost of orders received by manufacturers for durable goods, which means goods planned to last for three years or more, such as motor vehicles and appliances. As those durable products often involve large investments they are sensitive to the US economic situation. The final figure shows the state of US production activity. Generally speaking, a high reading is bullish for the USD."
7,FX Update: USD cools,"The commodity (AUD again today’s best performer) and many developing world currencies have continued to rebound, while the Dollar, Yen and Swiss franc have traded generally softer. This comes with Asian stock markets rallying and European markets opening positively after the DJIA equity index posted its biggest single-day rally on Wall Street since 1933. The US Senate and White reached agreement on a $2 tln fiscal stimulus package, which joins a growing list of countries around the world to have unveiled bazooka-sized spending packages, joining ambitious central bank monetary stimulus efforts aimed at mitigating the impact of virus containing measures. This comes amid tentative signs that the lockdown in Italy is starting to work, as new cases and the death rate ebb. There are also other signs of encouragement, such as news that 20% of US companies in China have reported that they have returned to normal operations, showing that there is economic life after lockdown.Among the main currencies, USDJPY has traded neutrally so far today, while most Yen crosses, especially those with a commodity or developing world currency counterpart, have lifted. USDJPY has held with a range of 110.75-111.50, narrow by recent standards and well within the bounds of yesterday’s range. EURJPY has posted modest gains, but remained below yesterday’s peak. AUDJPY, amid its fifth consecutive up day, posted a 10-day high at 67.25. AUDUSD lifted by 1.2% in printing an eight-day high at 0.6060, extending the rebound from last week’s 18-year low of 10%. USDCAD fell to a five-day low at S2 and below 1.4300 at 1.4299, with the Canadian Dollar continuing to correlate closely with oil prices, which today extended over 3% higher to five-day highs, but remains capped at $25.00. EURUSD has traded  higher, to the mid 1.0800s, but has remained comfortably within Tuesday’s range."
8,EUR/USD Forecast: Where next from 1.08? Italian hopes battle potential greenback comeback,"""At last, we have a deal,"" – said US Senate majority leader Mitch McConnell after long days of intense negotiations between Republicans and Democrats. The world's largest economy is deploying over $2 trillion to mitigate the economic fallout from coronavirus and the economic paralysis it entails. The safe-haven US dollar remains under pressure, and stocks are cheering – but perhaps the upside in equities is already behind us, as markets staged a massive rally on Tuesday. The Dow Jones Industrial Average advanced by the most substantial level since 1933 – during the peak of the Great Depression. If share price retreat on a ""sell-the-fact"" response to the deal, the greenback may stage a comeback. The surge was also fueled by the Federal Reserve's open-ended Quantitative Easing program announced on Monday. See When will the Corona market end? Or has it already?The effort by Washington comes as additional states and cities impose lockdowns in order to stop the spread of Covid-19. Moreover, the World Health Organization said that the US might turn into the new epicenter of the disease, especially as cases in New York are surging at a rapid pace. Total infections in the world's largest economy stand at around 55,000, more than in Spain.President Donald Trump aims to end the restrictive measures by Easter, around April 12, but health officials caution that it may be too early. The damage to the economy may risk his reelection chances. In the old continent, coronavirus-related deaths topped 700 on Tuesday, increasing after two days of declines. There is a silver lining to the depressing news – the number of active cases is declining gradually. The eurozone's third-largest economy's strict shutdown measures expire on April 3, but will likely be extended. Any additional positive sign from Italy and especially from the embattled region of Lombardy may boost the euro.Markets are focusing on government action rather than economic figures. Wednesday's US Durable Goods Orders statistics for February predate the crisis and will likely be ignored. Updates on coronavirus cases in Europe and the US are eyed. The global number of infections has surpassed 420,000, and the death toll is around 19,000.Investors shrugged off Markit's preliminary Purchasing Managers' Indexes for March. On both sides of the Atlantic, services PMIs plunged below 40 – reflecting depression, while manufacturing PMIs held up just below 50, representing mild contraction. Nevertheless, industrial sector figures were propped up by a subcomponent that counts delays as a decisive factor – a quirk that may fade in the next report. Momentum on the four-hour chart has turned to the upside, a positive development, yet EUR/USD still trades below the 50, 100, and 200 Simple Moving Averages. The picture is improving.Resistance awaits at the daily high of 1.0840, followed by 1.0880, Tuesday's peak, which also converges with the 50 SMA. The next levels to watch are 1.0950 and 1.1050. Support awaits at 1.0750, Tuesday's low, and then by the 2020 trough of 1.0640. Further down, 1.0580 dates back to 2017 and is of interest. More Have stocks bottomed out? Not yet, wait for these three coronavirus-related developments"
9,"German Final IFO Business Climate Index misses estimates with 86.1 in March, EUR/USD off highs","The German IFO Business Climate Index revision came in at 86.1 in March, weaker than the preliminary data of 87.7 while missing the consensus estimates pointing to a reading of 87.7.Meanwhile, the Current Economic Assessment arrived at 93.0 points in the reported month as compared to the last reading of 93.8 and 93.6 anticipated.On the other hand, the IFO Expectations Index – indicating firms’ projections for the next six months, came in at 79.7 for March, up from the first estimate of 82.0 and missed market expectations of 81.9.The IFO said that the economy German economy is in shock right now, adding that the fall in the business climate is the steepest ever recorded.Companies’ expectations, in particular, have darkened as never seen before, the institute noted.On the downbeat data, EUR/USD ticked a few pips lower from daily tops to trade near 1.1830 region, still up 0.40% on the day."
10,USD/JPY 111.60 and the battle to be king of the FX safe havens,"With risk assets surging higher for the second straight day, two of the safe haven currencies are getting left in the dust. FX traders piled in to buy the US dollar and Japanese yen aggressively in recent weeks as they unwound carry trades and sought a safe place to store capital, but now that tide is going out (or at least the latest “wave” of the flow is receding). While the market’s broader risk appetite has interesting implications for various pairs, we wanted to focus in on a key level that may determine which safe haven currency is king in the days to come.Looking at USD/JPY, rates have seen a violent round trip after peaking near 112.00 in late February, collapsing all the way to near 101.00 by early March, and then rising from the ashes to tack on over 1,000 pips to trade back in the mid-111.00s as of writing:Generally speaking, ascending triangle patterns indicate growing buying pressure that most often leads to a bullish breakout and continuation higher, though as we approach month- and quarter-end rebalancing after one of the most volatile months in recent memory, all FX pairs may see less predictable moves. Nonetheless, a break above 111.60 (ideally confirmed by a daily close above that area) would be a bullish sign that could reaffirm the US dollar as the “Safe Haven King” of the FX market. Meanwhile, a break lower from the current ascending triangle pattern could be the first step toward a swing back toward the yen being the most in-demand currency on the market’s next bout of risk aversion.  This research is for informational purposes and should not be construed as personal advice. Trading any financial market involves risk. Trading on leverage involves risk of losses greater than deposits."
11,Where can Mexico go?,"In the old world that ended sometime last month, the peso was a king. It was among the strongest currencies in the world and appreciated against the US dollar for the past three years. It appreciated nearly 10% against the greenback, which itself was rising against most currencies.  Mexico is poorly placed to deal with the coming economic shock. The peso has already fallen nearly 30% in the five-week slide, and the full appreciation of the tragedy is not yet discounted.  First, consider its pre-existing condition. The economy contracted every quarter last year. The central bank kept the overnight interest rate target was among the highest real and nominal levels in the world. This, in turn, attracted carry-trade strategies by levered accounts, and asset managers liked the yields and potential for capital gain in the bond market. Speculators in the futures market had a record large gross and net long peso position. Executives may have felt relief over the new NAFTA agreement, but Mexico's President AMLO has no won over the confidence of businesses.  Next, think about channels that the shock will impact Mexico. Roughly 40% of Mexico's GDP is exported, 80% of which is sent to the US. The dramatic slowing of the US economy, even if not as bad as St. Louis Fed's Bullard's pessimistic scenario of a 50% contraction, means pain for Mexico's businesses. Worker remittances and tourism are also significant contributors to Mexican GDP and source hard currency. These flows have dried up.  The collapse in oil prices also does Mexico no favors. The price of WTI for May delivery has fallen from $53.50 to $22.65 in the past four weeks. Mexico has slashed the price of is Maya benchmark as well. The government hedges oil prices but not in a comprehensive fashion. It protects the price of about 235k barrels a day or around 20% of its exports at $49, according to press reports. At $35, 80% of Pemex output is thought to be unprofitable.  Mexico has been dealt a poor hand, but it appears President AMLO is playing it poorly. Unlike other major countries in the regions (though ironically, Brazil's president, Bolsonaro, is taking a similar stance) AMLO has not sought to curtail social life or impose travel restrictions. He warned that weakening the economy would hurt the poor. A federal court ordered the Mexican government to take ""all necessary"" action to protect people from the virus.  Mexico is also highly urbanized and reliant on public transportation, making social distancing difficult under any circumstance.The response to the public health crisis is sorely lacking, and official help to mitigate the economic shock is missing-in-action. AMLO warned businesses and investors he is opposed to corporate ""bailouts"" (support, loans, guarantee) or tax amnesty. He also indicated no intention to draw on the standing line of credit with the IMF ($61 bln).  The central bank announced an emergency 50 bp rate cut on March 20 to 6.50%, five days after the FOMC brought its policy rate target to the zero-bound. Banxico also some other liquidity measures, and dollar auctions can re-activated via the swap lines from the Federal Reserve. However, given the economic hit coming, rates have to be slashed. This has implications for the bond market as well as the peso. The 200-300 basis point rate cuts necessary to bring the real rate closer zero might not all be translated into the long-end of the curve, but a good part should, as inflation expectations also fall.  The peso has plunged to record lows. Speculators in the futures market have slashed their gross long position by three-quarters, but at 55.k contracts (as of March 17), the liquidation is not over. The bears have yet to show their hands claws. The gross short position stood at 21.7k contracts, it has just begun rising from the 16.1k (March 3), which was the least since 2014.    Volatility is the highest in the decade (three-month implied volatility is above 25.5%, and one-month is near 38%). Using the volatility to a band around spot implies around a 75% probability that it is in a range of roughly MXN22.00-MXN28.50 pin one month and MXN21.50-MXN29.50 in three months. The risks are aligned to the downside for the peso, and given multi-dimension nature of the shock, a move toward MXN30-MXN35 is possible, especially if the virus spreads and is prolonged."
12,Canada: Early Canadian economic data for March looks dreadful – RBC,"Analysts at RBC Capital Markets, point out that the latest number from the Canadian economy look dreadful, something expected. They point out the CFIB Business Barometer fell to its lowest level on record in March and the surge in employment insurance claims. “Economic reports are starting to trickle out for the period impacted by the ramping up of the social-distancing in response to the Covid-19 outbreak in Canada and abroad.  And those indicators don’t look good. First were reports that almost a million Canadians filed employment insurance claims last week – an increase that in itself could represent a 5 percentage point increase in the unemployment rate.”“Risks appear to be tilted to the downside relative to the 3.0% GDP contraction we expect in Q1 – and that is ahead of what is almost certain to be a double-digit contraction in Q2.”“Light at the end of the tunnel? We have to remember these data are tracking the economy’s performance as measures to limit the spread of the virus got underway. Our base case view is that they will be successful in bringing the spread of the virus under control and that activity will resume. Fiscal and monetary policymakers are responding forcefully to help households and businesses bridge the gap to better times. There is still light at the end of the tunnel, but the near-term will be dark days for the economy.”
 "
13,Canada: BoC to cut rates to 0.25% – TDS,"2020 is expected to be the weakest year for economic activity since at least 1982. Analysts at TD Securities look for the Bank of Canada (BoC) to cut rates to 0.25% before their next scheduled meeting in April.“Media reports stating the more than 900,000 people filed for EI last week should make it clear that more easing is warranted. We look for the BoC to cut by 50 bps any day now.”“We look for the BoC to announce $50-75bn worth of asset purchases at the April interest rate announcement.”“We look for the cut to 0 bps in either April or June. A move to 10 bps is also within the realm of possibility.”“We think that we need to see weakness extend into 2021 for the BoC to actually move rates into negative territory.” "
14,Currencies: The only safe-haven assets are the yen and the Swiss franc – Natixis,"At this stage of the coronavirus crisis, we see that the only remaining safe-haven assets are the yen and the Swiss franc, and to a lesser extent the dollar, according to analysts at Natixis.“If we look at developments in February and March 2020, we see that the only safe-haven assets have been the yen and the Swiss franc.”“Risk-free bonds, the dollar, gold and bitcoin, are no longer safe-haven assets today because the expected rise in fiscal deficits  is worsening all countries' creditworthiness and because some investors, who are faced with savers' withdrawals, are selling liquid assets, thereby contributing to the decline in share prices.” "
15,"UK coronavirus confirmed cases jumps to 9,529 from 8,077","UK coronavirus confirmed cases climb to 9,529 from 8,077 the prior day.Meanwhile, BBC News reported with a headline, ‘Many thousands of Covid-19 cases’ across NI, that the spread of coronavirus is a lot wider than statistics indicate.On Tuesday, it was confirmed that seven people with the virus have died in Northern Ireland. Dr McBride said there will be more deaths to come.Asked if the current lack of testing may be creating a false sense of security among the public, he said: “A test at a point in time is just that.""It may indeed reinforce behaviours that we don’t wish to see.“As we open up the Covid-19 centres, that does provide other opportunities for us to track the spread of the virus within the community, but we must prioritise those who are sick and critical care staff.”Dr McBride said the health service would have the capacity to carry out 1,000 tests a day from next week. In other news surfacing today, UK self-employed workers to wait until May end for emergency coronavirus cash, as was reported by The Sun, according to Reuters News.Europe and the UK are ay the epicentres of the pandemic of COVID-19. The US is closely behind, however. The US dollar is renowned to pick up a safe haven bid although its appeal may start to dwindle in the event of a growing crisis in the US. As for the pound, the UK current account deficit is the largest in the G10 FX space which remains as a long-standing problem for the pound and it is still not drastically undervalued vs the dollar, even at these low levels. It has seen a tremendous exodus in recent days as investors moved out of speculative longs, likely exaggerating the GBP fall. Bears will be looking for a break below the 1.14 handle at this juncture while cable trades below 1.2000. "
16,S&P 500: Losing levels and falling back with some intensity,"A few hours before the opening of Wall Street, the S&P 500 is losing the levels it gained yesterday. This market is highly emotional, as demonstrated by the intraday volatility, Tomás Sallés from FXStreet reports.“On the 1-hour chart, the short and mid-term moving averages are losing their downward profile, while the SMA200 remains in a downward direction.”“This setup leads us to expect, in the short-term scenario, an attempt to build a technical floor. This should be a fragile floor though.”“The MACD on the hourly chart shows clear intentions of a downward direction, while the DMS shows the bears trying to regain the lead for today's session.”“The current market situation makes it advisable for traders to be cautious in any time frame. Excessive leverage or positions without reliable stop levels can lead to significant losses in either direction.” "
17,Malaysia: BNM to undertake another 25bp cut – ANZ,"Inflation eased to 1.3% y/y in February from 1.6% previously on the back of lower contributions from food and fuel, analysts at ANZ Research inform. USD/MYR is trading at 4.386.“On an annual basis, inflation eased to 1.3% y/y in February from 1.6% previously.”“Core inflation eased to 1.3% y/y in February, from 1.7% previously.”“We expect Bank Negara Malaysia (BNM) to undertake another 25bp cut, bringing the Overnight Policy Rate (OPR) to 2.25%.” "
18,Royal Caribbean Cruises Stock – Should you buy or say goodbye In 2020? [Video],"I share my investment strategy and stock analysis for 2020 in this video. I also take a look at technical analysis and potential future prices. Once COVID-19 is gone, will you consider going on a cruise again?
In 1 year? in 2 years?
Will you be scared of being trapped on a cruise with a new virus?Unless cruise lines come up with a strategy to fight with breakouts, many people may not feel comfortable with the idea. 1- EXTREMELY low stock price and could go even lower
2- pays a good dividend (11% yield) (but may need to slash it like GE) 20.06, 12.50, 5.68 For more from Invest Diva, click here HIGH RISK Investment

Trading forex (also known as foreign exchange or currencies) on margin carries a HIGH LEVEL OF RISK, and may not be suitable for all investors. Before deciding to trade foreign exchange you should carefully consider your investment objectives, level of experience, risk appetite, and the amount of your expendable income. The possibility exists that you could sustain a loss of some or all of your initial investment and therefore you should ONLY invest money that you can afford to lose! You should be aware of all the risks associated with foreign exchange trading, and seek advice from an independent financial advisor if you have any doubts.

Forex Diva Trading Opinions

Any opinions, news, research, analysis, prices, or other information contained on this website is provided as general market commentary and education, and does not constitute advice. Forex Diva will not accept liability for any loss or damage, including without limitation to, any loss of profit, which may arise directly or indirectly from use of or reliance on such information."
