,title,text
0,EUR/USD can rise above 1.108 area - Elliott Wave analysis,"EUR/USD just hit the first support level, from where we may see a continuation higher without any deeper pullback. If price manages to go back above 1.1084 region, then we may see even an acceleration within wave ""iii"" towards 1.115/1.116 region, otherwise keep an eye on support #2.Invalidation level remains at 1.0990.   You can subscribe to our webpage at EW-Forecast for more unique, and daily content. We also have a 7-day trial offer for FX services (1€) and for Crypto services (2€). Check it out!By using www.ew-forecast.com website, any services, products, and content contained here, you agree that use of our service is entirely at your own risk. You understand that there is a very high degree of risk involved in trading on the markets. We assume no responsibility or liability for your trading and investment results. The charts, and all articles published on www.ew-forecast.com are provided for informational and educational purposes only!

By using the information and services of www.ew-forecast.com you assume full responsibility for any and all gains and losses, financial, emotional or otherwise, experienced, suffered or incurred by you."
1,"EUR/USD Forecast: Remains capped by the 100-day SMA, ignores FOMC minutes","EUR/USD traded in a tight range on Wednesday and is on track to post a small daily loss after an overall quiet trading session. Markets were in consolidation mode before the release of the Federal Open Market Committee (FOMC) minutes, which turned up to be a non-event as the market largely ignored them.According to the minutes from the FOMC October 29-30 monetary policy meeting, most policymakers said the rate cut was appropriate while noting that it was warranted due to global weakness. At that meeting, the Fed cut the target of the federal fund rate range by 25 basis points to 1.5%- 1.75%. The decision was not unanimous with two FOMC members dissenting.The dollar even managed to shrug off headlines suggesting that the “phase one” deal between China and the United States might not be completed before the end of the year.Attention now turns to European Central Bank minutes that will be published on Wednesday and Christine Lagarde's speech scheduled for Friday, which will be her first time speaking as the ECB President.The short-term technical perspective remains slightly bullish as indicators hold in positive ground in the 4-hour chart, although the bias has turned slightly negative in daily charts. The immediate resistance for the EUR/USD is seen at 100-day SMA at 1.1090, although the pair needs to break above the 1.1175 zone – where the 200-day SMA converges with October’s monthly high – to improve the technical picture.On the flip side, immediate support is seen at 1.1050, followed by the monthly low struck at 1.0989. A break below this latter could send the pair quickly to retest its two year low of 1.0879 and pave the way for more losses.Support levels: 1.1050 1.1989 1.0940Resistance levels: 1.1090 1.1175 1.1200"
2,"Patterns: EUR/GBP, EUR/PLN","The EUR/GBP exchange rate has been depreciating within the descending channel since the middle of October.From a theoretical perspective, it is likely that the Euro could continue to decline against the Greenback within the given channel in the medium term. Important level to look out for is the Fibonacci 100.00% retracement at 0.8495.However, note that the currency pair is pressured by the 200-hour moving average, currently located at 0.8574. Therefore, it is likely that a breakout south from the given channel could occur within the following trading sessions. The Euro has been depreciating against the Polish Zloty since the beginning of October after the EUR/PLN currency pair reversed south from the resistance level at 4.3953. Currently, the pair is trading at the 4.2950 mark.Note that the exchange rate is supported by the 55-, 100– and 200-hour moving averages, currently located in the 4.2826/4.2910 area. Therefore, it is likely that some upside potential could prevail in the market in the nearest future. In this case, the rate could target the given resistance level.However, note that the currency pair has to surpass the resistance level formed by the monthly PP at 4.3017. If the given resistance level holds, it is likely that some downside potential could prevail in the market. In this case the pair could reach the psychological level at 4.2400."
3,WTI advances toward $57 on less-than-expected crude oil stock build in US,"Crude oil gained traction in the last hour after the weekly data published by the Energy Information Administration (EIA) showed a less than expected increase in the crude oil stocks in the United States. After moving sideways for the majority of the day below the $56 mark, the barrel of West Texas Intermediate rose sharply and was last seen trading at $56.95, adding 3.35% on a daily basis.The EIA said crude oil stocks rose by 1.4 million barrels last week to come in below the market expectation of 1.54 million barrels. ""Total products supplied over the last four-week period averaged 21.3 million barrels per day, up by 0.2% from the same period last year,"" the EIA added in its press release.Meanwhile, Russian President Vladimir on Wednesday said that Russia wants the energy market to be predictable and balanced and added that they will continue to work with Saudi Arabia and the Organization of the Petroleum Exporting Countries (OPEC) on output curbs to provide additional support to crude oil prices.On the other hand, the uncertainty surrounding the US-China trade dispute could continue to cap crude oil's gains in the near-term. US President Trump on Tuesday reiterated that they will hike tariffs if they fail to reach a deal with China and the US Senate approved the Hong Kong human rights bill to hint at a further escalation in geopolitical tensions.   "
4,"Gold loses momentum ahead of $1,480 as focus remains on trade, FOMC","The XAU/USD pair extended its steady recovery that started last week and touched a fresh two-week high of $1,479 before losing its traction ahead of the American session. As of writing, the pair was trading at $1,473.50.The lack of clarity on the United States (US)-China trade dispute has been weighing on the market sentiment since the start of the week and allowing safe-haven assets such as the precious metal find demand.On Tuesday, US President Donald Trump reiterated his willingness to raise tariffs on Chinese imports if they failed to reach a trade deal. Moreover, the US Senate approved the Hong Kong human rights bill to revive concerns over this development hurting the possibility of finalizing a deal.However, CNBC's Beijing Bureau Chief Eunice Yoon in the last hour reported that China was not looking to link the Hong Kong bill to trade negotiations and helped the market sentiment improved slightly. Nevertheless, the 10-year US Treasury bond yield is still down more than 2% on a daily basis and Wall Street's main indexes look to open in the negative territory with futures posting modest losses ahead of the opening bell.In the second half of the day, the Federal Open Market Committee (FOMC) will release the minutes of its October meeting and investors will look for fresh clues on the near-term policy outlook. Ahead of this event, the US Dollar Index is up 0.18% on the day at 98, making it difficult for the pair to preserve its bullish momentum.  "
5,When is Canadian CPI report and how could it affect USD/CAD?,"Wednesday's Canadian economic docket features the key release of consumer inflation figures for October, scheduled to be published at 13:30 GMT. The headline CPI is anticipated to have risen by 0.3% during the reported month as compared to a reading of -0.4% recorded in the previous month. Meanwhile, the yearly rate and the BoC's core CPI are expected to hold steady at 1.9%.Ahead of the important release, the USD/CAD pair was seen building on the overnight strong upsurge of around 120 pips and climbed further beyond the 1.3300 handle to its highest level since October 10. Barring any major deviation, the market reaction is likely to remain muted ahead of the release of the latest FOMC monetary policy meeting minutes.
 
Meanwhile, a strong reading might provide a modest lift to the Canadian dollar and prompt some long-unwinding trade. However, any meaningful pullback is likely to find some dip-buying interest near the very important 200-day SMA, currently near the 1.3275 region.
 
Alternatively, a softer reading might provide an additional boost and lift the pair further beyond early-October swing highs resistance near the 1.3330 region. The momentum could further get extended towards September monthly highs, around the 1.3380-85 region en-route the 1.3400 round-figure mark.   •  USD/CAD spikes to 1.3300 handle, over 1-month tops
 
   •  USD/CAD: Bulls cheer WTI weakness, risk-off ahead of Canadian CPI
 
   •  USD/CAD: the Bull is getting ready to bellowConsumer Price Index Core is released by the Bank of Canada. “Core” CPI excludes fruits, vegetables, gasoline, fuel oil, natural gas, mortgage interest, intercity transportation, and tobacco products. These volatile core 8 are considered as the key indicator for inflation in Canada. Generally speaking, a high reading anticipates a hawkish attitude by the BoC, and that is said to be positive (or bullish) for the CAD."
6,Bitcoin technical analysis: BTC/USD sellers are knocking on the door of a devastating $8000 break," The critical $8000 mark is holding for now, as the bears continue to knock on the door. Price action has broken out of a near-term bearish flag pattern via the 60-minute view. Spot rate:                    8,074.86Relative change:       -0.70%High:                          8,148.95Low:                           8,029.71   "
7,"GBP/JPY off lows, still in the red below 140.00 handle","The GBP/JPY cross held on to its offered tone through the mid-European session on Wednesday, albeit has managed to rebound around 30 pips from daily lows.
 
A combination of negative forces exerted some follow-through selling for the second consecutive session on Wednesday and dragged the cross farther from five-month tops, levels just above mid-141.00s set at the beginning of this week.Despite the fact that the incoming election polls have been indicating a majority for the UK Prime Minister Boris Johnson's Conservative Party, the British pound seemed struggling to attract any meaningful buying interest.
 
This coupled with reviving demand for the safe-haven Japanese yen, supported by the global risk-aversion trade amid persistent US-China uncertainty, further collaborated to some follow-through long-unwinding trade on Wednesday.
 
In the latest developments, the US President Donald Trump on Tuesday threatened to raise new tariffs on Chinese imports if the ongoing trade negotiation fails while the US Senate passed a bill in support of Hong Kong.
 
This was seen fueling tension between the world's two largest economies and weighed on the market sentiment, which was evident from a weaker tone around equities and provided a goodish lift to traditional safe-haven currencies.
 
Despite the pullback, the cross has managed to hold above mid-139.00s and in absence of any major market-moving economic releases, remains at the mercy of any incoming UK political headlines/broader market risk sentiment.  "
8,"Marijuana Stocks Price: MORE Act lifts prices from lows, financials still weigh","Marijuana stocks have gone higher on Tuesday as the US House Judiciary Committee announced plans to advance a bill that would legalize cannabis on the federal level. Consumption of cannabis is legal to various degrees, only in multiple states. Lawmakers led by Jerrold Nadler, the committee's Chairman, are promoting the Marijuana Opportunity Reinvestment and Expungement Act (More Act) that would help individuals suffering from life-damaging convictions the ability to access housing and vote. For weed stocks, having access to a full American market is a boon. The news sent shares higher with Cronus (CRON) jumping by over 9% following the news. While House Democrats are moving forward with the More Act on Wednesday, it is unclear if Republicans will go along. Mitch McConnell, the majority leader, has met with executives of marijuana-related firms but has been a life-long opponent of legalization. Nevertheless, weed equities are still struggling with sky-high expectations after the opening of the Canadian market have met the reality of making money. Aurora Cannabis is standing out with a highly dilutive offer on its convertible bonds. Despite the recovery, Aurora's stock price is down around a third in the past month. The boom in the number of cannabis farms and their pricing may lead to bankruptcies down the road – even if the American market were to open fully.Tilary, a company whose stocks have surged around Canada's decision, has missed Wall Street's expectations with substantial losses. The firm reported gross sales of $51.1 million but losses of $23.3 million. Its stock price will likely remain in the limelight on Wednesday. Wednesday's trading will likely be marked by legislative efforts and speculation about the potential profitability of See Marijuana Stocks Not Getting Investors High Ahead of Earnings"
9,"USD/JPY: FOMC minutes as expected, USD/JPY steady despite trade-deal headline downside risks","USD/JPY has been steady on the back of the Federal Open Market Committee minutes which had been expected to signal that policy is on hold for now, barring a material reassessment in the outlook. We had already had a glance at the mood at the Federal Reserve as per Chair Powell’s recent rhetoric. Traders were scrutinising the minutes today for any light that could have been shed on what exactly would qualify as a “material reassessment,” as well as how diversified voters were with respect to the rate cut. Markets were also looking for any updates on the policy review.Elsewhere, markets are on red alert and will remain sensitive to trade headlines. Most recently, in light of the latest trade deal headlines, risk sentiment has been soured by news that a Phase One US-china trade deal may not be completed this year, a headline courtesy of Reuters.Phase One' US-China trade deal may not be completed this year – Reuters Indeed, with what appears to be a less dovish backdrop from central banks on the whole, such geopolitical themes associated trade and also the bill on Hong Kong human rights whereby the US Senate on Tuesday unanimously passed the ""Hong Kong Human Rights and Democracy Act"", overtly taken sides with HK rioters, risk sentiment is on thin ice – that's bullish for the Yen. More to come...  "
10,SPX500 Retracement Should Provide Selling Opportunities,"The SPX500 is in a strong uptrend. Record highs on the Equity have made short traders close their positions. It could change today.3115-20 is the zone where we might see selling. OB (overbought) pink dot is signaling the price is indeed overbought, a rejection off the W H3 camarilla with a bearish engulfer cue for the downmove. The first target is 3104. If the price breaks below the trend line (3100) we should see a continuation down to 3092, 3072 and 3050. The time for a retracement has come.  The analysis has been done with the CAMMACD.MTF template.For more daily technical and wave analysis and updates, sign-up up to our ecs.LIVE channel."
11,USD/NOK: Krone finally bottomed out?,"The Norwegian Krone’s dire performance over the past several months has puzzled many market watchers, who argue that the Scandinavian currency is undervalued for many reasons. After all, Norway’s solid economic performance continued in the third quarter with GDP expanding 0.7 per cent. This compares favourably against other developed economies including the Eurozone, where expansion has been much weaker, and even the US, where growth has slowed down to below 2 per cent.More to the point, the country’s central bank has been the sole hawk among dovish central banks elsewhere.  The Norges Bank has raised interest rates four times in 2019, although in October it decided to keep policy unchanged at 1.5% as expected. The Bank noted then that “global uncertainty persists and interest rates abroad are very low,” but at the same time, “the weak krone may result in higher inflation ahead.”  Governor Øystein Olsen said that their “current assessment of the outlook and balance of risks suggests that the policy rate will most likely remain at the present level in the coming period.” So, the Norges Bank has not exactly turned dovish. The bank’s neutral stance should help limit the downside for the krone going forward.Meanwhile with prices of crude oil, Norway’s main export, stabilising again of late, the krone may, after all, be able to rise from the ashes in the weeks ahead, particularly if foreign central banks signal further rate cuts are on the horizon.From a technical point of view, the USD/NOK has put in a few lower highs of late suggesting that the bears are perhaps finally beginning to exert some pressure on rates. So far, though, key support areas are still intact, so more work is needed from the bears before the tide potentially turns against the bulls. Still, today’s price action has been very interesting as the bulls’ earlier attempt at pushing rates above a short-term bearish trend failed. Although I will stop short of saying that this is the clearest sign yet that the trend is turning lower, it is nonetheless very interesting to observe. What the bears would like to see now is, first and foremost, a closing break below short-term support at 9.1350, followed by a breakdown below old lows in the region between 0.9050 to 0.9080 next. If seen, that would be a solid bearish development. Risk Warning Notice

Foreign Exchange and CFD trading are high risk and not suitable for everyone.  You should carefully consider your investment objectives, level of experience and risk appetite before making a decision to trade with us.  Most importantly, do not invest money you cannot afford to lose.

There is considerable exposure to risk in any off-exchange transaction, including, but not limited to, leverage, creditworthiness, limited regulatory protection and market volatility that may substantially affect the price, or liquidity of the markets that you are trading.

Margin and leverage

To open a leveraged CFD or forex trade you will need to deposit money with us as margin.  Margin is typically a relatively small proportion of the overall contract value.  For example a contract trading on leverage of 100:1 will require margin of just 1% of the contract value.  This means that a small price movement in the underlying will result in large movement in the value of your trade – this can work in your favour, or result in substantial losses.

Your may lose your initial deposit and be required to deposit additional margin in order to maintain your position.  If you fail to meet any margin requirement your position will be liquidated and you will be responsible for any resulting losses."
12,$250 Trillion in Global Debt: How Can That Be Paid back?,"Global debt just topped $250 trillion. Please ponder paying the interest on that, let alone the principal.Please note that Global debt surged to a record $250 trillion in the first half of 2019, led by the US and China.What about Global GDP?Global GDP Numbers from the World Bank.To get a $1 rise in GDP it takes about a $3 rise in debt.Things keep pointing back to 1971.I have written about the importance of 1971 many times, most recently in Nixon Shock, the Reserve Currency Curse, and a Pending Dollar CrisisA reader asked the other day what I meant by ""dollar crisis"".What I meant to say was ""currency crisis"" and the above title is now changed.Since the dollar is still rising (thanks to European, Japanese, and Chinese tactics), It may take even bigger US deficits before something major breaks.On that score, both political parties in the US are poised to deliver increasing deficits as far as the eye can see.Meanwhile, negative interest rates are destroying the European banks. For discussion of this important issue, please see In Search of the Effective Lower Bound.$250 Trillion in debt. How will that be paid back?I expect an uncontrolled collapse of a major currency, debt market, or bank system that cannot be funded. It is hard to say where it starts but I doubt it starts in the US.Chinese and European banks are in far worse shape than US banks. European banks are getting hammered by negative rates.Japan still struggles with decades of Abenomics.The Fed and Central Banks brought this on by refusing to let zombie banks and corporations go under and insisting on cramming more debt into a global financial system choking on debt.But this all has its roots in 1971. Central banks are the enablers, but Nixon Shock set things off.A currency crisis awaits but the timing and conditions of the crisis are not knowable. It can start anywhere but I suspect the EU, Japan, or China as opposed to the US.Ponder even paying the interest on $250 trillion, let alone the principal. What interest rate will it take?Meanwhile, please reflect on gold.In the link below I post charts that make a mockery of the claim gold is some sort of inflation hedge or tied to movements in the US dollar.But if Gold is Not a Function of the US Dollar Nor is Gold an Inflation Hedge, what is it?Here's the answer.If you think central banks have everything under control, gold is not where you want to be.If you think otherwise, gold is where you want to be.Do central banks have everything under control? This material is based upon information that Sitka Pacific Capital Management considers reliable and endeavors to keep current, Sitka Pacific Capital Management does not assure that this material is accurate, current or complete, and it should not be relied upon as such."
13,China’s Growth Outlook Beyond 2020,"Despite US tariff wars, Chinese economic prospects remain in line with 2019 expectations and are likely to prevail in 2020, due to deleveraging and structural reforms.A year ago, I projected that in 2019 Chinese GDP growth could achieve 6.2% in full-year growth, if policymakers can sustain higher-quality growth while suppressing debt accumulation. This scenario has proven pretty valid so far.Recent international headlines have projected ""sub-6% growth"" in 2020 China, assuming weakened consumption, cautious private investment and shrinking exports. Such projections have been reported as a negative turn. In reality, Chinese growth deceleration is in line with long-term expectations. Even half a decade ago, the International Monetary Fund expected China's annual growth to be 6.1-6.2 by 2020. The minor deviation can be attributed to US tariff wars.In 2020, the final figure may more likely to hover around 5.8-6 percent, though.Most economic projections focus on growth prospects in 2020. But let's go beyond the short-term to see how the 2020 economic prospects are likely to support China's more vital medium- and long-term objectives– deleveraging and structural reforms in 2020-2024 and rebalancing until 2030. If Chinese government would ignore its commitment to poverty eradication, higher living standards and sustainability, it could achieve more rapid growth, but at the cost of people's livelihood, living standards and environment. Policymakers cannot accept too much deceleration either. The effort to double living standards – as measured by GDP per capita, with purchasing power parity – between 2010 and 2020 requires growth at about 6.1% in 2019-2020.Assuming peaceful international conditions and managed trade wars, Chinese growth may decelerate from the 2007 peak of 14.3% to 5.5% by 2024.In the 2000s, Chinese growth accelerated, while living standards almost doubled. In the 2010s, Chinese growth decelerated, but living standards doubled again. And if things go right, these standards could increase by another half in the mid-2020s.In contrast, US living standards increased by only 6% in the 2000s and 14% in the 2010s, while growth has halved from 3-4% to 1-2%. In the largest EU-4 economies – as proxied by the average of the UK, Germany, France and Italy – growth declined even more from 3% to barely 1%, whereas living standards increased by 4% in the 2000s and 8% in the 2010s. In Japan, living standards barely grew in the 2000s, but rose by 10% in the 2010s (Figure). Figure Economic Growth and Per Capita Incomes, 2000-E2024* EU-4:Averaged growth and per capita incomes in Germany, UK, France and Italy Growth rate: GDP constant prices, percent change Per capita income: GDP per capita, constant prices (PPP); 2011 international dollarSource: IMF/WEO Database; Difference GroupHere's the inconvenient truth: In China, the Communist Party continues to foster the expansion of middle group consumers. In contrast, US middle classes have stagnated since the 1970s, European middle classes are shrinking and their Japanese peers seek to avoid a fall into a poverty trap. In the Reagan era, US growth was sustained by soaring trade deficits and debt-taking. During the Trump rule, the White House has fostered growth with huge one-time tax cuts, tariff wars and drastic debt expansion. US public debt now exceeds $23 trillion (107% of the GDP). Except for Germany, the debt-to- GDP ratio is also high in the largest EU economies, such as the UK (99%), France (109%), and Italy (143%) – and far worse in Japan (264%).These major economies in the advanced West have all benefited from ultra- low interest rates, while engaging in rounds of quantitative easing. Second, none of them are engaging in substantial structural reforms. Third, due to their unsustainable growth, maturing economies, aging populations and declining growth potential, they all are on a path to secular stagnation.In China, the central government has used fiscal support and monetary easing to defuse the collateral damage associated with U.S. protectionism. So public debt has increased (64% of GDP). But unlike all major Western economies, China continues to deleverage. Indeed, financial deleveraging and reduced interconnectedness between banks and non-banks have contained the rise of financial risks, although vulnerabilities remain. And China is also engaging in broad structural reforms, even amid the US tariff wars.And unlike Western economies, China still has significant long-term growth potential.Since the Chinese growth continues to shift away from investment and net exports toward consumption and innovation, the corrosive impact of protectionism will be reduced over time. In turn, rebalancing continues, as evidenced by record retail sales records during the October Golden Week, China International Import Expo (CIIE) and Alibaba's Single's Day.Investors have made note. China may prove the world's best-performing major stock market in 2019, with the benchmark CSI 300 index up by a third this year. By November, bourses in Shanghai and Shenzhen had added $1.4 trillion in market capitalization, raising the total onshore equities to $6.8 trillion this year. Meanwhile, almost half of fixed income institutional investors outside China plan to increase their exposure to China-issued debt in the coming year, according to FinanceAsia. Despite periods of optimism, trade talk between Washington and Beijing remain inconclusive. While negotiations on the ""Phase 1 trade deal"" focus on agriculture, additional core disputes remain unsolved, including disagreements on intellectual property and technology, and financial market accessibility.The US tariff wars are likely to hinge on three probable scenarios. In the Managed Trade War scenario, the two sides agree on Phase 1 deal and a realistic long-term negotiation trajectory on broader core disputes. The scenario would boost global economic prospects, by fostering investor and consumer confidence worldwide.In the Technology War scenario, the two sides would agree on some sort of a Phase 1 deal, but not on a long-term negotiation trajectory. A brief trade truce would be only a prelude for a longer-term trade war in which the White House would evoke ""national security reasons"" to exploit anti-competitive instruments to undermine Chinese 5G success and Huawei's expansion. This scenario would result in downgraded outlooks in all major economiesIn the third Hybrid War scenario, a Phase 1 deal would be undermined, while long-term negotiation trajectory would not be achieved. Tariffs and protectionism would to foreign investment and the global value chains of multinational corporations. In this scenario, global consequences would prove the worst as the US would resort to economic, political, military and covert means to contain China's economic rise and China would have to respond.Guided by US trade policy mistakes – the worst in the postwar era- the global economy is now amid a ""synchronized slowdown,"" as the IMF has warned. But there is much worse ahead without the Managed Trade War scenario.Difference Group provides multipolar advisory services globally. We serve as trusted advisor to multinational companies, financial institutions, government agencies and municipalities, marketers and international multilateral organizations. "
14,Bitcoin approaches halving with bearish sentiments for the first time in history,"Cryptocurrency analyst Willy Woo noted that bitcoin was moving fast towards halving, but the market is totally controlled by bears for the first time in history.“NEVER gone into a halvening in BEARISH price action, miners already capitulating adding sell volume. Historically we front run with a BULLISH setup, miner capitulating only after halvening when revenues are slashed. This is a unique setup. Quite bearish leading up to the event,” Willy Woo commented on TwitterWoo explained that as the price went down, ineffective miners were squeezed from the market. The same happened against the backdrop of falling prices from $6000 to levels just above $3000, when the bear market reached its bottom at the end of 2018.“I'll elaborate. As price moves downwards, weak miners go out of business. This happened when we went $6k->$3k, the bottom happened when weak miners were dead and no longer dumping onto the market. The market bottoms afterwards,” he added.The analyst added that many experts predicted a significant price increase six months before halving, but they did not take into account the prevailing market sentiment.Cryptanalyst Cole Gartner explained Willy Woo’s approach in more detail, emphasizing that the lines of “complexity tape” were about to intersect:“MINERS ARE CAPITULATING1/  Hash ribbons is on the brink of inversion. That’s news you never want to hear.Inversion signals a downturn in hashrate. It's a leading indicator of miner capitulation. $BTC is dangling on the edge of a cliff.A similar situation was observed at the end of 2018 two weeks before the failure of the key support level at around $ 6000.”Also, an interesting opinion was expressed by Crypto Dog. He believes that the largest sellers are miners interested in low prices. They hope to squeeze out small players.Earlier, the former head of the BTCC crypto exchange Bobby Lee suggested that by 2028 the price of bitcoin will exceed $500,000. In his opinion, the upcoming halving will become an important driver of growth, which will significantly reduce the annual inflation of the first cryptocurrency.
 "
15,Binance are to increase trading leverage,"In a tweet sent out on Tuesday Binance confirmed they are looking to increase trading leverage to 5x.In July, the massive Malta-based digital asset exchange pioneered its margin trading feature and said it would only support 3x leverage until the latest revelation.There had been rumours flying around prior to the release that the exchange were set to step up leverage to 20x but although this is not available now who knows what they have in store for the future.The platform also added more crypto coins to its scope of leveraged assets, which include: XLM, ETC, BCHABC, ADA, USDT, TRX, BNB, and BTC.To put this move into perspective it is still very conservative, as some brokerages like BitMEX allow up to 100x leverage. Although on the plus side it seems the broker is a well-trusted one in the industry as it recorded over the USD 50 million volume figure in its last monthly report."
16,Gemini acquires Nifty Gateway for exposure of billion dollar virtual goods economy,"Gemini Trust Company, LLC (Gemini), cryptocurrency exchange and custodian, has announced that a parent company acquired Nifty Gateway, popular platform for non-fungible tokens that power the emerging economy of digital collectibles and virtual goods.It is detailed that this acquisition will see Nifty Gateway being powered by Gemini’s secure institutional infrascature. It marks a move of the Gemini group to extend its reach into new use cases within the cryptocurrency space.Gemini CEO Tyler Winklevoss commented on the acquisition:Non-fungible tokens and the digital goods (and collectibles) they enable will play a major role in the next era of the digital economy. They are the perfect form factor for crypto-collectibles, crypto-art, and much more — laying the foundation for entirely new multi-billion dollar industries to emergeHe further added:As Gemini continues to build the future of money, we will partner with or acquire companies led by entrepreneurs that share our mission and core values. We’re excited to be working with Nifty Gateway to extend the reach of crypto across other concepts and build a bridge between NFT creators and the growing ranks of everyday consumers looking to purchase them. "
17,South Africa’s First National Bank (FNB) will shut down accounts linked to crypto,"In a blow to cryptocurrency trading, one of South Africa's largest banks said it will shut down any accounts linked to cryptocurrency trading.FNB made their decision known to cryptocurrency exchanges in the region, including Luno, ICE3X and VALR, that the bank would no longer provide services to crypto-related companies.FNB went on to say that the decision is taken due to serious consideration of its “risk appetite” for crypto-related activities. They did promise to review the ban if regulations around the emerging industry become clearer in the future.This is an extract of the notice:FirstRand Bank has been considering its risk appetite in respect of virtual currencies and virtual currency exchanges for some time. Within this context the bank has taken the decision to discontinue the provision of banking services to virtual currency exchanges and/or entities dealing/trading in virtual currency."
18,,
19,,
