,title,text
0,Declining US-China trade trend hard to reverse - Global Times,"The Global Times reports on the 18 months of tariff wars between the US and China and argues that, ""even with a ""phase one"" trade deal, the downtrend in bilateral trade will be difficult to reverse.""It has been 18 months since the US began imposing 25 percent tariffs on the first tranche of Chinese goods, and bilateral trade between the world's two largest economies is still sliding. The General Administration of Customs showed that China's trade with the US fell 11.1 percent year-on-year to 3.4 trillion yuan ($483 billion) in the first 11 months of this year, widening from a 10.6-percent decline in the first 10 months.

Even with a ""phase one"" trade deal, the downtrend in bilateral trade will be difficult to reverse. Meanwhile, China's total trade actually expanded 2.4 percent year-on-year in the first 11 months, indicating that trade with the US is not irreplaceable for China.  "
1,EUR/USD: engulfing candle at resistance on the daily chart makes it look bearish,"EUR/USD produced a bearish engulfing candle on Friday at a Double Top resistance on the daily chart. Today’s intraday price action has been choppy so far. The price may go towards the upside to find its resistance and head towards the South again. Major intraday charts such as the H4 and the H1 are bearish biased as well. Thus, the sellers may dominate in the pair up to the level of the last swing low on the daily chart.The chart shows that Friday’s daily candle formed at the level of 1.1100. This is the level, where the price had its last rejection. Typically, a bearish engulfing candle at a Double Top resistance attracts the sellers to go short on the pair. If the price makes a breakout at Friday’s lowest low, the price may head toward the level of 1.1000 with good bearish momentum. The risk-reward looks lucrative even for the daily sellers. Thus, it would be more lucrative for the H4 and the H1 traders. Let us now have a look at those two major intraday charts.The chart shows that the price headed towards the South with extreme bearish pressure. It breached the level of 1.1070, which was the last swing low on the H4 chart. After making the breakout, the price has been on an upward correction. It may go towards the breakout level. If that happens, the sellers are to wait for a bearish reversal candle at the breakout level to go short. Considering ABC pattern, the last arm may extend up to the level of 1.1000. This is the level of the last swing low on the daily chart.The H1 chart looks a bit tricky. The price has been slightly bullish biased now, which may push the price towards the breakout level to complete its correction. If the breakout level produces an H1 bearish reversal candle, the H1 traders may get themselves busy buying the pair. On the other hand, if the price makes an upside breakout at the resistance level, the price may head towards the level of 1.1110 upon breakout confirmation. The entry would allow them having good risk-reward.The daily and the H4 chart look very bearish. However, the H1 chart does not give a clear indication. It could go either way. Considering the two most significant charts (the daily and the H4), most probably it would be bearish at the end.  Try Secure Leveraged Trading with EagleFX!"
2,Big Week for EURO & USDJPY,"The holidays may be approaching but there's at least at least one more week of potentially big moves for currencies before we settle into the seasonal lull. With two monetary policy announcements and a big decision on tariffs for US President Trump, an expansion in volatility is almost a certainty. It's a particularly a big week for EUR/USD and USD/JPY. Both currency pairs saw very little moves on Monday but as the week progresses, breakouts are expected. For the euro, Christine Lagarde will be overseeing her first monetary policy announcement as ECB President. She's spoken a number of times since taking office but has kept her policy views close to the chest. Sharing her outlook will be unavoidable at this month's press conference and chances are she'll opt to maintain status quo at her first meeting. We know the ECB believes that policy needs to remain accommodative and governments need to do their part to boost the economy. Germany may have avoided recession but inflation is low and growth is slow. For all of these reasons, there's very little benefit to Lagarde to rule out further easing. The economy is just beginning to take a turn for the better but its deep in the woods so for the central bank head, it pays to see if the recovery continues before shifting the central bank's course dramatically. This is especially true if President Trump fails to a make a decision on the next round of Chinese tariffs before the ECB meeting.For USD/JPY Trump's decision on the next round of Chinese tariffs, which is scheduled for December 15th overshadows the Federal Reserve's last meeting of the year but that only assumes it happens this week. Trump could decide to make the announcement after the markets close on Friday at which point the reaction will be the following week. This scenario is very likely if he decides to move ahead and impose tariffs. The Federal Reserve and the European Central Bank are widely expected to leave policy unchanged and for both central banks, guidance is key. In the case of the Fed, most policymakers do not feel that additional easing is necessary and Friday's blowout non-farm payrolls report validates their views. The President wants the Fed to continue lowering interest rates but data has been good and the central bank could opt to focus on the improvements in the economy. So, as long as Trump does not announce that more tariffs are coming for China on December 15th before Thursday, the risk is to the upside for the greenback.The US dollar started this new trading week higher against most of the major currencies but the rally has been cautious ahead of this headline driven week. Unfortunately the market is as clueless as we are on Trump's decision which makes it this week's biggest risk. Aside from FOMC, US inflation and retail sales numbers are also scheduled for release. If the Fed is optimistic and the Trump administration does not lead the market to believe that the tariffs are on, USD/JPY will trade above 109. However if the White House gets tough on China, then good data or Fed optimism won't help USD/JPY.In contrast to the gains enjoyed by euro, sterling and USD/JPY, the Australian and New Zealand dollars traded lower on the back of softer Chinese trade data. Exports continue to feel the pain from tariffs and the fear is that the toll will grow exponentially if tariffs increase further this month. It will be interesting to see if Reserve Bank of Governor Lowe finds any of this concerning when he speaks tonight. The last RBA statement was not as dovish as investors had anticipated but US-China trade relations chilled since then.Past performance is not indicative of future results.  Trading forex carries a high level of risk, and may not be suitable for all investors. The high degree of leverage can work against you as well as for you. Before deciding to trade any such leveraged products you should carefully consider your investment objectives, level of experience, and risk appetite. The possibility exists that you could sustain a loss of some or all of your initial investment and therefore you should not invest money that you cannot afford to lose. You should be aware of all the risks associated with trading on margin, and seek advice from an independent financial advisor if you have any doubts."
3,"EUR/GBP will be a key focus into UK elections, bears seeking a 1% drop","EUR/GBP will be a major theme for the weeks ahead as the UK's electorate make their say at this week's general election, from which a vote for the Conservative's will likely finalise a Brexit deal with the EU. At the time of writing, EUR/GBP is trading at 0.8412 having regained ground from the day's low of 0.8392. The session high has ben 0.8426, in line with the 50 1-hour moving average's resistance. While there will be a number of events, such as UK manufacturing and UK Industrial Production, the European Central Bank and the Federal Reserve, there will be major focus on the UK elections instead where a drop in EUR/GBP is presumed on a base case scenario that he Tories get to vote on the withdrawal bill following PM Boris Jhonson's victory and before Christmas - thus getting a deal over the line with the EU which is a bullish scenario for both UK politics and the pound. ""We would assume a drop to the tune of 0.5-1.0 percent in EUR/GBP under the base case, thus settling in at the high end of 0.83-0.84 in the days after the election,"" analysts at Danske Bank argued. Meanwhile, the analysts also noted that under the alternative scenario of a hung parliament, they believe the market would sour and take EUR/GBP towards 0.86-0.88 range. Anything fewer than 340 seats (out of 650) would point to continued instability in 2020 as party hard-liners pull the government in opposite directions. Fewer than 312 Conservative seats risk a Labour-led government – see here for a UK election preview.   "
4,"GBP/USD Forecast: UK elections looming, Pound consolidates gains","The GBP/USD pair hit a fresh multi-month high of 1.3180, holding on to modest intraday gains ahead of the US close. The Sterling rallied on hopes UK PM Johnson will win in the upcoming general election that will take place this Thursday. The latest opinion poll by ICM showed that the Conservatives gathered a 42% vote intention, while support for Labours increased to 36%, forcing the pair to halt its advance.The UK calendar will be quite busy this Tuesday, as the country will release the October Trade Balance and Industrial Production for the same month. The country will also unveil its monthly estimate of GDP, foresee at 0.1% vs. the previous -0.1%. Later in the day, the kingdom will release the NIESR GDP estimate for the three months to November, foreseen at -0.1% from the previous 0.1%.The GBP/USD pair is neutral-to-bullish in the short-term, and according to the 4-hour chart, as a bullish 20 SMA continues to provide dynamic support, heading north above the larger ones. The Momentum indicator eased within positive levels, holding above its mid-line, while the RSI consolidates at around 70, reflecting the absence of follow-through rather than suggesting upward exhaustion. The risk remains skewed to the upside, although it seems unlikely that the market would trigger relevant moves ahead of the UK election.Support levels:  1.3120 1.3085 1.3040  Resistance levels: 1.3175 1.3220 1.3260View Live Chart for the GBP/USD"
5,"USD/MXN tumbles toward 19.20, lowest in three weeks amid a stronger Mexican peso","
The USD/MXN is falling today for the fifth day in a row and now is testing an important support area near 19.20. It has constantly been falling on a rally that started amid a recovery in Latin American currencies and on Monday, trade deal headlines and Mexican inflation numbers appear to be behind the extension of the decline in the pair.The Mexican peso is among the top performers in the currency market on Monday amid optimism that the US Congress will finally approve the new NAFTA. The New York Times reported that Democratic lawmakers “are nearing an agreement to bring the revised North American free trade deal to a vote after securing additional labor, enforcement and other provisions and winning the support of top labor leaders.”

The trade agreement between the US, Mexico and Canada to replace NAFTA was signed a year ago but it still needs to be ratify the US Congress. If it fails, the Mexican peso would likely drop sharply.The Mexican statistics agency (INEGI) announced today that over the last twelve months, the Consumer Price Index rose 2.97%, the lowest since September 2016 and below the 3.0% expected. The decline in inflation leaves the door wide open to more rate cuts at the Bank of Mexico.

At the last meeting, two out of the five board members wanted a more aggressive cut (50bp against the 25bp cut delivered). If the Mexican peso strengthens, the odds of a larger cut should rise.From a technical perceptive, the bias continues to point to the downside in USD/MXN that is testing the key 19.22 support area. A break lower would likely expose the long-term uptrend line resistance at 19.00/05.

A recovery back above 19.30 would alleviate the bearish pressure while only above 19.37 (20-day moving average), the greenback would strengthen. 
 "
6,Gold Price News and Forecast: XAU/USD remains under pressure at the start of the week,"Gold remains under bearish pressure near four-month lows below the 1465 resistance and the 50/100 SMAs.The metal is weakening below the main SMAs. The sellers will likely try to extend the bear move towards the 1455/50 zone and potentially to the 1440 lebel on the way down. Resistance is seen at the 1465 and 1472 price levels. Read more...Gold prices were under pressure at the start of the week as the US dollar seeks correction of the latest slide following a very healthy headline accumulative number in US jobs creation which included strong revisions. Gold is currently trading a touch higher in the US session, having travelled from a low of $1,458.90 to a high of $1,465.36 so far, +0.03%.Read more...  "
7,Gold have correction to 1468 while trading above support 1458,"Uptrend
An uptrend will start as soon, as the pair rises above resistance level 1462, which will be followed by moving up to resistance level 1468.
Downtrend
An downtrend will start as soon, as the pair drops below support level 1458, which will be followed by moving down to support level 1454 and 1450. Last weeks we can see world economy recovery, that is positive signal for uptrend on equity markets and oil prices, downtrend for gold. US, EU and China PMI’s going up with the same speed, on Friday US non-farm payrolls news shown very good results and unemployment felt more deeper (3.6% to 3.5%), where same time Average Hourly Earnings increased on 3.1%, that pushing US consumption up. US % rates on Wednesday will be unchanged and more possible FED Chairman Powell speech will be neutral, that also will be good signal for markets recovery after series of % rates decreasing with speeches about negative economic conditions.But all this positive situation can be broken on December 15 with implantation of new trade tariffs for China from US side on 160 billion dollars, that can break “phase 1” deal potential. So if tariffs will be delayed again, this may prolong expectations for phase 1 deal signing and markets will be positive. But Trump already had one delay of this tariffs and seems that in second time he will not go on this step, as his authority and unwavering will be broken, so in this time only China should made step forward. In case if December 15 news tariffs will be implemented and phase 1 deal will not be signed – markets will get negative without any good expectations, that create downtrend on equity, oil and uptrend on gold. Tuesday: EU ZEW Economic Sentiment
Wednesday: OPEC Monthly Report, US Core CPI (YoY), Crude Oil Inventories, US FOMC Statement, US Fed Interest Rate Decision, US FOMC Press Conference
Thursday: EU ECB Interest Rate Decision, EU ECB Press Conference
Friday: US Retail Sales Uptrend
An uptrend will start from support levels 1457 - 1354, which will be followed by moving up to resistance level 1468 and 1478.
Downtrend
An downtrend will start as soon, as the pair drops below support level 1457, which will be followed by moving down to support level 1445. Uptrend
The uptrend may be expected to continue, while pair is trading above support level 1454 - 1445, which will be followed by reaching resistance level 1487 and if it keeps on moving up above that level, we may expect the pair to reach resistance level 1513.
Downtrend
An downtrend will start as soon, as the pair drops below support level 1445, which will be followed by moving down to support level 1418."
8,"Weekly Trades: AUD/NZD, NOK/SEK, USD/PLN, USD/HUF, USD/INR, USD/RUB","NOK/SEK and AUD/NZD are the exact same pair against  identical exchange rate numbers. Together, both provide a double trade. NOK/SEK at current 1.0400's provides support to USD/NOK and USD/SEK at 9.0000's.Both NOK/SEK and AUD/NZD are oversold, AUD/NZD is far more oversold than NOK/SEK. Both trade below 5 year averages at AUD/NZD 1.0718 and NOK/SEK approaching at 1.0487. Explains why NOK/SEK is less oversold than AUD/NZD. Its a question of distance.Among 36 EM currency pairs, AUD/NZD and NOK/SEK exchange rates are listed at the lows. Both are located between USD/SGD at 1.3600's and AUD/SGD at 0.9300's. AUD/NZD shares a combination location between EM and G28. Below AUD/NZD and NOK/SEK in G28 proximate currency pairs are AUD/CAD 0.9000's, NZD/CAD 0.8600's and EUR/GBP 0.8400's.G28 currency pairs drive EM as G28 pairs contain lower exchange rate numbers and  are more widely traded. Higher EM exchange rate numbers are built into the system to ensure economic viability. If G28 currency pairs crash, EM currencies won't ever fall to Zero. EM currencies can always rebuild and trade to acceptable levels.USD currencies were chosen today because EUR among practically every currency on the planet contains severely high and deeply dangerous Noise Levels. Thus means not only will prices not perform due to range persistence but a spark from an outside event can send EUR into wild spikes. Range persistence is quantified by extremely low variation against high noise. Only EUR pairs correct are against PHP, BRL, HUF, ILS, ISK Krona, KRW, NOK, RUB, SEK and THB.USD/RUB is offered due to a central bank meeting this week yet RUB is not only a dead issue currency pair, it falls almost into a fixed exchange rate.USD/PLN and USD/HUF as always are not only terrific currency pairs but both trade correctly and respond perfectly to targets. USD/RON is the third to complete the trifecta.Long 3.8539 and 3.8457 to target 3.8701. Must cross 3.8580, 3.8621 and 1.3662. Long above 3.8785 to target 3.8949. Must cross 3.8826 and 3.8867.Long 1.0432 and 1.0395 to target 1.0543. Must cross 1.0432 and  1.0506. Long above 1.0581 to target 1.0654. Must cross 1.0694 and  1.0617.Long 1.0325 and 1.0364 to target 1.0522. Must cross 1.0404, 1.0443 and  1.0482. Caution 5 year average at 1.0487.Long 294.65 and 293.90 to target 298.39. Must cross 294.64, 295.38, 296.15, 296.89 and 297.63. Long above 299.14 to target 300.63. Must cross 299.88. Long 70.19 and 70.42 to target 71.01. Must cross 70.66 and 70.89. Long above 71.12 to target 71.59. Must cross 71.36.Long 63.67 and 63.45 to target 64.03. Must cross 63.91. Long above 64.16 to target 64.49. Must cross 64.38."
9,When is China CPI/PPI data and how could they affect AUD/USD?,"Early on Tuesday around 01:30 GMT, the market sees November month headline inflation numbers from China, namely the Consumer Price Index (CPI) and the Producer Price Index (PPI).China’s annualized CPI reading is expected to rise from 3.8% to 4.2% with PPI YoY likely recovering to -1.5% versus -1.6% earlier. On an MoM basis, CPI bears the forecast to flash a 0.1% gain against 0.9% previous rise.TD Securities follow the market consensus of a soft CPI number while saying:China CPI rose to 3.8% y/y in October, its highest reading this year, due predominantly to a 101.3% y/y increase in pork prices. In contrast, ex-food CPI matched its lowest since October 15, suggesting that underlying price pressures remain benign. While the impact of African Swine Disease is likely to continue to exert upward pressure on headline CPI, this is likely to fade in the months ahead. Even so, we estimate that CPI rose further in November, to 4.4% y/y.Analysts at Westpac also have their own say about Chinese data:Inflation has not been a barrier to monetary easing in China if needed, with CNY fragility the bigger concern. At 12:30 pm Syd/9:30 am local, Nov CPI is seen bouncing to 4.3%yr from 3.8%yr but this is due to a surge in food prices, especially pork. Non-food inflation was only 0.9%yr in Oct. Nov PPI is also due.CPI and PPI numbers from Australia’s largest customer will undoubtedly affect the AUD/USD moves. However, the market’s positive reaction could be compressed amid the present cautious trade sentiment. Should Chinese data please Aussie buyers with upbeat readouts, AUD/USD could refresh month high of 0.6865 ahead of visiting 200-day Simple Moving Average (SMA) near 0.6915. Alternatively, disappointment might have an immediate negative impact that can drag the Aussie pair further down towards a 100-day SMA level of 0.6810 ahead of shifting bear’s focus on November low near 0.6755.AUD/USD extends losses to 0.6825 ahead of key Aussie/China dataAUD/USD Forecast: China weighs on the AussieAbout China CPIThe Consumer Price Index is released by the National Bureau of Statistics of China. It is a measure of retail price variations within a representative basket of goods and services. The result is a comprehensive summary of the results extracted from the urban consumer price index and rural consumer price index. The purchase power of the CNY is dragged down by inflation. The CPI is a key indicator to measure inflation and changes in purchasing trends. A substantial consumer price index increase would indicate that inflation has become a destabilizing factor in the economy, potentially prompting The People’s Bank of China to tighten monetary policy and fiscal policy risk. Generally speaking, a high reading is seen as positive (or bullish) for the CNY, while a low reading is seen as negative (or Bearish) for the CNY.About China PPIThe Producer Price Index released by the National Bureau of Statistics of China is a measurement of the rate of inflation experienced by producers. It captures the average changes in prices received by Chinese domestic producers of commodities in all stages of processing (crude materials, intermediate materials, and finished goods). Changes in the PPI are widely considered as an indicator of commodity inflation. If the Producer Price Index increase is excessive, it would indicate that inflation has become a destabilizing factor in the economy, The People’s Bank of China would tighten monetary policy and fiscal policy risk. Generally speaking, a high reading is seen as positive (or bullish) for the CNY, whereas a low reading is seen as negative (or bearish) for the CNY."
10,Mexico President Obrador: Senators have accepted proposed changes to USMCA,"Mexican President Andres Manuel Lopez Obrador on Monday announced that Mexican senators have accepted the proposed changes to the United States-Mexico-Canada Agreement (USMCA) trade agreement, per Reuters.""We are now waiting for the United States to make the next move,"" Obrador added. ""Now is the right time to decide on the USMCA.""These comments seem to be helping the MXN gather strength against its major rivals. As of writing, the USD/MXN pair was down 0.25% on the day at 19.2535."
11,Gold trend is still bearish targeting lower levels,"The Gold has formed a swing to the upside – towards 1480 but couldn't proceed. 1475-80 is the zone where the price might reject again.However if we don't see a retracement to 1475, pay attention to 1468-70 as we might see a rejection over there too. Targets are 1465, 1457 and 1451. Break of 1451 is aiming for 1444. Only a bounce above 1483 will be bullish targeting 1489 and 1502. The ATR of the GOLD has been modest so the increase in volatility might be expected due to yearly profit taking in upcoming weeks.  The analysis has been done with the CAMMACD.MTF template.For more daily technical and wave analysis and updates, sign-up up to our ecs.LIVE channel."
12,"Bitcoin Price At $100,000 By December 2021: Anthony Pompliano","Anthony “Pomp” Pompliano, co-founder and managing partner at the venture capital fund Morgan Creek Capital, spoke to CryptoPotato on cryptocurrencies. The crypto community has been arguing about the ""blockchain, not Bitcoin"" narrative for a while now. This can particularly be noticed in China, where the government supports the development of blockchain-based technologies but outlaws the usage, storage, or trade of cryptocurrencies.Pompliano said that the game-changer here is time. He added:I think that everyone comes into the industry and they usually do it through Bitcoin. They hear about it, start looking at it, and then there’s the evolution.They go and check enterprise blockchain, check out tokenized securities, DeFi, but pretty much everyone comes back to Bitcoin. Now, that journey may take six months, 12 months, or 18 months, but I think the best thing for Bitcoin is time.It takes time for people to get familiar with it, to start using it, to understand why it’s crucial. I think that’s going to happen at the government level, the private level, and the institutional level. So it’s just the time needed for people to get more familiar with it.Notably, many financial and governmental institutions are welcoming blockchain-based technologies. Recently, Agustin Carstens, the General Manager of the Bank of International Settlements (BIS), suggested central banks embrace digital money. Pompliano said:A great use case for blockchain is triple-entry accounting. Single-entry accounting was replaced by double-entry accounting. It’s pretty much true of all transactions and accounting for the last hundreds if not thousands of years. In that sense, I think the invention of triple-entry accounting is going to be huge for human development, and blockchain is a great way to do that in an automated fashion. We just announced that we led a series C funding for a company called Figure Technologies.In that system, basically, what happens is, they created a digital mortgage, and the way that they transact with other people on Wall Street is through a decentralized settlement system. It’s triple-entry accounting that’s presiding over those transactions, so you don’t have a centralized party to do transactions.Bitcoin halving is one of the most anticipated events in 2020. This is the event that will slash by half the miner’s rewards for adding blocks to the network. Several crypto enthusiasts expect the halving to have a significant impact on Bitcoin’s price since the supply of newly minted BTC will reduce. According to basic economic principles, when the supply of an asset is reduced while the demand remains the same or increases, its prices will surge. Pompliano believes the same and he added:The halving will be a big moment for Bitcoin. I don’t think that the price will shoot up the day after it, but I do think that from the day we are right now, we will see Bitcoin’s price at $100,000 by December 2021.With respect to the current price action, Pompliano anticipates a lot of volatility:I think that we are now in a bull market that will extend to around two years. In that period, I think Bitcoin’s price will see a lot of volatility with days spiking up 10-12% as well as 30% crashes. Generally, though, it will continue to trend upwards.
 "
13,TRX/USD refuses to leave the range even as TRON ranked as No. 3 blockchain according CCID,"TRON is trading at $0.0146 at the time of writing, down 1.5% in recent 24 hours. The coin retreated from 11th place to 13th position with the market value of $968 million and an average daily trading volume of $909 million. For the recent several days, the coin has been sitting in a tight range limited by $0.0148 on the upside and $0.0144 on the downside. China Electronic Information Industry Development (CCID) published 15th global rating for public blockchains. CCID ranged TRON as the third-best blockchain inferior only to EOS and Ethereum. The news was announced by TRON's founder Justin Sun.According to the CCID’s 15th global public blockchain technology assessment index, TRON was ranked top 3 in this list together with EOS and ETH. In addition, TRON also ranked No.1 among all Chinese Public Blockchain. Notably, the announcement had little effect on TRON's price so far as the coin tends to move in sync with the market. Also, TRX has been caught in controversy lately, when the US_based cryptocurrency exchange attempted to shill TRX on its Twitter account. While the tweet was swiftly removed, the community noticed it before it was gone.Looking technically, we will need to see a sustainable move above $0.0148 for the upside to gain traction. Once this barrier is out of the way, psychological $0.0150 reinforced by the middle line of the daily Bollinger Band, will come into focus. On the downside, once $0.0144 cracks, the coin may continue the sell-off towards $0.0140 and November 25 low at $0.0131."
14,Ripple's XRP technical analysis: XRP/USD weekly chart remains largely bearish," The weekly view can see a chunky area of supply capping upside, $0.2250-0.2500 price range. Price action is stuck within a stubborn bearish pennant, breakout to the downside remains a risk.  Spot rate:                 0.2290     Relative change:      -0.50%High:                         0.2311 Low:                          0.2272  "
15,"IOTA price analysis: IOT/USD loses ground, ignores positive fundamentals","IOTA is flashing with red colors. The coin retreated from the 18th position a month ago to 20th place in the global cryptocurrency rating amid strong bearish sentiments. At the time of writing, IOT/USD is changing hands at $0.2030, down 2% since the beginning of Monday. The coin has lost nearly 24% in a month and 50% in recent six months.IOTA project is basin signing partnership deals with various companies; however, this success has failed to translate into the price increase so far.In the latest development, a German company engaged in the waste processing industry, Biota, has launched Deposy, a new system of plastic gathering and processing based on IOTA technology. The team says that people will receive a small remuneration for gathering waste that can be recycled. They have chosen IOTA due to zero fees high capacity and relatively low coin price.In September, IOTA entered a partnership deal with Jaguar Land Rover with the aim to develop a solution for tracking the renewable energy for the cars recharge.IOTA's recovery is capped by $0.2075-$0.2100 area reinforced by SMA100 (Simple Moving Average) 4-hour and the upper line of 4-hour Bollinger Band. Once it is out of the way, the upside is likely to gain traction with the next focus on the longer-term bull's target of $24.50. This barrier is created by SMA50 daily and followed by $0.2550 (SMA100 daily).On the downside, the psychological $0.2000 is followed by December 4 low of $0.1953. We will need to see a sustainable move below this handle for the sell-off to gain traction. The next support is created by the lower line of the daily Bollinger Band at $0.1920 and November 22 low of $0.1877.
 "
16,,
17,,
18,,
19,,
