,title,text
0,USD/JPY: Risks for Japanese yen remain tilted to the downside – ING,"The USD/JPY will likely break above the 110 during the current week according to analysts at ING. But their one-month target is 108.00. “The yen was caught in the crossfire late this week as the US-China trade deal was signed off by President Trump and the Conservative party won by a large margin in the UK. While some more details on the trade deal should come through later in the week, the risks for JPY remain tilted to the downside as the recent round of risk appetite keeps drying up haven demand.”“Markets will also be watching the central bank of Japan's meeting on Wednesday. The rate announcement comes after a week of Japanese central bank speakers commented on monetary policy last week. First, Governor Kuroda referred to the global economic outlook for 2020 as “bright”, but his deputy, Masayoshi Amamiya, later said that the central bank is ready to add more stimulus if downside risks rise. We struggle to see any room for a material surprising tilt in the BoJ stance this week, which means the yen is unlikely to find anything to grab on to avert another unhappy week.”
 "
1,EUR/USD Price Analysis: Euro bulls looking for a break above the 1.1151 resistance,  
2,EUR/USD off the highs as German Preliminary Manufacturing PMI misses estimates with 43.4,"The German manufacturing sector contraction unexpectedly picked up pace in December, the preliminary manufacturing activity report from IHS/Markit research showed this Monday.The German Manufacturing purchasing managers index (PMI) arrived at 43.4 versus 44.5 expected and 44.1 previous, hitting two-month lows.Meanwhile, Services PMI hit a four-month high level of 52.0 as against the previous month's reading of 51.7 and 52.0 anticipated.The IHS Markit Flash Germany Composite Output Index remained unchanged in December at 49.4 vs. 49.9 expectations. “With the headline composite PMI holding steady at 49.4 in December, the flash data point to a weak end to a difficult year for the German economy.”“Manufacturing continues to weigh heavily on private sector output, with faster decreases in factory production and employment in December causing the manufacturing PMI to tick down for the first time in three months. Easing rates of decline in new orders and exports continue to provide glimmers of hope, however.”On downbeat German PMI numbers, the EUR/USD pair dropped nearly 10-pips from near daily highs of 1.1150 to now trade near 1.1135 region."
3,Forex Today: Cautious optimism weighed on the greenback,"Here is what you need to know Tuesday, December 17th:"
4,EUR/USD Price Analysis: Euro bulls fighting for the 1.1151 resistance,  
5,GBP/USD: What’s next in store? – Commerzbank,"Axel Rudolph, analyst at Commerzbank, notes that GBP/USD trades back around the March peak at 1.3382, having briefly reached 1.3515 post the UK election result last week.“Above the high at 1.3515 sits the December 2017 high at 1.3550 and still further up the September 2017 peak at 1.3658 as well as the February 2018 low at 1.3712, all of which are now in focus for the weeks to come.”“Support is to be found between the 1.3270 late March high and the 1.3217 January peak. There is also support to be seen at the 1.3187 May peak.”“A daily chart close below the 1.3050 December 12 low would put the 200 day moving average at 1.2699 back on the plate.”"
6,What’s Next for GBP/USD after Bullish Spike Hits 1.35?,"The GBP/USD is building a bearish retracement after a strong bullish spike up during the UK elections, which showed a win for the Conservative party. What’s next for the Cable? 4 hourThe GBP/USD spike is probably an impulsive push higher and therefore labelled as a wave 3 (blue). A bearish retracement within wave 4 (blue) is now likely to take place. Price can either make a pullback towards the Fibonacci retracement levels of wave 4 (blue) or build a triangle pattern (purple arrows). The wave 4 (blue) outlook remains likely as long as the price stays above the 50% Fib (red x).1 hourThe GBP/USD could be building an ABC (green) pattern in a wave 4 (blue) unless price breaks above the 1.35 resistance level (dotted orange), which could indicate an immediate uptrend continuation. A retracement or triangle (purple arrows) could simply be a pause within the uptrend.  The analysis has been done with the CAMMACD.MTF template.For more daily technical and wave analysis and updates, sign-up up to our ecs.LIVE channel."
7,Many trends may change directions in January,"REVIEW AND PREVIEWPresident Trump has agreed to a limited trade pact with Beijing that will roll back existing tariff rates on Chinese goods and cancel new levies set to take place on Sunday as part of a deal to boost Chinese purchases of U.S. farm goods and obtain other concessions. – Lingling Wei, Bob Davis, William Mauldin, and Josh Zumbrun, “U.S. Agrees to Limited China Trade Deal,” Wall Street Journal, December 13, 2019.Not bad for a Friday the 13th. The holiday season known for “giving” was very much in evidence last week as a lot of good things happened for financial markets. For one, the Fed announced that it would leave rates steady for the indefinite future, or until inflation shows signs of rising beyond the boundaries the Fed has established as “in control” for more than just a short-term. It was an unspoken understanding that they would not move rates at all during the upcoming election year. However, they probably are not aware that between May 13 and June 25, 2020, Venus will turn retrograde, a time when they (or other central banks) often change their policies with unexpected announcements of policy changes.The second good thing that happened for financial markets was that the UK elections finally provided a clearer path for Brexit, the divorce from the Euro Union as voted on over three years ago. The markets can remove that uncertainty from their list of concerns for now (although it will create new concerns as a result).The third good thing that happened was that the U.S. and China finally announced a “first phase” (of three phases) trade agreement, with the idea that the agreement will be signed January 3. On this good news, the equity markets of the world cheered, especially in the U.S. where the DJIA, S&P and NASDAQ all soared to new all-time highs. So did the Bovespa in Brazil. Many other markets are either testing their all-time highs or making new multi-year highs.The behavior of equity markets last week was enough to make one think that the geocosmic correlations to stock market activity are alive and well. The U.S. (and other world) markets struggled after their all-time highs of November 27 (DJIA and NASDAQ) and December 2 (S&P). The low of last week occurred Tuesday-Wednesday, December 10-11, as Venus conjoined Saturn (December 11). One of our rules is that any market declining into a hard Venus/Saturn aspect is a candidate for a rally. The idea that stocks would rally big time was anticipated because right after the Venus/Saturn repression, Jupiter (exaggeration and hope) would make a favorable trine aspect to Uranus (breaking through barriers of support or resistance) on December 15. It was right along with the outlook described last week as, “Yet, with Jupiter trine Uranus following those conjunctions (Venus to Saturn and Pluto), there may also be signs of a trade deal between the U.S. and China, which would make sense as new tariffs are scheduled to be launched December 15… it could also mean the final details of a limited agreement suddenly come to fruition. That could be the trigger providing the impetus for another record high by the end of the year, for the Sun will then conjunct Jupiter and trine Uranus, December 24-27.” So, the world got a “limited trade deal” (Saturn) between the U.S. and China, and then a big (Jupiter) rally in equities all over the world. It wasn’t the big, beautiful trade deal that was promised before, but then that promise was made when the expansive planet of Jupiter was in the expansive sign of Sagittarius. Now it is in Capricorn. Big, beautiful deals are downgraded now to acceptable, limited deals.It was also an excellent week for Crude Oil, which is co-ruled by Jupiter. For the first time since September, Crude Oil traded above $60/barrel. Gold and Silver held up very well. Gold even made a new cycle high, trading briefly above $1490 on Thursday, December 12, for the first time since it broke down November 7. As long as Mars is in Scorpio, and it doesn’t break below 1450, it has bullish legs. Bitcoin, on the other hand, is mired in congestion between 7000 and 7500. However, it is due for a lunar cycle low by the middle of this week.SHORT-TERM GEOCOSMICS AND LONGER-TERM THOUGHTSThe U.S. government deficit spiked 12 percent to $342 billion during the first two months of fiscal year 2020, according to data from the Congressional Budget Office. The CBO says the U.S. budget deficit will average $1.2 trillion a year from 2020 to 2029, amounting to 4.4 percent to 4.8 percent of gross domestic product. The federal deficit was $587 billion when President Trump took office in January 2017, and had ballooned to $984 billion in 2019. – Jonathan Garber, “U.S. Deficit Soars to $342 Billion in Two Months,” www.foxbusiness.com, December 10, 2019.The celebratory Jupiter transits will remain in force through December 27 when the Sun conjoins it, trine Uranus. Thus, even with the Capricorn background of these planets, it still creates a feel-good sensation about the future. For now. It could all change early next year when the Sun leaves Jupiter and joins up with Saturn and Pluto in Capricorn, January 10-13. During that time, Uranus will also change directions, which means a lot of trends may also change directions around that time.But for now, let’s enjoy the season and the breakthrough of several concerns that have plagued the market and world leaders all year. We will reserve our worries for next year until …. next year. You can read all about it in this year’s Forecast 2020 Book, which goes out Monday. It’s going to be quite the year, cosmically-speaking.HOLIDAY PUBLICATION SCHEDULEMMA will take a holiday vacation after next week. There will be no subscription reports or columns written after December 23, until January 3. Have fun! With all this Jupiter energy in effect through December 27, there is no reason why one should not. However, you may have to be careful of having too much fun. Jupiter oftentimes has difficulty knowing its boundaries, or the boundaries of others. But with common sense and a little respect for others, the promise for a great holiday season is possible for businesses and individuals alike. It may actually feel like we are working in harmony with one another, that we recognize those things that connect us with one another, rather than those things that set us apart. Enjoy!ANNOUNCEMENTSNOTE 1: The ICR (International Cycles Reports) from MMA will be issued this week, December 16-18. The ICR Financials includes analysis on ASX (Australian Stock Index), RUT (Russell 2000), SSE (Chinese Shanghai Stock Composite), HSI (Hang Seng Index), AUD (Australian Dollar), DXY (US Dollar), and GBP (British Pound). The ICR Commodities Report includes analysis on LC (Live Cattle), MJ (Cannabis), XAU (Gold and Silver), KT (Coffee), KA (Sugar), C (Corn), and W (Wheat). These reports are written by MMA Analyst and editor Mark Shyterman (metals, stock indices, and soft commodities), MMA Analyst Raymond Merriman (China markets), MMA Analyst Ulric Aspegren (Currencies), Isabella Suleymanov (Grains), and Massimo Moras (Live Cattle and Hang Seng). If you are not a subscriber to the International Cycles Report and wish a copy of our outlook, consider trying the December Issue for only $35.NOTE 2: SPECIAL ANNUAL REPORTS ON JAPANESE, CHINESE AND GERMAN STOCK INDICES FROM MMA. This year’s English edition of the Forecast 2020 Book is 250 pages, our largest ever. We think readers will be pleased with additional analysis on the three synodic cycles that will be in effect in 2020, something that has happened in over 130 years. The correlation of these cycles to mundane, political , and economic events is fascinating, especially the research on the longest of these planetary cycles beginning this year: the 32-37 year Saturn/Pluto conjunction.In addition to the English edition of Forecast 2020, Raymond Merriman has written three special 9-page yearly market reports/forecasts for the Japanese Nikkei, Chinese Shanghai Composite, and the German DAX stock indices. Each of these are translated and printed in their respective Japanese, Chinese, and German book editions of Forecast 2020.Many of our English readers and global investors may find these reports to be of special interest too. Therefore, we will make each of these reports available for purchase for $30 apiece. They are written in English and analyze each of these markets from the perspective of their long- and intermediate-term cycles, as well as citing their correlations to planetary cycles in effect in 2020, such as the history of the three major synodic cycles that will unfold next year.If you are interested in ordering either of these three special reports on the 2020 outlook for the Nikkei, Shanghai Composite, or German DAX, please visit our Special Annual Report shop.NOTE 3: The Forecast 2020 Book is now printed and distribution begins this Monday, December 16th, to those who have pre-ordered. As always, we print an additional 10% of books to the number of orders received by the end of the pre-publication period. This year’s printing looks like it will sell out again, so if you wish a copy of this year’s book, please order before they are gone. The cost is $55.00 plus postage for the printed edition (no postage for the eBook edition). Order both an eBook and print book (Forecast 2020 Bundle) for only $75! This year’s Forecast Book will cover: The Saturn/Pluto 32-37 year cycle, the Jupiter./Saturn 20- and 200- and 800-year cycle, and the 13-year Jupiter/Pluto cycle, and their correspondence to historical events that relate top themes present in today’s world. Also covered will be The USA and the 2020 Presidential Election, the potential for the next financial crisis, and the outlook for financial markets in 2020, including interest rates, treasuries, stock market, Gold and Silver, currencies (U.S. Dollar, Dollar/Yen, Swiss Franc, Euro, and British Pound), Crude Oil, Grains, Bitcoin, and Live Cattle. This will be the largest Forecast Book ever written- over 250 pages! Order now before they are gone.This year’s printed version of Forecast 2020 will also available in four other languages, as follows:Italian: https://ilmiolibro.kataweb.it/utenti/79533/market-timing/
German: www.mma-europe.ch/
Japanese: https://www.toushinippou.co.jp/
Chinese: www.nodoor.com/NOTE 4: The last issue of the MMA Monthly Cycles Report for 2019 was released last week, Tuesday, December 10. Every issue provides MMA’s intermediate-term outlook for the U.S. stock market, Gold and Silver, Treasuries, Euro Currency, Crude Oil and Soybeans. Each issue also contains MMA’s original geocosmic critical reversal dates (CRDs) and Solar/Lunar reversal dates over the next several weeks for DJIA, Gold, and Silver. If you are not a subscriber to the monthly MMA Cycles Report and wish a copy of our outlook for financial markets, consider trying the December Issue for only $35. With stocks making all-time highs again (forecasted ion the past two monthly issues), and Gold recently making a new 6-year high, and Jupiter now leaving Sagittarius as the 2020 “Capricorn Stellium” begins, this is an important juncture for many financial markets.EVENTSJanuary 12, 2020: The Saturn/Pluto Conference: “Reset Astrology: Start of a New Era,” Zurich, Switzerland, featuring Claude Weiss, Monica Kissling, Verna Bachmann, Alexandra Klinghammer, Klemens Ludwig, Markus Jehle, Dr. Christof Niederwieser, and Raymond Merriman. For more information, visit https://www.astro2020.ch.February 8, 2020: MMA’s Forecast 2020 live webinar will take place on Saturday, February 8, 2020. In the comfort of your own home or office, you can tune into Raymond Merriman’s annual worldwide Forecast 2020 Webinar. This broadcast will address subjects from next year’s Forecast 2020 Book, with updates on financial markets since the book was written in November 2019. Outlooks for the U.S. stock market, Gold and Silver, crude oil, and currencies will be discussed. Cost is $55.00 and includes the slides of the presentation, plus a downloadable video recording of the event. If unable to attend live, you can still sign up, as everyone who orders the Webinar will receive the slides and video recording, following the live event.September 9-14, 2020: The ISAR 2020 Conference on “Reimagining the Future.” The largest and most exciting international astrological conference taking place in 2020. With a faculty of over 100 of the world’s top astrologers from 25 different countries, and very dynamic tracks on Financial Astrology, Mundane and Political Astrology, and other topics, this is an event you will not want to miss. On Wednesday, September 9, Ray Merriman will be conducting a 4-hour workshop on Astrology and the art of financial market timing: How to forecast trends and market reversals. This course will provide research studies showing the correlation of astrological factors to short-term and longer-term financial market timing in stock markets, precious metals, and Bitcoin. To register or see more information on this spectacular event, go to go to https://isar2020.org and be prepared to be amazed!The U.S. economy added 136,000 jobs in September, the Bureau of Labor Statistics said Friday. Economists polled by Dow Jones expected an increase of 145,000 jobs. The unemployment rate fell to 3.5%, a 50-year low, but wages grew at a slower-than-expected pace last month. “This sounds like a Goldilocks number to me,” Steve Grasso, director of institutional sales at Stuart Frankel, told CNBC. “It still gives the Fed some room for cover to cut rates. This is as close to a not-too-hot, not-too-cold greeting for the market.”– Fred Imbert, “Dow Jumps More Than 200 Points After Steady Jobs Report,” October 4, 2019, https://www.cnbc.com.And on that news, plus supportive statements by Fed Chair Jerome Powell that the economy was still on sound footing, the U.S. stock market blasted off to the upside.It started out as a difficult week for global stock indices, following the rapid pace of the impeachment investigation on President Donald Trump, combined with a poor manufacturing report mid-week, leading investors to think that the U.S. might be headed for a recession sooner than previously thought. By early Thursday, the DJIA had plummeted to a weekly low of 25,743, a new 5-week low and well off the double top highs of 27,306 and 27, 272 on September 12 and 19 respectively, just before the final passage of the Jupiter/Neptune waning square on Saturday, September 21.But by Friday’s close, the DJIA was back up to 26,573. It was still down 246 points for the week, but at the low on Thursday, it was down over 1000 points. Happy days are here again!Other markets were just as volatile as stocks. Gold, for instance, fell to a low of 1465 on Tuesday, October 1. That was its lowest price in 8 weeks. That decline didn’t last long either. By Thursday, it was trading up to 1525 before settling the week at 1510. Silver was just as dramatic. It plunged to 16.94 on Tuesday, October 1, its lowest price in 7 weeks. By the next day, it was trading well above 17.50. That was probably a function of heliocentric Mercury in Sagittarius, September 26-October 7, combined with geocentric Venus in Libra, September 14-October 8. The former time frame corresponds to wild price swings in metals and the latter to primary or half-primary cycle troughs.As stocks plummeted, treasuries and currencies rallied sharply. When stocks fall, investors fear a recession is on the way, and believe that the Fed will lower interest rates. Since rates are already very low, this is perceived to be inflationary, which lowers the value of the Dollar, and increases the expected future value of commodities and foreign currencies. If stocks continue their rally next week, you may see each of these markets retreat. Well, happy days will be here again if the market gets its wish for a rate cut and a U.S. – China trade deal moving forward in the next 1-2 weeks as investors hope. Even though Jupiter and Neptune have made their final passage, there still seems to be a bit of “irrational exuberance” and possibly false hopes as there is still no confirmation that either of those two wishes will be granted.We note that on October 14, the week that an important announcement on one or both of these matters is due, Jupiter will make a sesquiquadrate (135°) aspect to the unpredictable Uranus, which will re-activate the Jupiter/Neptune square, since they are still in close orb to exact aspects with one another. That is, Jupiter will still be within three degrees of its square to Neptune, and Uranus is still a little more than three degrees off an exact semi-square to Neptune. Jupiter splits them both with its 135° sesquiquadrate that week.As if that is not enough, October 13 is a Full Moon (it will be in effect when Asian markets open up Monday morning, October 14). And just prior to that, on October 12, Venus will make an important opposition to “Uranus the Unpredictable” again, this time from Scorpio to Taurus, the money signs. Well, Taurus is money, as in credit. Scorpio is debt. This aspect also brings back into play the Jupiter/Neptune square, so there is plenty of cosmic support for “irrational exuberance” continuing for another 1-2 weeks, and again with the very real possibility of turning out to be another big disillusionment.And as if that is not enough, we also note that the Sun will make a square to both Saturn and Pluto, October 7 and 14. Saturn pertains to the government, and Pluto, as noted before, is associated with debt and taxes. The combination can also be associated with attempts to remove people from office, implying that the impeachment investigation processes are likely to grind forward for at least another 1-2 weeks. If I am reading this right, it may even continue right into the 2020 elections, for Mars will be turning retrograde in Aries in the latter half of 2020, also in square aspect to Saturn and Pluto for the better part of August through November. I don’t know if the impeachment proceedings are being planned with that time line in mind, but that’s how I see it.If anyone thought 2016 was a nasty election, wait for the 2020 election under Mars Retrograde square Saturn and Pluto. For good measure, Mercury will be just ending its retrograde motion within 24 hours of the election too. The good news is that 2020 may be the peak of political discord exhibited in U.S. elections for the rest of our lives. More on this in the Forecast 2020 Book, which I am finding a fascinating undertaking. It is still on schedule for release December 15, 2019. The 2017 and 2018 books described the “Reset” that would take place in global politics and economics. That was spot on. The 2019 book described the “Setup” for the Capricorn Stellium that will unfold in 2020, and that too is unfolding as discussed. And 2020 will be the year of “Checkmate.” Someone is going to win and someone is going to lose this chess match that has been underway since 2017 between the executive branch of the United States government and other world and national leaders."
8,Gold and Silver Miners Outperforming the Metals,"​​​​​​For the first time in a long time, gold and silver miners are outperforming the metal, generally a good signal for both.Starting November, on a daily chart, the XAU components started outperforming gold and silver.Miners vs the Metals WeeklyA weekly chart shows these periods of overperformance and underperformance can last a long time. Recent action in the miners is encouraging as are the technical charts.Gold Bull FlagRetest of Resistance LineSilver Bullish DivergenceThe preceding two charts are from Ross Clark at Charts and Markets, via Bob Hoye at Institutional Advisors. The numbers pertain to DeMark exhaustion signals, a method I do not follow, but many technicians do.Clark's OpinionSilver loves to take out supporting lows, creating a Wyckoffian ‘Spring’ and bullish divergence in the RSI just prior to rallies. We have such a divergence now.In the last thirty years silver has managed to put in seasonal lows in November and December (7 and 18 times respectively). Seasonal highs have been in January and February (14 and 10 times respectively).There were only four instances where silver prices continued to rally past March (2016, 2011, 2006 and 2004). Rallies most commonly advance around 17%. The smallest percentage gain was 9% with a few outliers in excess of 30%. If the $16.56 low of last week holds then we can anticipate a minimum target of $18.05 with a most likely target of $19.35. An optimum transaction would be a March call option with a strike price halfway to the target. Options are available for the futures contract and the SLV ETF.Thanks to Ross Clark and Bob Hoye. The initial charts are mine. This material is based upon information that Sitka Pacific Capital Management considers reliable and endeavors to keep current, Sitka Pacific Capital Management does not assure that this material is accurate, current or complete, and it should not be relied upon as such."
9,"Crude Oil Price News and Forecast: WTI - Off 3-month highs, trapped in a rising wedge","Crude oil can be ending a big triangle correction in wave B near the 59.7 region, so be aware of further bearish price activity into wave C. We are specifically tracking final stages of E of B, which can look for resistance at Fib. ratio of 61.8. That said, an impulsive drop below the lower corrective channel line connected from the low of wave D would suggest a completed triangle and further downside. Read more...WTI oil is currently trading at $59.83 per barrel, having hit a high of $60.45 on Friday. That was the highest level since Sept. 17.The hourly chart shows the black gold is trapped in a rising wedge, which comprises converging trendlines connecting higher highs and higher lows. The converging nature of trendlines indicates buyer exhaustion. As a result, a wedge breakdown is considered a bearish reversal sign. At press time, the lower edge of the wedge is seen at $59.21. An hourly close lower would imply an end of the rally from lows near $55.30 and open the doors for a drop to support at $58.00. Read more... WTI Crude key support at 5920/10 today. Again bulls need a break above 6000 to retest the 6040/48 high. Further gains meet a selling opportunity at 6090/6110, with stops above 6140.Longs at 5920/10 need stops below 5875 for a buying opportunity at 5830/20, with stops below 5795.Weekly outlook is neutralDaily outlook is positiveShort Term outlook is positiveRead more..."
10,Canadian Dollar Soars as Mexico Rejects US Version of USMCA,"The US dollar declined sharply against the Canadian dollar as resistance emerged over the new USMCA deal. The resistance came from Mexico, which angrily resisted the new bill that will be debated in US congress this week. This was revealed as Jesus Seade, the country’s chief negotiator travelled to Washington on Sunday to discuss these issues. Seade said that the new bill contained provisions that Mexico had not agreed to. For example, he said that the country resisted the provision of having up to five US labour attaches in Mexico to monitor adherence to labour rules. Instead, Mexico has pushed for panels – instead of these inspectors – to resolve disputes. This means that the deal could be delayed.The euro struggled for direction as the market reacted to the new data from Europe. Markit, the global data company, released the flash PMI data from the EU. These numbers showed that the manufacturing sector had weakened in November. In Germany, flash manufacturing PMI declined from 44.1 to 43.4 while the composite PMI remained unchanged at 49.4. In the European Union, the manufacturing PMI declined to 45.9 to 46.9. This was below the consensus estimates of 47.3. In the UK, the manufacturing PMI declined to 47.4 from the previous 48.9 while the services PMI declined from 49.3 to 49.0. However, traders are optimistic that the new UK government will lead to a smoother Brexit.Global stocks were mixed today as the market started to digest the new truce between the US and China. In Asia, the Hang Seng and China A50 dropped by 180 and 35 points respectively. In Europe, the DAX, CAC, and FTSE rose by 83, 60, and 161 points respectively. In the United States, all futures pointed to a higher open. This came as China and the US announced the first phase of a deal. Robert Lighthizer said that China had agreed to buy $16 billion more agricultural goods in the next two years. Other details of the deal remained vague and traders are worried about the impact of the deal.  The EUR/USD pair rose slightly even after the disappointing PMI data. The pair is trading at 1.1140, which is higher than Friday’s high of 1.1110. The price is slightly above the 14-day and 28-day moving averages and slightly above the important support shown in pink below. The price also appears to be forming a symmetrical triangle pattern, which means that a breakout in either direction may happen in the next few days. The USD/CAD pair declined sharply today. The pair reached a low of 1.3125, which is the lowest level since November 4. The price is along the lower line of the Bollinger Band and below the 14-day and 28-day moving averages. The RSI has moved to the oversold level of 30 while the signal line of the MACD indicator remained below the neutral level. The price may continue to drop as the market continues to watch the ongoing issues on trade. The GBP/JPY pair was relatively unchanged today as the market continued to digest Boris Johnson’s election. The pair is trading at 146.40, which is below Friday’s high of 147.92. The price is slightly above the 14-day and 28-day moving averages. The average true range has continued to soar while the momentum indicator remains above 100. The pair may move lower to fill the gap that was formed on Friday in the coming days. General Risk Warning for FX & CFD Trading. FX & CFDs are leveraged products. Trading in FX & CFDs related to foreign exchange, commodities, financial indices and other underlying variables, carry a high level of risk and can result in the loss of all of your investment. As such, FX & CFDs may not be appropriate for all investors. You should not invest money that you cannot afford to lose. Before deciding to trade, you should become aware of all the risks associated with FX & CFD trading, and seek advice from an independent and suitably licensed financial advisor. Under no circumstances shall we have any liability to any person or entity for (a) any loss or damage in whole or part caused by, resulting from, or relating to any transactions related to FX or CFDs or (b) any direct, indirect, special, consequential or incidental damages whatsoever."
11,USD/MXN drops to lowest in almost five months under 19.00,"The USD/MXN pair is falling for the ninth time out the last ten trading days. It is trading at 18.93, the lowest level since mid-July and below a long-term trend line, strengthening the bearish scenario. The slide continues amid an improvement in global risk sentiment and a rally in emerging market (EM) currencies versus the US dollar. The agreement between the US and China added fuel to the rally in equity prices. The greenback remains unable to find support versus EM currencies despite higher US yields. From a technical perspective, the USD/MXN is trading under a critical support signaling more losses ahead. The price dropped below a trendline from 2017 and is about to post a close clearly below. The next strong support is located at 18.90 and then comes the 2019 low at 18.74. The Bank of Mexico will have its Board meeting on Thursday. A 25bps rate cut is expected. Considering the recent appreciation of the Mexican peso and the latest inflation data, there is a possibility of a larger rate cut. At the last meeting, two of the five Board members voted for a 50bps cut. “As the Mexican economy remains subdued, in addition to the dovish signals from policymakers, we expect the central bank to cut rates another 25 bps at next week’s meeting, and continue the easing cycle into the new year. That said, however, we would not be surprised if policymakers moved forward with a 50 bps cut next week given how weak growth and inflation are at present. Currently, markets are pricing in 143 bps of additional easing over the next year by the Bank of Mexico”, explained analysts at Wells Fargo.
   "
12,AUD/USD Forecast: Declines limited as long as above 0.6865,"The AUD/USD pair has recovered some ground at the beginning of the week but has been unable to recover the 0.6900 threshold, despite encouraging developments in the US-China trade front and prevalent risk-appetite. Australia released the December preliminary Commonwealth Bank Services PMI, which printed at 49.5, better than the 49.1 expected although below the previous one. The Manufacturing PMI, however, missed the market’s expectations as it contracted to 49.4. China released encouraging numbers, as, in November, Industrial Production rose by 6.2% while Retail Sales increased by 8%, both beating the market’s expectations.Australia will release October Home Loans during the upcoming Asian session, foreseen up by 1.0% following a 1.4% advance in September. The RBA will release the Minutes of its latest meeting.The AUD/USD pair is neutral-to-bullish in the short-term, as, in the 4-hour chart, it held above the 0.6865 support level. In the 4-hour chart, the pair has spent the day struggling to hold above a bullish 20 SMA, which continues advancing above the larger ones. Technical indicators, however, have lost their directional strength, heading nowhere around their midlines. Chances of a bullish extension will increase on a clear advance beyond the 0.6930/40 price zone, where the pair has multiple relevant highs.Support levels: 0.6865 0.6830 0.6800Resistance levels: 0.6900 0.6935 0.6970  View Live Chart for the AUD/USD"
13,NY Empire State Manufacturing Index improves to 3.5 in December vs. 4 expected,"The Federal Reserve Bank of New York's latest Empire State Manufacturing Survey showed that the business activity in New York State improved slightly with the headline General Business Conditions Index rising to 3.5 in December from 2.9 in November. This reading, however, came in below the market expectation of 4. The US Dollar Index had little to no reaction to the data and was last down 0.2% on the day at 96.99.""Indexes assessing the six-month outlook suggested that optimism about future conditions improved for a second consecutive month,"" the publication read. ""The index for future business conditions climbed ten points to 29.8."""
14,Week Ahead Commodity Report: gold Price Forecast: 16 - 20 December 2019 (Video),"The biggest market-moving events last week included the U.S-China phase one trade deal, December’s FOMC meeting and the U.K general elections.On Thursday, President Donald Trump took to Twitter, announcing that the U.S and Beijing had reached a phase one trade deal and further tariffs against China, scheduled to be rolled out on December 15 – would be cancelled.In Britain, Prime Minister Boris Johnson won a majority – securing the biggest win for the Conservatives Party since Margaret Thatcher in 1987. This now paves the way for the UK government to enact their Brexit plan and leave the European Union by the end of the January. Traders still don’t know the impact of leaving the European Union will have on the economy, which could lead to a new era of uncertainty.Earlier in the week, the U.S Federal Reserve signalled its plan to maintain low U.S interest rates – keeping real interest rates close to negative territory throughout 2020. Low interest rates put pressure on the dollar and bond yields, whilst significantly boosting the appeal of assets such as precious metals.Looking ahead to this week, some of the other major trading events that traders will not want to miss out on include; BoE Interest Rate Decision, Eurozone CPI and U.S Gross Domestic Product (GDP) Data.Where are commodity prices heading next?  Watch Phil Carr at The Gold & Silver Club review Gold, Silver and Crude Oil with the latest price forecast and predictions.  "
15,USD/JPY: risk appetite is improving with the US-China last news [Video],"With the US and China seemingly coming to some sort of phase one agreement on trade, risk appetite is improving. This is hitting the yen. A strong bull candle on Thursday was followed by something more questionable on Friday, but the bulls on USD/JPY are far better positioned coming into the new week. Trading above 109.00 gives the chart a more positive outlook, whilst the momentum indicators are positively configured still. However, as so often with Dollar/Yen there is always a caveat. Friday’s high was again almost bang on resistance of 109.70 and the market looks tentative again today. Breakouts on this chart are never straight forward and initial rejections are commonplace. However, weakness is a chance to buy as the run of higher lows is ongoing. Continued closing above 109.00 will maintain a degree of bull confidence. A breakout above 109.70 would open 109.90 and more considerable resistance at 110.65. The importance of support at 108.40 is growing. Risk Warning for Financial PromotionsHantec Markets' various market reports and commentary are issued by Hantec Markets Limited, who is authorised and regulated by the Financial Conduct Authority (FCA) in the UK, No. 502635. The reports are prepared and distributed for information purposes only.Trading in Foreign Exchange (FX), Bullion and Contracts for Differences (CFDs) is not be suitable for all investors due to the high risk nature of these products. Forex, Bullion and CFDs are leveraged products that can result in losses greater than your initial deposit. The value of an FX, Bullion or CFD position may be affected by a variety of factors, including but not limited to, price volatility, market volume, foreign exchange rates and liquidity. You may lose your entire initial stake and you may be required to make additional payments. Please ensure you fully understand the risks involved, seeking independent advice if necessary prior to entering into such transactions. Before deciding to enter into FX, Bullion and/or CFD trading, you should carefully consider your investment objectives, level of experience, and risk appetite. You should only invest in FX, Bullion and/or CFD trading with funds you are prepared to lose entirely. Therefore, only your excess funds should be placed at risk and anyone who does not have such excess funds should completely refrain from engaging in FX and/or CFD trading. Do not rely on past performance figures. If you are in any doubt, please seek further independent advice.The reports do not constitute personal investment advice, nor do they take into account the individual financial circumstances or objectives of the clients who receive it. All information and research produced by Hantec Markets is intended to be general in nature; it does not constitute a recommendation or offer for the purchase or sale of any financial instrument, nor should it be construed as such. All of the views or suggestions within the reports are those solely and exclusively of the authors, and accurately reflect their personal views about any and all of the subject instruments and are presented to the best of the authors' knowledge. Any person relying on these reports to undertake trading does so entirely at his/her own risk and Hantec Markets does not accept any liability.© 2014 Hantec Markets Limited"
16,AUD/USD struggles to justify Monday’s Doji ahead of RBA minutes,"AUD/USD trades near 0.6880 amid the initial Asian session on Tuesday. The pair manages to avoid losses on the previous day as broad US Dollar (USD) weakness joined welcome data from China and phase-one euphoria.Downbeat figures of the United States (US) NY Empire State Manufacturing Index mainly dragged the greenback downwards on Monday. Adding to the benefits for the pair were China’s strong figures of Industrial Production and Retail Sales. Further, positive sentiment surrounding the US-China trade relations also contributed to limit further losses by the pair.On the contrary, the Australian government’s downward revision to budget surplus in the mid-year economic forecast suggests weaker growth and slower wages relative to the April budget. As a result, traders remain on the back foot ahead of Thursday’s key employment numbers for November.Risk tone has been upbeat after the recently agreed trade deal between the US and China. The US 10-year treasury yields surge to 1.87% at the end of Monday’s trading.For the time being, minutes of the latest Reserve Bank of Australia (RBA) monetary policy meeting will be the key to watch. The recent weakening of the Australian economics might not be revealed from the minute statement but markets will seek clues of further rate cuts.It should also be noted that there prevails less clarity about how the US and China would go along on the trade path. The same questions the pair’s strength and exert downside pressure. The South China Morning Post (SCMP) conveys that the Chinese business and former trade officials are wary of getting carried away from the phase-one success.Unless breaking 0.6865/60 support confluence, including 10-day Exponential Moving Average (EMA), traders may again aim to clear November highs surrounding 0.6930. In support of this, Monday’s Doji candlestick formation on the daily chart (D1) favors the U-turn of Friday’s declines and further upside.  "
17,Look for Near-Term Dollar Recovery,"The dollar extended the down move that began at the start of the month last week. It fell against nearly all the currencies in the world but the yen and Turkish lira. However, the near-term decline may be exhausted, and a recovery is likely in the days ahead. With interest rates low and much of the perceived event risk being alleviated, this is the kind of environment investors ought to like. Holiday-thin markets and year-end vagaries can be particularly treacherous.Dollar Index: The Dollar Index has moved higher in only two of the last 11 sessions. During this run, it sold-off by 2%, before consolidating ahead of the weekend, to reach five-month lows near 96.70. The technical indicators are consistent with a low being in place or approached. The Slow Stochastics are poised to turn higher. The MACD is almost there. The Dollar Index spent part of the past three sessions below the lower Bollinger Band, and closed back inside it (~97.05) ahead of the weekend). A move above 97.35 would confirm a break in the downside momentum, and above the 97.55-97.65 band would lift the tone It may require a foothold above the 97.80 area, which houses the 20-day moving average and the (61.8%) retracement of the decline that began at the end of November.Euro: The euro failed spectacularly at $1.12 ahead of the weekend and closed on its lows of the session just above $1.11. It left a bearish shooting star candlestick. The immediate risk extends toward $1.1065, which corresponds to the (61.8%) retracement objective and the 20-day moving average. The Slow Stochastics have flatlined at elevated levels, set to turn lower, while the MACDis still gradually rising. If the $1.1175-$1.1180 area, seen last month, and almost $1.12 seen last week marks the top end of the euro's range, the bottom end is closer to $1.10.Yen: The dollar rose against the yen last week by 0.7%, and it can be fully accounted for by the risk-on response of traders to news of a US-China trade deal. The greenback reached about JPY109.70, where it was also stopped in the previous week. The intermittent low near JPY10.8.40 proved rock-solid, enduring repeated tests over the past couple of weeks. The technical indicators are constructive and favor te dollar's upside, though the upper Bollinger Band is about JPY109.60. A year-old trendline on the weekly charts comes in near JPY109.90, and above the psychological important JPY110.00 level, there is scope toward JPY110.50-JPY110.60.Sterling: When everything was said and done, sterling gained 1.5% last week. It was the third consecutive weekly advance. It has risen about 3.6% over this stretch. There was a three-week run in October when it rallied 5.5%. Much good news has been priced in during this eight-of-11 week adjustment. The price action was in line with our expectation, a push higher when the results became clear to $1.35 and then ""buy the rumor, sell the fact"" activity. Since the high was recorded (~$1.3515), sterling has found support near $1.33, the upper Bollinger Band is just below there. As we have noted with the euro and yen, the Slow Stochastics are leading the MACD. The former is toppy, while the latter still has scope to rise. A break of the $1.3280 area could spur another cent decline.Canadian Dollar: The US dollar has found a good bid near CAD1.3150. Recall that it corresponds to a (61.8%) retracement of the US dollar rally from the end of October. The lower Bollinger Band is near there as well. It has been tested a few times in the first half of December. A move above CAD1.3220 would likely signal a run initially to CAD1.3250-CAD1.3275, on the way probably back to the recent highs in the CAD1.3330 area. The MACD and Slow Stochastics have not turned, but the momentum is stalling.Australian Dollar: The Australian dollar, like the euro, staged a sharp reversal ahead of the weekend. The Aussie, which had been testing support near $0.6800 at the start of last week, rallied to almost $0.6940 at the end of the week. It was the best level since late July before reversing lower and briefly trading below the previous session's low (~$0.6870). The price action suggests a phase is over even if it is not quite a key reversal or a pretty shooting star candlestick. The 200-day moving average ($0.6910), which stopped around other counter-trend rallies this year, was penetrated on an intraday basis, but it held at the close. There is a band of support in the $0.6825-$0.6850 area that will likely be tested.Mexican Peso: For the second consecutive week, the dollar lost more than one percent against the Mexican peso. It was the first time it has strung together such a performance in eight months. The risk-on mood briefly drove the dollar below MXN19.00 (~MXN18.98), which it has not seen since July. It finished just below the lower Bollinger Band (~MXN19.05). The Slow Stochastic is over-extended but shows no signs that it will turn shortly. The MACD is trending lower but is not stretched. Even if Mexico's central bank cuts interest rates again on December 19 as widely expected (to 7.25%), the wide differentials may attract savings, especially in a risk-friendly environment.Chinese Yuan: The dollar initially was sold on news that an agreement was struck. Then there was some confusion as Beijing was quiet and then the confirmation shortly after the US equity market opened on December 13. The volatility was more evident in the offshore yuan (CNH) than the onshore yuan (CNY). The dollar fell nearly 1.2% against CNH on December 12 on the US announcement but rallied almost 1% the following day. Against CNY, the dollar fell by a little more than 0,75% on December 12 and closed marginally lower ahead of the weekend. The dollar firmed broadly after the onshore market closed. Despite the relative volatility, the dollar finished the week little changed against CNH (~-0.15%) and considerably more against CNY (~-0.85%). The fix on Monday (PBOC setting of the reference rate for CNY) will be important. The models will be looking for a considerably stronger US dollar.Gold: Despite the risk-on mood, gold advanced four sessions last week and posted its highest weekly close since early November ($1476.3). The 1.1% gain on the week was the most since late September. The technicals indicators do not appear to be generating a robust signal. The Bollinger Bands begin the new week at around $1452 and $1481.Oil: January WTI closed above $60 a barrel for the first time since the attack on Saudi facilities in the middle of September when it reached about $61.50. It gained nearly 1.5% last week, all of it in the last session, as Beijing confirmed not just a tariff truce but commitments to gradually unwind existing tariffs. China agreed to buy a relatively large amount ($40 bln) of US agriculture products in exchange. The technical indicators are stretched, and the MACD and Slow Stochastic appear poised to turn down. The upper Bollinger Band is found near $60.55.US Rates: The enthusiasm about the developments (USMCA, US-China Agreement, UK election) lifted the US 10- year yield to almost 1.95% ahead of the weekend and just short last month's high print of 1.97%. A disappointing retail sales report helped reverse the move, and the yield ended the week a little above 1.82%. Net-net, the yield fell about 1.5 bp on the week. The March futures note contract staged a reversal ahead of the weekend, and the technical indicators look constructive. It could imply a further pullback in the US 10-year yield toward 1.75%. The 2-10-yr yield curve was practically unchanged a little above 21 bp last week. Recall it finished last year just a little flatter at 19 bp. The implied yield of the December 2020 fed funds futures contract (1.32%) means that a rate cut has mostly been discounted next year.SP500: A new record-high and record-high close were set before the weekend, encouraged by the investor-friendly developments. However, the market had largely been priced for perfection, and it was fortunate that that is what was delivered. Some profit-taking was seen, but the low of the session was seen before midday. The momentum indicators are still strongly positioned and provided the 3150 area holds, the index can move toward 3200, though the proximity of the upper Bollinger Band (~3169.4) may encourage some caution. Of the G7 major benchmarks, only Italy has outperformed the S&P 500 year-to-date (27.3% vs. 26.4%). The FTSE Milan Index has a dividend yield of 4.14%, while the S&P 500 dividend yield is 1.84%. On the other hand, the euro is off 3% against the dollar this year. The S&P 500 trades at a little more than 21-times earnings, while Italy is a third lower, with a 14-multiplier."
18,US tariff rollback conditional on China's farm purchases – CNBC,"Citing a Chinese government source, CNBC's Beijing Bureau Chief, Eunice Yoon, explained that China has likely agreed to buy around $40 - $50 billion worth of US agricultural products but couldn't acknowledge it publicly to avoid a possible backlash.Regarding the tariff rollback, ""China says tariffs phased out “step by step”. US says no promises. (Explained to me US believes rollback would be conditional. Chinese belief is they can meet conditions so China sees tariffs phasing out. So no real disagreement.),"" Yoon tweeted out.These remarks had little to no impact on the market sentiment. As of writing, the 10-year US Treasury bond yield was up around 1% on the day and the S&P 500 futures were up 0.3% to suggest that Wall Street is likely to open the day in the positive territory."
19,Bitcoin named the best investment asset of the decade,"The US-based Bank of America Merrill Lynch believes that Bitcoin (BTC) is the best investment asset of the past ten years based on total investment return.According to the financial giant, one US dollar invested in Bitcoin in 2010 would have brought $90,026 today. Notably, the American stock market's would have earned  $3,46 for each invested dollar during the same ten years.While the first cryptocurrency has lost about two-thirds of its peak value, $19,811 reached in December 2017, cryptocurrency enthusiasts believe that we are just at the very beginning of a massive bullish trend that will take us much above $20,000 towards new record highs.  Recently, the founder of Silk Road, an online black market, Ross Ulbricht, said that Bitcoin might reach $100,000.Meanwhile, at the time of writing, BTC/USD is changing hands marginally above $7,000, This area is the lower boundary of the recent consolidation pattern, reinforced by the lower line of the daily Bollinger Band. Once it is out broken, the sell-off is likely to gain traction with the next focus on $6,500 supported by November's low, and $6,300 ( the lower line of the weekly Bollinger Band). A sustainable move lower will unleash the bearish power, which may be amplified by low liquidity conditions typical to the pre-holiday period. However, considering flat RSI (the Relative Strength Index) both on a daily and weekly chart, the coin may continue drifting lower within the sloping range limited by $6,500 on the downside. On the upside, We will need to see a sustainable recovery above $7,300  for the bull's momentum to gain traction. This development will take us above the middle line of the daily Bollinger Band and 61.8% Fibo retracement for the move from $3,226 to $13924. The next upside target is created by a psychological $8,000 with SMA50 (Simple Moving Average) daily located just above this area. However, to break the downside trend, Bitcoin bulls will need to push the price well above the trendline resistance currently at $9,000."
