,title,text
0,EUR/USD: In a 1.0950-1.1050 range – OCBC,"The EUR/USD remains supported, but struggles to find traction above the 1.1000 handle, therefore, analysts at OCBC Bank expect the pair to trade within the 1.950-1.1050 range.See: Four risks threatening the EUR/USD leg higher“With topside resistances breached, the bias may be for further upside for now, especially if it can hold north of 1.1030.” “For now, we remain sceptical, as the virus recovery plan is still some way from being adopted, and short term implied valuations have started to dip.” “Expect a 1.0950 - 1.1050 range for now.” "
1,"EUR/USD eases from tops, back below 1.1000","After a test of new multi-week highs in the 1.1030/35 band, EUR/USD seems to have lost some momentum and is now returning to the sub-1.10 zone.EUR/USD has managed to finally surpass the 1.10 barrier on Wednesday following the better mood in the risk-associated complex, particularly after the European Commission (EC) unveiled a €750 billion aid package to help with the economic recovery.In addition, the progress on the gradual re-opening of the economy both in the euro area and the US continues to lend support to the pair as well as headlines highlighting potential COVID-19 vaccines.Data wise in Euroland, flash CPI in Spain noted consumer prices are seen flat on a monthly basis in May and contracting 1.0% from a year earlier. In addition, Italian Consumer Confidence came in at 94.3 for the month of April. Surpassing estimates. Still in the region, EMU’s Consumer Confidence is due later along with advanced German inflation figures for the current month.Across the pond, all the attention will be on the flash Q2 GDP figures, Initial Claims and Durable Goods Orders seconded by Pending Home Sales and the weekly report by the EIA.EUR/USD has finally managed to reclaim the 1.1000 barrier although it still struggles to keep consolidate business above it. In the meantime, USD-dynamics keep driving the sentiment around the pair, always looking to the US-China trade jitters and the coronavirus economic aftermath. The recent better-than-expected results in Germany and the broader euro area along with positive prospects regarding the re-opening of some economies in the bloc appear to keep occasional bearish attempts contained, all helped by the solid position of the euro area’s current account. In the political scenario, the recent German court ruling against purchases of sovereign debt under the ECB’s QE programme threatens to widen the existing cracks within the euro area and could limit any serious recovery in the currency. This view has been also exacerbated after the French-German proposed fund to help economies to recover from the coronavirus fallout met resistance among some Northern-European members.At the moment, the pair is losing 0.04% at 1.0998 and faces immediate contention at 1.0870 (weekly low May 26) seconded by 1.0774 (weekly low May 14) and finally 1.0727 (monthly low Apr.24). On the upside, a break above 1.1035 (monthly high May 28) would target 1.1147 (weekly high Mar.27) en route to 1.1186 (61.8% Fibo of the 2017-2018 rally)."
2,EUR/USD: Rally to be extended once beyond 1.1040,"The EUR/USD pair trades near its recent monthly high at 1.1035, bullish, according to intraday technical readings after the US data came in mixed, FXStreet’s Chief Analyst Valeria Bednarik reports.“The market ignored mixed European data, as the EU Economic Sentiment Indicator came in at 67.5 in May, missing the market’s expectation of 70.3. Consumer Confidence in the same period printed at -18.8 as expected. Germany released the preliminary estimate of May’s inflation, with the annual CPI at 0.5%, as expected, down from 0.8% in April.”“Durable Goods Orders fell by a new record of 17.2%, although better than the -19% forecast. The economic contraction in the country was revised lower to -5.0% for the first quarter of the year, according to the second estimate of the GDP. Finally, 2.12 million people filed for unemployment support in the week ended May 22, worse than anticipated.”“In the 4-hour chart, EUR/USD is developing well above a bullish 20 SMA, while technical indicators resumed their advances within positive levels, in line with another leg higher. The pair needs now to run through 1.1040 to be able to extend its advance.” "
3,EUR/USD: Four risks threatening the leg higher,"Can the EUR/USD pair continue higher after hitting the highest since early April? Yohay Elam, an analyst at FXStreet, explains four reasons which could dampen the euro recovery.“1) Not a done deal just yet: Members of the ‘Frugal Four’ may still have reservations about the recovery fund. If these countries, most importantly the Netherlands, voice their objections, the common currency could suffer. Keeping quiet or endorsing the plan may continue supporting it.”“2) Sino-American tensions: The US and China are at odds also over the latter's human rights violations in Xinjiang, technology, and other topics. A renewed focus on the potential economic fallout could send the dollar higher. However, as long as Hong Kong continues functioning, markets will shrug off issues of autonomy.”“3) Second waves? Coronavirus figures continue falling in the old continent, yet occasional clusters have appeared. As long as these remain isolated cases and the trend remains upbeat, the euro can continue rising. A setback may limit its gains.”“4) Data dump: Spain's Consumer Price Index for May dropped by 1% yearly as expected and Germany's is also set to be depressed, mostly pressured by the tumble in oil prices. The statistics feed into the all-European numbers due out on Friday.”"
4,"EUR/USD Forecast: Greedy for more gains amid Brussels' benevolence, but four risks loom","Is the eurozone headed for a speedy recovery? The European Commission's ambitious recovery plan takes one step beyond the Franco-German ideas and reaches trillions of euros. Most importantly, it provides further backing to grants worth €500 billion, funded by mutual debt – euro bonds or coronabonds in all but name.That would boost the hardest-hit economies such as Italy and Spain. The spread between Italian and German ten-year bond yields squeezed below 200bp and EUR/USD hit the highest since early April. Can the currency pair continue higher?1) Not a done deal just yet: Ursula von der Leyen, President of the European Commission, may be relying on Austria's warming up to offering grants and not only loans. However, other members of the ""Frugal Four"" may still have reservations and the recovery fund. If these countries, most importantly the Netherlands, voice their objections, the common currency could suffer. Keeping quiet or endorsing the plan may continue supporting it.2) Sino-American tensions: The Chinese parliament has approved the controversial security law that tightens Beijing's grip on Hong Kong. US Secretary of State Mike Pompeo certified to Congress that the city-state is not autonomous anymore, and the White House is contemplating removing the financial hub's preferential status when it comes to tariffs. The intensifying frictions over HK have taken occasional tolls on the stock market rally, but investors remain bullish, especially as the world's largest economies pledge to uphold the trade deal. The risk-on mood is boosting the safe-haven dollar.Will this change? The US and China are at odds also over the latter's human rights violations in Xinjiang, technology, and other topics. A renewed focus on the potential economic fallout could send the dollar higher. However, as long as Hong Kong continues functioning, markets will shrug off issues of autonomy.3) Second waves? Coronavirus figures continue falling in the old continent, yet occasional clusters have appeared. Examples include the German town of Regensburg and Spain's Lleida. As long as these remain isolated cases and the trend remains upbeat, the euro can continue rising. A setback may limit its gains.US coronavirus deaths hit 100,000, a bleak milestone yet the pace has dropped from nearly 2,000 deaths at a peak to around 1,000. Yet these topline figures mask differences between various states. While the New York region continues seeing decreasing figures, cases are increasing in some of the states that have reopened rapidly. If the gently falling curve turns into a plateau or a rise, investors may worry.4) Data dump: After several days that lacked significant figures, the calendar is packed. Spain's Consumer Price Index for May dropped by 1% yearly as expected and Germany's is also set to be depressed, mostly pressured by the tumble in oil prices. The statistics feed into the all-European numbers due out on Friday.More importantly, the US is forecast to confirm the 4.8% annualized contraction rate in its Gross Domestic Product, dragged down by the consumer. Investors may opt to give more weight to more recent Durable Goods Orders figures for April, which are set to tumble and shed some light on second-quarter GDP.Last but least, weekly jobless claims will likely continue decreasing but remain in the millions for the week ending on May 22. Continuing claims for the week ending on May 15 – when Non-Farm Payrolls surveys are held – are of higher importance. See:All in all, a busy day awaits traders.Euro/dollar is enjoying upside momentum on the four-hour chart and the Relative Strength Index is below 70, outside overbought conditions. The currency pair also surpassed a downtrend that accompanied it since early May and is now trading under an uptrend.All in all, bulls are in the lead.Resistance awaits at the eight-week high of 1.1035. It is followed by 1.1090, which was a swing high in March. Significant resistance is at 1.1150, the high point that month.Support awaits at 1.0995, a stepping stone on the way up. It is followed by 1.0975, a swing high from last week, and then by 1.0940, which was Wednesday's low. More: Separating economic fact and fiction – A market discussion with Ed Moya"
5,When is the German Prelim CPI and how could it affect EUR/USD?,"Thursday’s Eurozone economic docket headlines the Harmonized German Preliminary Consumer Price Index (CPI) data, up for release later this session at 1200 GMT.The headline CPI is expected to come in at -0.1% MoM and the yearly rate is seen sharply lower at +0.5% in May even as the country re-opens after the coronavirus-imposed lockdown.The softer German regional CPIs, reported earlier today, likely suggests the harmonized price pressures will enter into deflation this month.In Hesse, MoM inflation for the month of May arrived at -0.1%, versus +0.5% prev. Meanwhile, in Bavaria, the May inflation came in at -0.2% MoM versus +0.5% last. In Saxony, May inflation MoM rose by 0.1% versus +0.4% previous while Brandenburg’s came in at -0.1% MoM vs. +0.6% prior. North Rhine Westphalia May CPI arrived at -0.1% MoM vs. +0.3% prior.FXStreet’s Senior Analyst Yohay Elam offers key technical levels for trading EUR/USD heading into the key macro events: “Resistance awaits at the eight-week high of 1.1035. It is followed by 1.1090, which was a swing high in March. Significant resistance is at 1.1150, the high point that month.”“Support awaits at 1.0995, a stepping stone on the way up. It is followed by 1.0975, a swing high from last week, and then by 1.0940, which was Wednesday's low,” Yohay adds.EUR/USD eases from tops, back below 1.1000ECB’s Villeroy: Negative rates are an effective policy toolEurozone Inflation Preview: EUR/USD has the wind in its back, and only a dual dip could down itThe Germany consumer price index released by the Statistisches Bundesamt Deutschland measures the average price change for all goods and services purchased by households for consumption purposes. CPI is the main indicator to measure inflation and changes in purchasing trends. A high reading is positive (or Bullish) for the EUR, while a low reading is negative (or bearish)."
6,EUR/USD jumps above 200-day moving average after US data,"It was another negative day for the greenback on Thursday and the EURUSD pair was trading half a percent higher during the US session, changing hands at around 1.1050, which are two-month highs for the pair. A batch of US data came out today, which undermined the US dollar. With Q1 US GDP initially reported a sinking -4.8%, this number has now been revised to -5.0%, following an upward revision to consumer spending offset by a sharp drop in private inventories.Moreover, in the last week, 2.123 million more Americans filed for unemployment benefits for the first time (versus the 2.10mm expected). That brings the ten-week total to 40.767 million, dramatically more than at any period in American history.Finally, April's durable goods orders weakness was expected to accelerate and it did, with preliminary data plunging 17.2% MoM (worse than the 16.6% decline in March). This sent durable goods orders down 19.4% YoY - the worst since the financial crisis.If the EURUSD pair settles above the 200-day moving average, which is near 1.1020, it could mean the latest bearish trend is over and a significant rally might occur.The next short-term target seems to be at previous highs near 1.1150, while the medium-term target could be at March highs of 1.15.On the other hand, if the pair declines back below the 1.10 levels, we could see a quick reversal toward 1.08."
7,EUR/USD: Be ready to buy a break above 1.1030,"EURUSD shorts at 1.1005/15 worked perfectly as we bottomed exactly at the 1.0960/50 target for an easy 60-70 pips profit. USDCAD managed a bounce to 1.3820 but not as far as our selling opportunity at 1.3840/50. EURUSD retests the 200 dma at 1.1005/15 this morning. Be ready to buy a break above 1.1030 targeting 1.1045/50 & a selling opportunity at 1.1085/95, with stops above 1.1120.Holding 1.1005/15 re-targets 1.0960/50 before a buying opportunity at 1.0940/30, with stops below 1.0915.USDCAD outlook negative after we broke the 2 month triangle hitting 1.3723 yesterday & likely to target a buying opportunity at 1.3705/1.3685 today with stops below 1.3665. A break lower is a sell signal with 1.3685/1.3700 acting as resistance to target 1.3605/00.Sell at 1.3840/50 with stops above 1.3880, targeting 1.3810/00 & 1.3760/50.  Weekly outlook is neutral.Daily outlook is neutral.Short Term outlook is negative."
8,Why the Euro broke higher,"EUR/USD finally cut through resistance in the 1.1000/20 zone on Thursday as the euro led G10 FX. USDX is on course for its biggest monthly fall of the year. The Canadian and US dollars were the laggards as risk trades dipped late on China worries. The April US PCE report and comments from Powell are due on Friday along with a Trump announcement on China. The Premium Dow30 short was stopped out at 25700, while the EURUSD long is a few pips away from 200-pip gain.The thinking in the market at the moment is that economies are opening up and that the virus isn't so dangerous after all. There are reasons to doubt that and to fear a second wave but that's clearly the mode the market is in. And let's not forget the bigger than expected EUR 750 bn loan package from the EU, whose initial announcement coincided with EURUSD's first jump.US markets staged a remarkable rally, but EU has more upside ahead. Italy's MIB is just testing the 38.2% retracement of the pandemic fall and that comes after a week of strong gains. If everyone is going to open up and recover, then the catch-up trade is outside the US. Needless to say there are undoubtedly differences because the eurozone doesn't have the same fiscal capacity but at the same time, debt monetization is a lower risk.On net, European stock markets are better value right now than US markets if you assume a full reopening. Again, it would be easy to make arguments against that statement but that's where the market is at for the moment and it's what finally boosted EUR/USD above 1.10.The pair rose as highs as 1.1093 before a sag late in the day. Risk trades were hit and stock markets reversed into negative territory when Trump said he will announce something on China Friday, presumably some kind of retaliation for the Hong Kong security law. All evidence points to some ineffectual sanctions against individuals and companies but Trump is unpredictable and this is a chance for him to flex his 'tough on China' muscles ahead of the election.There's no set time yet for the press conference and there's a high risk of leaks. The day will also feature the April US PCE report and the focus will be on spending, which is forecast to contract by 12.7%. Fed Chair Powell will also speak at 1500 GMT. This is his last opportunity to send a message ahead of the blackout period and given the positive tone in markets, the risk is that he dampens expectations for future FOMC action."
9,"EUR/USD: Breach of the resistance at 1.1015 could not be sustained, but bulls have another go [Video]","The euro is pushing towards  breakout of what is now an eight week consolidation range between $1.0725/$1.1015. An intraday breach of the resistance at $1.1015 could not be sustained into the close yesterday but the bulls are having another go this morning. We have been arguing that momentum indicators have been increasingly positively set up in recent days for a breakout and the euro appears to be on the brink of a next phase. EUR/USD yesterday posted its highest close since 31st March and a close clear of $1.1015 today would be a breakout. It would effectively complete a consolidation rectangle breakout which would imply around +250 pips of upside target (towards $1.1250) for the coming weeks. Whilst we would not anticipate this breakout would be a straight line move we would then be looking to use pullbacks and near term corrections as a chance to buy. Closing above $1.1015 would leave $1.0870./$1.0890 as a good basis of support. Yesterday’s reaction from the low at $1.0930 leaves good support too. Momentum indicators are certainly leading the way, with MACD lines rising decisively above neutral and Stochastics strong. RSI pulling above 60 also leads a breakout. The market just needs that next step forward of a closing above $1.1015. Next key resistance is at $1.1145. Risk Warning for Financial PromotionsHantec Markets' various market reports and commentary are issued by Hantec Markets Limited, who is authorised and regulated by the Financial Conduct Authority (FCA) in the UK, No. 502635. The reports are prepared and distributed for information purposes only.Trading in Foreign Exchange (FX), Bullion and Contracts for Differences (CFDs) is not be suitable for all investors due to the high risk nature of these products. Forex, Bullion and CFDs are leveraged products that can result in losses greater than your initial deposit. The value of an FX, Bullion or CFD position may be affected by a variety of factors, including but not limited to, price volatility, market volume, foreign exchange rates and liquidity. You may lose your entire initial stake and you may be required to make additional payments. Please ensure you fully understand the risks involved, seeking independent advice if necessary prior to entering into such transactions. Before deciding to enter into FX, Bullion and/or CFD trading, you should carefully consider your investment objectives, level of experience, and risk appetite. You should only invest in FX, Bullion and/or CFD trading with funds you are prepared to lose entirely. Therefore, only your excess funds should be placed at risk and anyone who does not have such excess funds should completely refrain from engaging in FX and/or CFD trading. Do not rely on past performance figures. If you are in any doubt, please seek further independent advice.The reports do not constitute personal investment advice, nor do they take into account the individual financial circumstances or objectives of the clients who receive it. All information and research produced by Hantec Markets is intended to be general in nature; it does not constitute a recommendation or offer for the purchase or sale of any financial instrument, nor should it be construed as such. All of the views or suggestions within the reports are those solely and exclusively of the authors, and accurately reflect their personal views about any and all of the subject instruments and are presented to the best of the authors' knowledge. Any person relying on these reports to undertake trading does so entirely at his/her own risk and Hantec Markets does not accept any liability.© 2014 Hantec Markets Limited"
10,EUR/USD outlook: Bulls continue to face strong headwinds at 200DMA,"The Euro is holding within 1.10 zone in European session on Thursday after hitting new, marginally higher high (1.1035) in nearly two months. Bulls failed to close above 200DMA (1.1009) on Wednesday, despite spike to 1.1030, signaling that fresh advance faces strong headwinds in attempts to eventually break out of larger range-trading. Technical studies on daily chart are bullish and support scenario, however, stochastic is approaching the border of overbought zone and warning that bulls may stay congested between 100 and 200DMA's (1.0956/1.1009 respectively) before final push higher. Break of 200DMA would open next key obstacle at 1.1065 (daily cloud top / 50% of 1.1494/1.0635) break of which would generate strong bullish signal and expose targets at 1.1147/66 (27 Mar high / Fibo 61.8%). On the other side, loss of 100DMA support would generate initial negative signal, with extension below 10DMA (1.0935) to warn of recovery stall.Res: 1.1009; 1.1035; 1.1065; 1.1100
Sup: 1.0991; 1.0956; 1.0935; 1.0893  "
11,Forex Today: Dollar’s decline giving signs of exhaustion,"What you need to know on Friday, May 29th: The greenback gave up the ground gained on Wednesday, although there was no particular catalyst related to its slide. Data from the US was mixed, as Durable Goods Orders fell by a new record of 17.2%, although better than the -19% forecast. The economic contraction in the country was revised lower to -5.0% for the first quarter of the year. Continuing claims, however, fell by almost 4 million to 21 million.The EUR/USD pair approached 1.1100, as the shared currency continued to be supported by the EU Commission proposed coronavirus’ aid package.The Pound also benefited from the upbeat and comments from local authorities, although GBP/USD was unable to reach fresh highs, amid caution ahead of the next round of Brexit talks, scheduled for the next week.  , BOE’s Saunders said he had nothing to add to what Governor Bailey said on negative rates. ""I would not rule out negative rates, that does not mean I would necessarily rule it in,"" Saunders added.US President Trump opened another trade front, this time with social media. He prepared an executive order meant to regulate the way Twitter, Facebook or Google control their content.Crude oil prices rose, with WTI reaching $34.00 a barrel despite a discouraging EIA report which showed that stockpiles in the US grew by 7.92 million in the week ended May 22, much worse than anticipated. The rally was underpinned by increasing demand for US gasoline and speculation that the OPEC+ could extend its output cuts.Gold ends the day with modest gains around 1,717 after reaching an intraday high of 1,727.15. A better market mood weighed on the demand for the safe-haven asset.  Cryptocurrency Market News: launch dates for Cardano's Shelley have now been released"
12,EUR/USD analysis: Tests weekly R1,"The EUR/USD currency pair has revealed a medium-term ascending channel. During Thursday morning, the pair was testing the weekly R1 at 1.1010.Note that the exchange rate is supported by the 55-hour SMA near 1.0980. Thus, it is likely that some upside potential could prevail in the market. In this case the rate could target the upper channel line circa 1.1080.However, if the given resistance holds, it is likely that the Euro could consolidate against the US Dollar. If the given support does not hold, the pair could decline to the 100– and 200-hour SMAs near 1.0940."
13,"Forex technical analysis and forecast: Majors, equities and commodities","EURUSD is forming a wide consolidation range around 1.0990. Possibly, today the pair may expand the range up to 1.1050 (an alternative scenario). The main scenario implies that the price is expected to trade downwards and reach 1.0935. Later, the market may start a new correction with the target at 1.0985. After completing the second descending impulse, GBPUSD is correcting towards 1.2280. After that, the instrument may resume moving downwards with the first target at 1.2195. USD/RUB is consolidating in the center of the range. If later the price breaks this range to the downside, the market may resume trading downwards with the target at 69.50; if to the upside – start a new correction towards 72.72 and then form a new descending structure to reach the above-mentioned target. After completing the ascending structure close to the upside border of the range, USDJPY has finished the descending impulse at 107.65 along with the correction towards 108.85. Today, the pair may fall to break 107.36 and then continue falling with the target at 106.66. However, if the price breaks 107.90 to the upside, the market may expand the range up to 108.10. After completing the ascending wave at 0.9726, USDCHF is still correcting to reach 0.9669. Later, the market may grow to break 0.9720 and then continue growing with the target at 0.9800. After forming the descending impulse at 0.6567, AUDUSD has completed the correction towards 0.6626. Possibly, today the pair may form one more descending impulse with the short-term target at 0.6544. Brent is consolidating not far from the downside border. Today, the pair may fall to reach 33.33 and then grow to break 37.00. The target is at 39.00. After that, the instrument may correct to reach 30.50 and then resume trading inside the uptrend with the target at 45.50. Gold is growing towards 1719.00. After that, the instrument may correct to reach 1706.00, thus forming a new consolidation range between these two levels. If later the price breaks this range to the upside, the market may resume trading upwards with the target at 1742.00. BTC/USD has finished the ascending wave at 9250.00. Possibly, today the pair may correct to reach 8850.00 and then resume trading upwards with the target at 9600.00. The Index is consolidating at the top around 3011.5 and forming a Divergent Triangle pattern. Today, the asset may fall towards the pattern’s downside border at 2961.9."
14,FX: Risk on trades could lose steam,"US equities extended their gains on Thursday on the back of better than expected economic data. Durable goods fell less than anticipated, jobless claims hovered around 2 million and the market largely shrugged off downward revision to US GDP. Currencies also rallied  with euro, sterling the Australian and New Zealand dollars leading the gains. As US-China tensions heat up, we are surprised by the nonchalant attitude in the markets. The relationship between the world’s two largest economies is expected to chill significantly over the next few days and the ramifications could be significant. Beijing officially approved a new law that would significantly reduce Hong Kong’s autonomy. Activist groups would be banned and harsh penalties would be imposed on anyone violating national security laws. The US State Department no longer sees Hong Kong as having significant autonomy according to Secretary of State Mike Pompeo, paving the way for President Trump to impose a new set of penalties. Trump is expected to make an announcement in the next 24 to 48 hours that could include taxing HK imports and imposing investment restrictions. This would be viewed as a direct jab at China that invites retaliation. Yet markets up with currencies holding steady.Many investors may be wondering how the broader market can ignore the deepening rift between the US and China. One argument is that HK and the US do very little trade with each other, so the actual impact will be small. Secondly, relations have been chilling for weeks with the Trump Administration telegraphing potential penalties on HK/China. Third, China may talk of retaliation but could hold off doing anything meaningful until after the November election. Lastly, the biggest risk for the global economy right now is not a US-China trade war but the economic and social impact of COVID-19. From that perspective the good news continues to flow in with progress on vaccine development and the easing of more lockdown restrictions.   Yet risk appetite could wane as more US-China headlines hit the wires. There are also a number of central bank meetings next week that could that show policymakers are still keen to ease. The Australian and New Zealand dollars rose strongly on Thursday but they are vulnerable to deep corrections if China tensions start to weigh on the markets. We are also looking for losses in the Canadian dollar. The current account deficit was worse than expected and tomorrow, first quarter and March GDP numbers are due for release with weaker numbers are expected all around. Euro took out 1.1050 before the London close despite slightly disappointing Eurozone confidence numbers. This marked the third day of strength for the single currency but with the European Central Bank expected to increase bond purchases next week and issue grim forecasts, we believe the rally will lose steam. Sterling also traded higher shrugging off dovish comments from Bank of England member Saunders. On Friday, aside from Canadian GDP, Eurozone inflation data, revisions to the US’ University of Michigan Consumer Sentiment Index will be released along with US personal income and personal spending numbers.Past performance is not indicative of future results.  Trading forex carries a high level of risk, and may not be suitable for all investors. The high degree of leverage can work against you as well as for you. Before deciding to trade any such leveraged products you should carefully consider your investment objectives, level of experience, and risk appetite. The possibility exists that you could sustain a loss of some or all of your initial investment and therefore you should not invest money that you cannot afford to lose. You should be aware of all the risks associated with trading on margin, and seek advice from an independent financial advisor if you have any doubts."
15,ECB’s Villeroy: Negative rates are an effective policy tool,"The European Central Bank (ECB) Governing Council member and Bank of France Head Francois Villeroy de Galhau said on Thursday, the negative interest rates are an effective policy tool.He added that the banks, however, should not pass negative rates to households and firms.On the dovish comments from the ECB policymaker Villeroy, EUR/USD challenges daily lows below 1.1000.The spot is down 0.06% at 1.0996, with lows hit at 1.0992."
16,China’s NPC approves the National Security Bill for Hong Kong,"The National People's Congress (NPC), the country's top legislature, approved the National Security bill for Hong Kong on Thursday, as widely expected.All eyes now remain on the US’ response to the Hong Kong issue, as President Donald Trump threatened to impose sanctions on the Chinese officials by the end of this week.Markets seem to have shrugged-off the above news, as it was already priced-in. The risk-on mood remains buoyed by the economic re-opening optimism. USD/JPY keeps gains around 107.85 region while AUD/USD trims losses to regain the 0.66 handle amid higher European equities."
17,EUR/GBP stalls below 0.9000 psychological level,"The euro is slightly up against the pound on Wednesday, extending its rebound from 0.8880 lows earlier this week although unable, so far, to extend beyond 0.9000. The pair has lost steam on Thursday as the GBP/USD pares losses with the dollar pulling back. The euro has steadied right below 0.9000 on Thursday, right below near two-month highs. The pair, however, is moving sideways with the sterling a tad firmer against the safe-haven US dollar and equity markets in green with hopes of economic recovery outweighing market concerns about geopolitical tensions.On a broader scope, the pound remains on a weak tone, weighed by speculation about the Bank of England introducing negative interest rates and the lack of progress on post-Brexit trade agreement with the EU which may lead to a no-deal exit from the Union. The FX analysis team at Danske Bank expect the pound to remain bearish on Brexit tensions to pick up when the trade is reached, “We probably need to get close to the year-end deadline before a trade deal is reached. We see EUR/GBP at 0.90 over 1- 6M, followed by a move towards 0.86 on a trade deal in 12M.” "
18,BoK: Unanimous 25bps rate cut – ANZ,"Today marked the first meeting for the Bank of Korea’s new board and the decision to cut the policy rate was unanimous, the ANZ Bank analyst team report. The USD/KRW saw some volatile moves but remained within the familiar trade range, currently trading at 1240.40.“The Bank of Korea (BoK) today cut its policy rate by 25bps to 0.50% against a challenging growth backdrop, as widely expected.” “The BoK lowered its 2020 growth forecast from 2.1% to -0.2%, which would mark the first annual contraction since 1998. It now sees inflation at 0.3% (previously 1.0%) this year. For 2021, the BoK is projecting growth and inflation at 3.1% and 1.1%, respectively (previously 2.4% and 1.3%).” “The governor signalled that the central bank may be more active in government bond buying, given the government’s fiscal push (a third budget reportedly to the tune of KRW40 trillion, 2% of GDP, is in the works), but direct purchases were ruled out and there was no commitment to a regular purchasing program.” "
19,Trump to sign executive order on social media companies,"US President Trump has signed an executive order on social media companies, the White House has announced.As the Washington Post earlier reported, this ""could open the door for federal regulators to punish Facebook, Google and Twitter for the way they police content online, issuing a major broadside against Silicon Valley that quickly triggered wide-ranging political opposition and threats of a legal challenge.""Meanwhile, Trump has portrayed the expected order, the early details of which were first reported by The Washington Post late Wednesday, as an attempt to stamp out political bias on the part of the country’s largest social media platforms.His directive comes days after Twitter steered viewers of some of the president’s tweets to news articles that fact-checked his claims, a move Trump said was a form of censorship, The Washington Post reported.  "
