,title,text
0,"Forex Technical Analysis and Forecast: EUR/USD, GBP/USD, USD/CHF, USD/JPY, AUD/USD, USD/RUB, USD/CAD, Gold, Brent, BTC/USD","After breaking 1.1038, EUR/USD has formed another descending wave. Possibly, today the pair may form a new correction upwards and test 1.0138 from below. After that, the instrument may continue trading inside the downtrend with the target at 1.0990. GBP/USD is forming the first descending impulse with the target at 1.2444. Later, the market may start another correction towards 1.2515 and then form a new descending structure to break 1.2444. The predicted target is at 1.2360. USD/CHF is forming the first ascending impulse with the target at 0.9950. After that, the instrument may correct towards 0.9920 and then start another growth to reach 0.9988. After breaking 107.83, USD/JPY has formed another descending wave at 107.52. Today, the pair may form one more ascending structure towards 107.80 and then resume trading downwards to reach 107.45. AUD/USD has broken 0.6783 downwards. Possibly, today the pair may test this level from below and then start a new decline towards 0.6748. Later, the market may correct with the target at 0.6840. USD/RUB has completed another descending structure at 63.72. Today, the pair may start a new correction towards 64.14 and then resume falling with the target at 63.28. USD/CAD is consolidating around 1.3268. Possibly, today the pair may fall to break 1.3252 and then continue the correction towards 1.3236. However, the price may choose an alternative scenario to break 1.3280 and then grow to reach 1.3305. The main scenario implies that the instrument may continue the correction with the target at 1.3213. Gold has broken 1516.80; right now, it is still moving upwards. Today, the pair may fall to break 1510.00 and then continue trading downwards with the target at 1472.00. Brent is consolidating above 64.32. According to the main scenario, the price is expected to move upwards to break 67.67. Later, the market may continue growing with the target at 71.30. BTC/USD has finished another descending impulse at 9850.00; right now, it is consolidating above this level. Possibly, the pair may form a new correction towards 10122.00 and then resume trading downwards with the first target at 9500.00."
1,EUR/USD hits weekly lows sub-1.10 as German Flash Manufacturing PMI surprises negatively with 41.4,"The German manufacturing sector contraction deepened in September, the latest manufacturing activity report from IHS/Markit research showed this Monday.The German Manufacturing purchasing managers index (PMI) arrived at 41.1 versus 44.0 expected and 43.5 previous, hitting the lowest levels in over a decade. Meanwhile, services PMI hit a nine-month low level of 52.5 as against previous months reading of 52.5 and 54.3 anticipated.The IHS Markit Flash Germany Composite Output Index came in at 83-month lows of 49.1  in September vs. August’s 51.7 and 51.4 expectations. “Another month, another set of gloomy PMI figures for Germany, this time showing the headline Composite Output Index at its lowest since October 2012 and firmly in contraction territory.”“The economy is limping towards the final quarter of the year and, on its current trajectory, might not see any growth before the end of 2019.”“The manufacturing numbers are simply awful. All the uncertainty around trade wars, the outlook for the car industry and Brexit are paralyzing order books, with September seeing the worst performance from the sector since the depths of the financial crisis in 2009.On worsening German PMI numbers, the selling interest around the EUR picked up pace, knocking-off the EUR/USD pair to fresh weekly lows near 1.0970."
2,EUR/USD - Multiple Bearish Price Action Signals Under 1.1105 Resistance,"EURUSD - Watching For A Break Down From Multiple Inside Bars and a Bearish Inside Bar + Pin Bar Combo Pattern Trend: BearishRelevant Key Levels: Resistance at 1.1105, 1.1180, 1.1280, 1.1325. Support at 1.0805 and 1.0960Price Action: Multiple Inside Bar Pattern and an Inside Bar + Pin Bar Combo pattern forms last week. A small bearish Pin Bar formed at 1.1100 resistance recently and remains in tact.Current Notes: The short term bias remains bearish as prices remain contained below the overhead 1.1180 to 1.1280 resistance.Potential Trade Idea: We will consider selling short on any short term bounce in prices OR on a bearish price action sell signal, whilst price remains below the 1.1180 to 1.1280 resistance area. Initial downside targets to 1.0805. Nial Fuller is a Professional Trader & Author who is considered ‘The Authority’ on Price Action Trading. He has a monthly readership of 250,000+ traders and has taught 20,000+ students since 2008. Checkout Nial's Blog - Learn To Trade The Market."
3,Russia's Novak: Russia to cut September oil output to comply with OPEC+ deal,"According to Interfax news agency, Russian Energy Minister Alexander Novak today said that Russia is planning to cut its September oil output in order to comply with the OPEC+ deal.Crude oil prices don't seem to be reacting to these remarks. As of writing, the barrel of West Texas Intermediate (WTI) was down 1.1% on the day at $57.80 and the barrel of Brent was trading at $64.06, erasing 0.9% on a daily basis.Earlier in the day, reports of Saudi Arabia's oil facilities planning to fully restore production as early as next week weighed on crude oil prices."
4,"The Important Economic News Calendar: September 23 – September 27, 2019","Starting this week, we will publish the weekly economic news calendar. It will be released on Monday morning and will include the key news releases broken down into different markets for the convenience of readers. So let’s take a look at the possible market-moving events in the coming week.This week’s economic news will include speeches from some of the main Central Banks Governors (ECB, BOJ, BOE and RBA), Tuesday’s U.S. Consumer Confidence number data and Thursday’s U.S. final GDP number for the second quarter of the year. There will also be some less important but still potentially market-moving events like Wednesday’s Crude Oil Inventories announcement, Friday’s U.S. Personal Spending and Durable Goods Orders releases.You will find this week’s the key news releases below (EST time zone). For your convenience, we broken them down per market to which they are particularly important, so that you know what to pay extra attention to, if you have or plan to have positions in one of them. Moreover, we put the particularly important news in bold. This kind of news is what is more likely to trigger volatile movements. The news that are not in bold usually don’t result in bigger intraday moves, so unless one is engaging in a particularly active form of day trading, it might be best to focus on the news that we put in bold. Of course, you are free to use the below indications as you see fit. As far as we are concerned, we are usually not engaging in any day trading during days with “bold” events on a given market. However, in case of more medium-term trades, we usually choose to be aware of the increased intraday volatility, but not change the currently opened position.Gold, Silver, and Mining StocksTuesday, September 24Thursday, September 26Crude OilTuesday, September 24Wednesday, September 25Thursday, September 26Stock MarketsMonday, September 23Tuesday, September 24Wednesday, September 25Thursday, September 26Friday, September 27EUR/USDMonday, September 23Tuesday, September 24Thursday, September 26Friday, September 27USD/JPYTuesday, September 24GBP/USDThursday, September 26USD/CADThere is no important news scheduled for the coming week.AUD/USDTuesday, September 24 "
5,Negative Interest Rates Are Social Political Poison,"The interest rate business model is dead. Negative interest rates killed it, with no replacement in sight.Anne Kunz and Holger Zschäpitz co-authored an excellent article for Welt (in German) called the Interest Rate Business Model is Dead.Here are some excerpts via Google translate with many of my own modifications. For example, the title itself is my translation, not Google's.Google has the title as ""Business Model With the Interest is Dead"".I made an educated guess that Google's title isn't quite right.I picked up the article from this Tweet.#ECB has ruined business model of German banks, which borrow money short term & lend long term. Banks can no longer earn money w/flat yield curve: maturity transformation business is dead. Commerzbank shares dive in tandem w/2s10s yield spread. https://www.welt.de/wirtschaft/article200679662/Banken-Das-Geschaeftsmodell-mit-dem-Zins-ist-tot.html?wtmc=socialmedia.twitter.shared.web … via @weltHolger Zschaepitz @Schuldensuehner Translation errors below may be Google's or mine. I took a fair amount of liberty, adding some words, deleting others, or changing the word order so the result makes sense to me.Apologies to the authors for any of my errors.Interest Rate Business Model is DeadThe cash cow bank lending model is dead, buried by the European Central Bank (ECB).The coup de grace came at the recent meeting. As ECB President Mario Draghi squeezed the negative interest rate for banks even deeper.The ECB will restart its bond purchase program in November. This time, without a time limit. Thus, the monetary authorities have permanently chained the long-term interest rate at a low level and cut the profit opportunities of the financial sector to a level that isn't sustainable. For a long time, institutions have made good money from the difference between long-term and short-term interest rates.That time is now over.In 2016, Commerzbank employed more than 50,000 people. CEO Martin Zielke wants to close one-fifth of the 1,000 branches and even wants to part with an important source of income including his Polish subsidiary MBank. The workforce should be reduced to around 38,000 by the end of 2020.The sale of Mbank is a desperate attempt at salvation.In terms of stock market value, Deutsche Bank and Commerzbank are now loosely hanged even by more regionally active institutions from Norway and Sweden. [That is a direct translation that reads wrong but I do not know how to fix it].Even the once proud Landesbanken is a restructuring case. This is a dangerous development.""With the allowance, the ECB has relieved the German banks in the short term by around 500 million euros. At the same time, banks will be burdened considerably by the continuation of the low interest rates for an indefinite period, ""says Peter Barkow, financial expert at Barkow Consulting. ""Especially the German banks are very much dependent on income from the long-term investment of customer deposits at higher interest rates, called maturity transformation. This strategy only works very limited, ""warns the expert. [The allowance refers to the ECB not charging banks a portion of the negative interest on excess reserves]However, the corresponding earnings impact on the banks will only be delayed. ""Many German banks have to find new sources of income in the medium term. In the short term, a further reduction in costs will probably be necessary, ""says Barkow.For more than a hundred years, banks lived on long-term lending or investing in securities their clients entrusted to them in the short term .Historically, banks made money out of time. If time no longer has a price, because there is no more interest, nothing can be earned. Ten-year Bunds yielded around 1.5 percentage points more than two-year issues in historical terms. Currently, the difference is just under 0.2 percentage points.In the multi-billion loan portfolios, the institutions are losing a lot of money due to ECB policy. Accordingly, the shares of Deutsche Bank and Commerzbank have fallen in sync with the interest rate differential. How dramatic the situation is for the banks, the analysts of JP Morgan have written down.In a 120-page analysis, JP Morgan analysts calculated what effects the ECB policy will have on the banks. They used Japan as an example. Japan has had negative interest rates for some time now and there institutions have been unable to earn anything for two decades with time. The JP Morgan analysts' conclusion: Interest margins could continue to shrink and continue to weigh on the earnings side.""The negative interest rate policy of the ECB is ruining the financial system and is a socio-political poison,"" says Frank Kohler, CEO of Sparda-Bank Berlin. The financial system is absurd if we have to explain to the children that money has a negative value - and thus debt is good, because you may not have to repay everything.Bingo.
Thanks to Anne Kunz and Holger Zschäpitz for an excellent article and apologies again for any translation errors I may have made. This material is based upon information that Sitka Pacific Capital Management considers reliable and endeavors to keep current, Sitka Pacific Capital Management does not assure that this material is accurate, current or complete, and it should not be relied upon as such."
6,Will sovereign risk premiums continue to fall?,"In recent months we have witnessed a notable compression in sovereign cds at the global level, in an economic scenario that is full of uncertainty and in which public debt is at an all-time high.The global median of sovereign CDS prices —which reflect the cost of securing against the risk of sovereign bond default— has reached its lowest level since the end of 2007, reaching levels not seen since 2009 in Greece and since mid-2008 in Portugal, before the sovereign debt crisis broke out in the EU. Spain's sovereign CDS is also very low, but it had already reached similar levels in early 2018. In any case, based on CDS prices, the financial markets appear to indicate that the European sovereign debt crisis is completely behind us.Another case worth noting in the current scenario is the fact that Argentina's sovereign debt crisis has not spread to other sovereign markets. Over the past month, Argentina's rating has been through a series of downgrades and upgrades after it fell into a technical default when it announced that it would be postponing payments on its short-term debt, among other measures. Argentine CDS has skyrocketed, reaching levels associated with default, but this has not had the slightest impact on sovereign premiums in other Latin American countries. Furthermore, it has had no impact in any emerging country in general, where, similar to the global context, premiums remain at very low levels, even reaching all-time lows in several countries (Indonesia, Peru, the Philippines and Thailand).These low levels in Latin America and emerging Asian countries are even more surprising when taking into consideration the current fiscal vulnerabilities in these regions. The fiscal indicators (balance sheets, public debt, etc.) in most of these countries are relatively high and/or worse than in recent years.Theoretically, sovereign CDS premiums should reflect the market value of each country's sovereign risk. However, at present, these levels do not seem to reflect the current risk environment we are facing, which is marked by the worsening outlook for global growth, the arrival of worse macroeconomic data, greater political and geopolitical risks, and the worsening or stagnant fiscal vulnerabilities in many geographies, especially emerging countries.In fact, the levels we are seeing clearly respond to investors' search for yield in an environment with very low and even negative rates due to increasingly lax monetary policies at the global level — a direct result of the slowdown in activity and the absence of inflationary pressures.The sovereign risk assessment, which is implicit in any country's CDS premium, can be compared to the risk assessment by rating agencies (Moody's, S&P, Fitch) for that country, closer to that consistent with the sustainability risk of public debt. The difference between the two assessments gives us an indicator of the pressure exerted on the agencies by market perceptions to upgrade or downgrade the rating of that country. This great narrowing of sovereign spreads we are seeing has reduced global pressures to cut ratings and intensified pressures to improve ratings in general. This is particularly noticeable in most emerging European countries and countries on the periphery of the EU.The answer to the question of whether these low levels of perception of risk will continue going forward, or whether they will return to levels in line with historical averages and, if so, when this will happen, must be open-ended given the current high level of uncertainty and the current backdrop of negative rates. However, it is worth remembering that, once these low levels have been reached, it is most likely that it will become increasingly difficult for the same downward trend to continue and for it to become easier for levels to start climbing. Thus levels would become more consistent with the risk levels suggested by macroeconomic fundamentals.Download The Full Global Economy"
7,"Top 3 price prediction Bitcoin, Ripple, Ethereum: Bakkt to the Future"," Today is the day – the release of futures on Bitcoin by ICE – owner among others by the all-powerful NYSE. This initiative, channeled through the trading platform Bakkt, will allow trading futures on Bitcoin with delivery to maturity.The fact that the future has a physical deliverable at maturity will help the future price to stay close to the spot price. The futures on Bitcoin are a handy tool to make price hedges on the cryptographic asset – a very interesting for miners and corporations that make payments and collections with Bitcoin.The market opens the week in the same way that it closed on Friday. On that day, significant resistance was reached in the Altcoin segment – which is translating into more or less substantial price falls depending on the asset.The next few days will confirm or disprove the Altcoins season and also the possibilities of having a tremendous upward race towards the end of the year.  The ETH/BTC cross is currently trading at 0.02109 and marks the second day in the red after being unable to pass the SMA100 by 0.0215. Prominent influences with a lot of audience in social networks are hailing the end the Altcoins rally – an opinion I do not share.  The technical structure is still in the development phase and retains a strong upside potential – so I predict that the upside movement still has room for development.Above the current price, the first resistance level is at 0.0214, then the second at 0.0229 and the third one at 0.0250.Below the current price, the first support level is at 0.02205, then the second at 0.0194 and the third one at 0.0186.The MACD on the daily chart keeps the bullish potential intact. The MACD on the daily chart keeps the bullish potential intact. Some slant is lost, but the lines retain the opening between it. Only a significant drop could damage this structure.The DMI on the daily chart shows the bulls retaining leadership in ETH/BTC. The bears have improved a bit but are still far from levels that could threaten the bullish dominance in the pair. BTC/USD is traded at $9,918 and continues to pay for its inability to outperform the main moving averages. We will see how Bitcoin feels about launching Bakkt Futures.Above the current price, the first resistance level is at $10,400, then the second at $10,650 and the third one at $11,300.Below the current price, the first support level is at $10,650, then the second at $9,150 and the third one at $8,800.The MACD on the daily chart crosses downward but with a little opening between the lines or inclination. With this configuration, it is going to be very difficult to see price levels below $9,000.The DMI on the daily chart shows how the bulls are placed above the ADX line while the bears move down and give up fighting for leadership. ETH/USD is currently trading at the $209.24 price level and is supported by the SMA200 after a first attempt to beat the SMA100. The situation between moving averages of the price may lead to increased volatility in the coming days.Above the current price, the first resistance level is at $215.4, then the second at $225 and the third one at $235.Below the current price, the first support level is at $207, then the second at $200 and the third one at $195.The MACD on the daily chart retains its bullish potential although it loses some of its optimistic slopes. The opening between the lines is still positive in the short term.The DMI on the daily chart shows how bulls retain leadership but lose the support of the ADX line. The bears improve their trend strength but are still far from threatening the bulls level. XRP/USD is currently trading at $0.273 and loses most of last week's gains. The weakness of XRP is evident – it is unable to sustain any increase over time.Above the current price, the first resistance level is at $0.282, then the second at $0.288 and the third one at $0.2933.Below the current price, the first support level is at $0.27, then the second at $0.267 and the third one at $0.257.The MACD on the daily chart loses its bullish slope and moves into a bearish position. The positive side of the situation is that the moving averages move through the positive zone and may find support at the zero levels of the indicator.The DMI on the daily chart shows the bulls dominating the XRP/USD pair but much less ahead of the bears than in the past few days. The bears are moving higher and threatening the buyers' advantage.

Get 24/7 Crypto updates in our social media channels: Give us a follow at @FXSCrypto and our FXStreet Crypto Trading Telegram channel"
8,,
9,,
