,title,text
0,EUR/USD Forecast: Firmer dollar still can’t beat a weakened EUR,"The EUR/USD pair finished Friday at around 1.0820, unchanged weekly basis. The greenback strengthened against other major high-yielding assets, but lost against those considered safe havens, as US data released on Friday was quite disappointing. Retail Sales in the country fell by 16.4% in April, worse than the -12% expected and the largest slump on record. The preliminary estimate of the Michigan Consumer Sentiment Index beat expectations, printing 73.7 in May vs. 71.8 in April. In Europe, the EU Q1 GDP met expectations, contracting by 3.8% while the German economy contracted by 2.2% in the three months to March, also in line with the market’s forecast.Meanwhile, the market’s sentiment continues to toss and turn on the back of the pandemic-related developments. The epicentre has moved to the Americas, while Europe slowly returns to life, learning to live with the disease. Hopes that economies will recover remain, although the possible time-frame on when that may occur continues to be unclear. As usual, the week will start in slow motion in the data front, without market-moving data scheduled in the EU and the US.The EUR/USD has been unable to attract speculative interest these last few days, now offering a  neutral-to-bearish perspective in its daily chart. It was unable to recover above a mild-bearish 20 SMA, which caps the upside around 1.0850, while technical indicators stand flat right below their midlines. In the 4-hour chart, the risk skews to the downside, as the pair settled below all of its moving averages, which anyway lack clear directional strength. Technical indicators, in the meantime, hold within negative levels, the Momentum heading south and the RSI directionless. A relevant support level is 1.0720, with a break below it exposing the yearly low at 1.0635.Support levels:  1.0760 1.0720 1.0680Resistance levels: 1.0820 1.0850 1.0890View Live Chart for the EUR/USD"
1,Forex Today: King Dollar keeps leading,"What you need to know on Monday, May 18th: The dollar closed the week with a strong note, despite reporting on Friday that Retail Sales fell by 6.4% in April, the largest slump on record. The Michigan Consumer Sentiment Index beat expectations, printing 73.7 in May.The EUR/USD pair closed the week as it started it, a handful of pips above the 1.0800 mark. News over the weekend showed that  German EU parliamentarian Weber said that he favours declaring a twelve-month ban on Chinese investors who want to buy European firms.The pound was the worst performer, undermined by Brexit woes. The UK and the EU, both reported a deadlock in talks,  amid disagreement on the EU’s demand for a level playing field. Andrew Haldane, Bank of England's Governor, said that “there are other options beyond that, or alongside that, that we're looking at as well,” when referring to negative interest rates. He also discussed the use of QE, although he later clarified that he was not implied policymakers are poised on any of those options.Commodity-linked currencies fell on Friday and closed the week with a soft tone against the greenback, despite oil and gold posted substantial weekly gains. WTI settled just below $30.00 a barrel, while spot gold hit a multi-year high of 1,751.75 a troy ounce.US  indexes settled on Friday near its daily highs but remained in the red weekly basis. The market’s sentiment continued to fluctuate between fears of economic downturns and hopes on reopenings. Treasury yields remained depressed throughout the week.Bitcoin Price Analysis: $10K still in sight amid a descending channel breakout"
2,Gold Price Analysis: Symmetrical triangle breakout targets $1805 in the coming weeks,"The bullish reversal in Gold prices (XAU/USD) kicked-off last week after bottoming out at 1690 levels.The upside momentum gained traction after the rates closed Wednesday above the 21-DMA, then at 1705.81.While the actual bullish break materialized after a classic symmetrical triangle pattern was confirmed on the daily chart last Thursday. The bulls rallied hard to clock a fresh seven-year high at 1751.80 before retracing slightly into the weekly closing on Friday.In a month’s time, the price is likely to test the pattern target at $1807. Ahead of that level, the key resistances are located at 1754.39 (Nov 2012 high), 1760 (round number) and 1795.25 (Oct 2012 high).Advocating the case for additional gains, the daily Relative Strength Index (RSI) is pointing upwards, although remains below the overbought territory, near the 65.15 region. Meanwhile, the spot trades above all majors DMAs.Alternatively, any pullback will target the earlier resistance-turned-descending trendline support aligned at 1719.61, below which the 21-DMA will be tested on its south run towards the 1700 level. Selling pressure will accelerate below the latter, opening floors for a test of the ascending trendline (pattern) support at 1685.56. "
3,"BoE Examining Negative Rates, Haldane Tells Telegraph – BBG","Bloomberg News reports that the Bank of England ""is examining unconventional monetary policy measures more urgently amid the economic slump caused by the coronavirus pandemic, according to its Chief Economist Andrew Haldane.""The central bank is reviewing a number of policies -- including negative interest rates and expanding the scope of the bank’s asset-purchase plan to include riskier securities -- as it is running low on conventional easing space, Haldane said in an interview with the Telegraph. He stressed that the BOE isn’t poised to impose any of those polices imminently.'It’s something we’ll need to look at -- are looking at -- with somewhat greater immediacy,' Haldane said when asked if borrowing costs could go below zero. 'You mention negative rates, but there are other options beyond that, or alongside that, that we’re looking at as well.'There are immense pressures and a fundamental cause for the pound to continue lower.  For instance: Ministers move coronavirus teams back to no‑deal Brexit planning – Sunday Times.In today's Chart of The Week, we take a look at EUR/GBP: Chart of The Week: EUR/GBP Price Analysis, bullish to 0.9060, although pullback to support first?"
4,"What you need to know before markets open: Risk-off, GBP heavy funda, cold wars, Powell on TV","The markets are likely to start the week risk-off, although there is still some top side room in the benchmark indexes, with the S&P 500 close to the 61.8%. The DJIA has already reached its 61.8% retracement target. Meanwhile, for a quick recap of Friday's close and early weekend news, see here: Forex Today: King Dollar keeps leading.For the open, there will be a focus on the pound. It was under pressure on Friday, the worst performer in fact, undermined by Brexit woes. The UK and the EU, both reported a deadlock in talks,  amid disagreement on the EU’s demand for a level playing field. Andrew Haldane, Bank of England's Governor, said that “there are other options beyond that, or alongside that, that we're looking at as well,” when referring to negative interest rates. He also discussed the use of QE, although he later clarified that he was not implied policymakers are poised on any of those options – Forex Today: King Dollar keeps leading.We have more recent weekend news and headlines which will be digested by the markets, here and here. The headlines are pertaining to the BoE considering negative rates and the Times reporting on hard-Brexit themed risks. We are seeing a war of words from the two most powerful economies in the world. Trade wars, COVID-19 backlash and now shows of muscle power on the nuclear arms front. In more recent headlines on Monday, the South China Morning Post reports: ""China hits back at America’s ‘unreasonable suppression’ of Huawei"":After Washington announces new restrictions on technology giant, Beijing says it will ‘firmly uphold Chinese firms’ legitimate and legal rights and interests’. Observers say China is likely to retaliate, but exactly how remains to be seen.Following Powell speech: Economy will recover 'steadily' through 2H 2020, we will hear more from the Chair of the Federal Reserve System, Jerome Powell, when appears on US TV show ""60 Minutes"". This will be aired from 7pm ET (2300GMT).Meanwhile, Federal Reserve issued a stark warning on Friday that ""stock and other asset prices could suffer significant declines should the coronavirus pandemic deepen, with the commercial real estate market being among the hardest-hit industries,"" Bloomberg News reports. The Fed made the assertion in its twice-yearly financial stability report, in which it flags risks to the U.S. banking system and broader economy. The document highlighted the central bank’s race to intervene in markets and temporarily dial back regulations on financial firms in response to the Covid-19 crisis.“Asset prices remain vulnerable to significant price declines should the pandemic take an unexpected course, the economic fallout prove more adverse, or financial system strains reemerge,” the Fed said in the report. It cited commercial real estate as being particularly susceptible to falling valuations because “prices were high relative to fundamentals before the pandemic,” and there have been severe disruptions in the hospitality and retail industries.US CDC reports 31,967 new coronavirus cases as of yesterday; total now 1,467,065 cases vs 1,435,098 in previous report on May 16.US CDC  reports 1,394 new deaths due to coronavirus as of yesterday; total now 88,709 deaths vs 87,315 in previous report on May 16. The S&P500 index is on track for a test of the 50-4-HR moving average that meets the golden 61.8% Fibonacci retracement target:Meanwhile, the pound is in focus. See here for EUR/GBP analysis with bulls targeting the 0.90 handle:  "
