,title,text
0,EUR/USD Forecast: Bears paused ahead of next catalyst,"The EUR/USD pair has spent most of this Monday consolidating in the 1.0830 price zone, a few pips above 1.0826, the multi-year low pasted last Friday. Market players struggled to find a catalyst, as the EU macroeconomic calendar was empty, while the US celebrated Presidents’ Day. The shared currency’s weakness has been driven by tepid or null growth in Germany throughout the last year. And news from this Monday suggest that the economy has not yet found its bottom, as the Bundesbank said in its monthly report that there are no signs the currency situation is set to change in the first quarter of the year, while coronavirus’ uncertainty adds a new layer of risk.This Tuesday, Germany will release the February ZEW Survey, and the Economic Sentiment for the country is seen contracting to 21.4 from 26.7 previous. The assessment of the current situation is also seen worsening, to -10.3 from .9.5. For the EU, Economic Sentiment, however, is seen bouncing to 30 from 25.6. If the outcome misses the market’s expectations, fresh yearly lows for EUR/USD are likely. The US macroeconomic calendar will include the NY Empire State Manufacturing Index for February and December TIC Flows.The EUR/USD pair is technically bearish despite holding on to a tight range, with no signs of downward exhaustion, at least in the short-term. The 4-hour chart shows that a bearish 20 SMA retains its downward slope above the current level and below the larger ones, which also head south. Technical indicators have corrected oversold conditions, the Momentum advancing within negative levels, while the RSI stands pat around 33. The immediate support is 1.0810, en route to a more relevant one at 1.0770.Support levels: 1.0810 1.0770 1.0725Resistance levels: 1.0850 1.0895 1.0930View Live Chart for the EUR/USD"
1,FX Positioning: Steady dollar buying,"Data shows positioning moves were dominated by idiosyncratic drivers while the coronavirus keeps weighing on risk-sensitive currencies. In all this, buying appetite for the dollar remains solid. CFTC data covering the week 5-11 February shows how speculative net positioning on EUR/USD have decreased to -14% of open interest, at their lowest since October 2018. This is in line with the recent bear trend in spot and mirrors the combination of deteriorating sentiment around the Eurozone (possible impacts of the coronavirus, unsupportive data-flow) and lingering appetite for long-dollar positions.Indeed, the table below (FX positioning overview) denotes a generalised dollar buying vs G10 FX, with some regional stories allowing recovery in certain currencies. This is likely a result of a combination of safe-haven flows on the back of coronavirus and the mounting signs of US economic resilience that keeps feeding the USD bullish sentiment. Source: CFTC, Bloomberg, ING In our latest FX positioning commentary, we highlighted how the AUD positioning was proving more resilient than its peers NZD and CAD. This dynamic recurs in the latest CFTC report and it is even more evident as AUD net positions advanced by 5.5% of open interest, reducing the net-short exposure to -18%. NZD and CAD, instead, both saw their net shorts being increased.The recovery in the AUD net positioning is mostly linked to the hawkishness of the RBA throughout the week under coverage: first with the rate announcement and then with the speech by Governor Lowe and the monetary policy report. Despite the recovery, AUD remains the biggest short in G10 given how exposed the Australian economy is to Chinese demand and not forgetting the bushfire emergency.CAD long-squeeze is, instead, quite surprising, given the strong jobs report published on 7 February. It may suggest how the coronavirus story is somewhat incompatible with a net-long positioning in commodity currencies: we saw the NZD net positioning quickly moving back into short territory after a few weeks into neutral/mildly-long territory. It is worth mentioning that the NZD positioning should follow the uptick in positioning seen in AUD as the RBNZ met on 12 February and delivered a hawkish message.We looked at the FX implications of this in “New Zealand: Central bank paves way for currency rebound in medium-term”. As the coronavirus story hit the markets, many thought it would have been the beginning of a run for the yen. However, this only partly materialised, as markets (equities, above all) showed a more sanguine approach than anticipated. In turn, despite a recovery in the extended net-short positioning, selling interest on the yen keeps prevailing as net positioning was at -14% of open interest as of 11 February.Also, the CHF positioning inched lower but remains in the net-long territory after the recent rally. This denotes how speculators remain quite attracted to the possibility of testing the Swiss central bank's patience further and bet on EUR/CHF downside. However, the FX moves in the past few days highlight how 1.06 may start to be perceived as a key level for SNB intervention, which partly explains the recent recovery in EUR/CHF.Finally, GBP net longs continue to prevail, thanks to a jump in positioning during the week. In our view, this long-positioning may assist a sterling downtrend towards levels that better price in the uncertainty related to the UK-EU negotiations. Read the original analysis: FX Positioning: Steady dollar buying"
2,EUR/USD: Bears remain in control,"The world's most popular currency pair hit a 34-month low at 1.0820 and is attempting a recovery. Nevertheless, fundamentals and technicals are pointing lower in the opinion of Yohay Elam from FXStreet. “While the US is on holiday today – celebrating Presidents' Day – the German Bundesbank is set to provide an updated view on the economy in its monthly report, potentially adding pressure on the common currency. The central bank may provide comments on the coronavirus outbreak that has hit China.”“The Relative Strength Index of the four-hour chart has risen above 30 – exiting oversold conditions – and allowing for fresh falls. Downside momentum is significant and the currency pair trades well below the 50, 100, and 200 Simple Moving Averages.” “Critical support awaits at 1.0820, which is the recent low and also the upper end of the ‘Macron Gap’.”“The other side of the gap is 1.0770, followed by 1.0720.” "
3,EUR/USD clings to daily gains near 1.0840,"After climbing as high as the 1.0850 region during early trade, EUR/USD met some selling pressure and it has now receded to the 1.0840/35 band, always amidst the prevailing consolidative mood in the global markets.After three consecutive daily pullbacks – including fresh YTD lows in the 1.0830/25 band – the pair seems to have regained some buying interest against the backdrop of the generalized consolidative mood among investors. The subdued trading was mainly thanks to the inactivity in the US markets due to the Washington’s Birthday holiday.In the meantime, concerns around the COVID-19 look somewhat contained and keep propping up the upbeat sentiment surrounding the riskier assets on Monday.Later in the week, the single currency should be under scrutiny as the German/EMU ZEW survey is due on Tuesday, seconded by the ECB Accounts on Thursday and key flash Manufacturing/Services PMIs in the core Euroland.EUR/USD has so far managed to bounce off YTD lows around 1.0830 on Friday, although the bearish mood surrounding the European currency remains far from abated. In the meantime, USD-dynamics are expected to dictate the pair’s price action for the time being along with the broad risk trends, where the COVID-19 is still in the centre of the debate. On another front, the ECB is expected to finish its “strategic review” (announced at its January meeting) by year-end, leaving speculations of any change in the monetary policy before that time pretty flat. Further out, latest results from the German and EMU dockets continue to support the view that any attempt of recovery in the region remains elusive for the time being and is expected to keep weighing on the currency.At the moment, EUR/USD is advancing 0.08% at 1.0838 and faces the initial hurdle at 1.0957 (weekly high Feb.10) seconded by 1.0988 (21-day SMA) and finally 1.1069 (55-day SMA). On the downside, a breach of 1.0827 (weekly/2020 low Feb.14) would target 1.0814 (78.6% Fibo of the 2017-2018 rally) en route to 1.0569 (monthly low Apr.10 2017)."
4,EUR/USD to resume its slump,"A holiday in the US and a scarce macroeconomic calendar in Europe keeping majors range-bound, Valeria Bednarik from FXStreet informs. The analyst sees the pair extending its slump on a break below 1.0810, the immediate support.“The EUR/USD pair is trading near it’s Friday multi-year low of 1.0826, showing little aims to move one way or the other, as the daily high was set at 1.0850. A scarce European macroeconomic calendar and US markets on holiday are behind the absence of trading interests.”  “EUR/USD is consolidating mid-way its daily range, retaining its bearish stance in the short-term. The 4-hour chart shows that the 20 SMA maintains a sharp bearish slope above the current price and below the larger ones, which also head firmly lower.”“Technical indicators have corrected extreme oversold conditions before resuming their declines within negative levels. Further declines are to be expected, with the market now eyeing a test of 1.0770 the next relevant support level.” "
5,EUR/USD Forecast: Ready to plunge into the Macron Gap after another dead-cat bounce,"EUR/USD has hit the brakes just before the cliff – but it may still accelerate and take the plunge. The world's most popular currency pair hit a 34-month low at 1.0820 – just above the ""Macron Gap"" from April 2017 and is attempting a recovery. Nevertheless, fundamentals and technicals are pointing lower.The common currency remains under pressure after Germany – the eurozone's ""locomotive"" – stagnated in the fourth quarter. Moreover, the economy grew by a meager 0.4% in 2019, compared to over 2% in the US.The economic divergence continues pushing euro/dollar down even if not all American figures are shining. US Retail Sales figures missed expectations as the all-important Control Group grinding to halt in January. On the other hand, the University of Michigan's preliminary Consumer Sentiment gauge for February exceeded estimates by topping the 100 level. Better confidence implies higher sales. While the US is on holiday today – celebrating Presidents' Day – the German Bundesbank is set to provide an updated view on the economy in its monthly report, potentially adding pressure on the common currency. The central bank may provide comments on the coronavirus outbreak that has hit China.In recent years, the driving force for the German economy has been its exports to the world's second-largest economy. Extended new year holidays in most Chinese provinces have already taken their economic toll and the ongoing lockdown of Hubei province – the epicenter of the disease – is weighing on the automotive sector. Beijing has announced it would take additional measures to stimulate the economy as the death toll surpassed 1,700 and the number of cases topped 70,000.Outside China, the biggest hotspot of infections is on the Princess Diamond cruise ship harboring in Yokohama, Japan. Several countries, including the US, are evacuating citizens from the ship, and this move causes fears of broader contagion. Big events such as the Tokyo Marathon and Barcelona's Mobile World Congress have been canceled. Markets remain relatively calm amid the worrying headlines, seeming to price in short-lived fall in global growth followed by a V-shaped rebound. However, new coronavirus developments may sour the mood. Overall, euro/dollar remains at risk of falling further down.The Relative Strength Index of the four-hour chart has risen above 30 – exiting oversold conditions – and allowing for fresh falls. Downside momentum is significant and the currency pair trades well below the 50, 100, and 200 Simple Moving Averages. After the recent dead cat bounce, bears remain in control.Critical support awaits at 1.0820, which is the recent low and also the upper end of the ""Macron Gap"" – a weekend ""hole"" in the chart dating back to April 2017, when Emmanuel Macron won the first round of the French presidential elections.The other side of the gap is 1.0770, followed by 1.0720. Resistance awaits at 1.0860, a swing high from late last week, followed by 1.0879. the 2019 trough. Next, 1.0890 separated ranges and 1.0925 capped a recovery attempt beforehand. The Macron Gap:"
6,FX Week Ahead: The market is undecided about the potential impact of the coronavirus,"The global risk tone has been alternating between risk-on and risk-off this week as the market is undecided about the potential impact of the coronavirus. Midweek there was an adjustment to the way Hubei cases were classified, which led to a large spike in reported cases from the Hubei region. The main issue going forward will be any evidence of supply chains being impacted by China's considerable efforts to contain the coronavirus. If we start to see evidence these supply chains are being hampered, then expect global equity markets to start falling again. USD: Inflation data, Thursday, Feb 13. The core CPI reading was 2.3% y/y vs 2.2% expected, but this inflationary uptick should be negated by recent low oil prices. 

	The market is still expecting one Fed rate cut this year even though the Fed's dot plot is projecting no further rate cuts this year.NZD: Rate Statement, Wednesday, Feb 12. The NZD should continue to find buyers after the RBNZ adjusted its future interest rate path.

	The RBNZ now sees the interest rate at 1.00% in June 2020 and 1.10% in June 2021. This is revising up the previous forecast of 0.9% through to March 2021.EUR: Industrial Production, Wednesday, Feb 12. The EURUSD fell this week to the lowest level since May 12, 2017. 

	This was partly helped by the reduction in eurozone factory activity with production levels at -2.1% vs -2.0% m/m expected. Expect Euro sellers on pullbacks as expectations rise for future ECB easing. CAD: Inflation data, Wednesday, Feb19. Futures markets are pricing in a 60% chance of a Bank of Canada rate cut by April. 

	If oil markets fall further next week CAD will be pressured lower still. Inflation data on Wednesday will be key for the BoC. A weak reading here and expect USDCAD buyers.EUR: Manufacturing and Services PMI's, Friday, Feb 21. The slowdown in the Eurozone is only set to get worse if the spread of the coronavirus impacts Eurozone manufacturing. 

	Investors will be looking for signs of a further slow-down from Manufacturing and Services PMI data out this Friday.Coronavirus: Watch out for the latest virus news. Keep alert to the latest news on the seriousness of the coronavirus spread. 

	Watch out for supply chain issues being felt from next week onwards. Finally, note that for the past two weeks, Friday has been a strong risk-off day (equity selling, JPY, and CHF strength) heading into the uncertainties of weekend news. Don't get caught out!  Learn more about HYCM "
7,EUR/USD: More greenback strength – Danske Bank,"Analysts at Danske Bank expect more US dollar strength in the coming weeks, therefore, they think additional USD longs have potential. “We still think the all overarching theme is the strengthening of the broad USD, its ramifications for other asset classes and the subsequent spill-over effects to the rest of G10 and EM-majors.” “Our predisposition is for more USD strength and it is especially noteworthy how IMM data do not suggest that USD positioning is particularly stretched long – if stretched at all.”“Leveraged accounts have heavily added short EUR/USD positions in recent weeks but we believe in a potential for additional USD longs and a continuation of the greenback rally.” "
8,EUR/USD: What’s good for the Donald is good for the USD – Nordea,"Strategists at Nordea continue to expect more downside pressure in the EUR/USD pair as the probability of Trump winning the election keeps rising, which is good for the US dollar. “As long as the Democrats are busy obstructing each other, it seems as if Trump's tailwind has no limit. This is one simple reason why we continue to look for more downside in EUR/USD.”“The EUR has been sold broadly as German key figures have had a smelly week. (...) Current EUR trends may though fuel speculation that Trump will punish the Euro area with auto tariffs. Timing couldn’t be any worse, if he opted for such over the coming quarters.”“Maybe the EUR will be helped a little by the PMI print this week. Most analysts seem to conclude that the virus will push the PMI lower again, but shouldn’t we usually expect a lagged effect on Germany from Chinese key figures. Our market based model is getting increasingly upbeat – maybe risks are on the upside for the PMI print. We bet so.” "
9,"EUR/JPY in a bearish drop, targeting 116.0/115.5 region - Elliott wave analysis","Hi traders,EURJPY can be trading in a bigger, three-wave A-B-C move for a leg Y of a bigger wave E), down from March 2019 and can now be unfolding start of an impulsive leg C. We can see a sharp drop which started at the 122.86 level after the completion of a W)-X)-Y) correction within the B leg. That said, wave C is an impulse and can target the 116.0/115.5 region in upcoming sessions, however be aware of temporary pullbacks.   You can subscribe to our webpage at EW-Forecast for more unique, and daily content. We also have a 7-day trial offer for FX services (1€) and for Crypto services (2€). Check it out!By using www.ew-forecast.com website, any services, products, and content contained here, you agree that use of our service is entirely at your own risk. You understand that there is a very high degree of risk involved in trading on the markets. We assume no responsibility or liability for your trading and investment results. The charts, and all articles published on www.ew-forecast.com are provided for informational and educational purposes only!

By using the information and services of www.ew-forecast.com you assume full responsibility for any and all gains and losses, financial, emotional or otherwise, experienced, suffered or incurred by you."
10,CFTC Positioning Report: EUR net shorts in multi-month highs,These are the main highlights of the CFTC Positioning Report for the week ended on February 11th.
11,EUR/GBP extends the rebound to the 0.8330 region,"The renewed offered bias around the quid is helping EUR/GBP to extend the rebound to levels beyond 0.8300 the figure.The euro has started the week with renewed optimism against the backdrop of decreasing concerns regarding the Chinese COVID-19, which is also sponsoring the improved sentiment in the broader risk complex.The British pound has faded initial gains after UK PM Johnson’s spokesman poured cold water over optimism over a UK-EU trade agreement, saying that the UK is not looking for anything special when comes to trade negotiations with the EU.In the data space, the sterling is expected to be in centre of stage later this week in light of the release of the UK’s labour market report (Tuesday), January’s inflation figures (Wednesday), Retail Sales (Thursday) and the Services PMI (Friday). on the EUR-side, the ECB will publish its Accounts from the latest meeting (Thursday) ahead of preliminary PMIs in core Euroland at the end of the week.The cross is up 0.34% at 0.8329 and faces the next hurdle at 0.8433 (21-day SMA) seconded by 0.8471 (55-day SMA) and then 0.8537 (weekly/monthly high Feb.4). On the flip side, a breach of 0.8295 (2020 low Feb.13) would expose 0.8275 (2019 low Dec.13) and then 0.8248 (monthly low July 2016)."
12,Sri Lanka: LKR deterioration a risk – Standard Chartered,"Economists at Standard Chartered Bank met with investors who are concerned about weakening fundamentals amid wider fiscal deficit and large debt repayments on Sri Lanka’s economy. USD/LKR is trading at 181.459. “We estimate the 2019 fiscal deficit at 6.4% of GDP, although it could be lower given the deferral of spending from last year. Most clients see a risk that the 2020 deficit could breach 8% (the IMF estimates 7.9%).”“Most investors expect Sri Lanka’s fundamentals to deteriorate during the pre election period, and to start improving from Q4-2020.” “Sharp Sri Lankan rupee (LKR) deterioration is seen as a risk if external stability concerns continue to rise with no new IMF programme in sight.” “The consensus view is that GDP growth will bounce back to the 3.5-4.0% range in 2020, given significant fiscal stimulus and the 150bps of monetary easing already delivered by the Central Bank of Sri Lanka (CBSL). We forecast growth at 4.0% this year.” “Most investors shared our view that the CBSL has limited room to cut policy rates further near-term given the risks this would pose to external-sector stability.” "
13,"Week ahead commodity report: Gold, Silver & Crude Oil Price Forecast [Video]","Gold prices on Monday held near a two-week high as uncertainty prevailed over the impact of the coronavirus outbreak on the global economy.The death toll from the outbreak in mainland China reached 1,770 by Sunday, up by 105 from the previous day.The epidemic pushed Singapore to downgrade its 2020 economic growth forecast, while Japanese manufacturers remained pessimistic in February. Meanwhile hedge funds and money managers increased their bullish positions on COMEX gold in the latest week. Elsewhere silver was up 0.6% at $17.78, while platinum gained 0.3% to $971.Where are commodity prices heading next?  Watch Phil Carr at The Gold & Silver Club review Gold, Silver and Crude Oil with the latest price forecast and predictions:"
14,Gold Price News and Forecast: XAU/USD - The bulls are beginning to strengthen [Video],"Currently, in the near term, the price is losing some momentum confirmed by the technical indicators as the RSI is flattening near the 70 level, suggesting an overbought market. Also, the stochastic oscillator is turning lower as it posted a bearish crossover within its %K and %D lines above the 80 level, signaling a possible downside reversal as well. However, the market trend is holding far above its moving averages and the Ichimoku cloud. Read more...The gold bulls have been straining to break higher in the past week. The fact that this has come as the US dollar has been a strong performer across the major currencies, should give the bulls some confidence coming into this week. Friday’s second successive positive candle pulled the market clear of resistance at $1578 and is now beginning to build some traction. Supported by the support of a nine week uptrend (today at $1568) the bulls are beginning to strengthen. Read more... The troy ounce of the precious metal rose nearly $15 last week as investors continued to react to headlines surrounding the coronavirus outbreak. With the new week kicking off in a calm manner, the XAU/USD pair is consolidating last week's gains. The pair, which dropped a session low of $1,578.90, was trading at $1,581.40, down 0.2% on the day.In an editorial piece written for China's Communist Party's magazine, China's Finance Minister Liu Kun said that they are planning to cut taxes with an aim to provide companies more funds to eliminate the negative impact of the coronavirus outbreak on the economic activity. Read more... "
15,China: Impact of the coronavirus is stark – Capital Economics,"Neil Shearing, an economist at Capital Economics, counts the first evidence of the impact the coronavirus has caused in the Chinese economy which has been severe. USD/CNY is traded at 6.9804, the same level it started the year. “The past week has brought the first evidence of the economic damage caused by the coronavirus. The numbers are stark. Passenger traffic in China is down by around 60% compared to the same period around the Lunar New Year holiday last year. Property sales have collapsed. And energy consumption has failed to rebound following its usual drop over the holiday period.” “There are also signs that the disruption is starting to spread to neighbouring economies through supply chains. Imports to Korea from China during the first ten days of this month fell by nearly 50% y/y.” “We have pencilled in a fall in output of 2.5% q/q (-10% annualised) on our CAP measure in the first quarter. The more important question, however, is how quickly any lost output can be made up.”“If workplaces reopen soon, we think activity should rebound relatively quickly with lost output recovered over the rest of this year. But a prolonged shutdown could mean lost output is never recovered.”"
16,"Patterns: EUR/AUD, EUR/CAD","Since the beginning of February, the single European currency has depreciated by 3.07% in value against the Australian Dollar. The currency pair breached the 50-, 100– and 200– period SMAs during this period.The exchange rate is currently trading near the bottom line of an ascending trendline at 1.6119.If the trendline holds, the EUR/AUD pair could make a brief upside retracement within this week's trading sessions.However, if the currency exchange rate breaks the uptrend line, bearish traders could continue to dominate the pair during the following trading sessions. The common European currency has declined by 2.49% in value against the Canadian Dollar since the beginning of February. The decline began after the currency pair tested the 200– period simple moving average at 1.4714 on February 3.As for this week's trading sessions, the exchange rate will most likely continue to edge lower. Bears could drive the EUR/CAD pair towards the psychological level at the 1.4100 area.However, the currency exchange rate might make an upside reversal from a support cluster formed by the weekly S1 and the monthly S3 at 1.4291 during the following trading sessions."
17,Singapore: MAS to ease in April due to lower growth projections – Standard Chartered,"The Monetary Authority of Singapore (MAS) will ease in April in the opinion of economists at Standard Chartered Bank who have also lowered their 2020 growth forecast for the country. USD/SGD is trading at 1.388.“We downgrade our 2020 growth forecast to 0.8% from 1.4%. The government has also lowered its 2020 growth forecast to a range of -0.5 to +1.5%, from +0.5-2.5%. Our base-case assumption is that the negative growth impact of the virus will be felt most acutely in Q1, and that it will be mostly contained by end-March, both in terms of infection numbers and fears over the severity of the outbreak. “We are now calling for the MAS to ease again in April, versus our previous on-hold call. We think that MAS may shift the slope of the Singapore dollar nominal effective exchange rate (SGD NEER) policy band to flat from +0.5% per annum currently.” "
18,ACB Stock Price: Aurora Cannabis inc may get carried higher by Canopy,"Aurora Cannabis inc. has escaped the abyss. The Toronto-traded marijuana stocks hit record lows at C$1.90 but that was only two cents below the previous lows and from there, shares closed higher. At C$2.06, ACB seems to be finding its feet despite dismal results.The Edmonton-based firm released its results for the quarter ending in December on Thursday and its adjusted EBITDA loss roughly doubled to around C$80 million. Nevertheless, shares stabilized as traders priced in the fall. One week earlier, ACB announced the departure of its CEO, impairment charges and its retreat from several markets.Aurora's dire straits stand out against competition from Canopy. In its fiscal third quarter, Canopy beat expectations with a leap of 62% in its revenue from the previous quarter and announced the opening of 140 stores – while ACB is scaling back operations. Canopy Growth Corporation jumped into the German market which Aurora failed to enter. If Canopy can handle tough markets, can others follow its path? The market is still growing and after the battering, ACB's stock – as well as other pot shares – may get carried higher by Canopy.It is essential to note that US traders are on holiday due to Presidents' Day and that may also be a positive factor. Quiet markets may allow for a calm reassessment of Aurora's situation and potential. Monday's four-hour chart is showing that ACB still needs to recover the gap line at 2.40. The 50 Simple Moving Average also hits the price around that point. That would allow it to return the higher range that is capped by resistance at 3.05. The all-time low 1.90 remains critical support. There are a few technical worries for bulls. The Relative Strength Index is above 30 – outside oversold conditions – and allowing for further falls. Moreover, momentum remains to the downside. "
19,China’s NHC: Novel coronavirus is preventable and treatable,"At a daily press conference on Monday, Guo Yanhong, a hospital administration supervisor at China’s National Health Commission (NHC) said that that novel coronavirus is preventable and treatable.The percentage of infected patients in virus epicenter Wuhan who are critically ill had dropped to 18% now from 38% at the beginning of the outbreak, she added.World Health Organization (WHO) delegation of experts will visit Beijing, and the provinces of Guangdong and Sichuan from Feb. 17 onwards, the Commission said. According to the WHO, the virus has infected more than 71,000 people globally and killed 1,775, the majority in China.Meanwhile, the Chinese authorities continue to step up support measures to combat the negative impact the virus outbreak is potentially having on both China’s and global economy.Therefore, the risk sentiment remains balance starting out a new week, with USD/JPY holding firmer around 109.85 region, as S&P 500 futures advance 0.25%. The Aussie also benefits from the Chinese stimulus and trades near 0.6725, having hit daily highs at 0.6734."
