,title,text
0,End of Month Flows may be Moving Markets,"Earlier today, China released comments saying that it won’t respond to the US tariff hike immediately (however they didn’t say they wouldn’t do it later).  With that, S&P500 moved 30 handles higher, from 2880 to 2910, WTI moved higher from 55.50 to 56.40, USD/CAD moved lower (in conjunction with the oil move) from 1.3315 to 1.3280, and Gold moved lower from 1559 to 1544.  Stocks higher, Crude Oil higher, and Gold lower. These are moves one would expect to see from a headline out of China such as this.As the US walked in this morning, one may have expected some continuation.   Although it is still early in the US session, something different occurred, as Crude, USD/CAD, and Gold reversed aggressively. As a matter of fact, USD/CAD retraced the whole move! Why did this happen?  There was no news release to cause the reversal.  However, when markets move for no apparent reason, such as today’s commodity markets open, that doesn’t mean there isn’t a reason.   One reason may be that at times, especially near end of the month, certain market players, such as pension funds, endowment funds, and hedge funds need to “rebalance” their books.  This means that if a fund loses to much in one instrument and makes more in another instrument, they need to rebalance the fund so that they have the same percentage of funds allocated to the same instruments as they did at the beginning of the month.  A good example this month has been selling bonds and buying S&P500.  The rebalancing may be more enhanced because of lack of participation during quieter end of months, such as August. This may have been the case today in Crude on the open.  For rebalancing purposes, funds may have had to come into the market on the open and sell commodities.  For example, Crude on the open moved from 56.41 down to 55.85 (therefore causing the aggressive move higher in USD/CAD).  When the selling was done, price reversed, and it resumed the move higher.Be aware and be ready for volatile moves that appear to come out of nowhere over the rest of the week.  It be just be rebalancing, but it may be enough to take out your stops!  One way to diminish the effect of this in your trading is trade smaller size with tighter stops. "
1,"NZD/USD recovers further from multi-year lows, turns positive for the day","The NZD/USD pair recovered around 40-pips from multi-year tops set earlier this Thursday and climbed to fresh session tops, around the 0.6345 region in the last hour.
 
The pair extended its recent bearish trajectory and dropped to challenge the 0.6300 round figure mark - the lowest level since September 2015 - in reaction to Thursday's disappointing release of ANZ Business Confidence Index, which reaffirmed expectations of RBNZ rate cut in November.However, extremely oversold conditions helped the pair to find decent support near the mentioned handle, rather prompted some intraday short-covering move. The uptick got an additional boost from upbeat trade-related comments from the Chinese Commerce Ministry spokesman.
 
China showed a willingness to resolve trade issues via a calm attitude, which eventually provided a strong boost to the global risk sentiment - as depicted by a solid up-move across global equity markets - and provided an additional boost to perceived riskier currencies - like the Kiwi.
 
Meanwhile, the US Dollar held on to its modest intraday gains, albeit struggled to gain any strong follow-through traction amid the recent inversion of the US bond yield curve and remained supportive of the pair's goodish intraday recovery move.
 
It, however, remains to be seen if the pair is able to capitalize on the recovery move or the current bounce is still seen as a selling opportunity as the focus now shifts to the US economic docket - highlighting the release of a revised estimate of the US Q2 GDP growth figures.  "
2,GBP/USD technical analysis: On the back foot below short-term key resistance,"GBP/USD stays under near-term key resistance-confluence as it takes the rounds to 1.2185 by early Friday's morning session in Asia.In addition to the pair’s sustained trading below the 10-day exponential moving average (EMA) and 23.6% Fibonacci retracement level of June-August declines, a gradual softening of 12-bar moving average convergence and divergence (MACD) histogram also portrays the underlying weakness in price momentum.With this, sellers eye an upward sloping trend-line since August 12, near 1.2130, as immediate support whereas 1.2100 and monthly low of 1.2015 can please them afterward.Alternatively, an upside break of 1.2200 resistance-mark can propel prices to 38.2% Fibonacci retracement and the weekly high surrounding 1.2310.It should, however, be noted that pair’s run-up beyond 1.2310 enables it to conquer 50-day EMA level of 1.2332 while July 17 low of 1.2382 likely gaining GBP/USD buyers’ attention then after.Trend: bearish  "
3,Eurozone inflation prints due ahead of Draghi’s ‘last hurrah’ [Video]," The euro area’s preliminary CPI data for August will hit the markets at 09:00 GMT on Friday, and forecasts suggest that inflationary pressures remain muted. Another weak set of data could amplify expectations for an aggressive stimulus package by the ECB in September, keeping the euro under pressure. The big picture for the single currency is dark too, as the trade war combined with Brexit worries have brought the European economy to the brink of recession.The Eurozone seems to be stumbling from crisis to crisis, with Germany experiencing a sharp slowdown lately, as the country’s exports have taken a heavy hit from the escalating US-China trade war. Concerns for a chaotic Brexit in October are also holding back business investment, making matters worse. Indeed, Europe’s largest economy contracted in Q2 and forward-looking indicators suggest it will shrink again in Q3. If confirmed, that would constitute a technical recession.Besides Germany, the other big economies – France, Italy, and Spain – are not performing well either, for similar reasons. Business surveys like the PMIs increasingly suggest that corporate pessimism is mounting, particularly in the bloc’s manufacturing sector, which has felt most of the trade pain so far. The European Central Bank (ECB) is therefore expected to act with force in September to support the ailing economy, both by slashing rates further into negative territory and by restarting its Quantitative Easing (QE) program. Indeed, sovereign bond yields in most euro area economies are at record lows, indicating that markets expect powerful easing. Despite borrowing costs hitting all-time lows though, market-based inflation expectations have collapsed to fresh lows of their own, signaling that investors don’t think the stimulus will be enough for the economy to truly recover.Since an ECB easing bundle on September 12 is virtually certain, incoming data between now and that meeting could determine how big that stimulus package will be – for example, how many billion euros per month will be allocated for QE?The upcoming CPI data will therefore be crucial, as they are the final inflation numbers before the central bank meets. In August, the bloc’s headline CPI rate is forecast to hold steady at 1.0% in yearly terms, while the core figure – that excludes food, energy, alcohol, and tobacco products – is expected to tick up to 1.0%, from 0.9% previously. Such low prints would hardly be reassuring, particularly given the plunge in inflation expectations, and could therefore raise the odds for an aggressive easing bundle.As for the euro, the outlook is grim. Even if the Eurozone avoids a trade-war-induced recession, economic growth is slowing radically. And while the ECB could ‘throw the kitchen sink’ at the problem, monetary policy is already exhausted, so policies like QE will probably face diminishing returns and be less effective this time. Meanwhile, the only large European economy with a low debt-to-GDP ratio and hence ample room for fiscal stimulus is Germany, and Berlin has been clear it will only start to spend after a recession hits. The very real risk of a chaotic Brexit in two months is the icing on the cake. Technically, declines in euro/dollar could stall initially around the 1.1050-1.1025 area, which capped losses twice in August so far. A bearish break would reinforce the negative outlook, opening the door for 1.0900.On the upside, a move above the downtrend line drawn from the June peak and also above the 1.1165 level, could see scope for advances towards the 1.1230 territory."
4,GBP/USD technical analysis: Cable battling with the 1.2200 level near daily lows,  
5,"Monero mining virus eradicated from 850,000 devices by French police","The French police cybercrime unit has recently discovered and neutralized a virus, dubbed “Retadup,” that secretly infected over 850,000 devices worldwide. It was used to mine Monero (XMR), which focuses on privacy and anonymity. The malware originated from Paris. The most recent attack employed the processor power of a large number of Windows-operating computers to produce coins for the perpetrators in more than 100 countries.  In an interview with France Inter radio, C3N chief Jean-Dominique Nollet said:“We managed to track down where the command server was, the control tower for the “botnet” network of infected computers.” The French “cybergendarmes” along with the US Federal Bureau of Investigation executed a counterattack soon after they received an alert. They succeeded in disinfecting computers all over the world, mainly in Central and South America. Retadup was first recorded by Czech antivirus firm Avast last spring. This alarmed the French authorities to the software. The worm is the reason for opening a backdoor on infected machines, letting the attackers to carry out the commands remotely. Avast reported that Retadup runs almost without trace, which is the only noticeable difference for the end-user being reduced hardware performance.France’s C3N digital crime-fighting center believes that the operators behind the botnet might have made millions of euros since they started operations. Instances like this have arisen over the last two years, leading commentators to warn of a possible epidemic."
6,,
