,title,text
0,"Breaking: US ISM Manufacturing PMI slumps to three-year low of 49.1, EUR/USD rebounds to 1.0950","The data published by the Institute for Supply Management (ISM) today showed that the business activity in the US manufacturing sector contracted in August with the headline PMI slumping to its lowest level in three years at 49.1 and missed the market expectation of 51.1. With the initial reaction, the Greenback came under a renewed selling pressure and allowed the EUR/USD pair to recover to 1.0950 area.""Comments from the panel reflect a notable decrease in business confidence. August saw the end of the PMI® expansion that spanned 35 months, with steady expansion softening over the last four months,"" the publication read.""Demand contracted, with the New Orders Index contracting, the Customers' Inventories Index recovering slightly from prior months and the Backlog of Orders Index contracting for the fourth straight month."""
1,Breaking: GBP/USD surges back above 1.20 as Speaker hints at opposition precedence,"GBP/USD has leaped to 1.2083 before cooling and settling above 1.2000 after hitting a low of 1.1958 – the lowest since 2016 – earlier today.Parliament will allow for a long debate on the attempt to block a no-deal Brexit. John Bercow, the speaker of the House of Commons, has confirmed that an application for an emergency Brexit debate has been tabled. He will allow the debate to run until 21:00 GMT. The opposition may run through its bill to block Brexit and advance it – without allowing the government to table its own motion to hold new elections.The Brexit drama has overshadowed all other events.GBP/USD faces resistance at 1.2050 and 1.2110. Support awaits at 1.2000 and 1.1985.Earlier, prime minister Boris Johnson's spokesman has said that the government does not want an election adding that ""Minds are focused on avoiding a parliamentary defeat and persuading MPs not to destroy the PM’s negotiating position""The debate in parliament begins at 13:30 GMT and developments are critical for the pound.Analysis Three scenarios for the Brexit showdown after sterling hits near three-year lows"
2,USD/ZAR regains downside traction post-upbeat GDP,"The South African Rand is extending the upbeat momentum today and forces USD/ZAR to drop to the 15.00 neighbourhood, or fresh two-week lows.The pair has resumed the downside on Tuesday, reversing Monday’s gains and refocusing instead on the key support in the 15.00 region.ZAR regained traction after GDP figures showed the economy sharply reversed the contraction recorded in Q1 and expanded at an annualized 3.1% during the April-June period, surpassing initial estimates.On the not-so-bright side, the manufacturing PMI slipped into the contraction territory in August, falling to 45.7 from 52.1.Later in the week, the PMI gauged by the SA Standard Bank is due tomorrow seconded by Net FX Reserves figures on Friday.The Rand met strong resistance in the 13.80 region vs. the greenback soon after the SARB reduced its key rate to 6.50% at its July meeting, disappointing investors’ expectations of a larger move on rates. Today’s auspicious GDP figures, however, gave much needed oxygen to the currency following recent 2019 highs. The generalized view that potential Fed easing could spark fresh inflows into the EM FX universe could not apply for ZAR, as political corruption within the ruling ANC party carries the potential to undermine President Ramaphosa’s position and ability to push for vital structural/economic reforms in the country.As of writing spot is losing 0.67% at 15.1445 and faces the next support at 15.1191 (low Sep.3) seconded by 15.1331 (low Aug.22) and then 14.5707 (55-day SMA). On the flip side, a break above 15.4831 (high Aug.29) would open the door to 15.4979 (2019 high Aug.19) and finally 15.4990 (high Aug.13 2018)."
3,When is the Aussie GDP release and how could it affect the AUD/USD?,"Australian GDP overviewEarly Wednesday at 01:30 GMT sees the next round of Australia's gross domestic product (GDP) figures for the second quarter (Q2) of 2019. The annualized pace of economic growth is forecast to clock in at 1.4%, a slight tick under the previous period's 1.8%, while the quarter-on-quarter numbers are expected to rise to 0.5% from 0.4%.With the Reserve Bank of Australia’s (RBA) latest downbeat comments concerning the economic growth, a strong reading is required for the AUD/USD to register a noticeable upside.Ahead of the outcome, Westpac said:Westpac’s forecast remains 0.5%qtr, 1.4%yr, in line with the updated Bloomberg consensus. This is at least a long way from the recent talk of a headline zero or negative quarterly number, but with population growth around 1.6%yr, it is a contraction in output per capita. In yesterday’s statement, the RBA conceded H1 2019 growth “has been lower than earlier expected” but insisted that growth “is expected to strengthen gradually to be around trend over the next couple of years.”The Australia and New Zealand Banking Group (ANZ) follows suit while saying:Growth of just 0.5% is expected for Q2 which would put the annual growth rate at 1.4%, well shy of inflation targets. The GDP data is expected to confirm the economy will need further stimulus to push unemployment down and inflation up.How could it affect the AUD/USD?Considering the RBA’s downbeat forecast of economic growth, coupled with an intact bearish bias, weak GDP figures can trigger the AUD/USD pair’s decline towards 0.6690/85 area including recent lows ahead of dragging the quote to August low surrounding 0.6677.On the contrary, a strong growth figure beyond market consensus and prior reading can escalate the pair’s recovery early-August month high near 0.6820 and June month low close to 0.6830.Key notesAUD/USD: 21-DMA caps immediate upside ahead of Australia GDPAUD/USD Analysis: Q2 GDP to challenge recent Aussie strengthAbout the Aussie GDP releaseThe Gross Domestic Product released by the Australian Bureau of Statistics is a measure of the total value of all goods and services produced by Australia. The GDP is considered as a broad measure of the economic activity and health. A rising trend has a positive effect on the AUD, while a falling trend is seen as negative (or bearish) for the AUD."
4,Elliott Wave Weekly Diagonal Wave,"The EUR / USD is trading at 1.0970 at this time, in August the price suffered a sharp fall, from the high on August 5th, 1.1249 to the low 1.0926 recorded on September 3rd. This addition of bearish momentum indicates that the pair will continue to decline in the coming weeks. In this article, we will see the price action from the Elliott Wave point of view.The master key to achieve success in trading lies hidden in the past price because patterns repeat themselves, but it is our job as technical analysts to decrypt that past price and forecast the future price. We will not be able to have a 100% effectiveness but enough to win in the financial markets.In the weekly chart, we can see five waves in black, an ending diagonal is here, and the third wave is active. It is necessary to see the price fall to the bottom line of the diagonal (denoted in red). Approximately 1.0880 at this support is expected a bounce, to move the price up back tp the upper area of the red channel (1.114), this move up is for the wave ""4"" (black) the ending diagonal.In the four-hour chart, we can appreciate the sharp fall that the EUR/USD had in recent days, today during the American session the pair bounced creating the first of three waves that are part of the wave ""4"" (green). When the fourth wave ends, we expect the EURO to continue its downward path this week, reaching support 1.0880. The primary strategy is to wait for the end of wave ""4"" (green) to sell and follow the trend.So far, the price activity does not show buy signals when the weekly wave ""iii"" (black) ends we can look for long trades, while this event happens everything should be focused on shorts. Do not forget to keep the risk under control and make cold-headed decisions by closing the doors to your emotions. We wish you a week full of successes in your trading."
5,Fed's Bullard said 50 basis cut would align central bank with market expectations,"Federal Reserve Bullard said that “aggressive” action needed given dive in U.S. bond yields, the impact of the trade war."
6,USD/RUB moves to fresh tops beyond the 67.00 mark,"The Russian Ruble has resumed the downside today and is now lifting USD/RUB to fresh tops beyond 67.00 the figure.RUB remains offered since late Jul, when it was trading around 62.50 vs. the Greenback in a context favourable to the EM FX space.However, declining crude oil prices, US sanctions (albeit ‘lighter’ than initially expected) and rising concerns on the US-China trade front have not only undermined further RUB strength but also sparked a sell off in the EM space, leaving the currency exposed to extra losses.In the data space, Russia’s manufacturing PMI eased a tad to 49.1 in August (from 49.3), while Services PMI is due tomorrow ahead of key inflation figures tracked by the CPI and CBR FX Reserves due on Thursday.Declining inflation and growth running below the expected path appears supportive of the easing cycle already triggered by the CBR in previous meetings. In addition, Governor E.Nabiulina expects the economy to reach neutral rates at some point in mid-2020 and inflation to hit the bank’s 4% target early next year. However, trade concerns emerge as a serious threat to both the Russian economy and the Ruble despite healthy fundamentals overall, increasing demand for domestic debt (OFZ) and demand for carry-trade, all RUB-supportive.At the moment the pair is gaining 0.32% at 66.98 and faces the next up barrier at 67.10 (monthly high Aug.20) seconded by 67.16 (monthly high Feb.14) and then 69.81 (2019 high Jan.2). On the other hand, a breach of 66.23 (21-day SMA) would open the door to 65.44 (low Aug.22) and finally 64.93 (200-day SMA)."
7,Italy’s Di Maio: Government crisis is now over,"Italy’s Di Maio believes that the government crisis is now over and the two parties, Five Star and the centre-left Democratic Party (PD), have agreed a 26-point draft programme to rule Italy after nationalist League leader Matteo Salvini pulled the plug on the previous administration.The online vote of Five Star members means Italy now avoids fresh elections and the independent law professor Giuseppe Conte will stay on as prime minister. The markets welcomed the news with 10-year bond yields falling to record lows. However, there now needs to be a commitment to pass a budget within weeks to block a rise in VAT (sales tax), otherwise, it will kick in automatically on 1 January if the government fails to reach its debt-reduction target. "
8,US Atlanta Fed GDPNow Q3 1.7% (prev 2.0%),"The GDPNow model estimate for real GDP growth (seasonally adjusted annual rate) in the third quarter of 2019 is 1.7 percent on September 3, down from 2.0 percent on August 30.After this morning's Manufacturing ISM Report On Business from the Institute for Supply Management, and this morning's construction spending report from the U.S. Census Bureau, the nowcasts of third-quarter real personal consumption expenditures growth and third-quarter real gross private fixed investment growth decreased from 3.2 percent and 0.9 percent, respectively, to 3.0 percent and -0.2 percent, respectively.The growth rate of real gross domestic product (GDP) is a key indicator of economic activity, but the official estimate is released with a delay. Our GDPNow forecasting model provides a ""nowcast"" of the official estimate prior to its release by estimating GDP growth using a methodology similar to the one used by the U.S. Bureau of Economic Analysis.GDPNow is not an official forecast of the Atlanta Fed. Rather, it is best viewed as a running estimate of real GDP growth based on available data for the current measured quarter. There are no subjective adjustments made to GDPNow—the estimate is based solely on the mathematical results of the model."
9,"Patterns: AUD/NZD, AUD/SGD","The AUD/NZD exchange rate has been trading upwards since the beginning of August when it reversed north from the psychological level at 1.0350. As apparent on the chart, the rate has already tested the 1.0700 level.  Note that the currency pair is supported by the 55-, 100– and 200-hour moving averages, currently located in the 1.0621/1.06664 range. Thus, it is likely that some upside potential could prevail in the market. In this case, the pair could reach the upper boundary of the long-term descending channel in the 1.0750/1.090 range. However, note that the rate has to surpass the resistance level formed by the weekly R1 at 1.0742. If the given level holds, a reversal south could occur. The AUD/SGD exchange rate has been trading sideways in the 0.9340/0.9420 area since the beginning of August. Currently, the rate is trading at the monthly R3 at 0.9348.  Given that the exchange rate is pressured by the 55-, 100– and 200-hour moving averages, currently located in the 0.9344/0.9368 range, it is likely that bears could prevail in the market. A possible downside target is the lower boundary of the long-term descending channel located in the 0.9200/0.9400 range.  It is unlikely that bulls could prevail in the market, and the Australian Dollar could exceed the 0.9500/0.9550 range against the Singapore Dollar due to the resistance of the upper channel line."
10,"Will we see $50,000 Bitcoin? Not half....","Just last week I was asked by a journalist if I thought it was realistic to expect the value of Bitcoin to climb to $50,000 by 2021.Bitcoin reaching a landmark figure is always headline-grabber, particularly among the mainstream media, where there is often a lack of space or willingness to delve into the nuances of price movement and driving forces, so, my response was short and sweet - and exactly what the reporter wanted to hear.I said I thought that, not only was $50,000 BTC by 2021 realistic, I believed it to be conservative. That was all she needed and follow-up questions were thin on the ground. So, please, indulge me while I explain myself. In short, my confidence is based around the next Bitcoin halving. History has shown us that halvings have a dramatic affect on the price of Bitcoin but why is that the case. I’ll do my best to explain. First, we must cover some basic precepts of Bitcoin.One - there are only 21 million Bitcoin ever to exist, making it a deflationary asset.Two - in order to secure newly released Bitcoin, one has to ‘mine’, the process of using computing power to secure the network and process every Bitcoin transaction, achieved by solving computational problems which chain together blocks of transactions.Three - every 10 minutes, a “block” of bitcoin transactions is solved by miners and added to the bitcoin blockchain (ledger of transactions) and the ‘block reward’ of 12.5 BTC is released to miners.Four - at the time of writing, the circulating supply of Bitcoin is 17,867,487 (85.08%) of all Bitcoin to ever exist. 
With this noted, in May 2020 the block reward will halve to 6.25 BTC. This process of halving the block rewards is predetermined, has happened twice before, and will finish when the last bitcoin is mined sometime in 2140.Just like any market, the price of BTC fluctuates based on supply and demand. If holders and miners flood the market, the price decreases. If the market is awash with demand, the price increases. Miners themselves are businesses, in most cases due to the expense and complexity of the equipment, extremely sophisticated, expensive to run businesses, dedicating capital expenditure for the reward of Bitcoin which is sold to the market. The effect of a halving is that with fewer bitcoins being generated, scarcity is increased making them more valuable, but history shows us this doesn’t happen right away and we also need to look deeper into the market cycles, and miners sell pressures.Market cycles - the rule of thumb is when Bitcoin rises, Ethereum follows and many alt-coins thereafter, but it is this alt-coin section we need to consider. In Q3 and Q4 2017 the price of Bitcoin and Ethereum was skyrocketing and a new concept of funding blockchain business and acquiring users was flourishing, the Initial Coin Offering (“ICO”). Many early Bitcoin adopters exited during this period, others got caught reinvesting into highly speculative token offerings, or purchasing early participation tokens for projects which have subsequently failed, expedited by the long bear market. With a long bear market, we have found those caught in holding highly speculative alt-coins forced to sell premium assets such as Bitcoin. In any event, the natural cycle of a market in its infancy is for a certain level of boom and bust based on sentiment and we have now moved on from the bear market to a phase where the media coverage is more positive, investors are confident and preparations are being made for various key events such as the Bitcoin halving and technological developments across various blockchains.Miners sell pressures - Given miners earn 12.5 BTC per block and approximately 4,674 blocks are mined per month, at the current BTC price of $11,807.39, miners are generating roughly $689,846,760 in revenue per month. After a halving this reduces to $344,923,380, so the likely result is large mining companies store bitcoin until the price increases to above the cost of mining plus target margin (which is likely to be enormous). As most bitcoin mining is controlled by a small number of companies, one does not have to agree to manipulate the market; the effects of any moving in the markets can be monitored, although market manipulation remains a serious concern in the cryptocurrency markets and will remain until such time global governments agree to engage and regulate the core pillars of the sector. Coupled with the increase in usage and distribution, withholding the new supply ensures that over time demand increases to a point we see the post halving bull market. Miners will use this phase to offload to a buoyant market.The previous Bitcoin halvings resulted in new ATH (all-time high price per BTC). After the first halving it took 369 days for BTC to go from $12.31 at the day of halving to $994.21. From the second halving it took 526 days for the price to go from $650.63 to $19,535.70, culminating in the much publicised bull-run of Q3/Q4 2017.There has been a lot of discussion about when we are likely to see the direct and indirect effects of the 2020 halving. Indeed, many commentators mark Q4 as the likely ATH quarter pre-crash, but if history is to be taken into consideration, perhaps 2021 in more realistic. Of course, new factors are providing meaningful variables, such as institutional investors and availability of banking services, improved security, insured custody and numerous other factors not prevalent during previous port-halving periods, which may lead to a stabilisation of price, or perhaps just as likely, increase the attractiveness, public perception and add meaningfully to the new ATH. One should also monitor developments with Facebook’s Libra, which has the potential to have a stratospheric effect on the price of bitcoin and potentially leave the alt-coin market a wasteland of illiquid tokens.   "
11,Tether are exploring the launch of a commodity-backed stablecoin," The USD-pegged stablecoin issuer Tether, which had been subject to much controversy, is exploring a commodity-backed stablecoin.Its potentially new coin will be backed by a basket of commodities including gold, crude oil, and rubber, according to a known investor of Bitfinex, Zhao Dong. The reports suggest that the stablecoin issuer is considering this move of a cmmodity0lined digital stablecoin, to mitigate the risks associated with the storage of fiats in banks."
12,,
13,,
