,title,text
0,Oil prices due for a three-stage rally – Goldman Sachs,"In its latest note published Friday, analysts at Goldman Sachs cited the recent rebalancing in the oil prices while expecting a three-stage rally towards the cash-cost levels around $25 during May.With the market’s rebalancing now in motion, we expect a three-stage oil price rally, from relief, to cyclical tightening, and finally structural repricing.We believe the recent rally can extend further in May, back to cash-costs levels ($25/bbl for WTI).Supplies have started to decline quickly, with signs of demand improving ahead of lockdown measures being eased.While the inflection into a deficit is still a few weeks away, it now appears likely that the market is passing its test on storage capacity.Despite the price-positive update, WTI’s NYMEX Futures for June begins Monday’s trading on a back foot around $19.00 amid the fresh US-China trade war concerns."
1,EUR/USD Forecast: Still depending on the dollar,"The EUR/USD pair hit 1.1018 on Friday but retreated ahead of the close to end the week with substantial gains at 1.0980. The greenback remained under selling pressure, following the lead of equities and despite a better than anticipated April ISM Manufacturing PMI, which came in at 41.5, down fro the previous 49.1 but above the expected 36.9. The Markit Manufacturing PMI for the same month was downwardly revised to 36.1 from 36.9.Wall Street closed in the red, as the market’s sentiment took a turn to the worse after US President Trump menaced to impose new tariffs on China, accusing the country from miss-handling the coronavirus outbreak. Earnings reports added to the sour mood as Amazon’s first-quarter profit missed expectations. Apple’s earnings beat expectations, but revenue growth remained flat.This Monday, Markit will publish the final versions of the Union manufacturing PMIs, while the EU will release the May Sentix Investor Confidence, foreseen at -30 from -42.9 previously. The US will publish the ISM-NY Business Conditions Index and March Factory Orders.The daily chart for the EUR/USD pair shows that despite technical indicators entered positive territory, market players are reluctant to push it much further, as the pair was rejected from a bearish 100 DMA, while the RSI lost directional strength at around 56. In the shorter-term, and according to the 4-hour chart, the risk is skewed to the upside, as technical indicators turned flat well above their midlines, while the pair develops above all of its moving averages. The 20 SMA is advancing below the larger ones, although the medias MAs confined to a tight range.Support levels: 1.0940 1.0900 1.0865  Resistance levels: 1.1020 1.1050 1.1085View Live Chart for the EUR/USD "
2,Forex Today: Slow start to another busy week,"What you need to know on Monday, May 4th:The American dollar closed Friday mixed, down against its EUR and the JPY but up against other major rivals. Commodity-linked currencies were the ones that suffered the most, as Wall Street plunged.The US April ISM Manufacturing PMI came in at 41.5, down fro the previous 49.1 but above the expected 36.9. The sub-components, however, were quite disappointing, particularly the employment one, which plunged to 27.5.US President Trump menaced to impose fresh tariffs on China amid the miss-handling of the coronavirus outbreak, weighing on the market’s sentiment. Wall Street closed deep in the red, further undermined by dismal earnings reports.UK PM  Johnson was optimistic about the coronavirus situation, as he tweeted that the kingdom is “past the peak and on the downward slope.” Nevertheless, it is quite unlikely that the UK will lift the lockdown anytime soon, suggesting an extended economic setback ahead.Gold prices recovered ground on Friday amid renewed risk aversion. Spot gold settled at around $1,700.00.US crude oil settled just below $20.00 a barrel after Baker Hughes reported the number of active rigs declined for a seventh consecutive week to 408 from 465 in the previous week.Cryptocurrencies spent Sunday consolidating near their recent highs. BTC/USD clings to modest gains above $9,000."
3,AUD/USD Forecast: Bears ready to take over,"The AUD/USD pair edged lower for a second consecutive day on Friday, settling in the 0.6410 price zone and trimming most of its weekly gains. Australian data came in worse than previously estimated, as the Commonwealth Bank Manufacturing PMI fell to 44.1 in April, while the AIG Performance of Manufacturing Index for the same month plunged to 35.8 from 53.7 previously. March New Home sales fell by 21.1%, after advancing 6.2% in the previous month. Wall Street’s decline maintained the pair under pressure throughout the last American session.Australia is set to publish April TD Securities Inflation during the upcoming Asian session, previously at 0.2% MoM and 1.5% YoY. The country will also release March Building Permits, seen down by 15% after advancing 19.9% in the previous month.The AUD/USD pair has continued to lose its positive momentum, and the daily chart shows that it’s nearing a bullish 20 DMA after meeting sellers around a bearish 100 DMA. Technical indicators turned sharply lower, barely holding above their midlines. In the shorter term, and according to the 4-hour chart, the risk is skewed to the downside as technical indicators maintain their bearish slopes well into negative territory while the pair slides below a now flat 20 SMA. A flat 100 SMA provides immediate support at around 0.6385.Support levels: 0.6385 0.6350 0.6310Resistance levels: 0.6440 0.6480 0.6515View Live Chart for the AUD/USD "
4,"Gilead CEO: Remdesivir available to coronavirus patients this week, ‘We’ve donated the entire supply’","CNBC reports that Gilead’s antiviral drug, remdesivir, has shown success in helping coronavirus patients recover faster. Gilead Sciences’ coronavirus fighting drug will be in the hands of doctors and patients as early as this week, the biotechnology company’s CEO said Sunday,– CNBC reports. Some good news from a weekend of risk-off headlines could help to balance the start of the week's fundamental drivers:CNBC reports that ""Gilead released preliminary results from its clinical trial on its antiviral drug remdesivir last week, showing at least 50% of the COVID-19 patients treated with a five-day dosage of the drug improved. The National Institute of Allergy and Infectious Diseases then released a study that showed Covid-19 patients who took remdesivir usually recovered after 11 days, four days faster than those who didn’t take the drug.""Taking AUD/JPY, the FX space's risk barometer, the cross is in a precarious area structurally on the charts and is ripe for a major sell-off on souring geopolitical news. While the remdesivir story is positive markets, it likely doesn't balance out a far greater risk to global markets which should dictate the flow of money on a longer-term outlook – trade wars are back on the market's agenda.More on that here: What you need to know as markets open: Pompeo and Trump ratcheted up US and China tensions and Forex Today: Slow start to another busy week    "
