,title,text
0,EUR/USD analysis: Tests 100-hour SMA,"On Friday, the EUR/USD currency pair consolidated in the 1.1220 area. During today's morning, the pair was testing the 100-hour SMA near 1.1260.If the given moving average holds, it is likely that the exchange rate could reverse south in the nearest future. In this case the rate could re-test the support level—the Fibo 38.20% at 1.1200.Meanwhile, note that the pair could gain support from the 55– and 200-hour SMAs in the 1.1230 area. Thus, some upside potential could prevail in the market, and the rate could reach the 1.1300 mark. "
1,Gold Price News and Forecast: XAU/USD price trend this week [Video],"Gold prices are continuing the upside movement, creating new highs and touching an almost eight-year peak at 1,779. The short-term technical indicators are neutral-to-bullish and point to a somewhat stroiger market. Read More... On Friday, the US stock markets opened in negative territory and deteriorated into the market close at an average of more than 2.5%. This was followed by the 10-year US Treasury yields that fell below 0.65%, resulting in the gold price bouncing back up to stand above $1770. USOil closed almost $1 a barrel lower at $38.16. The number of people infected with Covid-19 around the world has reached 10 million, and the number of deaths is now at more than 500,000 , while in the United States the number of people infected reached its highest record ever last week at over 2.5 million, with deaths at 125,000.However, in the midst of the high number of people still infected last weekend, the Chinese National Biotec Group (CNBG) announced the results of a second vaccine test for humans. This was found to be a safe and effective treatment and could help to build confidence in the market this week. Read More... Gold struggled to capitalize on its early uptick back closer to multi-year tops and was last seen trading near daily lows, just below the $1770 region.The ever-increasing number of new cases globally served as a warning that the fight against COVID-19 is not over and indicated that the road to recovery will be much slower than expected. Fading hopes of a sharp V-shaped global economic recovery continued weighing on investors' sentiment and benefitted the safe-haven precious metal. Read More...  "
2,EUR/USD’s downside correction may be temporary [Video],"EURUSD seems to be trading within a downward-sloping channel on the daily chart which seems to be part of a bullish flag formation created after the steep rally to 1.1421.The pattern is a positive signal that the downside correction in the price is temporary and the market could soon resume its upward direction once the bulls smash the upper surface of the channel. The fact that the 50- and 200-day simple moving averages have (SMAs) have positively crossed each other after three years is indicating greater optimism that buyers may dominate. Meanwhile in momentum indicators, the RSI could be another encouraging sign if it manages to hold above its 50 neutral mark.Following today’s bounce on the ascending trendline that has been holding since mid-May, a close above the 23.6% Fibonacci retracement level of the 1.0765-1.1421 up leg, at 1.1266, is required to drive the price towards the channel’s ceiling seen around 1.1300. Note that the 20-day SMA happens to be in the same location. In case buying pressure violates the flag, the door would open for the 1.1350 resistance region and then for the 1.1421 peak.In the negative scenario where the pair dives below the ascending trendline, the 38.2% Fibonacci of 1.1170 could come to the rescue, blocking the way towards the bottom of the channel and the 50% Fibonacci of 1.1093.In brief, EURUSD is still in a downward move in the very short-term picture but the creation of a bullish flag hints that recent losses could be short-lived. A break above the descending channel could confirm the positive signals. "
3,Fed’s Williams: It’s a difficult time to conduct economic forecasts – Reuters,"The New York  Feral Reserve's Williams says this is a difficult time to conduct economic forecasts because the situation is evolving rapidly, Reuters news reported. Meanwhile, analysts at ANZ Bank noted that moves in markets were not large at the start of this week, ""but one does get the distinct impression that markets have got it both ways – with equities rallying on rebounding data and bonds rallying on dismal COVID-19 news.""So who will win the tussle? Markets seem to be focusing on mediocre rebounds and not levels (even after sharp bounces we are not back at pre-COVID levels of activity), suggesting bonds might have the upper hand, especially as they’re being helped along by QE. But excess liquidity means you can’t write equities off either, and liquidity will continue to be a major driver for some time."
4,EUR/USD to stretch until 1.1350 on a break above 1.1310,"The EUR/USD pair is up this Monday, nearing the 1.1300 level, and could extend its advance to 1.1350 after German inflation beat estimates in June, FXStreet’s Chief Analyst Valeria Bednarik reports.“German inflation beat estimates according to June preliminary estimates, recovering from 0.5% to 0.8% YoY. However, the EU Economic Sentiment Indicator for the same month printed at 75.7 from 80 in the previous month. The US, on the other hand, will publish later today May Pending Home Sales, expected to have fallen by 44.6% in the month, and the Dallas ed Manufacturing Business Index for the same month, seen at -59 from -49.2.”“In the 4-hour chart, EUR/USD is battling with a horizontal 100 SMA, although above the 20 and 200 SMA. Technical indicators, in the meantime, are advancing within positive levels, indicating increasing buying interest.” “The pair could accelerate its advance on a break above 1.1310, the immediate resistance, although gains beyond 1.1350 seem unlikely amid ongoing uncertainty and first-tier data scheduled for later this week.”"
5,EUR/USD Price Analysis: Potential move to the 1.1350 area,"EUR/USD has reclaimed some ground lost in past sessions and is looking to retake the key barrier at 1.1300 the figure on Monday.The continuation of the buying pressure should push the pair to the next target of relevance near 1.1350, or last week’s highs.On the broader picture, and as long as the 200-day SMA at 1.1033 holds the downside, further gains in the pair remain on the table.   "
6,EUR/USD: Weakness towards 1.1200 is a chance to buy [Video],"With the euro rebound faltering at $1.1350 on EUR/USD, the market is developing into a new consolidation pattern. The breakout support of $1.1145 held a recent unwind and a choppy week last week could be setting the scene for a difficult phase of trading where the market lacks decisive direction. Friday’s doji candle and open higher today has neutralised any selling pressure that had previously threatened, and support is now forming between $1.1165/$1.1190. The daily RSI holding above 50 is encouraging for this support to build as a platform now, whilst Stochastics are also looking to bottom. This would suggest that weakness towards $1.1200 is a chance to buy for near term positions towards $1.1350 again (resistance for the past couple of weeks). Risk Warning for Financial PromotionsHantec Markets' various market reports and commentary are issued by Hantec Markets Limited, who is authorised and regulated by the Financial Conduct Authority (FCA) in the UK, No. 502635. The reports are prepared and distributed for information purposes only.Trading in Foreign Exchange (FX), Bullion and Contracts for Differences (CFDs) is not be suitable for all investors due to the high risk nature of these products. Forex, Bullion and CFDs are leveraged products that can result in losses greater than your initial deposit. The value of an FX, Bullion or CFD position may be affected by a variety of factors, including but not limited to, price volatility, market volume, foreign exchange rates and liquidity. You may lose your entire initial stake and you may be required to make additional payments. Please ensure you fully understand the risks involved, seeking independent advice if necessary prior to entering into such transactions. Before deciding to enter into FX, Bullion and/or CFD trading, you should carefully consider your investment objectives, level of experience, and risk appetite. You should only invest in FX, Bullion and/or CFD trading with funds you are prepared to lose entirely. Therefore, only your excess funds should be placed at risk and anyone who does not have such excess funds should completely refrain from engaging in FX and/or CFD trading. Do not rely on past performance figures. If you are in any doubt, please seek further independent advice.The reports do not constitute personal investment advice, nor do they take into account the individual financial circumstances or objectives of the clients who receive it. All information and research produced by Hantec Markets is intended to be general in nature; it does not constitute a recommendation or offer for the purchase or sale of any financial instrument, nor should it be construed as such. All of the views or suggestions within the reports are those solely and exclusively of the authors, and accurately reflect their personal views about any and all of the subject instruments and are presented to the best of the authors' knowledge. Any person relying on these reports to undertake trading does so entirely at his/her own risk and Hantec Markets does not accept any liability.© 2014 Hantec Markets Limited"
7,"EUR/USD: Technical picture improves, resistance seen at 1.1290","EUR/USD trades at 1.1248, representing a 0.24% gain on the day, as Monday's 4-hour chart is painting an improving picture for the pair but euro/dollar is not out of the woods, according to FXStreet’s analyst Yohay Elam.“The EUR/USD pair has bounced off the uptrend support line once again, strengthening its importance and serving as a bullish sign. EUR/USD also advanced above the 50 Simple Moving Average on the 4-hour chart. On the other hand, momentum remains to the downside.” “Resistance awaits at 1.1290, which was a swing high in mid-June. It is followed by 1.1350, a double-top.”“Immediate support is at 1.1250, which is still fought over and was a swing high last week. It is followed by 1.1190, which cushioned the currency pair in recent days.” "
8,USD/CAD has some catching up to dp from a fundamental perspective – CitiBank,"Analysts at Citibank point out the Canadian dollar has some catching up to do from a fundamental perspective that should continue to support the loonie over the next months. They forecast USD/CAD at 1.30 over a 0-3 month period and at 1.27 in a 6-12 months horizon.“The loonie has benefitted from the general reflationary dynamics/risk on momentum we’ve seen across markets. We expect risk sentiment to continue to be an important driver, but also think CAD has some catching up to do from a fundamental perspective such as oil prices. WTI have found a bottom and continue to steadily rise. This may continue to support CAD over our forecast horizon as our forecast WTI at 51$/bbl in 12m.”“USDCAD has traded through the key resistance at 1.3686 and would also complete a bullish outside week, suggesting the pair can retest the 55d MA at 1.3833 with support at 1.3487.”
 "
9,EUR/USD stays firm and approaches 1.1300,"EUR/USD keeps navigating the area of 3-day highs just below the 1.1300 area at the beginning of the week.The buying interest remains well and sound around EUR/USD on Monday, always against the backdrop of the increasing selling bias surrounding the greenback.Looking at the broader scenario, market participants keep tracking the progress of the return to some sort of ‘normal life’ in Euroland despite the coronavirus pandemic looks everything but abated.In the docket, German advanced inflation figures showed consumer prices are expected to rise at a monthly 0.6% during the current month, surpassing initial forecasts. Earlier in the session, the Consumer Confidence gauge tracked by the European Commission came in at -14.7 for the month of June, matching the preliminary reading.\Across the pond, Pending Home Sales are due along with the Dallas Fed manufacturing index and speeches by FOMC’s Daly and Williams.EUR/USD appears to have met some important resistance in the 1.1350 region in recent days. Investors continue to look to the gradual return to some sort of economic normality in Europe while closely following new COVID-19 cases around the world. The constructive view in the euro, however, remains well sustained by the gradual and relentless re-opening of economies in Europe and by the ongoing monetary stimulus (announced by the ECB, Germany and the European Commission). On top, the solid performance of the region’s current account is also adding to the attractiveness of the shared currency.At the moment, the pair is gaining 0.63% 1.1286 and a breakout of 1.1348 (weekly high Jun.23) would target 1.1422 (monthly high Jun.10) en route to 1.1495 (2020 high Mar.9). On the downside, the next support lines up at 1.1168 (monthly low Jun.19) seconded by 1.1147 (high Mar.27) and finally 1.1032 (200-day SMA). "
10,EUR/USD trims gains and drops to 1.1230 as DXY rebounds,"The EUR/USD pair pulled back more than fifty pips from the daily top. As of writing, it is hovering around 1.1230/35, modestly higher for the day, and far from the five-day high, it reached earlier at 1.1287.A stronger US dollar across the board pushed EUR/USD back to the downside. The DXY erased losses and rose again to the 97.50 as equity prices in Wall Street rose further, recovering from Friday’s slide. The Dow Jones is up almost 2% and the Nasdaq 1.05%.Economic data from the US came in above expectations. Pending Home Sales jumped 44.3% in May while the Dallas Fed Manufacturing Index climbed to -6.1, against a reading of -59 of market consensus.The EUR/USD is moving with an intraday bearish bias. The immediate support is seen at 1.1230. A break lower would expose the daily low at 1.1215. On the upside, the critical level is seen around 1.1250, the 20-hour moving average. If the euro rises above, it would gain momentum. The next resistance stands at 1.1275.  "
11,EUR/USD gives away gains and returns to 1.1230 area,"The euro is pulling lower against the USD, reversing earlier gains after a strong weekly opening. The pair appreciated from a 1.1215 opening price to session highs at1.1280, where the pair found resistance before pulling back to 1.1230 area with the US dollar strengthening across the board. The common currency opened the day on firm footing, buoyed by brighter market sentiment. Better than expected industrial profits in China boosted hopes of economic recovery during the Asian session, offsetting fears of a second COVID-19 wave. Furthermore, the stronger than expected German inflation has contributed to the euro appreciation.The upward trend came to an end during the North American session. A string of upbeat US macroeconomic data, with the US pending home sales and Fed Manufacturing Index posting better than expected readings have boosted demand for the USD, which bounced up against its main peers. The FX strategy team at UOB warns about a breach of the 1.1170 level, that might accelerate the downtrend, “While downward pressure has ticked up over the past couple of days, EUR has to close below 1.1170 before a more sustained weakness in EUR can be expected.”    "
12,EUR/USD Forecast: Wait-and-see continues amid ruling uncertainty,"The EUR/USD pair surged to 1.1287 this Monday, changing course during US trading hours to close the day little changed on the upside in the 1.1230 price zone. Financial markets struggled with pandemic-related headlines throughout the day, as the number of cases has continued to rise over the weekend, mainly in the US Southern States. European equities posted modest daily gains, while US indexes followed the lead, with a bit more momentum. The US reported fewer cases this Monday, but there’s a trick to the improvement: usually, the number of cases reported during the weekend decreased, although Arizona informed that one of its testing centers didn’t provide an update, while is a well-known trend that fewer cases are reported on Mondays amid fewer testing and delays during the weekend.German inflation beat estimates according to June preliminary estimates, recovering from 0.5% to 0.8% YoY. However, the EU Economic Sentiment Indicator for the same month printed at 75.7 from 80 in the previous month. The US, on the other hand, published May Pending Home Sales, which were down by 5.1% YoY against the expected -44.6%,  and the Dallas ed Manufacturing Business Index for June, which improved from -49.2 to -6.1.This Tuesday, the EU will publish the preliminary estimate of June inflation data, while the US will release the Chicago PMI for June, seen at 45 from 32.3. More relevant, Fed’s head Powell, along with Treasury Secretary Steven Mnuchin, will testify before the House Financial Services Committee.The EUR/USD pair is hovering around 1.1230 as the day comes to an end, neutral in the short-term. The early attempt to surpass a Fibonacci resistance failed, reflecting the absence of interest. In the 4-hour chart, the pair is trading below a mildly bearish 20 SMA, also below the 100 SMA. Technical indicators, in the meantime, hover around their midlines. The downside is being contained by buyers aligned around 1.1170, while the pair would need to break above 1.1310 to turn bullish.Support levels: 1.1170 1.1125 1.1080Resistance levels: 1.1270 1.1310 1.1350  View Live Chart for the EUR/USD "
13,EUR/USD advances to session tops near 1.1270 ahead of German CPI,"The single currency appears to have left behind part of the recent pessimism and is now lifting EUR/USD to new daily highs in the vicinity of 1.1270, although losing some momentum afterwards.After three consecutive daily pullbacks, EUR/USD has opened Monday’s session with decent gains well above the 1.1200 mark amidst some correction in the greenback.Investors, in the meantime, continue to gauge the pace of the economic recovery in the Old Continent vs. the recent pick-up in coronavirus cases and some encouraging results from fundamentals in the euro region. Against this backdrop, a cautious tone and alternating risk appetite trends appear to be dominating the global trade for the time being.Later in the docket, the preliminary inflation figures in Germany for the month of June will be the salient event. In the NA session, Pending Home Sales are due in the first turn seconded by speeches by FOMC’s M.Daly and J.Williams.EUR/USD appears to have met some important resistance in the 1.1350 region in recent days. Investors continue to look to the gradual return to some sort of economic normality in Europe while closely following new COVID-19 cases around the world. The constructive view in the euro, however, remains well sustained by the gradual and relentless re-opening of economies in Europe and by the ongoing monetary stimulus (announced by the ECB, Germany and the European Commission). On top, the solid performance of the region’s current account is also adding to the attractiveness of the shared currency.At the moment, the pair is gaining 0.24% at 1.1243 and a breakout of 1.1266 (high Jun.29) would target 1.1348 (weekly high Jun.23) en route to 1.1422 (monthly high Jun.10). On the downside, the next support lines up at 1.1168 (monthly low Jun.19) seconded by 1.1147 (high Mar.27) and finally 1.1032 (200-day SMA)."
14,EUR/USD Forecast: Is Europe's coronavirus advantage set to trigger further gains?,"Coronavirus is raging in America – Texas' positive test rate has surged above 14%, Arizona and Georgia have reported a record number of cases, and Florida is not far behind. California, the largest and richest state, will be closing bars and in general – US cases topped 2.5 million.Vice President Mike Pence seemed to have changed his mind on wearing face masks, saying on Sunday it is ""just a good idea"" after refusing to comment on the matter on Friday. President Donald Trump has yet to endorse the cheap method of preventing the spread of the disease. Without a personal example, his supporters may continue spreading it.Bad news used to push the safe-haven dollar higher but after Friday's greenback gains, the world's reserve currency is on the back foot, also against the euro. Is it Europe's advantage in fighting the disease? Flare-ups have been recorded in various places in the old continent, but the situation is well under control.Per million, infections remain depressed in Europe's four large countries while they are clearly rising in America. Source: Financial TimesA more down-to-earth explanation for EUR/USD's advance is that markets have stabilized after Friday's sell-off, allowing the greenback to retreat. The next moves mostly depend on a fresh wave of data due out in the European afternoon.In the old continent, preliminary inflation figures from Germany for June carry expectations for a bounce after substantial falls beforehand. Spain's Consumer Price Index surprised with an annual fall of 0.3% compared with -0.9% projected. Isabel Schnabel of the European Central Bank said that inflation could dip below 0%, potentially triggering more monetary support.On the fiscal front, leaders are gearing up toward another discussion about the EU Fund, after failing to agree beforehand. Emmanuel Macron – France's President and a proponent of the ambitious plan – suffered a defeat in local elections in his country, somewhat weakening his hand. The European Commission is set to release its new travel guidance on Monday or on Tuesday, probably excluding visitors from the US amid the second wave. That would add to trans-Atlantic tensions, following both sides' inability to agree on several trade issues.Later in the day, US Pending Home Sales are forecast to show a bounce in May after a downfall in April, following in the footsteps of retail sales and durable goods orders. Overall, there are several topics moving the euro/dollar, yet coronavirus is by far the most significant one. The world's most popular currency pair has bounced off the uptrend support line once again, strengthening its importance and serving as a bullish sign. EUR/USD also advanced above the 50 Simple Moving Average on the four-hour chart. On the other hand, momentum remains to the downside. The picture is improving but euro/dollar is not out of the woods.Resistance awaits at 1.1290, which was a swing high in mid-June. It is followed by 1.1350, a double-top. 1.1385 and 1.1420 are next.Immediate support is at 1.1250, which is still fought over and was a swing high last week. It is followed by 1.1190, which cushioned the currency pair in recent days. The next lines to watch are 1.1175 and 1.1075.Why the dollar is king in the US coronavirus comeback? Discover what to watch out for!"
15,"Murrey math lines: EUR/USD, GBP/USD","As we can see in the H4 chart, EURUSD is consolidating at 4/8. In this case, the price is expected to break this level to the downside and continue falling towards the support at 3/8. However, this scenario may no longer be valid if the price breaks 4/8 to the upside. After that, the instrument may continue growing to reach the resistance at 5/8.In the M15 chart, the pair may break the downside line of the VoltyChannel indicator and, as a result, continue trading downwards. As we can see in the H4 chart, GBPUSD has rebounded from 5/8. In this case, the price is expected to continue growing towards the resistance at 6/8. However, this scenario may no longer be valid if the price breaks the support at 5/8 to the downside. After that, the instrument may continue falling to reach 4/8.In the M15 chart, the pair may break the upside line of the VoltyChannel indicator and, as a result, continue moving upwards."
16,Eurozone Inflation Preview: EUR/USD has room to rise if Core CPI tops 1% amid positive bias,"Giving the Germans reasons to be worried – that would be welcome news for euro bulls. Economists at Europe's largest economy tend to fear the specter of rising prices – with pictures of wheelbarrows full of worthless cash in the ill-fated Weimar Republic coming to mind. In recent years, the European Central Bank found itself fighting the danger of deflation – not inflation. The coronavirus crisis sent the headline Consumer Price Index close to zero amid a fall in demand. Isabel Schnabel, a German member of the European Central Bank, even said that CPI may dip below 0%. However, that is almost impossible for June. Early figures from her country and from Spain both came out above expectations.That makes the current expectation for 0.1% YoY CPI obsolete.The focus for the upcoming release – and for the ECB in recent years – is therefore on Core CPI. Germany and Spain did not publish underlying inflation figures, which are projected to hold at 0.9%. The increase in headline raises the chances for a run above 1%. That would still be far from the bank's ""2% or close to 2%"" target – but would be welcome by the Frankfurt-based institution and by EUR/USD buyers. It would reduce the chances for a rate cut by the ECB – whose deposit rate is already at -0.50%. What about Quantitative Easing? In any case, Christine Lagarde, President of the European Central Bank, said that the Pandemic Emergency Purchase Program – already worth €1.35 trillion – is essential to prevent deflation. It will likely remain unchanged until the crisis ends.Any increase above 1% would, therefore, boost the common currency, and now has higher chances of happening. A disappointing rise of 0.8% yearly or less would weigh on the euro.What would happen if Core CPI meets economists' expectations with 0.9%? In that case, EUR/USD may still edge higher. The common currency is benefiting from having COVID-19 under control – in comparison to the US and the UK. The euro seems to weather any dollar strength better than its peers. Is the euro also turning into a safe-haven currency?That temporarily happened in 2015 around the Greek crisis and still requires more proof in 2020. Nevertheless, at least for the inflation report, EUR/USD has room to rise.Eurozone CPI will likely exceed original estimates and rise more than 0.1%, leaving the focus on Core CPI. An increase beyond 1% would boost the euro, which benefits from a positive bias."
17,"Forex technical analysis and forecast: Majors, equities and commodities","After completing the descending structure at 1.1200, EURUSD is expected to continue the correction and grow to reach 1.1250, at least. Later, the market may form a new descending structure with the target at 1.1150. After reaching its downside target at 1.2315, GBPUSD is correction to reach 1.2387, at least, or even 1.2425. After that, the instrument may resume falling with the target at 1.2275. USD/RUB is moving upwards to break 69.70 and may continue the correction towards 70.34. After that, the instrument may start a new decline to return to 69.70 and then form one more ascending structure with the short-term target at 70.84. USD/JPY is consolidating below 107.36. Possibly, today the pair may fall towards 106.76 and then form one more ascending structure to break 107.36. Later, the market may continue trading upwards with the short-term target at 107.85. USD/CHF is consolidating around 0.9474. Today, the pair may fall towards 0.9452 and then grow to return to 0.9474. Later, the market may start a new descending correction with the target at 0.9444. After reaching the short-term downside target at 0.6840, AUDUSD is expected to correct towards 0.6900. After that, the instrument may start a new decline to break 0.6830 and then continue trading downwards with the target at 0.6785. Brent is falling to reach 39.64. After that, the instrument may start consolidating. If later the price breaks this range to the downside, the market may resume trading downwards with the short-term predicted target at 37.60. Gold is forming a narrow consolidation range around 1769.85. Possibly, the pair may continue growing towards 1780.50 and then start a new correction to reach 1769.50. Later, the market may form one more ascending structure with the short-term target at 1791.85. After completing the descending wave at 8800.00, BTCUSD is expected to correct towards 9200.00 and test it from below. Later, the market may resume trading downwards to reach 8700.00 and then form a new consolidation range around it. The Index is still falling towards 2963.4. After that, the instrument may form a new consolidation range. If later the price breaks this range to the downside, the market may resume trading inside the downtrend with the short-term predicted target at 2750.5."
18,"EUR/USD Forecast: Bulls pressuring, but cautious","The EUR/USD pair is up this Monday, nearing the 1.1300 level ahead of the US opening. The dollar is under pressure as high-yielding assets are up, despite the absence of positive news. Speculative interest is trying to remain optimistic, although weighing bad news coming from the US, where the spread of coronavirus in the Southern States has pushed the number of new contagions to records these last few days.  Data coming from the Union resulted mixed, as German inflation beat estimates according to June preliminary estimates, recovering from 0.5% to 0.8% YoY. However, the EU Economic Sentiment Indicator for the same month printed at 75.7 from 80 in the previous month. The US, on the other hand, will publish later today May Pending Home Sales, expected to have fallen by 44.6% in the month, and the Dallas ed Manufacturing Business Index for the same month, seen at -59 from -49.2.The EUR/USD pair is trading just above the 23.6% retracement of its latest daily advance, recovering once again from near the 38.2% retracement of the same rally, mostly ranging. In the 4-hour chart, the pair is battling with a horizontal 100 SMA, although above the 20 and 200 SMA. Technical indicators, in the meantime,  are advancing within positive levels, indicating increasing buying interest. The pair could accelerate its advance on a break above 1.1310, the immediate resistance, although gains beyond 1.1350 seem unlikely amid ongoing uncertainty and first-tier data scheduled for later this week.Support levels: 1.1260 1.1220 1.1170Resistance levels: 1.1310 1.1350 1.1350View Live Chart for the EUR/USD"
19,ECB’s Makhlouf: We are emerging from crisis,"The eurozone is emerging from the coronavirus crisis, European Central Bank policymaker Gabriel Makhlouf said on Monday.However, Makhlouf further added that he would hesitate to say that they can see the end of the crisis, as reported by Reuters.These comments seem to be helping market sentiment improve. As of writing, the Euro Stoxx 50 Index was at fresh daily highs at 3,224 points, gaining 0.66% on the day. Meanwhile, the EUR/USD pair was up 0.62% on a daily basis at 1.1285."
