,title,text
0,EUR/USD: Narrowing wedge implies a strong trend coming,"Friday's 4-hour chart is showing the EUR/USD pair is trading in a wedge. Technical analysis textbooks suggest that this may eventually result in the cross picking a direction and then trending strongly. Yohay Elam, an analyst at FXStreet, tries to find out to what direction EUR/USD will break.“Momentum on the 4-hour chart has all but disappeared. EUR/USD is trading below the 50 and 100 Simple Moving Averages but above the 200 SMA. All in all, bears have a marginal lead.”“Support awaits at 1.1220, which is the daily low, followed by 1.1185, a stubborn support line from the recent week. Further down, 1.1160 was a low point in mid-June.”“Immediate resistance awaits at the daily high of 1.1250, followed by 1.13, Thursday's peak. The next level to watch is the double-top of 1.1350 seen in mid-June.”"
1,Germany's Merkel: We are preparing on every level for a no-deal Brexit,"Speaking a parliamentary address on Friday, Germany’s Chancellor Angela Merkel said, “we are preparing on every level for a no-deal Brexit.”“Europe's economy is being badly shaken by the coronavirus”, she said.On Monday, Merkel said that the European Union (EU) needs to be prepared for the possibility that they may not be able to reach an agreement with the UK.The pound has come under fresh selling pressure on Merkel’s reiteration about the diminishing odds for a Brexit deal.GBP/USD drops 0.13% to 1.2453, having hit a daily low of 1.2438 in the last minutes."
2,EUR/USD Weekly Forecast: The song remains the same,"After the financial markets went into chaos in March, and desperately look to stabilize in April, investors began to recover their optimism throughout May and June, hoping for a soon-to-come economic comeback. The EUR/USD pair reflected the sentiment, plummeting in March to 1.0635 to recover early June to 1.1422. Since then, the pair has been unable to find a new way, stable around 1.1200 for three weeks in a row.And indeed, the record economic contraction in the US and the EU has reverted in June, according to data released this week. The economies are not in pre-pandemic levels but are in the right path, and at a faster-than-expected rate.  And yet, currency pairs have remained unattractive one way of the other.Even further, Wall Street enjoyed its best quarter in decades, with major indexes flirting with all-time highs. What’s up then? Well, COVID-19, that’s it. It seems that the virus-related crisis has been here forever, but it has been just six months since it emerged in China, and only three months since the world has taken notice of it, in the worst possible way.The timing of improved macroeconomic data could not be worse, as it came alongside a record upsurge in contagions in the US, which overshadowed any sign of economic improvement with fears of another dip in activity coming up in the next weeks. The number of new coronavirus cases in the US is above 50K per day, and several stated have either delay reopenings or announced new lockdowns. In the meantime, the EU is unable to agree on a recovery fund, while the US Federal Reserve kept pledging to stimulate the economy, the main reason behind stocks’ gains regardless of the sour mood.Indeed, data showed a V-shaped recovery in the Union, as manufacturing activity and services output extended their recovery in June, according to Markit. Business in the services sector remained below the 50 mark that separates expansion from contraction but is not far below the level. US official growth-related figures were also upbeat, as well as the Nonfarm Payroll report, which showed that the country recovered 4.8 million jobs in June.The upcoming week will start with the US reporting the ISM Non-Manufacturing PMI, foreseen at 48.9 in June from 45.4 in the previous month.  Markit will publish the final version of the Services PMI for the same month, seen steady at 46.7. On Thursday, the country will publish the usual weekly unemployment claims data figures.Germany will publish May Factory Orders, Industrial Production, and the Trade Balance for the same month, all seen improving from the previous readings but holding within worrisome levels. The EU will publish May’s Retail Sales, seen down in the month by 15%. Old data that has little chances of having an impact on the shared currency.Instead, the market will remain focused on coronavirus developments, including progress in vaccines or treatments that can speed up the economic comeback.The EUR/USD pair daily chart shows that throughout the week, the candles have small or non-existent bodies, a sign of uncertainty. The pair continues to trade below its 20 DMA, which gains downward strength around a Fibonacci resistance level at 1.1270. The Momentum indicator retreats from its midline while the RSI indicator is flat around 54, a neutral-to-bearish stance. However, and for a second consecutive week, the pair met buyers around the 38.2% retracement of its latest daily advance at 1.1170.In the longer-term perspective and according to the weekly chart, the bullish potential receded further, but there are no signs of directional potential. The downside seems limited, as the pair continues to trade around its 100 SMA and well above a bullish 20 SMA. The 200 SMA, provides dynamic resistance in the 1.1330 area, where the pair met sellers since mid-June.For the third consecutive week, the most relevant support is the mentioned 1.1170 Fibonacci level. With a break below it exposing 1.1095, the 50% retracement of the same rally.  To the upside, there’s a strong resistance level at 1.1270, while beyond this last, the pair can recover towards the 1.1340/60 price zone. June high at 1.1422 is an inflection point, with the pair set to remain in no man’s land as long as below it. The FXStreet Forecast Poll shows that the pair may come under selling pressure next week, as only 29% of the polled experts expect and advance, while bears account for the 43%. On average, the pair is seen between 1.12 and 1.13 in the three time-frame under study. Bulls become a majority in the monthly view, and continue to lead in the quarterly perspective.The Overview chart offers a more optimistic stance for EUR bulls, as the weekly moving average recovered a modest upward slope, while the larger ones offer a more substantial positive momentum. The pair seems poised to remain at the upper end of its latest range, instead of hinting a bullish breakout in the long term.AUD/USD Forecast: Market´s anxiety having no effects on AussieGBP/USD Weekly Forecast: Seeing dead cat bounces everywhere, time for another fall"
3,USD/JPY remains confined in a range around mid-107.00s,"The USD/JPY pair lacked any firm directional bias and remained confined in a narrow trading band, around mid-107.00s through the early European session. A combination of diverging forces failed to assist the pair to capitalize on the previous day's modest uptick and led to a subdued/range-bound price action on the last trading day of the week.Optimism over a potential COVID-19 vaccine, coupled with reviving hopes of a V-shaped global economic recovery remained supportive of the upbeat market mood. Friday's upbeat China Caixin Services PMI added to Thursday's stronger-than-expected US monthly jobs report and offered further evidence that the worse of the coronavirus pandemic was probably over.The risk-on flow undermined the safe-haven Japanese yen and extended some support to the USD/JPY pair. However, the ever-increasing number of coronavirus cases fueled concerns about renewed lockdown measures to contain the spread. This, in turn, held investors from taking excessive risk and kept a lid on any strong gains for the major, at least for the time being.Traders also seemed reluctant to place any aggressive bets, rather preferred to wait on the sidelines amid relatively thin liquidity conditions. Given that the US markets will remain closed in observance of Independence Day, the USD/JPY pair seems more likely to prolong its sideways consolidative price action and end with modest gains for the second consecutive week.  "
4,EUR/USD Forecast: Falling ahead of the fireworks? Coronavirus concerns may outweigh Non-Farm Payrolls,"What should markets focus on – upbeat three-week-old figures or tentative signs of a downturn? The answer is probably the latter. Concerns about coronavirus ravaging the US – with a record 55,000 cases on Thursday – seem to outweigh the surge of 4.8 million job gains in June's Non-Farm Payrolls report. The safe-haven US dollar is moving back up, keeping a lid on EUR/USD.COVID-19 infections are up not only due to testing but are also seen in high positive test rates and pressure on hospitals. States continue reimposing restrictions or halting plans to reopen. Restaurant reservations and foot traffic to shops were down even before new limits came into force. Most recently, gasoline consumption has also begun turning down.Texas, home to the robust oil industry, has seen Intensive Care Units passing normal capacity and has ordered people to wear face masks under certain conditions. President Donald Trump finally seemed to endorse such protection but has not put one on in recent days.Four months before the elections, his mishandling of the crisis – which he said will ""disappear"" is costing him support in the polls, which show rival Joe Bien leading by over nine points, opening the door to a clean Democratic sweep.Trump did come out to the press and touted the upbeat Non-Farm Payrolls figures for June. Around 4.8 million people went back to work, better than three million expected. The Unemployment Rate fell to 11.1%, also exceeding estimates of 12.3%. However, these are mostly temporary jobs that were restored. The percentage of permanent position losses rose from 11.4% to 21.4%. Source: FiveThirtyEightAnd perhaps more importantly – the figures were taken on the week ending June 12 – just before the disease began lifting its ugly head. Weekly jobless claims for the week ending June 26 showed that initial applications remained stubborn just below 1.5 million while continuing claims are stuck close to 20 million as of the week ending June 19. More NFP Analysis: Good, but as good as it gets, re-closing is rapidly ravaged reopening gainsThe most recent moves in EUR/USD are attributed to the broader market mood and developments in the US. Back at the old continent, coronavirus seems to be under control, with occasional flareups being put down quickly.On the other hand, leaders are dragging their feet in regards to fiscal stimulus. Dutch Prime Minister Mark Rutte expressed hope that a compromise will be reached. His country is one of the ""Frugal Four"" opposing handing grants mutually funded by member states. Markit's final Services Purchasing Managers' Indexes for June will likely confirm the slow recovery – with milder contractions than beforehand. Spain's services PMI surprised with 50.2 points, better than 45.9 projected and indicating a return to growth. Will upbeat eurozone figures boost the euro and keep EUR/USD despite coronavirus concerns? That remains an open question.Returning to America, it is Independence Day weekend. While stock markets are closed, futures trading is open – and states continue releasing COVID-19 statistics while foreign exchange trading continues, albeit with thinner liquidity.Euro/dollar is trading within a narrowing triangle or wedge. Technical analysis textbooks suggest that this may eventually result in the pair picking a direction and then trending strongly. To what direction?Momentum on the four-hour chart has all but disappeared. EUR/USD is trading below the 50 and 100 Simple Moving Averages but above the 200 SMA. All in all, bears have a marginal lead.Support awaits at 1.1220, which is the daily low, followed by 1.1185, a stubborn support line from the recent week. Further down, 1.1160 was a low point in mid-June.Immediate resistance awaits at the daily high of 1.1250, followed by 1.13, Thursday's peak. The next level to watch is the double-top of 1.1350 seen in mid-June.More Non-Farm Payrolls: Immense uncertainty remains prevalent, markets may react"
5,EUR/USD: The weight of sellers bares down on the market between $1.1300/$1.1350 [Video],"Another small bodied daily candlestick suggests that it is still too early for the bulls to get excited on EUR/USD. The payrolls report eventually weighed on the pair, and once more it left a candlestick with a lot of bluster (long shadows) but little real conviction (small difference between open and close). Subsequently, as the dust settles we continue to see EUR/USD ranging. With today being a US public holiday, this outlook is unlikely to change much coming into the weekend (aside from perhaps some initial chop around the Eurozone PMIs). Taking a step back, the euro continues to find buyers around the range lows between $1.1165 and $1.1200 area. However, for the past few weeks now, the weight of sellers bares down on the market between $1.1300/$1.1350. Momentum indicators are flattening off, with the daily RSI still holding firm above 50, whilst Stochastics have also lost their negative impetus. There have now been five closing candles in a row which have lacked conviction, so this is a market looking for direction. Risk Warning for Financial PromotionsHantec Markets' various market reports and commentary are issued by Hantec Markets Limited, who is authorised and regulated by the Financial Conduct Authority (FCA) in the UK, No. 502635. The reports are prepared and distributed for information purposes only.Trading in Foreign Exchange (FX), Bullion and Contracts for Differences (CFDs) is not be suitable for all investors due to the high risk nature of these products. Forex, Bullion and CFDs are leveraged products that can result in losses greater than your initial deposit. The value of an FX, Bullion or CFD position may be affected by a variety of factors, including but not limited to, price volatility, market volume, foreign exchange rates and liquidity. You may lose your entire initial stake and you may be required to make additional payments. Please ensure you fully understand the risks involved, seeking independent advice if necessary prior to entering into such transactions. Before deciding to enter into FX, Bullion and/or CFD trading, you should carefully consider your investment objectives, level of experience, and risk appetite. You should only invest in FX, Bullion and/or CFD trading with funds you are prepared to lose entirely. Therefore, only your excess funds should be placed at risk and anyone who does not have such excess funds should completely refrain from engaging in FX and/or CFD trading. Do not rely on past performance figures. If you are in any doubt, please seek further independent advice.The reports do not constitute personal investment advice, nor do they take into account the individual financial circumstances or objectives of the clients who receive it. All information and research produced by Hantec Markets is intended to be general in nature; it does not constitute a recommendation or offer for the purchase or sale of any financial instrument, nor should it be construed as such. All of the views or suggestions within the reports are those solely and exclusively of the authors, and accurately reflect their personal views about any and all of the subject instruments and are presented to the best of the authors' knowledge. Any person relying on these reports to undertake trading does so entirely at his/her own risk and Hantec Markets does not accept any liability.© 2014 Hantec Markets Limited"
6,EUR/USD outlook: Euro remains in extended sideways mode after another upside rejection,"The Euro stands in red in early Friday’s trading following strong upside rejection at trendline resistance (1.1295) on Thursday, that left another Doji candle, this time with long upper shadow.
Upbeat US NFP data provided short boost to the risk appetite, but fears from rising coronavirus cases soured the sentiment.
The third consecutive failure to close above cracked pivot at 1.1265 (Fibo 38.2% of 1.1422/1.1168 / 20DMA) weighs on near-term tone which is additionally weakened by rising negative momentum.
Extended sideways trading is moving between 20DMA and rising 30DMA (1.1214) which comes under pressure and break here would shift focus towards key supports at 1.1175/68 (Fibo 38.2% of 1.0774/1.1422 / 19 June trough).
Long shadows of weekly candles of past four weeks add to negative signals of bull-trap formation (above 200WMA).
The pair so far shows mild reaction to better than expected German / EU Services PMI numbers, with quiet trading expected today as America is shut for Independence Day holiday.Res: 1.1249; 1.1265; 1.1284; 1.1302
Sup: 1.1224; 1.1214; 1.1184; 1.1168  "
7,Daily technical and trading outlook - EUR/USD,"   DAILY EUR/USD TECHNICAL OUTLOOK

Trend Daily Chart
Sideways

Daily Indicators
Turning down

21 HR EMA
1.1247

55 HR EMA
1.1246

Trend Hourly Chart
Sideways

Hourly Indicators
Falling

13 HR RSI
45

14 HR DMI
-ve

Daily Analysis
Choppy consolidation to continue

Resistance
1.1348 - Last week's high (Tue)
1.1325 - Last Wed's high
1.1302 - Thur's high

Support
1.1224 - Thur's low
1.1186 - Wed's low
1.1169 - Jun 19 low

EUR/USD - 1.1240.. Euro met renewed buying at 1.1248 in Asian morning n extended near term rise fm Wed's 1-week 1.1186 low to 1.1302 in European morning , however, price tumbled to 1.1224 in post-NFP NY after upbeat U.S. jobs data.

On the bigger picture, despite euro's LT upmove fm 2017 near 14-year low of 1.0341 to a fresh 3-year peak of 1.2555 in mid-Feb 2018, subsequent selloff to as low as 1.0778 in mid-Feb 2020 signals said impressive rise has ended. Although price staged a surprise rally to a 13-month high at 1.1494 in Mar, price later hit a near 3-year low of 1.0637. Although price rallied to a 3-month high of 1.14 22 in Jun due to another round of risk-on trade, euro ratcheted lower to 1.1169 mid-Jun as usd regained traction following decline in US stocks n interest rates , suggesting retracement to 1.1100 would be seen but below 1.1030 (50% r fm 1.06 37) needed to extend twd 1.0937. Abv 1.1348/52 would bring re-test of 1.1422.

Today, although euro's rally fm 1.1186 to 1.1302 suggests further volatile trading abv 1.1169 bottom would continue, y'day's fall to 1.1224 should prolong choppy consolidation below last week's 1.1348 peak with downside bias, below 1.1186 needed to head to 1.1169, then 1.1147. Abv 1.1302, 1.1325, 1.1348. "
8,"Forex technical analysis and forecast: Majors, equities and commodities","EUR/USD is forming another descending wave. Possibly, today the pair may break 1.1222 and then continue falling with the short-term target at 1.1180. After that, the instrument may correct to test 1.1222 from below and then start another decline to reach 1.1144. GBP/USD is forming another descending wave towards 1.2410. Possibly, the pair may correct towards 1.2466 and then resume trading downwards to break 1.2363 and then continue falling inside the downtrend with the target at 1.2317. USD/RUB is still trading downwards to reach 69.96. After that, the instrument may resume growing towards 70.50, thus forming a new consolidation range between these two levels. If later the price breaks this range to the upside, the market may form one more ascending structure with the target at 72.00; if to the downside at 0.9490 – resume trading inside the downtrend to reach 68.00. USD/JPY is consolidating around 107.46 without any particular direction. If later the price breaks this range to the upside at 107.75, the market may start a new growth with the target at 108.20; if to the downside at 107.20 – resume trading downwards to reach 106.60. USD/CHF is forming another ascending wave towards 0.9494. After that, the instrument may correct to reach 0.9455 and then resume trading upwards with the predicted target at 0.9555. AUDUSD is still consolidating around 0.6902. If later the price breaks this range to the upside at 0.6940, the market may form another ascending structure with the target at 0.6990 or even 0.7000; if to the downside at 0.6900 – resume trading downwards to reach 0.6880 or even 0.6788. Brent is forming one more ascending wave towards 43.40. Later, the market may fall to reach 42.40 and then start another growth to return to 43.40 or even continue the uptrend with the target at 45.20. Gold is still consolidating around 1770.00. Today, the pair may test 1768.20 from above and then resume trading upwards to reach 1793.00 or even 1800.00. After finishing the descending impulse at 9000.00, BTCUSD is consolidating above this level. Possibly, the pair may fall towards 8700.00 and then start a new correction to reach 9200.00. Later, the market may continue trading downwards with the target at 8000.00. After completing the ascending wave at 3160.6, the Index is expected to correct towards 3076.0. After that, the instrument may resume trading upwards with the target at 3125.0."
9,ECB said to be fighting a policy dispute on flexibility of PEPP – Bloomberg,"Citing sources familiar with the matter, Bloomberg reports that the European Central Bank (ECB) policymakers are reportedly divided on the flexibility of the bond-buying programme (PEPP).The disagreement is mainly in respect to how to distribute their PEPP stimulus, for instance, more towards weaker and hardest-hit countries from the bloc due to the coronavirus pandemic.The sources cite this to be the ECB’s first major conflict that could threaten to undermine the PEPP stimulus going forward.The shared currency is seeing some fresh supply on the above headlines, as EUR/USD challenges the daily lows of 1.1224, down 0.11% on the day."
10,Bitcoin Price Forecast: BTC/USD bulls manage a weak riposte after a sluggish Friday,"BTC/USD bulls came out on top after a sluggish Friday, wherein the price crawled up from $9,092.43 to $9,094. This followed a heavily bearish Thursday, wherein the price fell from the $9,250 mark. The Elliott Oscillator has had three straight green sessions, while the RSI is moving horizontally in the neutral zone.BTC/USD faces strong resistance at $9,237, $9,293, $9,312.35 (SMA 20) and $9,424 (SMA 50). On the downside, healthy support lies at $9,000.45 and $8,904.20 
 "
11,GBP/USD: UK government unlikely to impress the markets to fuel GBP buying – MUFG,"Analysts at MUFG Bank argue the British pound will likely underperform while risk may hold up over the short-term. They recommend keeping the short GBP/USD trade idea but raising the take-profit level to 1.2260.“We’ve seen GBP/USD get down close to the 1.2250 level but we have rallied this week with the broad sell-off of the dollar. While we hold less conviction of an imminent risk-off episode unfolding over the short-term than we did when we established this trade, we will stick with this trade idea for now. We have however raised the take-profit level to the levels we reached earlier this week.”“We were unimpressed with PM Johnson’s big speech this week with nothing of much significance offered. Next week Chancellor Sunak will unveil new support measures but again we see it as difficult for the government to impress the markets to such a degree to fuel GBP buying. We are also sceptical of the current level of optimism in relation to an UK-EU trade deal, so see scope for disappointment. So while risk may hold up over the short-term, we see reason for GBP to underperform.” 
 "
12,"Gold Price Analysis: Consolidates around $1775 level, bullish bias remains","Gold extended its sideways consolidative price action through the mid-European session and remained confined in a narrow trading band, around the $1775 region.Meanwhile, the recent move up over the past one month or so has been along an ascending trend-line. The overnight resilience below the mentioned trend-line, which coincides with 200-hour SMA, favours bullish traders and supports prospects for additional gains.Meanwhile, technical indicators on hourly/daily charts maintained their bullish bias and are still far from being in the overbought territory. This, in turn, adds credence to the constructive set-up amid growing worries about surging coronavirus cases across the world.Hence, some follow-through positive move beyond the $1789 region, multi-year tops set on Wednesday, remains a distinct possibility. Bulls are likely to aim for a move to test the ambitious $1800/ounce target en-route the next major hurdle near the $1811 region.On the flip side, the mentioned confluence region, currently around the $1770 region, might continue to protect the immediate downside. Failure to defend the mentioned support will negate the bullish outlook and prompt some aggressive technical selling.The commodity might then accelerate the slide further towards the overnight swing high, around the $1758-57 region before eventually dropping to its next major support near the $1745-44 horizontal zone.  "
13,NZD/USD Price Analysis: Could we see an extension of the trend next week?,"Despite very thin volume on Friday (US participants are off for Independence day) NZD/USD has moved higher by 0.39%. NZD/USD is a currency that performs well when the risk environment is positive and over the week stocks have performed well.Looking at the chart below, the bulls will have to break past the black horizontal line at 0.6580 to keep this impressive trend going. If this feat is achieved then the purple resistance line at 0.6756 could be hit next.On the downside, the red support zone is the area to watch if you have a bearish bias. 0.64 has been a tough nut to crack and it seems an event-driven move would be needed to break the zone.The MACD indicator is slightly mixed at the moment. The histogram is in the red and the signal lines are above the mid-point. This signal line is a better gauge of trend and if the histogram turns green again it could be a great long signal. The Relative Strength Index looks to be heading to the positive overbought zone again. Many people think this means that the price has to pullback. This is sometimes the case but more often than not after a brief move lower the trend normally continues in the direction if the break.   "
14,"USD/CAD steadies around 1.3560, looks to snap three-week winning streak","The USD/CAD pair is moving sideways below 1.3600 for the third straight day on Friday as trading conditions remain thin due to the Independence Day holiday in the US. As of writing, the pair was unchanged on the day at 1.3562. On a weekly basis, the pair is down more than 100 pips and is looking to snap its three-week winning streak.The upbeat macroeconomic data releases, especially PMI figures, from major economies such as Canada, the US, China and Germany this week eased concerns over a dismal energy demand outlook. Moreover, the sharp witnessed in the US crude oil inventories provided an additional boost to crude oil prices.With the barrel of West Texas Intermediate (WTI) gaining more than 5% this week, the commodity-sensitive loonie preserved its strength against the greenback. On the other hand, the surging number of confirmed coronavirus cases in the US helped greenback find demand as a safe-haven. However, the impressive labour market data on Thursday and Wall Street's main indexes' strong performance limited the USD's upside. The US Dollar Index was last seen losing 0.3% on the week at 97.20.US: Nonfarm Payrolls (NFP) surges by 4.8 million in June, Unemployment Rate falls to 11.1%Assessing USD/CAD's outlook, ""we expect the level of oil prices will remain key for USD/CAD sensitivity. In other words, if oil keeps pushing higher, we can expect the relationship between oil and USD/CAD to increase,"" said Rabobank analysts. ""While if we move substantially lower, then we expect the relationship to decrease. As it stands, the relationship has picked up a bit in light of the recent rally and we some small downside for oil prices in the short term which will weigh on CAD.""  "
15,Gold bounce off the D L3 camarilla,"Gold has bounced off the D L3 zone after a pullback few days earlier. The lack of US markets momentum today might bring the GOLD up.Strong bullish pressure along with the bullish marubozu candle, mark the continuation of GOLD uptrend. We should see 1781 as the first level. If the price makes a close above we will probably see D H4/ATR high hit which is 1789. If the price proceeds above the TR high then next level is D H5 resistance 1797. Buying the dip should be the option for GOLD traders as long as the price is held above 1752.  The analysis has been done with the CAMMACD.Core System.For more daily technical and wave analysis and updates, sign-up up to our ecs.LIVE channel."
16,FX Daily: The peak might have passed for USD,"In a week characterised by falling FX volatility, the dollar looks to be re-establishing a gentle bear-trend as equities appear complacent to grim contagion news. Such complacency indicates that the short-term outlook for risk assets is not lacking hurdles, but there is still a material chance we have seen a peak in the dollarThe week appears set to end on a quiet note as US markets are closed for Independence Day and the economic calendar looks rather unexciting today.Global sentiment is stable during early trading, still finding some support from yesterday's upside surprise in US payrolls. While the unexpected 4.8 million rise in employment surely contributes to the notion of a sharp economic recovery, our economists highlight how the jobless claims report is showing 31.5 million Americans are claiming unemployment benefits, which is nearly double the 17.7 million unemployed according to the jobs report.Such understatement of unemployment may turn out to be a ticking bomb for markets, and the July jobs report bears the risk of being a big disappointment. For now, however, markets are focussing on the positives from the jobs data and continue to be only moderately concerned about second Covid-19 waves.In a week characterised by dropping FX volatility, the dollar looks to be re-establishing a gentle bear-trend as equities keep showing complacency to grim contagion news. Such complacency indicates that the short-term outlook for risk assets is not lacking hurdles, but there is still a material chance we have seen a peak in the dollar.Today, expect tight ranges and a general stabilisation to prevail in FX. German lawmakers voted yesterday to back the ECB bond-buying programme, therefore putting an end to the legal standoff with the country's top court. The news had already been priced in by markets after some reports earlier in the week, and the whole German court ruling story had so far failed to particularly stir the EUR, as investors were not seeing any material implications for the ECB just yet.Looking ahead, however, the EUR will have to deal with one less piece of uncertainty, which indeed helps our bullish EUR/USD view for the rest of the year. Today, final eurozone PMIs are unlikely to trigger significant market moves, and ECB's Knot speech (1300 GMT) appears to have little surprise potential. Instead, keep an eye on Saturday's speech by President Christine Lagarde for possible delayed impacts when markets re-open next week. A week of EU-UK trade negotiations end on a fairly optimistic tone, which is fuelling some GBP momentum and we are seeing Cable back at the 1.25 handle. Ahead of a new round of talks next week, the two parties have reportedly softened their stances on a few issues and took steps towards a general compromise.Still, time constraints and a lingering divergence on a few sticky points suggest any GBP recovery path won't be smooth. The AUD is leading G10 (very tiny) procyclical gains this morning thanks to a jump in May retail sales along with more optimistic PMI numbers from China.AUD/USD has been stuck in the 0.68/0.70 range for the majority of June, and this may remain the case for a few more weeks as risk assets may fail to take a decisive direction on the back of perceived balanced global risks. Read the original article: FX Daily: The peak might have passed for USD"
17,Gold: Momentum indicators retain their positive configuration [Video],"On a session where the reaction was broadly risk positive and (eventually USD supportive) in the wake of the payrolls report, gold closing decisively higher and with a positive candlestick, is encouraging for the bulls. The concern has been that the pullback from $1789 was another bull failure to scupper the breakout once more. However, aside from a brief intraday slip to $1756 (in the minutes following the payrolls announcement), gold held firm above the old May high of $1764 and began to pull higher once more. This is a good response from the market, which has now closed for five consecutive sessions above $1764. The four week uptrend has been tested (for a few minutes) but essentially holds intact still. Momentum indicators retain their positive configuration, albeit slightly less positive than a few days ago. Daily RSI is still above 60, whilst Stochastics are above 80. The US public holiday today is likely to mean little real conviction from today’s session and with the uptrend at $1769 today, this may even be breached. However, whilst gold continues to hold above $1764 we are still encouraged for the outlook of further upside to test $1795. The inference of the breakout above $1764 is still an implied target of $1820. We would lose our conviction below $1744. Risk Warning for Financial PromotionsHantec Markets' various market reports and commentary are issued by Hantec Markets Limited, who is authorised and regulated by the Financial Conduct Authority (FCA) in the UK, No. 502635. The reports are prepared and distributed for information purposes only.Trading in Foreign Exchange (FX), Bullion and Contracts for Differences (CFDs) is not be suitable for all investors due to the high risk nature of these products. Forex, Bullion and CFDs are leveraged products that can result in losses greater than your initial deposit. The value of an FX, Bullion or CFD position may be affected by a variety of factors, including but not limited to, price volatility, market volume, foreign exchange rates and liquidity. You may lose your entire initial stake and you may be required to make additional payments. Please ensure you fully understand the risks involved, seeking independent advice if necessary prior to entering into such transactions. Before deciding to enter into FX, Bullion and/or CFD trading, you should carefully consider your investment objectives, level of experience, and risk appetite. You should only invest in FX, Bullion and/or CFD trading with funds you are prepared to lose entirely. Therefore, only your excess funds should be placed at risk and anyone who does not have such excess funds should completely refrain from engaging in FX and/or CFD trading. Do not rely on past performance figures. If you are in any doubt, please seek further independent advice.The reports do not constitute personal investment advice, nor do they take into account the individual financial circumstances or objectives of the clients who receive it. All information and research produced by Hantec Markets is intended to be general in nature; it does not constitute a recommendation or offer for the purchase or sale of any financial instrument, nor should it be construed as such. All of the views or suggestions within the reports are those solely and exclusively of the authors, and accurately reflect their personal views about any and all of the subject instruments and are presented to the best of the authors' knowledge. Any person relying on these reports to undertake trading does so entirely at his/her own risk and Hantec Markets does not accept any liability.© 2014 Hantec Markets Limited"
18,GBP/JPY remains flat at 134.00 after rejection from 134.70,"The pound has remained trading sideways around 134.00 on Monday, with bearish attempts contained at 133.70 after Thursday’s reversal from two-week highs at 134.70. The sterling has been consolidating gains on a quiet session, with US markets shut for the Independence Day bank holiday. The pair has appreciated about 1.8% after two consecutive weeks in positive yet with Brexit fears keeping GBP upside attempts in check.Market speculation about a certain softening of the positions between the two parties has triggered some hopes about the possibility of a breakthrough in the coming weeks, which has eased fears of a no-deal exit from the Union and has given some respite to the GBP.Beyond that, the moderate risk aversion, with the increase of coronavirus cases back to the forefront combined with the overall Brexit uncertainty and the weak UK economic outlook, which has generated speculation of BoE negative interest rates in 2021, are tapering demand for the pound. From a technical point of view, the pair maintains the near-term positive tone while above 133.70 (Jul. 2 low, intra-day low), with next support levels at 132.95 (Jul. 1 low) and 131.95 (Jun.29 low). On the upside, immediate resistance lies at 134.20 intra-day level, and above there, 134.70 (Jul. 2 high) and 136.30 (Jun. 15 high).   "
19,USD/TRY trades in a suspiciously narrow daily range – Rabobank,"USD/TRY is kept in a suspiciously narrow daily range around 6.85 though today the pair had a trip to 6.90. Economists at Rabobank expect dollar/lira to be capped by the habitual suspects. “Turkey’s inflation accelerated further to 12.6% y/y in June after rising sharply to 11.4% y/y in May from 10.94% in April. The breakdown revealed a broad-based increase in core goods prices. This can be attributed to rising cost-push inflationary pressure driven by the costs of dealing with the Covid19 and a weaker lira.” “The central bank remains confident that inflation will start decelerating again in the second half of the year due to ‘demand-driven disinflationary effects.’ We are not entirely convinced given that banks are providing substantial amount of credit to the economy which may inevitably fuel demand-led pressure.”“USD/TRY seems to be artificially kept in a very narrow daily range by the usual local suspects, who try to prevent it from regaining a strong upside momentum on the back of growing concerns about high inflation, negative interest rates and a sharp widening of the current account deficit to USD -12.8 billion in January-April, up from just USD -0.9 billion last year.”  "
