,title,text
0,EUR/USD: The euro has reasons to rise while the dollar has no upside driver,"The euro has been benefiting from a series of positive news coming out of the old continent and by investors shrugging off concerns about Sino-American relations. Yohay Elam, an analyst at FXStreet, lays out some reasons to favor further gains.Stay up to speed with our last EUR/USD news“German coronavirus cases have risen by only 0.2% and the Reproductive indicator (R) remains depressed at 0.83. Italy recorded its lowest number of deaths since March, while daily mortalities in Spain have completed a week under the 100 mark. All three countries have continued reopening the economies and are moving to reopen borders as well.”“Investors are content with the ECB's bond-buying scheme. François Villeroy de Galhau, a member of the bank's Governing Council, described the latest program as a ‘masterpiece.’ The PEPP stands at €750 billion and many expect the Frankfurt-based institution to expand it next week.”“Fractures are emerging in the ‘Frugal Four.’ Austria, one of the hawkish members of this club, is reportedly open to accepting some grants in the new EU recovery fund. The €500 billion strong program now seems to have higher chances of passing.”“Beijing sees Washington's legislation to limit the listing of Chinese companies in the US as hostile. Investors may see this ‘new cold war’ as mild while both countries continue honoring the trade deal. However, it is essential to note that the mood may change.”“Volatility is set to increase as American traders return from their long weekend. Several housing figures are on the docket, including sales of new homes, yet perhaps the most significant release is the Conference Board's Consumer Confidence measure. It is expected to bounce from April's lows.”“Hopes for a new COVID-19 vaccine downed the greenback. Novavax, an American pharma firm, will start a human trial in Australia, with results due out in July.” "
1,Forex Today: Risk appetite smashes the dollar,"What you need to know on Wednesday, May 27th:Risk-on led the way as investors welcomed news related to economic reopenings and developments around possible COVID-19 vaccines. The greenback fell against all of its major rivals while stocks jumped globally. US indexes reached levels that were last seen in March.Novavax, a US biotech company, announced that it had started human trials of a COVID-19 vaccine, in Australia. Results are expected by July, where the next phase of testing should begin. Right now, there are twelve different vaccines being tested around the globe.The EUR/USD pair flirted with the 1.1000 level but was unable to clear it.  The Pound soared amid rumours indicating progress in Brexit talks. According to the latest headlines, the EU is willing to shift its stance on fisheries when talks resume next week, potentially opening the doors for other concessions between both parts.The USD/JPY pair remained lifeless for a fifth consecutive day as the market ignored safe-haven assets.The AUD and the CAD run to fresh multi-week highs against the greenback, backed by the rally in equities.By the end of the US session, news made the rounds indicating that the US is considering a range of sanctions on China amid Beijing’s pressure on Hong Kong. Earlier in the day, Trump’s advisor Kudlow said that the President is not concerned about the trade deal that’s intact for the moment. He added that Trump’s main concerns are more related to China’s responsibility on the coronavirus spread and Hong Kong.Gold eased and settled at around $1,710.00 price zone amid the better market mood. Crude oil prices edged higher, amid shrinking supply and hopes on economic comebacks.Cryptocurrencies Price Prediction: Bitcoin, Ripple & Monero – American Wrap 26 May"
2,EUR/USD Forecast: Testing the elusive 1.1000 threshold,"The EUR/USD pair flirted with the 1.1000 level this Tuesday, as risk-appetite took over the financial world. News that a US biotech firm is starting human tests of a new COVID-19 vaccine coupled with economic reopenings boosted hopes of economic recoveries. After a long weekend, stocks returned with a vengeance posting substantial gains throughout the different sessions. Mounting optimism also lifted US Treasury yields, with the yield on the benchmark 10-year Treasury note reaching an intraday high of 0.71%.Tensions between the US and China persist but were temporarily set aside. Trump’s advisor Kudlow said that the President is not concerned about the trade deal that’s intact for the moment. He added that Trump’s main concerns are more related to China’s responsibility on the coronavirus spread and Hong Kong.Germany released the June GFK Consumer Confidence Survey, which came in at -18.9 as expected. The US published the Chicago Fed National Activity Index, which came down to -16.74 in April from -4.97 in March. More relevant, the CB Consumer Confidence edged higher to 86.6 in May from 85.7 in April, missing the market’s expectations. The US will release the Richmond Fed Manufacturing Index for May.The EUR/USD pair holds on to its intraday gains but was once again unable to storm through the 1.1000 figure, somehow indicating that bulls are not fully convinced. In the short-term, and according to the 4-hour chart, chances are skewed to the upside, as the pair continued to advance after breaking above its 20 SMA. The Momentum indicator keeps heading north well into positive ground, while the RSI indicator has lost its strength, but stands around 68. The pair would need to break above last week’s high at 1.1008 to become more attractive for bulls and be able to extend its advance.Support levels: 1.0960 1.0925 1.0890  Resistance levels: 1.1010 1.1050 1.1090View Live Chart for the EUR/USD"
3,EUR/USD: A break below 1.0855 sees 1.0870 work as resistance,"EURUSD longs at at 1.0880/70 worked perfectly as we topped exactly at first target of 1.0910/20.USDCAD topped just 3 pips from our selling opportunity at 1.4010/20. EURUSD buy at 1.0880/70 with stops below 1.0855. A break lower sees 1.0870/80 work as resistance targeting 1.0830/20 for profit taking on shorts.Longs at at 1.0880/70 target 1.0910/20 with minor resistance at 1.0930/40 for profit taking. Minor resistance again at 1.0960/65. Sell at the 200 day moving average at 1.1005/15; stops above 1.1035.USDCAD selling opportunity at 1.4010/20 will need stops above Friday's high at 1.4048. A break higher targets 1.4070/80, perhaps as far as important trend line resistance at 1.4120/30.If you try shorts at 1.4010/20 look for 1.3965/55 (hit yesterday), then minor support at 1.3925/15. Buy at 1.3850/40 with stops below 1.3825. Next target is 1.3890/80. Weekly outlook is neutral.Daily outlook is neutral.Short Term outlook is neutral."
4,"EUR/USD Forecast: Seven reasons to favor a rally, and technicals are bullish as well","Shining light at the end of the tunnel? The euro has been benefiting from a series of positive news coming out of the old continent – and by investors shrugging off concerns about Sino-American relations. Here seven reasons to favor further gains, four related to euro strength and three to dollar weakness. Moreover, technicals are also pointing to the upside. 1) Encouraging COVID-19 statistics: German coronavirus cases have risen by only 0.2% and the Reproductive indicator (R) remains depressed at 0.83. That is well below 1, which means every coronavirus carrier infects another person. Italy – the hardest-hit country – recorded its lowest number of deaths since March, while daily mortalities in Spain have completed a week under the 100 mark. 2) European reopening: All three countries have continued reopening the economies and are moving to reopen borders as well. Germany is set to remove travel warnings in mid-June and Spain will lift the requirement for visitors to self-isolate from July 1. The German IFO Business Climate bounced to 79.5 points in May, beating expectations, with some cautious optimism noted by the institute. 3) Optimism about the ECB: Investors are also content with the European Central Bank's bond-buying scheme. François Villeroy de Galhau, a member of the bank's Governing Council, described the latest program as a ""masterpiece."" The Pandemic Emergency Purchase Program (PEPP) stands at €750 billion and many expect the Frankfurt-based institution to expand it next week.While the German constitutional court has frowned upon the ECB's bond-buying scheme, the funds support governments in their efforts to provide relief and accelerate the recovery.4) Optimism about the EU fund: Last and not least, fractures are emerging in the ""Frugal Four."" Austria, one of the hawkish members of this club, is reportedly open to accepting some grants in the new EU recovery fund. Together with the Netherlands, Sweden, and Denmark, these countries opposed the Franco-Gramn plan for granting – not lending – money to the hardest-hit countries. The €500 billion strong program now seems to have higher chances of passing.5) US-Chinese trade deal intact: Traders seem to fade ongoing Sino-American tensions. The world's largest economies remain at loggerheads over China's move to tighten its grip on Hong Kong. Beijing sees Washington's legislation to limit the listing of Chinese companies in the US – as well as curbs on Huawei – as hostile. Investors may see this ""new cold war"" as mild while both countries continue honoring the trade deal. However, it is essential to note that the mood may change.6) US data to improve?: Volatility is set to increase as American traders return from their long weekend. Several housing figures are on the docket, including sales of new homes, yet perhaps the most significant release is the Conference Board's Consumer Confidence measure. It is expected to bounce from April's lows.See: CB Consumer Confidence Preview: Can that be the turn? Behind us?7) Vaccine hopes: The safe-haven greenback is also downed by hopes for a new COVID-19 vaccine. Novavax, an Ameican pharma firm, will start a human trial in Australia, with results due out in July. It is following the footsteps of Moderna, which announced progress, yet enthusiasm fizzled when scientists were frustrated by the lack of details. Will this happen with Novavax as well? All in all, the euro has reasons to rise while the dollar has no upside driver, yet things may always change.Euro/dollar has bounced off the critical support line at 1.0870 discussed on Monday and has also recaptured the 50 Simple Moving Average on the four-hour chart, a bullish sign. While momentum is still to the downside, the success in rising above the uptrend support line provides a tailwind for the common currency. Some resistance awaits at the daily high of 1.0940, which was also a swing high on in early May. It is followed by 1.0970, a swing high from last week, and then by 1.10, a psychologically significant figure.Support is at 1.0895, a swing high from mid-May, followed by 1.0870 mentioned earlier and then by 1.0820 and 1.0780. See: Negative Rates: Only good for downing currencies?"
5,EUR/USD: Retreat back to 1.0890 – Could it be another opportunity for the bulls? [Video],"Amidst recent corrective slip again, the pair has been neutralised once more. Selling pressure into the weekend, which formed two decisive negative candles and swung the market to retreat back to the $1.0890 mid-range pivot area. Whilst this will come as a disappointment for the bull position who would had been eying the resistance around $1.1000/$1.1015, could it also be another opportunity? With the market looking to settle and the bulls re-gather themselves today, we see the pair holding above mid-range support. The bulls are restricting the swing back lower towards the bottom of the range which has been a feature of previous weeks. Momentum indicators are beginning to look more positively skewed too. There is now a position where RSI resides above 50, whilst MACD lines are still rising around seven week highs and close to moving above neutral. If Stochastics hold above 50 this would also be an encouraging sign. We view the pivot at $1.0890 as still an important gauge. The bulls will have been disappointed with how last week went, but  the hourly chart shows a basing process is forming once more and indicators are improving and the pivot is growing as support again. Above initial resistance at $1.0960 would open $1.1000/$1.1015 again and is a move that we favour. Below $1.0870 would neutralise once more.  Risk Warning for Financial PromotionsHantec Markets' various market reports and commentary are issued by Hantec Markets Limited, who is authorised and regulated by the Financial Conduct Authority (FCA) in the UK, No. 502635. The reports are prepared and distributed for information purposes only.Trading in Foreign Exchange (FX), Bullion and Contracts for Differences (CFDs) is not be suitable for all investors due to the high risk nature of these products. Forex, Bullion and CFDs are leveraged products that can result in losses greater than your initial deposit. The value of an FX, Bullion or CFD position may be affected by a variety of factors, including but not limited to, price volatility, market volume, foreign exchange rates and liquidity. You may lose your entire initial stake and you may be required to make additional payments. Please ensure you fully understand the risks involved, seeking independent advice if necessary prior to entering into such transactions. Before deciding to enter into FX, Bullion and/or CFD trading, you should carefully consider your investment objectives, level of experience, and risk appetite. You should only invest in FX, Bullion and/or CFD trading with funds you are prepared to lose entirely. Therefore, only your excess funds should be placed at risk and anyone who does not have such excess funds should completely refrain from engaging in FX and/or CFD trading. Do not rely on past performance figures. If you are in any doubt, please seek further independent advice.The reports do not constitute personal investment advice, nor do they take into account the individual financial circumstances or objectives of the clients who receive it. All information and research produced by Hantec Markets is intended to be general in nature; it does not constitute a recommendation or offer for the purchase or sale of any financial instrument, nor should it be construed as such. All of the views or suggestions within the reports are those solely and exclusively of the authors, and accurately reflect their personal views about any and all of the subject instruments and are presented to the best of the authors' knowledge. Any person relying on these reports to undertake trading does so entirely at his/her own risk and Hantec Markets does not accept any liability.© 2014 Hantec Markets Limited"
6,EUR/USD attacks 1.10 again," The EURUSD pair spiked toward the 1.10 resistance again and was seen 0.7% stronger during the US session as the greenback came under broad selling pressure.Traders paid attention to some US macro data. The US consumer confidence in May rose to 86.6 vs. 85.7 in the prior month, according to The Conference Board, with ""expectations"" rising as the current situation worsens. Present situation confidence fell to 71.1 vs. 73.0 last month. Consumer confidence expectations rose to 96.9 vs. 94.3 last month.Moreover, the US new home sales were expected to decline 23.4% on a monthly basis, but instead, new home sales rose 0.6% month-on-month (following an upwardly revised 13.7% drop in March).The greenback remained lower against most of the major peers, with the EURUSD pair jumping toward the 1.10 barrier again, the Cable was seen 1.5% stronger near 1.2350, and commodity-linked currencies staged an impressive rally as well. Positive sentiment in the US stock markets could reflect negatively on the US dollar as the safe-haven demand might be easing. If the pair finally breaches the 1.1020 resistance, we could see a notable rally toward 1.1150. This behavior would be welcome as the pair has been stuck in 150 pips for the previous weeks, while volatility continues in other financial markets."
7,EUR/USD Forecast: On its way to re-test bears’ determination,"The EUR/USD pair advanced to 1.0979 on the back of risk appetite, as speculative interest turned its back to US-China tensions and focused on the possibility of future recoveries. Most European countries continue to ease lockdown measures as well as several US states. Economies are slowly going back towards some form of normality, which underpins hopes of economic recoveries. Meanwhile, another biotech company announced it will start testing a COVID-19 vaccine in humans. There are over ten different vaccines in different stages of testing around the world boosting expectations.Germany released the June GFK Consumer Confidence Survey, which came in at -18.9 as expected. The US published the Chicago Fed National Activity Index, which came down to -16.74 in April from -4.97 in March. After Wall Street’s opening, the market will focus on the CB Consumer Confidence foreseen at 87.1 from 86.9 previously.The EUR/USD pair is trading near the mentioned daily high, bullish in the short-term. The 4-hour chart shows that it has broken above its 20 SMA with a large candle, which usually reflects high volume. Technical indicators, in the meantime, maintain their bullish slopes within positive levels. The pair has topped at 1.1008 last week and would need to clear that high to extend its gains throughout the following sessions.Support levels: 1.0925 1.0890 1.0840Resistance levels: 1.1010 1.1050 1.1090View Live Chart for the EUR/USD"
8,US dollar tumbles as global optimism rises,"The US dollar declined sharply today as the market turned optimistic that the global economy is recovering. The US dollar rose sharply at the height of the pandemic in March. Now, as countries reopen, more investors are moving back to local currencies. The dollar index, which measures the strength of the USD against a basket of currencies, declined by more than 0.40%. The best-performing currency in the index was the British pound, which rose by more than 1.2%. The Japanese yen was unchanged even as the government ended the state of emergency. The US dollar also reacted to news of new vaccines that are being developed by Merck. Later today, it is likely to be impacted by the consumer confidence data and new home sales data.The British pound rose sharply after an official at the Bank of England (BoE) said that they were not close to implementing negative interest rates. In a statement, Andy Haldane, the bank’s chief economist said that the bank was reviewing negative rates “as a matter of principle.” The statement echoed what Governor Andrew Bailey said last week in his virtual testimony to parliament. He said that the bank was considering all options. At the same time, analysts polled by Bloomberg said that they expect the bank to leave rates unchanged and add quantitative easing in the June meeting. Global stocks rose today as the market remained optimistic about countries opening up. They are optimistic about government stimulus packages and the reassurances by China about its bill regarding Hong Kong. In a statement yesterday, Chinese and Hong Kong officials said that the decision by China will bring more peace and stability to Hong Kong. That news led to a 2% gain of the Hang Seng index. In the United States, futures tied to the Dow Jones and the S&P500 rose by 2% and 1.82% respectively. In Europe, the DAX index, FTSE 100, and CAC rose by almost one per cent. The EUR/USD pair rose to an intraday high of 1.0973 ahead of the EU commission meeting that will happen tomorrow. On the four-hour chart, the price is above the 50-day and 100-day exponential moving averages while the RSI is slightly below the overbought level of 70. It is also a few pips above the 38.2% Fibonacci retracement. The pair may continue rising as bulls attempt to retest the resistance level of 1.1017. The GBP/USD pair rose to an intraday high of 1.2340, which is slightly above the 50% Fibonacci retracement level. The price is slightly above the 50-day and 100-day exponential moving average. It is also above the yellow descending trendline and the Ichimoku cloud. While the upward trend may continue, the pound will be relatively volatile in the next few weeks as the market refocuses on Brexit. The DAX index soared today in reaction to the $9.8 billion bailout of Lufthansa by the German government. The index is trading at its highest level since March 6. On the four-hour chart, it is above the 100-day and 50-day exponential moving averages and above the 50% Fibonacci retracement level. It is also a few points below the 61.8% Fibonacci. Therefore, the index may remain in an upward trend as bulls stay in control. General Risk Warning for FX & CFD Trading. FX & CFDs are leveraged products. Trading in FX & CFDs related to foreign exchange, commodities, financial indices and other underlying variables, carry a high level of risk and can result in the loss of all of your investment. As such, FX & CFDs may not be appropriate for all investors. You should not invest money that you cannot afford to lose. Before deciding to trade, you should become aware of all the risks associated with FX & CFD trading, and seek advice from an independent and suitably licensed financial advisor. Under no circumstances shall we have any liability to any person or entity for (a) any loss or damage in whole or part caused by, resulting from, or relating to any transactions related to FX or CFDs or (b) any direct, indirect, special, consequential or incidental damages whatsoever."
9,GBP/USD: Momentum has turned positive,"GBP/USD Tuesday's four-hour chart is showing momentum has turned positive, as FXStreet’s analyst Yohay Elam notes.FX Strategists at UOB Group also sees an uptick in momentum but the cable remains side-lined“Momentum on the four-hour chart has turned positive and cable has climbed above the 50 Simple Moving Average. It is now approaching 100 SMA.” “Resistance awaits at 1.23, a high point last week. Further up, 1.2340 and 1.2380 were stepping stones on the way down.”“Some support awaits at 1.2250, a former double-bottom, and the next level to watch is 1.2210, a swing high on Friday.” "
10,Poland: Central bank likely to keep rates stable,"Second monthly QE operation scheduled for this week. MPC holds rate-setting meeting and stability of rates is most likely scenario, despite weaker than expected real economy data for April. 1Q20 GDP growth to be confirmed at 1.9% y/y. According to preliminary estimates from the Ministry of Family, Labor and Social Policy, the unemployment rate increased to 5.7% in April in the aftermath of the pandemic. The unemployment figure will complement last week's releases in pointing to a worsening situation on the labor market.The central bank will hold its second QE auction in May. The NBP has so far bought PLN 71bn (3.2% of GDP) in Treasuries and state-guaranteed papers.Despite the negative surprise from April's real economy data, we think that the central bank will keep rates stable. The massive contraction of industrial production and retail sales was due to the full-month closure of the economy. With a gradual easing of restrictions since early May, economic activity should begin to recover. Additional rate cuts could be considered in 2H20. However, the space for further easing is limited, as we do not expect the NBP to post negative interest rates.We expect the flash reading to be confirmed at 1.9% y/y. Investments and private consumption most likely contributed positively to the overall figure, but the growth dynamics were lower than those observed in previous quarters. The net export contribution could also remain positive, given strong performance in the January-February period.The effect of low oil prices will continue to weigh on the inflation figure, as we see it dropping to 2.9% y/y (-0.3% m/m) in May. We revised our FY20 inflation forecast down to 3.1%. Industrial output and retail sales contracted in April.Wage growth eased visibly in April to 1.9% y/y, while employment decreased by -2.1% y/y.BGK sold PLN 8.9bn of 7Y bond, while PFR issued 5Y bond in amount of PLN 15.2bn. Over the course of the week, the 10Y yield increased to above 1.4% from last week's low of below 1.3%. With decreasing 10Y German yields, the spread widened to 190bp, which is, in our view, a justifiable level. Local factors were not in play last week, as massive contraction of industrial output did not move the 10Y yield in any direction. Over the course of the week, the BGK and PFR issued state-guaranteed bonds worth a total of almost PLN 25bn. This week, the central bank will be in focus, with another QE operation and rate-setting meeting. Stability of rates is the most likely scenario and April's weaker real economy data should not influence the MPC. The MPC is likely to observe the recovery path from May onwards before taking any decision.Over the course of the week, the zloty benefited from global risk-on mood, followed other EMEA currencies and appreciated. The EURPLN was stronger in the direction of 4.50, despite weaker than expected real economy data. This week, the zloty might focus on local macro releases and the central bank meeting. In the event of further monetary easing, the zloty may depreciate and return to above 4.55 vs. the EUR. As far as global factors are concerned, the EURUSD is unlikely to get any direction from macro releases, as the indicators are generally second-tier. Therefore, the main determinant for the EURUSD should be the market's risk-on/off mode. Download The Full Weekly Focus Poland"
11,EUR/JPY gathers bullish momentum; needs to clear 118.65 [Video],"EURJPY refused to return to the 117.00 area, reversing up instead to recoup the lost ground from the 118.50 peak on Tuesday.Technically, the short-term risk is currently looking positive as the price is trading above its 20- and 50-day simple moving averages (SMAs), while in momentum indicators, the RSI and the MACD are encouraging too as the former is comfortably hovering above its 50 neutral and the latter is gaining strength above its zero and signal lines.Yet, for a meaningful bullish correction the pair needs to stretch above its previous high of 118.50, and particularly close decisively above the 50% Fibonacci of the 122.86-114.42 down leg and the upper surface of the Ichimoku cloud around 118.65. If so, the market could continue to improve until the 61.8% Fibonacci of 119.63, where another winning battle may boost buying forces towards the March high of 121.13.Alternatively, if the price dives below 117.00, the area around 116.40 – where the 20-day SMA, the 23.6% Fibonacci and the blue Kijun-sen line are currently converging – could act as immediate support to stop the sell-off from testing the 115.40 barrier. If the bears persist, the door would open for the 3 ½-year low of 114.42Meanwhile in the medium-term picture, the bearish trend is fading as the price is pushing efforts to make higher highs above 117.75. Another peak above 118.50 would confirm a neutral outlook.Summarizing, EURJPY is expected to trade bullish in the short-term, though only a rally above 118.65 may prove game changing."
12,"Gold Price Analysis: XAU/USD bears pause around two-week low above $1,700","Gold consolidates losses near the lowest since May 13 while taking rounds to $1,711/12 amid the early Asian session on Wednesday. The bullion dropped heavily the previous day as global markets shun safe-haven demand amid broad risk-on sentiment. Though the latest challenges to the US-China the US-Russia relations seem to probe the bears.Having initially stepped back from attacking China’s move to grab powers in Hong Kong, US President Donald Trump cited sanctions on the Asian major coming by the end of the week. Also questioning the earlier optimism could be the statement from the US Navy suggesting that two Russian Su-35 jets ""unsafely"" intercepted a US Navy P-8 patrol aircraft.Following the fresh news, S&P 500 futures parted ways from its benchmark on Wall Street by declining 0.10% to 2,991.It’s worth mentioning that the bullion’s drop on Tuesday took clues from increasing calls of the major economic restart while also appreciating the global efforts to find a cure to the coronavirus (COVID-19).Although the recent headlines have stopped the yellow metal sellers, for now, buyers are still waiting for a firm direction to benefit from the risk-off sentiment. As a result, the headlines concerning the US relations with China and Russia, as well as any major news concerning Hong Kong, could gain market attention amid a light calendar in Asia.A sustained break of the monthly support line, now resistance, keeps sellers hopeful of revisiting April 30 low near $1,670. Though, an upside clearance of $1,724 support-turned-resistance could question the short-term resistance line, stretched from May 18, around $1,730.  "
13,"USD/CAD breaks critical monthly support, eyes on geopolitics","Following a risk on start in Asia, with the Nikkei 225 closing higher by 2.55% at 21,271.17, US futures were 2% higher and the US transpired into a positive day for risk sentiment. The S&P index opened above 3000 and above its 200-day moving average.There are glimmers of hope on a new vaccine trial for COVID-19, positive Brexit developments and a general theme of nations emerging from their COVID-19 lockdown cocoons giving a new lease of life to the global economy. For those reasons, we are seeing the US dollar losing around 0.8% on the day which in turn is lifting all boats in the FX space, including the commodity complex. Copper is up 0.6% at the time of writing and the CRB index has climbed 1.2%. WTI is also positive for the day. All of which is supportive of the CAD. Overall, specifically for CAD, WTI is now at a more sustainable level and has already provided some support. This is all well and good, for now. The geopolitics between the world and China isn't favourable for the commodity complex.Nor would be any further delays n a vaccine or a spike in new COVID-19 cases as a consequence of governments trying to get their nations back to work and their economies stabilised. Still, there could be some further upside potential, so long as March Gross Domestic Product data coming out at the end of this week doesn't disappoint too much. What matters the most for CAD, is whether any of will would set-off a material correction in oil prices. ""The global oil market is on the cusp of rebalancing. Indeed, our modelling argues that a gradual recovery in demand, combined with OPEC+ and market-driven cuts will lead to deficits as early as June,"" analysts at TD Securities explained, adding: In this context, reports that China's teapots have strengthened their appetite for imported crude lend strength to our view that commodity demand continues to firm amid a global reopening, which is a key contribution to the expected Great Rebalancing.On the whole, the CAD seems to be in a less precarious piston than the antipodeans given their closer proximity to China. USD net longs edged higher last week for a ninth consecutive week following the mid-March dip.The geopolitical tensions have spurred up the demand for US dollars which should be noted, especially in the face of the Federal Reserve and a coordinated effort during the crisis by other central banks measures aimed at helping USD liquidity. The fact that the dollar has remained strong and how gold was able to climb to monthly highs at the same time is telling. A flare-up in global trade wars or stronger rhetoric in the war of words between the US and China would be enough to set up another flight to safety and commodity-FX would be the first to unwind.USD longs are still well below their late February highs, so there is plenty of upside in the USD at this juncture should war themes hit the fan. CAD breaks a key long term support below the 1.38 handle.  
 "
14,Gold Price Analysis: 4-hour bull flag pattern is holding as the price moves lower toward $1700,"Gold has pulled back on Tuesday as the risk theme turns positive and equities rise. The US dollar has weakened significantly over the session but this has not helped the yellow metal recover from trading near session lows of USD 1708.80 per troy ounce. Looking at the chart patterns in black you can see the bull flag pattern is still intact. As the price is at the lower end of the pattern any breach would invalidate the structure and surely mean the prices could be heading lower. The blue internal trendline has already been taken out but the losses seem to have been stemmed by the 200 simple moving average (SMA). Looking closer at the technical indicators, the MACD signal lines have crossed over to the downside below the zero mid-line. This is considered bearish in the medium term and could indicate a bigger correction is in the making. This theory is also backed up by the Relative Strength Index indicator as it is heavily in a bearish position, although there is some more room to move to the downside. In terms of support zones. the 38.2% Fibonacci support at USD 1645.00 per troy ounce look firm as it has another support level close by. Bear in mind that if the price does move that low the bull flag would be obsolete and the 200 SMA would be broken.    "
15,FX traders bet on reopenings & vaccine,"The race for a COVID-19 vaccine is in high gear and as more companies leap into the effort, the rally in currencies and equities reflect the market’s hope for a medical solution to the worst economic and social crisis in modern history. It decimated the economy and claimed the lives of more than 350,000 people but with curves peaking and countries reopening, many investors hope that the worst is behind us. The risk of a second wave is serious but it may be some time before that becomes a major concern. Investor sentiment became so depressed at the onset of the virus that we’re seeing fierce rallies on good news. Novavax started its first human study, which follows last week’s positive reports from Moderna. Merck also joined the race with plans to start clinical trials this year. While many experts say that a vaccine is still 12 months away, the progress towards a medical solution to the pandemic is enough to bolster investor sentiment.The improvement in risk appetite drove investors out of the US dollar into other major currencies. US data was actually better than expected with new home sales turning positive and consumer confidence improving. Economists expected new home sales to fall at a faster pace in April, dropping -23% but instead sales rose by 0.6% which is a sign that lower interest rates provided the housing market with much needed support. Consumer confidence rebounded slightly less than anticipated but the uptick was enough to stem the slide in USD/JPY. The Federal Reserve’s Beige Book report is scheduled for release later this afternoon.The New Zealand and Australian dollars were the best performers with NZD leading the gains. NZD is normally more sensitive than other currencies to risk appetite but stronger than expected trade data provided further justification for its gains. A$ rallied even though tensions between China and Australia continue to grow with China’s Commerce Minister confirming that the 80% tariff on Australian barley is tied to Canberra’s trade investigations. He said ""Since the establishment of diplomatic relations between China and Australia [in 1972], China has only launched [one] trade remedy investigation against Australia, which is the anti-dumping and anti-subsidy case against Australian barley. During the same period, Australia initiated 100 trade remedy investigations against China."" Thanks to the ongoing recovery in oil, the Canadian dollar rose to its strongest level in 2 months. There are no Canadian economic reports scheduled for release until the end of the week so the main focus will be on comments from the Bank of Canada. Governor Poloz and Deputy Governor Wilkins speak later this afternoon before the Senate Standing Committee.Despite talk of more stimulus from the central bank, EUR/USD headed back towards 1.10. ECB member Villeroy described the central bank’s Pandemic Emergency Purchase Program as a “masterpiece” and said they “will very probably need to go even further.” There’s also talk that the central bank could continue to buy bonds without the participation of the Bundesbank. Data was better with German business confidence and GfK consumer confidence index improving in May. The IFO business climate index climbed to 79.5 from 74.2 which was slightly better than expected. The current assessment actually declined but expectations rose more than expected. Sterling also traded sharply higher but the magnitude of its recovery is more surprising since the underlying economy is weaker and Brexit talks are going nowhere. Nonetheless, improvements in the CBI distributive trades survey and slightly upbeat comments from Bank of England Chief Economist Haldane supported the currency. He said the outcomes are a shade better than their scenario but that’s about where his optimism ended. Haldane still sees a 20% contraction in Q2 with fewer stabilization in jobs. In fact he doesn’t think the labor market will return to pre-COVID levels until 2023. The BoE is still reviewing evidence of the effectiveness of negative rates though he said, to be clear, reviewing and doing are separate things. Past performance is not indicative of future results.  Trading forex carries a high level of risk, and may not be suitable for all investors. The high degree of leverage can work against you as well as for you. Before deciding to trade any such leveraged products you should carefully consider your investment objectives, level of experience, and risk appetite. The possibility exists that you could sustain a loss of some or all of your initial investment and therefore you should not invest money that you cannot afford to lose. You should be aware of all the risks associated with trading on margin, and seek advice from an independent financial advisor if you have any doubts."
16,Gold: Selling pressure in a month – OCBC,"Howie Lee, an economist at OCBC, points out the $1750/oz as a major resistance for the yellow metal and expects some weakness in one month. Credit Suisse sees the leg extending towards the $1800/oz level.You can't miss the last forecast by Valeria Bednarik“We see resistance for gold at $1750/oz given current inputs of interest rates and dollar strength.”“We maintain the view that prices may stay elevated through Q2 but could see selling pressure towards the end of the quarter – about a month from now.” "
17,USD/ZAR: Long position closed as the rand is well-supported – TDS,"On 21 May, strategists at TD Securities opened a long USD/ZAR position at 17.92, which has now been stopped at a 2.6% loss.  “While the rand is trading on the brink of USD/ZAR oversold levels from an RSI point of view, the rand continues to receive strong support from the market.”“We close the trade at 17.45 with a loss of 2.6% or $26k on a notional of $1 million. Given the ca. 29bps/ month of negative carry the position has generated, carry adjusted P&L stands at -2.67% or -$26.7k.”“We will not be looking to re-enter the position anytime soon despite our bearish rand forecast for this year, unless market conditions swiftly change in a more bearish direction.” "
18,EUR/NOK: Underlying capital flows and a recovery in energy prices to strengthen the krone – Danske Bank,"The economic backdrop due to the COVID-19 crisis and energy price collapse has entailed a steep fiscal stimulus impulse. Analysts at Danske Bank expect a continued strengthening of the NOK, with the EUR/NOK pair at 10.30 in 12 months.In contrast, TD Securities’ analysts believe a test of 11.10 could be a-going“Analysis by the NB has indicated a skepticism towards negative rates and a preference for liquidity/credit measures supplementing the large fiscal muscle whenever rates have been cut to the zero lower bound.”“The extensive fiscal spending (almost NOK250bn) is funded via the oil fund, which entails a direct 1:1 buying of NOK and selling of FX. This turns the underlying capital flows in favour of the NOK, which, along with a stabilisation in physical energy demand as economies gradually reopen, leads us to expect a continued strengthening of the NOK.”“We forecast EUR/NOK at 10.90 in 1M, 10.80 in 3M, 10.50 in 6M, and 10.30 in 12M.” "
19,Mark Stock Price: Remark holding inc set to complete 400% rise in May as coronavirus triggers demand,"Remark Holdings Inc. used to be a penny stock just at the beginning of May. However, the Las-Vegas-based company has nearly quintupled in value during the month. It has been ""buy in May and stay"" for the firm – not ""sell in May and go away"" as the adage goes. Shares closed at $2.26 on Friday, before the long Memorial Day Weekend, and are now changing hands at around $2.87 in pre-market. S&P Futures are projected to open higher, potentially surpassing the 3,000 marks, not too far from the all-time highs. Hopes for a vaccine, from Merck, Novavax, and Moderna are all boosting sentiment. While the US and China have been intensifying their war of words, the world's largest economies have vowed to hold up the trade deal.Remark, which trades as NASDAQ:MARK, makes thermal imaging devices that are used to scan people's temperatures on the go. The company's tech has been recently featured on MSNBC. A report about reopening American showed how people entering a convention center are seamlessly scanned to see if their temperature is beyond a certain threshold. Successful deployment would enable a safer return to normal and potentially yo new orders from the firm founded back in 2006. Remark Holdings Inc. publishes earnings for the first quarter on May 28, this Thursday, and is set to further fluctuate throughout the week.  "
