,title,text
0,When is the German ZEW survey and how could it affect EUR/USD?,"The ZEW will release its German Economic Sentiment Index and the Current Situation Index – reflecting institutional investors’ opinions for the next six months – during the early European session this Tuesday. The headline Economic Sentiment Index is expected to rebound to -13 in November from -22.8 reading booked in the previous month. Meanwhile, the Current Situation Sub-Index is also expected to bounce from -25.3 in October to -22 for the reported month.
 
As Danske Bank analysts point out: “In Continental Europe, the ZEW indicator for November will be released. Last month the expectations - current conditions spread turned positive again for the first time since May, boding well for a further stabilisation in PMI manufacturing. A further improvement today will strengthen this signal.”Yohay Elam, FXStreet's analyst offered important technical levels to trade the EUR/USD pair: “The Technical Confluences Indicator is showing that EUR/USD is facing fierce resistance at 1.1072. If the world's most popular currency pair breaks higher, the next level to watch is 1.1118, which is the confluence of the SMA 100-4h and the Fibonacci 61.8% one-week.”
 
“Support awaits at 1.0997. Further down, 1.0969 is where the PP one-day S3 and the PP one-week S1 converge,” he added further.   •  EUR/USD forecast: Bears await a sustained break below 1.10 handle, German ZEW eyed
 
   •  EUR/USD struggles below 50-DMA ahead of German ZEW, Trump
 
   •  EUR/USD Forecast: Holding above 1.1000 but at risk of falling furtherThe Economic Sentiment published by the Zentrum für Europäische Wirtschaftsforschung measures the institutional investor sentiment, reflecting the difference between the share of investors that are optimistic and the share of analysts that are pessimistic. Generally speaking, an optimistic view is considered as positive (or bullish) for the EUR, whereas a pessimistic view is considered as negative (or bearish)."
1,"EUR/USD Forecast: Dual trade worries may end dead-cat bounce, outlook bearish","Even a dead cat bounces when it hits the floor – this pattern has been dominating EUR/USD trading in recent days – but the floor may open up. The US is set to postpone slapping tariffs on European cars for another six months. President Donald Trump is set to sign off on the delay this week, according to reports. New levies – which would hit German carmakers – are not priced in by investors. Outgoing European Commission President Jean-Claude Juncker recently said it would not happen.In case the mercurial US president defies expectations and announces duties, the common currency has room to fall.Trump will deliver a speech at the New York Economic Club later today with traders wanting to hear his take on US-Sino trade talks after he recently denied that rolling back tariffs is on the cards. The president may also provide further details about his economic plans, one year ahead of the elections. Markets may cheer optimism about striking a deal and fall if he remains skeptical. How will EUR/USD react? On the one hand, the dollar benefits from safe-haven flows – and may advance in response to a pessimistic tone. On the other hand, a trade deal lowers the chances of the Fed cutting rates anytime soon. In any case, euro/dollar volatility is set to rise as France and the US return from bank holidays on Monday. Apart from Trump's speech, markets are awaiting testimony from Jerome Powell, Chairman of the Federal Reserve, due on Wednesday. Ahead of the event, Vice-Chair Richard Clarida will speak today. Eric Rosengren, the Boston Fed President, supported the bank's wait-and-see approach in a speech on Monday.In Germany, the ZEW Economic Sentiment survey is set to show higher confidence – but still in negative territory, reflecting pessimism.Overall, Trump is set to top the agenda for euro/dollar traders today.Euro/dollar continues suffering from downside momentum on the four-hour chart and trades below the 50, 100, and 200 Simple Moving Averages. Moreover, the Relative Strength Index has risen above 30 – exiting oversold conditions and opening the door to further falls.Support awaits at 1.1015, which was the low point on Friday. It is followed by the round number of 1.10 – a former quadruple top. The swing lows of 1.0940 and 1.0905 are next. Resistance awaits at 1.1055, which has been separating ranges in November. Next, 1.1090 capped EUR/USD twice last week. 1.1110 worked twice as support and is closely followed by 1.1130, another cushion when the pair traded on higher ground. See US recession fears retreat as markets, jobs rally"
2,US CPI Preview: Inflation remains secondary to Fed policy,"The Bureau of Labor Statistics will release its consumer price index (CPI) for October on Wednesday November 13th at 1:30 GMT, 8:30 EST.The consumer price index is predicted to rise 0.3% in October after being unchanged in September. Annual inflation is expected to increase 1.7% last month as in September. Core inflation is projected to increase 0.2% in October and 2.4% on the year as in September.Ove the past three years US inflation has been largely without trend.From January 2017 through September 2019 core annual CPI has averaged 2.039% with a range of 1.7% to 2.4%.  In January 2017 the rate was 2.3% in September 2019 2.4%.Core CPIFXStreetOverall CPI has averaged 2.133% in those 33 months with a range of 0.8% to 2.9%. In January 2017 the rate was 2.5% in September 2019 it was 1.7%.The personal consumption expenditure price index (PCE) has averaged 1.785% since January 2017, with a range from 1.3% to 2.5%. In January 2017 it was 2.0%, in September 2019 1.3%.The core PCE price index, the Federal Reserve’s chosen measure, has averaged 1.752% with a range of 1.4% to 2.2%.  In January 2017 the core PCE rate was 1.9% in September it was 1.7%.Core PCE FXStreetOver the 33 month period from January 2017 to this September the variation in the annual core inflation rates has been negligible. In the older gauge it was 2.3% in the beginning of 2017 and 2.4% in September 2019. For the Fed’s preferred gauge the change was just 0.2% from 1.9% to 1.7%.Consumer price inflation in the United States over the past few years has received much attention and little action from the Federal Reserve.Inflation is mentioned in each FOMC statement, usually in the context of returning to the symmetric 2% target sometime in the future. This quote from the October 30th meeting could stand in for almost any FOMC statement in the last three years.  “This action supports the Committee’s view that sustained expansion of economic activity, strong labor market conditions, and inflation near the Committee’s symmetric 2 percent objective are the most likely outcomes, but uncertainties about this outlook remain.”Throughout the last decade the Fed’s overriding concern has been economic growth. Under Chairman Jerome Powell that has become more specific, defending the economic expansion and its labor market benefits against external threats.The logic behind lopping 0.75% from the fed funds rate this year was to take out an “insurance policy’ against the trade and global growth problems that might derail US growth.  The domestic economic conditions that in the past had triggered a central bank supporting cycle were absent.  This was acknowledged by the Fed as its justification shifted to its maximum sustainable employment mandate from price stability.Inflation’s role in Fed policy has been a poor rhetorical cousin, paraded on the stage but never given a speaking part. Interest rate policy, whether in the long period of zero from late 2008 through the end of 2015, in the ascent to 2.5% or from December 2018 until now has proceeded regardless of the level of inflation.ReutersThere is little doubt that had inflation moved higher, as many in the economic community had expected after the various rounds of QE, the Fed’s hard choice between promoting the recovery and reining inflation would have come down on the side of economic growth.  It has been fortunate, and a modest surprise, that inflation has remained quiescent for a decade.  The pressures on Fed policy would have been considerably more difficult had prices moved noticeably higher.With the Fed on hold through at least the end of the year, inflation’s impact on policy is remains minimal.  "
3,Can Gold find support at 1440/50 area? - Elliott Wave Video Analysis [Video],"Good morning traders,Gold is turning down this week as USD/CNH declines and stocks rises. But what we see is some interesting developments on stocks and 10 year US notes which may actually suggest that bears on gold can stop at 1440/50 area. Of course next week will be very important, but it can be interesting for possible trades if gold suddenly finds a support and recovers in five waves.For more info about my view please check the video below.Trade well,The EW-Forecast team    You can subscribe to our webpage at EW-Forecast for more unique, and daily content. We also have a special HALLOWEEN offer for FX services and for Crypto services.. Check it out, its 50% OFF on Monthly and 3 Monthly package.By using www.ew-forecast.com website, any services, products, and content contained here, you agree that use of our service is entirely at your own risk. You understand that there is a very high degree of risk involved in trading on the markets. We assume no responsibility or liability for your trading and investment results. The charts, and all articles published on www.ew-forecast.com are provided for informational and educational purposes only!

By using the information and services of www.ew-forecast.com you assume full responsibility for any and all gains and losses, financial, emotional or otherwise, experienced, suffered or incurred by you."
4,US Dollar rises sharply in Latam; Chilean peso drops to record lows,"The US Dollar is up significantly against Latin American currencies on Tuesday, with the Chilean peso leading losses and trading at record low levels. The USD/CLP reached earlier today 800 for the first time, before pulling back to 782.00. Equity prices in Chile fell to the lowest levels in more than two years as protests in the streets continue. The greenback rose today more than 3% in Chile and is up by more than 10% over the last thirty days. In Colombia, it gains today 1.60%, with the USD/COP trading at 3,390  the highest in a week. Global financial markets show low volatility on Tuesday as traders now await a speech from US President Trump Economic Club of New York. The outlook in Latin America worsened over the last hours following the resignation under pressure from riots in the streets and the military on Sunday of Evo Morales. There appears to be no bright spot in the region. Weeks ago, Peruvian President closed the Parliament; in Argentina the economic crisis intensified after Peronist Fernández won the presidential elections; Venezuela remains in economic chaos and in Brazil, former President Lula was released from prison creating a more complex political environment.  The USD/MXM is rising on Tuesday, trading slightly below 19.20 and close to the upper limit of the current consolidation range that has been in place since mid-October. The critical support of the range is the 19.00 zone. The Mexican peso remains steady in the mentioned area, unaffected so far from the Latin American crisis and ahead of the Bank of Mexico meeting on Thursday.   "
5,"Patterns: GBP/CAD, GBP/AUD","The Pound Sterling has appreciated about 1.69% in value against the Canadian Dollar since October 29.Technical indicators flash buy signals on the 4(H) time-frame chart. Therefore, the GBP/CAD exchange rate will most likely continue to edge up within this week's trading sessions.Bullish traders could aim for the upper boundary of an ascending channel pattern at 1.7362 in the shorter term.However, the weekly R3 at 1.7152 could provide resistance for the currency exchange rate during the following trading sessions. The British Pound bounced off the 200– period simple moving average against the Australian Dollar on November 7. As a result, the currency pair has appreciated about 1.38% in value.By and large, the 200– period SMA will most likely continue to guide the exchange rate higher within this week's trading sessions. The potential target will be at the upper boundary of an ascending channel pattern at 1.9222.If the resistance level, formed by the upper border of the ascending channel pattern holds, a downside reversal could occur during the following trading sessions."
6,Fed's Harker: Fed should hold rates steady and see how economy evolves,"Philadelphia Federal Reserve Bank President Patrick Harker on Tuesday argued that the Fed should hold rates steady and how the economy evolves and noted that he was against the October rate cut, as reported by Reuters.""We may be at full employment but we really don’t know,"" Harker said. ""If we lower rates at this point, we won’t get the response we think because cost of capital is not holding businesses back.""These comments were largely ignored by the market participants and the US Dollar Index was last up 0.1% on a daily basis at 98.32."
7,Gold technical analysis: Support is holding ahead of the Trump speech,"As the Fed paused on interest rate cuts and the US and China seem to be getting on better in regards to trade. Gold has taken a hit since September.The triangle on the daily chart broke lower recently and there are a few scenarios that would play out.It is very common for an asset to retest the pattern once it is broken. This would take a bout of risk-off sentiment but this doesn't seem likely right now.The other is for the price to break lower and test the next distribution between USD 1380 - 1430 per ounce.The speech today in New York by Donald Trump could inspire such volatility. Unfortunately, this does make today's price action a binary event.  "
8,Dow Jones News: near record highs ahead of Trump’s speech,"The DowJones index started the week with marginal gains (0.04%) and closed in levels just shy of the 27,700 pts on Monday, all amidst alternating risk-appetite trends in response to some renewed effervescence in the US-China trade scenario. It is worth recalling that the DJI recorded an all-time intraday high at 27,774 last Thursday.Today, markets will be closely following President Trump’s speech at the Economic Club in New York in search for any extra detail on the trade front and particularly regarding the ‘Phase One’ deal and the potential roll over existing tariffs.Monday’s gains in Industrials, Financials and Telecoms helped the benchmark stock index to keep the positive performance, as opposed to the S&P500 (-0.20%) and the NASDAQ Composite (-0.13%).DowJones faces the next interim resistance at 27,774.7 (all-time high Nov.7) while on the downside the next support emerges at the 10-day SMA at 27,414.7 seconded by July’s high at 27,398.7 and then the September peak at 27,306.7."
9,USD/JPY Forecast: President Trump’s speech  put a halt to dollar’s rally,"The USD/JPY pair recovered ground during the first half of the day, rising to 109.28, although the greenback lost momentum by the end of the American session, and following US President Trump’s speech at the Economic Club of New York, which disappointed investors by not giving fresh clues related to trade developments with China. Wall Street managed to hold on to modest intraday gains, while US-Treasury yields edged marginally lower daily basis and the USD/JPY pair settling around the 109.00 figure.Japan released October´s money supply, with the monetary aggregate M2 up by 2.5% year-on-year, following a 2.4% increase in the previous month. Machine Tool Orders, on the other hand, plummeted 37.4% after decreasing by 35.5% in the previous month. This Wednesday, the country will unveil its Q3 Gross Domestic Product, seen at 0.2% QoQ after printing 0.3% in the second quarter of the year.The  USD/JPY is trading lower in range, with the risk skewed to the downside according to the 4-hour chart, as the price remains below a flat 20 SMA while technical indicators head south within negative levels. Nevertheless, the downside potential seems limited, with an immediate support at 108.90, and the next one at 108.65. It will be below this last that the pair would have chances of declining further.Support levels: 108.90 108.65 108.40Resistance levels: 109.30 109.60 110.00View Live Chart for the USD/JPY"
10,Banxico will continue their rate cut cycle with a larger 50bp rate cut on Thursday,"The case for a larger 50bp cut became stronger in the intermeeting period. Following the previous monetary policy decision we argued that the size of the rate cut in Thursday’s meeting would ultimately depend on core inflation’s performance and expected trajectory as opposed to Banxico’s forecasts. Core inflation has now slowed four months in a row (-0.2pp) and edged down -0.1pp in the intermeeting period. Although gradually, it is clearly slowing down and a weakening economy / widening negative output gap points to a faster slowing pace in coming months. Besides, its recent performance and most likely trajectory going forward will be consistent with Banxico’s expected trajectory. Moreover, risks are now biased to a faster slowing pace than currently expected by the central bank as a further weakening of the economy and a stronger MXN will likely put downward pressure on core inflation over the coming months. In our view, the core stickiness argument to keep the monetary policy stance as restrictive as it currently is, no longer holds.Besides, headline inflation remained at 3.0% in the intermeeting period and will most likely end the year well below 3.0% (we expect it to reach 2.7% by year-end). Headline inflation is likely to slow markedly in Nov-Dec on a slowing core inflation, as the global slowdown continues to put downward pressure on energy prices and on a favorable base effect as fresh food prices are likely to increase much less than in Nov-Dec 2018. As we expected, 12- month inflation expectations have declined sharply (see graph 1) while market-based long-term inflation expectations have moved in a narrow range close to 3.5% following a sharp drop in line with MXN strength. The MXN continues to outperform emerging-market currencies and has appreciated around 2.5% since the start of Banxico’s gradual easing cycle, certainly easing concerns on the effect of a less restrictive stance on the MXN. Besides, a possible USMCA ratification by the US Congress in the near-term would likely further boost the Peso. As we have argued before, concerns on the effect of a less restrictive stance on the exchange rate, inflation and inflation expectations are overdone.Not only does the case for a larger rate cut has become stronger since the last meeting where two members already voted for a 50bp cut, the need for a faster easing pace also has. With an economy at the edge of recession, a widening output gap, low headline inflation (on target now and below target as soon as next month), softer core inflation that will further decline in the remainder of the year, and lower inflation risks, the current restrictive stance is unwarranted. The rate cut cycle has much further to run and a faster easing pace is warranted. Banxico has not kept such a high monetary policy rate with headline inflation this low and with a slowing core inflation. Moreover, the restrictive stance has not even eased anything following the two 25bp rate cuts since 12-month inflation expectations have eased more than 0.5pp and is not consistent with core inflation and inflation expectations slowing trends. In other words, even with core inflation slowing down following its stickiness, with headline inflation on target and with lower inflation expectations and risks, Banxico has not yet eased the monetary policy, which remains excessively restrictive, is weighing on growth and, more importantly, is not consistent with the inflation, growth and risks backdrop. Banxico should feel comfortable embarking in a long overdue easing cycle.Download the full report  "
11,What to Do NOW in Case of a Future Banking System Breakdown,"The banking system may not be as sound we’ve been led to believe. It continues to get propped up through central bank interventions, which strongly suggests it wouldn’t be able to stand on its own.Last Thursday, the Federal Reserve injected another $115 billion into financial markets via “temporary operations.” The Fed is targeting the repo market in particular, through which banks lend to each other on an overnight basis.For some reason, banks have grown weary of committing liquidity to each other in what should be one of the safest lending markets on the planet.Perhaps they are being overly cautious. Perhaps they (or one in particular) are simply being opportunistic.After all, the liquidity shortage in the repo market led to a massive deluge of subsidized liquidity from the Federal Reserve and the launch of what is effectively a new phase of Quantitative Easing. When something goes wrong in the financial system, banks win.JPMorgan Chase may have triggered the whole mini-crisis by moving more than $130 billion of excess cash out of the pool of reserves. That created a domino effect that tightened overall liquidity in the interbank lending market.Former Congressman Ron Paul proffers another explanation:“One cause of the repo market’s sudden cash shortage was the large amount of debt instruments issued by the Treasury Department in late summer and early fall. Banks used resources they would normally devote to private sector lending and overnight loans to purchase these Treasury securities.This scenario will likely keep recurring as the Treasury Department will have to continue issuing new debt instruments to finance continuing increases in in government spending.”Regardless of the cause, if the Fed had not intervened millions of people with holdings in bank accounts and money market funds could have seen their wealth diminish or even disappear.Although Jerome Powell and company have apparently stabilized the repo market (for now), questions remain about systemic risks in the financial system.Critics of fractional reserve banking have long noted that it renders banks inherently vulnerable to bank runs.Prior to the Federal Reserve System backstop and FDIC “insurance” for deposits, banks had to maintain much larger equity cushions. Some backed deposits dollar for dollar. Today major banks are so highly leveraged, they may only have 5 cents in reserve for every dollar of deposits.A plunge in their capital value, a major economic downturn, or a crisis event that triggered mass withdrawals could render most banks insolvent. Since major banks have been deemed “too big to fail,” the government and the central bank would stand ready to bail them out.But what if the authorities fall so far behind the curve that the whole financial system one day collapses on itself?That came dangerously close to happening in 2008. Had the Fed let one more iconic financial institution go the way of Lehman Brothers, all the big banks may have quickly followed suit. Customer deposits would have been frozen until the authorities figured out how to bail out or bail in the banks on an unprecedented scale.Money market funds should maintain a stable value even during severe downturns in stock or bond markets. In practice, they could be vulnerable to a “black swan” event that hits the financial system in a way nobody expects.When such an event occurred in 2008, some large money market funds “broke the buck” – at least temporarily – and failed to maintain their promised stable value. Money market assets held via a brokerage account or mutual fund are generally not insured.Treasury-only money market funds can be held to minimize credit risk.They hold only short-term U.S. Treasury bills. During a credit crunch, Treasuries would theoretically be the safest, most liquid IOUs to hold – especially since the Federal Reserve has now committed to purchasing T-bills on a monthly basis.Of course, T-bills aren’t guaranteed to preserve purchasing power. They are instead virtually guaranteed to lose purchasing power over time versus inflation.Holding hard assets outside the banking system is therefore a must if you want to protect against the risks to the financial system as well as the currency that underpins it. Gold and silver are the ultimate money and could become premier “growth” assets during a monetary crisis.The last thing you’d want to do with your precious metals is get them tied up inside the banking system.Safe-deposit boxes at banks are generally not suitable for precious metals storage. Some banks have policies that explicitly prohibit storing gold bullion. Regardless, your gold would be at risk in the event the bank goes under or gets raided by government agents.We’re not here suggesting that you immediately liquidate and close all your bank accounts. Going unbanked would be an awful inconvenience for most people. Instead, just be sure you hold some liquid wealth outside the financial system sufficient to get you through any potential banking breakdowns."
12,,
13,,
14,,
