,title,text
0,EUR/USD: Another chance to break 1.12 – ING,"Analysts at ING see the EUR/USD pair with a bullish tone for next week and expect it to trade in the 1.1075/1.1250 range. According to them, the Dollar may face more hurdles on the back of grim data and broadly supported risk appetite.“The frequency of market-moving data releases is going to be much lower in the coming week. Only retail sales and German industrial production (both for September) are on the eurozone agenda while the ISM Non-Manufacturing and the University of Michigan sentiment index will be in the spotlight for the US. The ISM read will likely be pivotal as markets hope to cement their expectations that the Fed will stay put in December; a clear rebound in the gauge will be needed to dissipate fears that the slowdown in manufacturing has expanded to the service sector. Our economists see the risk of a weaker-than-expected read that may revive some expectations for a December cut (with the latest ISM manufacturing indicating a recession in the sector and keeping the case for a cut in place).”“Markets will also await more details on trade talks and on President Trump’s impeachment process. The latter may continue to have a quite limited market impact, whereas a number of sticky points (as well as a timetable, after the APEC meeting got cancelled) are still to be outlined in the “phase-one” US-China trade deal. We still see the risk of markets having misplaced their optimism for a breakthrough in trade tensions, although we expect the news flow on trade to remain broadly supportive for risk sentiment this week. All this may translate into another unlucky weak for the dollar and give another chance for EUR/USD to crawl back above 1.12.”
 "
1,US: Nonfarm Payrolls increased by 128K in October vs. 89K expected,"The US Bureau of Labor Statistics on Friday reported that Nonfarm Payrolls in October increased by 128,000 following September's reading of 180,000 (revised from 136,000) and came in stronger than the market expectation of 89,000.With the initial market reaction, the US Dollar Index edged higher and was last up 0.1% on the day at 97.43.""The unemployment rate was little changed at 3.6%.""""The labor force participation rate was little changed at 63.3% in October.""""In October, average hourly earnings for all employees on private nonfarm payrolls rose by 6 cents to $28.18.""""Over the past 12 months, average hourly earnings have increased by 3.0%."""
2,Crude Oil (WTI) Intraday: key resistance at 54.60,"The bias remains bullish.   Stay on top of the markets with Swissquote’s News & Analysis   Pivot (invalidation): 1505.50Our preference Long positions above 1505.50 with targets at 1514.50 & 1518.00 in extension.Alternative scenario Below 1505.50 look for further downside with 1499.50 & 1493.50 as targets.Comment Even though a continuation of the consolidation cannot be ruled out, its extent should be limited. The bias remains bullish. Pivot (invalidation): 17.9400Our preference Long positions above 17.9400 with targets at 18.1700 & 18.2700 in extension.Alternative scenario Below 17.9400 look for further downside with 17.8400 & 17.7600 as targets.Comment The RSI is mixed to bullish. Key resistance at 54.60. Pivot (invalidation): 54.60Our preference Short positions below 54.60 with targets at 53.90 & 53.70 in extension.Alternative scenario Above 54.60 look for further upside with 55.00 & 55.55 as targets.Comment As Long as the resistance at 54.60 is not surpassed, the risk of the break below 53.90 remains high."
3,"Gold Price Forecast: Bulls need a break above $1,520","Gold is set to end the week with moderate gains, but a bullish revival remains elusive with prices still trapped in a range of $1,520 and $1,475.The yellow metal is currently trading at $1,507 per Oz, representing a 0.22 % gain on Monday's opening price of $1,504.Gold began the week on a negative note by falling 0.80% on Monday. The decline validated Friday's Gravestone Doji candle and shifted risk in favor of a deeper drop to the 100-day moving average, then lined up at $1,465.The descent, however, was cut short on Wednesday near $1,481 even though the US Federal Reserve (Fed) delivered a hawkish rate cut. The central bank reduced rates by 25 basis points as expected, but indicated a pause in rate cuts by removing a key clause that had appeared in post-meeting statements since June saying ""it was committed to acting as appropriate to sustain the expansion"", according to CNBC.Gold managed to eke out modest gains on Wednesday and closed above $1,500 on Thursday, confirming an upside break of a two-month descending channel.Thursday's gains were likely fueled by China's official Manufacturing PMI, which showed the factory activity shrank for a sixth straight month in October and growth in the service sector fell to lowest since February 2016.So far, however, the channel breakout has failed to draw bids. This is evident from the fact that Gold is currently reporting a 0.30% drop on the day.The US Nonfarm Payrolls data released at 12:30 GMT on Friday showed the economy added 128,000 jobs, even with the negative drag of 46,000 striking GM workers and the reduction of 17,000 federal government jobs. Economists had expected payrolls to come in at 75,000.Further, Payrolls for August and September were revised higher by 95,000 jobs.An above-forecast October data coupled with the solid upward revision to August and September figures showed that the labor market is still hot and the Fed is right in signalling a rate pause.Gold, therefore, could have a tough time capitalizing on the falling channel breakout during the next week.The resistance at $1,520, however, will likely be scaled if the US-China trade optimism fades and the US ISM non-manufacturing data, due at 15:00 GMT, prints well below estimates, sending the US Treasuries and the US Dollar lower.Gold's daily chart shows a falling channel breakout. Even so, the outlook remains neutral as the metal is still trapped in a $1,520 to $1,474 range.A daily close above $1,520 would revive the bullish bias and open the doors for $1,536 (Sept. 24 high). A violation there would expose the high of $1,557 reached on Sept. 4.A breakout above $1,520 could happen next week, as the MACD histogram has crossed above zero, confirming a bullish reversal. Further, the 14-day relative strength index has breached the descending trendline falling from June highs.What's more, the Dollar Index, Gold's biggest nemesis, is looking south, having charted a bearish lower high of 98.00 earlier this week.The Forex Forecast Poll is a sentiment tool that highlights near- and medium-term price expectations from leading market experts. Currently, a majority of analysts are expecting Gold to trade in the red. The short-term bearish forecast may come as a surprise to those who are betting on biggins, courtesy of the falling channel breakout on the daily chart. Meanwhile, the outlook for one month and one quarter is bullish.The US Federal Reserve Rate cut caused a surge, which broken the channel down pattern, which guided the pair since the start of September. In general, the metal is expected to trade between psychological levels like the 1,500.00, 1,540.00 and 1,560.00 levels."
4,AUD/USD: Upside risk on RBA’s hold - ING,"Analysts at ING see risk in AUD/USD tilted to the upside for next week and consider it could trade between 0.6850 and 0.7000. Their one-month target is 0.6750. “The Australian dollar has staged consistent gains this week, taking advantage of stable risk appetite and an encouraging inflation read, that allayed the lingering doubts on whether the RBA will keep rates on hold next week. The market is now pricing in only a 6% probability of a cut next Tuesday, so most of the reaction will likely be driven by the Bank’s forward-looking language. Our base case is that the RBA will refrain from any more cuts at least through the end of 2019, so we would not be surprised to see Governor Lowe providing some indications of a more extended pause in the easing cycle. Alternatively, he may well err on the side of caution and keep the door open for more cuts, whilst expecting developments in the inflation and employment spheres as well as on the global trade backdrop.”“We think that a further stabilisation in risk sentiment and the possibility of a hawkish shift  by the RBA suggests that the balance is skewed to the upside for AUD/USD in the next week. The 200d MA at 0.6955 should, however, prove to be a fairly solid resistance to AUD rallies for now.”
 "
5,When is the UK Manufacturing PMI and how could it affect GBP/USD?,"The UK manufacturing PMI is due for release today at 0930GMT and is expected to show that the pace of contraction in the activity quickened in October after rebounding to four-month highs in September. The index is expected to arrive at 48.1 versus 48.3 booked previously.Readers can find FX Street's proprietary deviation impact map of the event below. As observed the reaction is likely to remain confined between 10 and 50 pips in deviations up to 1.65 to -2.50, although in some cases, if notable enough, a deviation can fuel movements of up to 80 pips.The Cable continues to face rejection near the 1.2970 region, as the bulls consolidate the recent upside above the midpoint of the 1.29 handle, with the immediate focus now shifting towards the UK Manufacturing PMI data release.Should the data suggest a bigger-than-expected drop, the spot is likely to come under fresh selling pressure, dragging the spot further towards 1.2906/00 (5-DMA/ round number), below which 1.2845 (Oct 30 low) could be targeted.However, on a positive surprise, the GBP/USD pair could take-out the weekly tops at 1.2976, above which 1.3000 (psychological level) could be tested en route 1.3014 (Oct highs).GBP Futures: upside looks exhaustedUS NFP to steal the limelight today – Danske BankGBP/USD forecast: Bulls await a sustained move beyond 1.30 mark, eyeing UK/US macro dataThe Manufacturing Purchasing Managers Index (PMI) released by both the Chartered Institute of Purchasing & Supply and the Markit Economics captures business conditions in the manufacturing sector. As the manufacturing sector dominates a large part of total GDP, the Manufacturing PMI is an important indicator of business conditions and the overall economic condition in the UK. A result above 50 signals is bullish for the GBP, whereas a result below 50 is seen as bearish."
6,"US Dollar Index technical analysis: DXY on life support, ends the week on its lows",  
7,CAD/JPY: the price is at a critical level ahead of NFP,"CAD/JPY has been bearish on the daily chart. The pair has produced three consecutive daily bearish candles. It stalls at a level, which is a flipped support. If the price makes a downside breakout at the level, it may head towards the next support with more bearish momentum. On the other hand, if the level holds the price, it may go towards the North. Thus, it is going to be a crucial day for the pair to determine its direction in the next week. Moreover, fundamentally, it is a crucial day for most of the Forex pairs.The chart shows that the price had a rejection at the level of 84.0000. After producing an engulfing daily candle, it has been heading towards the South. The level of 82.0000 holds the daily price. This is the level where the price had a rejection earlier. It has the potential to hold the price and push the price towards the North again. However, the way the recent daily price action has been, it might get broken. In case of a downside breakout at the level, the price may head towards the South with stronger bearish momentum. The H4 chart looks very bearish as well. The price finds its support at the level of 82.0000. The level of 82.2000 has been the level of resistance. If the level produces an H4 bearish reversal candle breaching the level of 82.0000, the price most probably will make a very strong bearish move. The H4 chart suggests that the price may find its next support at the level of 81.1670. Risk-Reward looks very lucrative for the H4 sellers. In case of an upside breakout, the price action may get choppy as far as the H4 chart is concerned.The daily and H4 charts both look good for the sellers. Traders must remember that it is going to be a very volatile day in the Forex market. The USD has four high impact news events “Average Hourly Earnings m/m,"" “Non-Farm Employment Change,"" “Unemployment Rate” at GMT 12.30, and “ISM Manufacturing PMI” at GMT 14.00. The CAD and JPY both are highly related to the USD. Thus, CADJPY may get extremely volatile during these news events. Traders shall be extra careful to trade today with risk management.   Try Secure Leveraged Trading with EagleFX!"
8,"Biggest USD Drop in 21 Months, NFP Next","The US dollar continued its post-Fed slide on Thursday as economic data weighed. On the day the yen was the top performer while the US dollar lagged, registering its biggest monthly decline in 21 months . Non-farm payrolls are due up next (more below). Renewed doubts with the continuity of the US-China talks are weighing on markets, triggering high profile failures of the 200 and 100-DMAs in the USDJPY and US 10 yr yields before considerable daily slides. Each of the 4 existing premium trades is currently in the green.Dueling forces worked to pull USD/JPY notably weaker on Thursday. The Fed pause and accompanying message highlights that it will take a 'material' shift in the outlook to cut rates again. Ostensibly that's positive for the dollar but it's negative for risk trades.The problem was highlighted in a couple reports on Thursday. The PCE report showed spending at +0.2% compared to +0.3% expected and inflation numbers also slightly softer. The Chicago PMI also fell to 43.2 from 47.1. That was probably a result of the now-ended GM strike but the numbers both highlighted that if the economy modestly weakens, there is no safety net.At the same time, the long-term message from the Fed was that hikes are off the table unless there is a significant rise in inflation for a sustained period. That sent Treasury yields decidedly lower and highlights that US yield differentials won't be improving any time soon.The next move will hinge on Friday's jobs report. Non-farm payrolls are forecast to rise a modest 85K, down from 136K in September. After the Chicago PMI, there are growing worries that the auto strike could lead to a dismal number. If so, expect it to be a short-lived dip because those jobs have returned. The pound led the way with a 5% rally against the dollar and 5.7% against the yen (which was the laggard). It was the worst monthly decline for the USD in over 20 months. In the stock market, most of the world put up gains in the 2-4% range including a 2% rally in the S&P 500. The FTSE 100 was slightly lower but that's a side effect of currency appreciation. Gold was up modestly and entirely due to the rally on Wed-Thurs."
9,"GBP/USD Forecast: Boom and bust on Boris' re-elections chances, and also watch the BOE","Prime Minister Boris Johnson has not died in a ditch – and he even leads the polls – after the October 31 deadline came and went. The focus turns to the December 12 elections with some impact reserved for the Bank of England's ""Super Thursday.""The week's political drama was triggered by an announcement from the Liberal Democrats and the Scottish National Party (SNP). Both pro-Remain parties concluded that a second referendum on Brexit would be unachievable in the current parliament and laid down a motion for elections. The move convinced France – that had held out on granting a three-month delay to the UK's exit – that Brits were indeed going to the polls. The EU then announced that an official postponement to January 31, 2020, providing some relief for markets, which feared a shorter extension. Labour, the main opposition party, initially rejected a fresh campaign – officially due to the still existing chances of a hard Brexit – but more likely because of its poor numbers in opinion polls. However, leader Jeremy Corbyn eventually steered the party toward the polling booths. After a short battle on the exact date – December 12 received a thumping majority from parliament. Boris Johnson wants elections to break the deadlock and promises to ratify his deal in the House of Commons if he wins. While his version of Brexit is hard – it provides certainty. Moreover, investors are allergic to Corbyn's hard-left economic policies. Nigel Farage, head of the Brexit Party, aims to field candidates in all constituencies but left the door open to an alliance with the Conservatives. Most analysts think that withdrawing candidates will help Johnson win, but others say it may instead help Labour. The US Federal Reserve has cut interest rates and signaled a pause, as expected. The dollar initially advanced as the Fed sounded optimistic, but then changed course. Jerome Powell, Chair of the Federal Reserve, indicated that the bar is high for reducing rates again – but even higher for hiking them. Only a sustained increase in inflation would cause the bank to consider raising rates. The greenback's drop propelled GBP/USD higher.US data has been mixed, with Gross Domestic Product rising by 1.9% annualized in the third quarter – better than expected but slower than beforehand. The US Non-Farm Payrolls report beat expectations with an increase of 128,000 jobs and upwards revisions worth 95,000 for previous months. The data allowed the greenback to recover. On the trade front, President Donald Trump said that talks are ""ahead of schedule"" and Chinese officials have also expressed optimism in public. However, sources in Beijing have told the media that they are skeptical that a broad trade deal can be achieved with Trump. The US president is set to meet his Chinese counterpart Xi Jinping in mid-November, but the meeting is far from being confirmed. Opinion polls are toward the elections that are due out daily. So far, they have consisted of significant gaps, but all point to a Conservative lead. While a double-digit lead previously indicated a landslide victory, the fragmented nature of the British political landscape means uncertainty is high. The Brexit party may chip away votes from the Conservatives. The pro-Remain camp is split between Labour and the Lib-Dems. Best of Britain, a pro-Remain outfit, is calling for tactical voting – but it is unclear how much its calls will be heeded. Moreover, the projected gains for the SNP in Scotland may hurt the Conservatives. Last but not least, former PM Theresa May lost her majority despite a broad lead in the polls. Johnson may surely feel the same fate, especially as voters' primary identity is around Brexit, while their loyalty to parties has diminished.All in all, polling may move the pound, but voters' opinions are prone to changes, and these surveys may be wrong and hard to translate into seat allocation in parliament. Markit's forward-looking Purchasing Managers' Indexes (PMIs) kick off the week on the economic calendar with figures for the struggling construction sector and the comprehensive services one. After the Manufacturing PMI beat expectations – partly due to a dose of certainty around Brexit – a recovery in these figures may be seen as well. The Servies Services PMI is expected to rise to 50 – the level that separates expansion from contraction. The Bank of England is set to leave interest rates unchanged in Mark Carney's penultimate decision as Governor. Recent economic figures have been mixed, with falling inflation but an upbeat labor market.The bank publishes new forecasts in its Quarterly Inflation Report (QIR), and Carney will explain the findings and the BOE's assessment in the press conference that follows. He will likely avoid making a guess about Brexit in his last presser. Nevertheless, the new figures and comments about the global economy and its impact on the UK may impact the pound.The BOE has been waiting for clarity around Brexit – and that will have to wait for Carney's successor. Speculation about the next governor may play a role in moving the pound. Here is the list of UK events from the FXStreet calendar:The pace of US-Sino trade talks may pick up ahead of a potential summit between the presidents of both countries later this month. If Washington and Beijing announce an encounter, markets may rise, and the risk-on mood may benefit the pound against the safe-haven dollar. Concerns about a breakup in talks may trigger a downfall.The economic calendar kicks off with manufacturing – the weaker side of the US economy. The main economic release is Tuesday's ISM Non-Manufacturing PMI. The services sector has been growing, albeit at a slower pace. The forward-looking figure tends to have a substantial impact on markets. Another considerable forward-looking figure is the preliminary Consumer Sentiment Index from the University of Michigan for November. While the figure is off the highs near 100, upbeat confidence is set to continue and drive the economy forward. Here are all the top US events on the economic calendar:The Relative Strength Index on the daily chart is close to 70 – thus nearing overbought territory. This implies that is has limited toom to the upside before a break is needed. Momentum remains upbeat, and the currency pair trades above the 50, 100, and 200 Simple Moving Averages – a bullish picture, yet perhaps with a limited short-term scope.Resistance awaits at 1.2980, which capped GBP/USD in late October. It is followed by 1.3013, which is the five-month high seen several weeks ago. The next lines date to early in the year, and these include 1.3035, 1.3080, and 1.3145. Support awaits at 1.2865, which worked as support in the spring and also recently. Next, 1.2785 was a swing low in mid-October and a peak in June. It is followed by 1.2705, which was a swing high in early October and converged with the 200 SMA. Next, we find 1.2580 and 1.2500.  For the pound, it is hard to tell how opinion polls will sway the mood, and only high volatility can be predicted with some caution. The US Dollar may extend its recovery after the NFP. The FX Poll is showing that experts are upbeat and see GBP/USD holding up its high levels in the short and medium terms. However, they foresee a drop afterward. Do they suspect that the December elections will be messy? Targets have been upgraded in the short and medium terms but unchanged in the long-term. "
10,USD/JPY Forecast: Waiting for the US Nonfarm Payroll report,"The USD/JPY pair is consolidating its latest losses, trading around the 108.00 level. The pair has fallen sharply for two consecutive days, weighed by the US Federal Reserve monetary policy announcement first, and later by doubts about the US-China trade deal, these last spurring demand for safe-haven assets. The pair remained muted throughout the Asian session, as the dismal sentiment eased with Asian and European equities managing to post modest intraday gains.The wait-and-see stance has also to do with the upcoming US Nonfarm Payroll report to be out ahead of Wall Street’s opening. The US is expected to have added 85K new jobs in October, below the previous  136K. The unemployment rate is seen ticking higher from 3.5% to 3.6%, while average hourly earnings are seen up by 0.3% monthly basis and by 3.0% when compared to a year earlier.  Early signs released throughout the month indicate that the report could be even worse than anticipated, which would force the greenback further lower.The USD/JPY pair is trading at its lowest since early October, bearish according to the 4-hour chart, as it has fallen below all of its moving averages, and capped by the 200 SMA. Technical indicators in the mentioned chart have lost directional strength, but remain within oversold levels, skewing the risk to the downside. The pair will likely extend its decline on a break below 107.65, the immediate support, while in the case of an upbeat report, the pair can recover up to the 108.50 price zone.Support levels: 107.65 107.30 106.90Resistance levels: 108.15 108.50 108.80  View Live Chart for the USD/JPY"
11,Gold vs US dollar: Gold prices consolidate after a brilliant run,"Gold vs U.S. dollar: Gold prices smashed all estimated price targets at 1491.50, 1493.80, 1497.65, and 1501.60 and broke through the top of the price channel in yesterday's session at around 1506.00. The precious metal continued its rally during the Asian session, increasing its value to approximately 1511.75. Gold price trades at 1512.63 at the time of writing and needs to remain above 1511.75 to continue to its next target at 1515.30. Support is at 1509.50 and 1506.00"
12,US Non-Farm Payrolls: Surprising strength in employment,"The US economy has turned in another bang-up employment report.Belying estimates of the first sub-100,000 report since May and rumors of a negative number US firms added 128,000 workers in October.Revisions to August and September payrolls boosted prior totals by 95,000 bringing the three month average to 176,000 and to 167,000 for the year.  Payrolls average 223,000 in 2018.Non-Farm PayrollsFXStreetOctober’s numbers were reduced between 46,000 and 80,000 by striking GM workers and layoffs in related industries, according to a Labor Department report earlier in the week. Those workers will return to the rolls in November. The strike resulted in a 36,000 drop in manufacturing employment.Annual wage gains rose 3.0% and September's increase, which at 2.9% had been the first month below 3% in 13 months, was revised up to 3%.Unemployment Rate U-3FXStreetThe unemployment rate ticked up 0.1% to 3.6% but remains near the lowest in half a century. More workers sought employment as the participation rate moved up to 63.3%. The unemployment rate for African-Americans dropped to 5.4%, a new all-time low.  The so-called underemployment rate, which many analysts consider a more accurate picture of joblessness, rose to 7.0% from 6.9%.This Labor Department report allays fears that the damage the China trade dispute has done to manufacturing employment was beginning to affect the much larger service sector.On Wednesday the Federal Reserve cut its base rate for the third time in as many meetings but indicated that this was likely to be the last reduction for some time.  The Fed had repeatedly cited the US China trade war, the global economic slowdown and an unregulated Brexit as serious threats to the long running US expansion.Chairman Powell said the US economy “was in a good place” in his remarks after Wednesday’s rate announcement and today’s report would seem to bear out the Fed’s assessment.The dollar and Treasury yields spiked on the report but were unable to hold their gains. Equities were sharply higher with the Dow ahead by 200 points and the S&P 500 at a new record at 10:03 EDT. "
13,USD/JPY in a three-wave bearish reversal - Elliott Wave Analysis,"Good morning traders again,USDJPY spiked to a new high this week, but then reversed sharply to the downside in the last 48 trading hours, so it appears that pair has put a top in place and that market is headed lower now for a three wave set-back. Ideally that is going to be wave X headed to 107.0/107.40 support area.USDJPY, 4h  You can subscribe to our webpage at EW-Forecast for more unique, and daily content. We also have a special HALLOWEEN offer for FX services and for Crypto services.. Check it out, its 50% OFF on Monthly and 3 Monthly package.By using www.ew-forecast.com website, any services, products, and content contained here, you agree that use of our service is entirely at your own risk. You understand that there is a very high degree of risk involved in trading on the markets. We assume no responsibility or liability for your trading and investment results. The charts, and all articles published on www.ew-forecast.com are provided for informational and educational purposes only!

By using the information and services of www.ew-forecast.com you assume full responsibility for any and all gains and losses, financial, emotional or otherwise, experienced, suffered or incurred by you."
14,Ethereum Classic team announces the date of Agharta hard fork,"The developers of the Ethereum Classic project revealed a roadmap for the hard fork known as Agharta. This major update is focused on compatibility with Ethereum's blockchain.""The Agharta upgrade will be inclusive of the ETH Constantinople features making Ethereum Classic fully compatible with Ethereum,"" the team wrote on Twitter.The fork will go through several stages. The first stage will be initiated on November 13 with the launch of a test net Morden. The mainnet fork is scheduled on January 15, 2019; however, thee developers emphasized that the dates we're preliminary and subject to change.""Ethereum Classic and Ethereum are evolving from the same ancestry, and further technical compatibility will provide a stronger bridge to collaborate on shared infrastructure as well as maintain our unique differences. The recent Atlantis hard-fork was to increase ETH Compatability and Agharta will be the second half of that goal,"" the team wrote in a blog postETC/USD, now the 22nd largest digital asset with the current market value of $556 million, is changing hands at $4.83, down 1% on a day-to-day basis. The coin has been range-bound after an unsucceceful attempt to break above $5.00 handle, This barrier is strengthened with SMA50 (Simple Moving Average) and the upper line of the Bollinger Band on a daily timeframe. On thee downside, the support is created by $4.6 (the middle line of the daily Bollinger Band_ followed by October 26 low at $4.48 and the lower line of the daily Bollinger Band at $4.20.Read also:
Ethereum Classic Price analysis: Reaction to a double-top still in play "
15,NY Fed's GDP Nowcast at 0.8% for fourth quarter of 2019,"According to the Federal Reserve Bank of New York's latest Nowcasting Report published on Friday, the United States' (US) economy is expected to expand by 0.8% in the last quarter of the year.""The advance estimate from the Commerce Department of real GDP growth for 2019:Q3, released on October 30, was 1.9%. The latest New York Fed Staff Nowcast for 2019:Q3 was 1.9%,"" the NY Fed said in its publication. ""News from this week's data releases decreased the nowcast for 2019:Q4 by 0.1 percentage point. Negative surprises from ISM manufacturing data accounted for most of the decrease for 2019:Q4."""
16,"Digitalizing Currency: The Race, the Pros and the Cons","Digital Currency Electronic Payment or DCEP has become the latest buzzword in the blockchain community, as China announced a series of blockchain initiatives amid capitalizing on this emerging technology. The country's push on rolling out a digital version of yuan could bring a significant impact to the global blockchain landscape, potentially accelerate the adoption of digital currency globally. From a macro perspective, what potential benefits digitalizing a currency could bring, and its impact on monetary policy, financial stability, and integrity? While lawmakers in the US were still questioning the potential security and legal issues of Facebook's Libra, China seems to be one step ahead when it comes to digitalizing its currency.Just this week, China revealed more details about its DCEP project. Initially, the PBOC will distribute the digital currency to all commercial banks and replace the Reserve Money (M0) system, reducing interbank transfer barriers.After the system stabilized, the central bank will additionally commercialize the digital currency by allowing major fintech companies to use it in their mobile payment systems. Officials claim that the DCEP project is an effort of 6 years of hard work and research, and it will share the same nature and legal status as the traditional fiat currency.The swift move from China seems to make the country a global leader when it comes to the blockchain application, and it could be the biggest monetary transformation in a decade. However, China's ambitiousness could also lead to a new global ""blockchain race"".The United States has been largely lukewarm, if not negative, over blockchain and bitcoin. Some lawmakers on Capitol Hill have expressed their opposition over the issuance of digital currencies, and the SEC has been unconvinced on some crypto-related financial products, at the same time, President Donald Trump also said he was not a fan of cryptocurrency.However, China's latest blockchain push could shift the tide in the US and the country could take a more proactive approach in this field, as two superpowers have been competing on the technology front. A showdown in blockchain between the US and China could potentially possible as we approach the year 2020. China may be leading the global digital currency game for now, but other countries could be catching up soon. New research from the International Monetary Fund shows that at least 15 jurisdictions, including China, have studied the possibility of digitalizing their currencies.IMF also highlights that emerging market economies have shown the most interest in central bank digital currency because they believe it will able to forester financial inclusion by reaching out to the unbanked segments of the population. In the case of advanced economies, countering operational risk and monopoly distortion, reducing costs associated with managing cash were among major reasons for them to explore central bank digital currency or CBDC. Emerging market economies and advanced economies may have a different rationale and motive behind their CBDC researches, but in general, CBDC may able to improve the efficiency of the payment system, reduce transfer costs, and could encourage financial inclusion.In terms of payments, CBDC could address some of the privacy concerns by conducting transactions anonymously under a centralized environment, which could also curb the development of private forms of anonymous payment, reducing some of the AML and CFT risks.Form the monetary policy transmission perspective, the IMF believes that CBDC will not interrupt the transmission substantially, and if CBDC will able to stimulate greater financial inclusion, the transmission could be more effective.Peter Bofinger, Monetary Policy and International Economics Professor at the University of Wurzburg believes that the digitalization of money has the potential to change traditional structures of the financial system and could redefine the roles of banks and central banks, but digitalization won't wear away the control of central banks over the financial system. CBDC could potentially raise some new security concerns despite it has features that encourage financial inclusion. The digital nature that allows easier transaction will also increase operational risks from disruptions and cyberattacks.IMF also notes that the demand for CBDC will not necessarily be very high initially, and it will depend on the attractiveness of alternative forms of money. If a continuation of low demand in CBDC occurs, it could increase the system running cost for central banks and other institutes. Additionally, the adoption of CBDC could curb the development of private forms of anonymous payment, this move could increase risks to financial integrity. It's too early to make conclusions on the benefits of CBDC, as this is still largely in the beginning stage, and central banks and commercial banks were still in the process to evaluate what kind of impact a digital currency could bring to the markets. However, many of the experts agree that the changes that CBDC could bring are profound and widespread."
17,Crypto war between the US and China,"Oct. 24, China’s President Xi Jinping endorsed blockchain technology sending the Bitcoin market spiralling into a $3000 movement, Bitcoins largest since before the 2017 Bull Market. Does the president’s announcement mean that the Chinese government will change its views on crypto? And, was the most recent high for BTC price pushed by this announcement?     Some time into the future, an author of a history book on crypto will dedicate more than one chapter of the timeline unfolding Chinese cryptocurrency laws. Here, just to give you perspective, we’ll only take a look at the key milestones.As early as in 2013, The People’s Bank of China (PBOC) prohibited all the businesses from making transactions in Bitcoin (BTC). The regulators became interested in the technology, though, and started exploring the possibility of launching its very own cryptocurrency. Yet, in 2014, PBOC made commercial banks and payment companies close Bitcoin trading operations. In 2017, the lawmakers supported a ban on cryptocurrency exchanges seeing 173 platforms closed. And last but not least, the government called on to eliminate all the mining operations in 2018. The situation slightly changed right after the country’s president said they “must take blockchain as an important breakthrough for the independent innovation of core technologies”. Right after the president’s announcement, a new law on cryptography that is about to come into effect on Jan. 1, 2020 saw the light.The law is geared towards “facilitating the development of cryptographic business and ensuring the security of cyberspace and information”, according to state media agency Xinhua. So, what happened? Does the president’s statement on blockchain also mean a change of China’s strict сrypto policy? The government has one reason to reassess their views on crypto, and it is a Tech Cold War between China and the U.S. In his statement, Xi Jinping said he ""demanded deep integration"" between blockchain and ""other information technologies including artificial intelligence, big data and [the] Internet of Things"". He also mentioned that blockchain technology should be developed further in order to gain an “edge over other major countries”.Interestingly, the People’s Bank of China has been progressing on its centralized digital currency (CBDC) since Facebook’s Libra looked to shake up the global economy. Also, they accelerated their work on CBDC in response to Binance announcement about the launch of Venus.No wonder, a strong global stablecoin is a sensitive subject for the government that fights for world economic dominance. Chris Mack, founder and CEO of crypto exchange Levidge, said to TradeSanta that  “Chinese leaders are patient strategists, and as Mark Zuckerberg warned, China will embrace blockchain technologies in order to gain a competitive advantage.” Is it possible that China’s authorities battle against their own fears as well? It’s widely known how U.S. President Donald Trump views cryptocurrencies. Also, Zuckerberg’s Libra continues to deal with pervasive scrutiny.Whatever the truth is, Beijing has not canceled its ban on crypto beyond its control yet. In addition to that, mining crypto in the country is still prohibited as well as trading. Blockchain doesn’t equal crypto. “They support the technology of blockchain, but that doesn’t mean that they support cryptocurrencies like Bitcoin”, Joel Kovshoff, TradeSanta’s market analyst and Athena Enterprise Software CEO, said, “But what you do see are people around the world assuming that this will support cryptocurrencies, specifically Bitcoin, and we saw a massive pump. What I would like to note is it seems that Chinese citizens, due to the difficulty of buying cryptocurrencies like Bitcoin in the country, may not have been the leading force behind the market’s boom.”Indeed, the market sentiment right after the announcement also changed. By Friday, the price of the crypto gold rose by more than 30 percent, jumping as high as $10 332 on Saturday, and held most of those gains through the next week.“The Xi announcement may have issued a bull trend in the market, but I think it was prepared for a sharp rally structurally,” Mack explained to TradeSanta, “Bitcoin had already bottomed around $7200 on Oct. 23 after being heavily shorted, and I believe sellers were exhausted.”The expert also added that outflows of physical Bitcoin from exchanges signal that there are new long-term holders that are probably using cold storage and unwilling to sell at these price levels.That is to say, the announcement of a Chinese president was not much of a change in policy, but rather a confirmation of a long-term trend. The government has focused on rolling out its own cryptocurrency, and as for the pump, as Kovshoff said, that it’s not realistic to think that China was behind this recent movement in Bitcoin’s price."
18,Cardano launches update for Daedalus wallet,"Cardano team has deployed Daedalus wallet update on the mainnet the days before a scheduled major Shelley update launch on the testnet.Shelley is supposed to bring a host of new features, including an integrated newsfeed and redesigned user interface.""NEW Daedalus 0.15 – part of the 1.7 update – is now rolling out. Here's a preview. Be sure to check out the full-length video for a rundown of all the updates and new features - including the newsfeed function,"" the team wrote on Twitter. The video attached to the post explained how to perform an upgrade. From now on, Daedalus users will receive four different types of crypto news right in their wallets. Apart from that, the wallet is equipped with a new recovery phrase verification system.Meanwhile, Cardano's coin ADA, now the 12th largest digital asset with the current market value of $1.09 billion, has been one of the best-performing cryptocurrencies on Friday. ADA/UAD has gained over 2% since the beginning of the day to trade at $0.0420 at the time of writing. ADA topped at $0.0448 on October 28 and has been retreating ever since; however, the coin found strong support at $0.04. This psychological barrier is strengthened by the middle line of the Bollinger Band on a daily chart."
19,Cryptocurrency exchange BitMEX confirms major data leak,"The world's largest trading platform for cryptocurrency derivatives BitMEX accidentally leaked users' emails by sending mass mail without hiding the recipients in the copy. The company admitted the leakage by publishing a confirmation on Twitter and in the blog post.""We are aware of an email privacy issue impacting our customers. We have identified the root cause and will be in touch with any users affected by the issue,"" the Twitter post says.BitMEX tried to assure the community that all necessary measures had been undertaken to remedy the issue. There is no clear information about the scale of the leakage at this stage.""Our team has acted immediately to contain the issue and we are taking steps to understand the extent of the impact. Rest assured that we are doing everything we can to identify the root cause of the fault and we will be in touch with any users affected by the issue,"" the company wrote.Many Twitter users published screens with the received emails, while large industry players like Binance urged users to change email addresses if they use them to access accounts on several trading platforms.""We are aware of a large-scale user email leak from another exchange. If you are one of the affected users and you also have a Binance account under the same email address, we recommend changing your email immediately …""Binance wrote.This accident may have a negative impact on BitMAX reputation and erode customers' trust with the platform."
