,title,text
0,EUR/USD: Support stands in the 1.0760 price zone,"Germany’s inflation held steady at 0.8% YoY in April while the EUR/USD pair is under selling pressure this Tuesday, trading below the 1.0800 level, FXSTreet’s Chief Analyst Valeria Bednarik reports.“Germany published its April inflation figures, with the monthly CPI rising by 0.4%, and the annual reading printing at 0.8%, both meeting the market’s expectations. The Wholesale Price Index, however, plunged, down by 3.5% when compared to a year earlier.” “The US has just released Initial Jobless Claims for the week ended May 8, which resulted at 2.98 million, worse than the 2.5 million expected.” “EUR/USD is at the lower end of its latest range and further slides are expected once below 1.0760.” “Technical indicators have turned south, the Momentum crossing its midline and the RSI heading firmly lower at around 38, in line with further declines ahead.” "
1,BOJ’s Kuroda: It is not necessary to cut rates further now,"Bank of Japan (BOJ) Governor H. Kuroda is back on the wires now, via Reuters, noting that he doesn’t see the need to cut interest rates further, at the moment.“But there is still room to cut rates further if needed.”“BOJ will not hesitate to ease further if needed.”“BOJ would purchase any amount of JGBs for yield curve control.”“BOJ has many tools, measures to deploy if needed.”“Does not think that price target will be met soon.”“BOJ may have to continue easing in the coming years.”“Does not see Japanese economy falling back into deflation.”“Financial system remains stable.”Meanwhile, Japanese Economy Minister Y. Nishimura said that they will seek expert opinion on lifting the state of emergency in Tokyo and Osaka on May 21.The yen is unperturbed by the dovish comments from Governor Kuroda, as USD/JPY holds the lower ground near 106.85, having hit a daily low of 106.78."
2,EUR/USD steadies below 1.0800 ahead of Friday's key data releases,"The EUR/USD pair staged a rebound during the American session but failed to hold above 1.0800. As of writing, the pair was down 0.3% on the day at 1.0783 and was looking to post its lowest daily close in three weeks.The USD's market valuation on Thursday seems to be the primary driver of EUR/USD's action. Earlier in the day, US President Donald Trump said a strong dollar would be helpful during the recovery phase post-coronavirus. Additionally, the heavy bearish pressure surrounding major European equity indexes allowed the USD to continue to gather strength as a safe-haven.Meanwhile, in its monthly Economic Bulletin, the ECB said the euro area GDP could contract by 5-12% in 2020 to further weigh on the shared currency.In the second half of the day, the data from the US showed that Initial Jobless Claims fell to 2.9 million in the week ending May 8th but came in worse than the market expectation of 2.5 million. The US Dollar Index extended its daily rally after this data and touched a fresh 20-day high at 100.56. At the moment, the index is up 0.27% on a daily basis at 100.47.On Friday, market participants will be paying close attention to the preliminary first-quarter GDP data from Germany and the eurozone. “EUR/USD has been leaning lower, and this trend may extend if Germany's GDP misses expectations,"" said FXStreet analyst Yohay Elam while previewing Friday's key data releases. ""The mix of weak eurozone data and a stronger dollar could push EUR/USD lower.”Later in the day, the US economic docket will feature Retail Sales, Industrial Production data and the University of Michigan's Consumer Sentiment Survey.  "
3,EUR/USD soon to reach the HFT buying zone!,"The analysis of high-frequency trading algorithms reveals that the EURUSD currency pair is moving toward the light HFT buying pressure zone and may reach it soon in today's trading session.This light HFT buying pressure zone is noted today at 1.0787 and below. It indicates an area where more buyers are likely to enter the market, therefore, possibly precipitating a bullish reversal.The HFT buy zone also coincides with Tuesday's lows here while EURUSD has entered the oversold area on the hourly timeframe (see the FxTR advanced overbought/oversold indicator on the chart below).The light HFT selling pressure zone is today noted at 1.0872 and above.   FX Trading Revolution - Your Revolutionary Forex SourceHigh Risk Warning: Please note that foreign exchange and other leveraged trading involves significant risk of loss. It is not suitable for all investors and you should make sure you understand the risks involved, seeking independent advice if necessary.ADVISORY WARNING: Any news, opinions, research, data, or other information is provided as general market commentary and does not constitute investment or trading advice. FXTradingRevolution.com expressly disclaims any liability for any lost principal or profits without limitation which may arise directly or indirectly from the use of or reliance on such information."
4,"Forex technical analysis and forecast:  EUR/USD, GBP/USD, USD/RUB, USD/JPY, USD/CHF, AUD/USD, Brent, Gold, BTC/USD, SP500","After finishing the correctional wave and then forming the consolidation range around 1.0817, EURUSD has broken it to the downside and may continue falling towards 1.0797. Possibly, the pair may test 1.0810 from below and then resume trading downwards with the target at 1.0770. GBPUSD has formed a downside continuation pattern Today, the pair may fall to reach 1.2190 and then correct towards 1.2240. After that, the instrument may resume trading inside the downtrend with the target at 1.2144. USDRUB is still consolidating around 73.60. Possibly, today the pair may correct to reach 74.05 and then form a new descending structure to break 72.90. Later, the market may continue trading inside the downtrend with the short-term target at 72.22. USDJPY is falling. Possibly, today the pair may reach 106.72. After that, the instrument may correct towards 107.20 and then form a new descending structure with the target at 106.50. After breaking 0.9715, USDCHF is expected to continue growing with the target at 0.9763. Today, the pair may reach 0.9733 and then correct to return to 0.9725. Later, the market may start another growth towards the above-mentioned target. AUDUSD is consolidating around 0.6444. According to the main scenario, the price is expected to break this range to the downside and then start another decline with the short-term target at 0.6363. After that, the instrument may correct to return to 0.6440 and then resume trading inside the downtrend to reach 0.6310. Brent is still consolidating around 29.30. Possibly, the pair may break this level downwards and continue the correction to reach 27.70. After that, the instrument may form one more ascending structure to return to 29.30 and then start a new decline towards 27.00 to complete the correction. Later, the market may start another growth with the target at 38.20. Gold has returned to 1711.35 to test it from above. The main scenario implies that the price may continue growing with the short-term target at 1727.47. BTCUSD continues growing with the short-term target at 9500.00. Possibly, today the pair may trade downwards to reach 9100.00 and then form one more ascending structure towards the above-mentioned target. After that, the instrument may start another correction to reach 8800.00 and then resume trading upwards with the target at 10000.00. After finishing the descending wave at 2824.4, the Index is consolidating around this level. If later the price breaks this range to the upside, the market may correct towards 2890.5; if to the downside – resume trading downwards with the short-term target at 2703.0."
5,"Ichimoku cloud analysis: EUR/USD, GBP/USD, USD/CHF","EURUSD is trading at 1.0806; the instrument is moving below Ichimoku Cloud, thus indicating a descending tendency. The markets could indicate that the price may test the cloud’s downside border at 1.0835 and then resume moving downwards to reach 1.0645. Another signal in favor of further downtrend will be a rebound from the descending channel’s upside border. However, the bearish scenario may be canceled if the price breaks the cloud’s upside border and fixes above 1.0915. In this case, the pair may continue growing towards 1.0995. To confirm further decline, the asset must break the rising channel’s downside border and fix below 1.0765. GBP/USD is trading at 1.2196; the instrument is moving below Ichimoku Cloud, thus indicating a descending tendency. The markets could indicate that the price may test Tenkan-Sen and Kijun-Sen at 1.2445 and then resume moving downwards to reach 1.2095. Another signal in favor of further downtrend will be a rebound from the descending channel’s upside border. However, the bearish scenario may no longer be valid if the price breaks the cloud’s upside border and fixes above 1.2335. In this case, the pair may continue growing towards 1.2405. USD/CHF is trading at 0.9730; the instrument is moving above Ichimoku Cloud, thus indicating an ascending tendency. The markets could indicate that the price may test the cloud’s downside border at 0.9695 and then resume moving upwards to reach 0.9815. Another signal in favor of further uptrend will be a rebound from the rising channel’s downside border. However, the bullish scenario may no longer be valid if the price breaks the cloud’s downside border and fixes below 0.9655. In this case, the pair may continue falling towards 0.9545. To confirm further growth and completion of an Inverted Head & Shoulders reversal pattern, the asset must break 0.9745."
6,EUR/USD Intraday: Towards 1.0785,"Towards 1.0785.    Stay on top of the markets with Swissquote’s News & Analysis   Pivot (invalidation): 1.0825 Our preference
Short positions below 1.0825 with targets at 1.0800 & 1.0785 in extension.Alternative scenario
Above 1.0825 look for further upside with 1.0840 & 1.0855 as targets.Comment
A break below 1.0800 would trigger a drop towards 1.0785. 1.2165 expected.Pivot (invalidation): 1.2245 Our preference
Short positions below 1.2245 with targets at 1.2185 & 1.2165 in extension. Alternative scenario
Above 1.2245 look for further upside with 1.2270 & 1.2300 as targets.Comment
The RSI is bearish and calls for further decline.  Capped by a negative trend line.Pivot (invalidation): 107.10Our preference 
Short positions below 107.10 with targets at 106.70 & 106.55 in extension.Alternative scenario
Above 107.10 look for further upside with 107.25 & 107.45 as targets.Comment 
As Long as the resistance at 107.10 is not surpassed, the risk of the break below 106.70 remains high."
7,"Forex Today: Mood improves, dollar remains strong","What you need to know on Friday, May 15th: The American dollar remained the strongest, surging against most major rivals after US President Trump backed a stronger dollar. His words came just one day after Fed’s Powell dismissed negative rates in the US. The market ignored that the US unemployment claims last week were close to 3 million.Asian and European indexes closed in the red, but Wall Street posted substantial gains, pushing commodity-linked currencies marginally higher against the greenback in the last hour of trading.The shared currency and the pound, both weakened against their American rival. There was no particular catalyst but increased dollar’s demand.Crude oil prices edged higher, with WTI settling around $28.00 a barrel, despite EIA’s outlook for oil demand declined to 91.2 b/d for this year. The Organism stressed coronavirus and a possible second wave are a major risk factor for oil demand.Gold prices soared, with spot setting above $1,370.00 a troy ounce. Gains were backed by resurgent demand for safe-haven assets throughout the first half of the day. The metal held on to gains during US trading hours despite the market’s mood improved.Cryptocurrency Market News: Bitcoin fails to hit 10K but could make another push"
8,EUR/USD: Remains stuck in the lower half of its near six week range [Video],"The euro remains stuck in the lower half of its near six week range. Support at $1.0725./$1.0765 is holding firm but rallies still seem to be struggling to find traction before faltering again. Can the resistance of the pivot at $1.0890 be overcome? The past couple of sessions have been testing the pivot but it remains a key near term barrier. For now, the bulls are stuck in a rut and once more we see the market drifting back lower this morning. Momentum indicators do not suggest any positive traction is being called, as RSI remains anchored in the lower reaches of the month long 40/56 range, whilst MACD and Stochastics begin to fall over again. This infers a test of support is more likely, with $1.0725/$1.0765 still a key basis of a range floor. The hourly RSI is worth watching though as if this is a range, then there should be a pick up around 30/35 again (which has held for the past week). The outlook favours selling rallies towards $1.0890 and to continue to play for the bottom of the range. For now though, we expect this range to continue. Risk Warning for Financial PromotionsHantec Markets' various market reports and commentary are issued by Hantec Markets Limited, who is authorised and regulated by the Financial Conduct Authority (FCA) in the UK, No. 502635. The reports are prepared and distributed for information purposes only.Trading in Foreign Exchange (FX), Bullion and Contracts for Differences (CFDs) is not be suitable for all investors due to the high risk nature of these products. Forex, Bullion and CFDs are leveraged products that can result in losses greater than your initial deposit. The value of an FX, Bullion or CFD position may be affected by a variety of factors, including but not limited to, price volatility, market volume, foreign exchange rates and liquidity. You may lose your entire initial stake and you may be required to make additional payments. Please ensure you fully understand the risks involved, seeking independent advice if necessary prior to entering into such transactions. Before deciding to enter into FX, Bullion and/or CFD trading, you should carefully consider your investment objectives, level of experience, and risk appetite. You should only invest in FX, Bullion and/or CFD trading with funds you are prepared to lose entirely. Therefore, only your excess funds should be placed at risk and anyone who does not have such excess funds should completely refrain from engaging in FX and/or CFD trading. Do not rely on past performance figures. If you are in any doubt, please seek further independent advice.The reports do not constitute personal investment advice, nor do they take into account the individual financial circumstances or objectives of the clients who receive it. All information and research produced by Hantec Markets is intended to be general in nature; it does not constitute a recommendation or offer for the purchase or sale of any financial instrument, nor should it be construed as such. All of the views or suggestions within the reports are those solely and exclusively of the authors, and accurately reflect their personal views about any and all of the subject instruments and are presented to the best of the authors' knowledge. Any person relying on these reports to undertake trading does so entirely at his/her own risk and Hantec Markets does not accept any liability.© 2014 Hantec Markets Limited"
9,"Gold Price Analysis: Surges to 3-week tops, beyond $1730 level","Gold finally broke out of its daily consolidative trading range and spiked to three-week tops, beyond the $1730 level. A convincing break through the $1720-22 supply zone was seen as a key trigger for bullish traders and the latest leg of a sudden spike in the last hour.The mentioned hurdle marked a multi-week-old descending trend-line, which constituted towards the formation of a symmetrical triangle on the daily chart. A convincing break through an important barrier might have already shifted the near-term bias back in favour of bullish traders.Meanwhile, technical indicators on the daily chart maintained their bullish bias and further add credence to the constructive outlook. The set-up now supports prospects for a further near-term appreciating move, back towards retesting multi-year tops, around the $1748 region.On the flip side, any pullback might now be seen as a buying opportunity and help limit the downside near the trend-line resistance breakpoint, around the $1722-20 zone. This is closely followed by the $1715 horizontal level and should now act a strong base for the commodity.  "
10,"RBNZ: Rates on hold, QE expanded – UOB","Economist at UB Group Lee Sue Ann reviewed the recent decision by the RBNZ to leave rates unchanged and expand its QE programme.“The Reserve Bank of New Zealand (RBNZ) held its Official Cash Rate (OCR) steady at a record-low of 0.25%. However, the Large Scale Asset Purchase (LSAP) programme has been expanded to a potential NZD60bn, from its previous limit of NZD33bn. The LSAP programme includes NZ Government Bonds, Local Government Funding Agency Bonds and, now, NZ Government Inflation-Indexed Bonds.”“In its accompanying press release, the RBNZ stated that “the Monetary Policy Committee is prepared to use additional monetary policy tools if and when needed, including reducing the OCR further, adding other types of assets to the LSAP programme, and providing fixed term loans to banks.”“According to minutes of the meeting, policymakers discussed the option of a negative OCR in future, although at present financial institutions are not yet operationally ready. Consequently, the Committee reaffirmed its forward guidance that the OCR will remain at 0.25% until early 2021.”“That said, even with the need for further monetary policy easing, we think that negative interest rates will come with considerable baggage and we do not expect the RBNZ to take the OCR into negative territory, at least not any time soon. Instead, we think the RBNZ will continue to use volume announcements (eg. the programme is currently NZD60bn in size) as it fine-tunes its policy stance. However, another option would be to adjust their QE programme to a type of “yield curve control” (or YCC), as used in Australia.”"
11,USD/MXN drops below 24.00 after Banxico cuts rates as expected,"The USD/MXN pair dropped following the decision of the Bank of Mexico to cut rates. As of writing, it stands below 23.90, trading at two-day lows.Before Banxico’s announcement, the pair was moving sideways between 24.10 and 24.40, supported by a solid performance of the Mexican peso. Below 24.00, the bearish momentum intensified. The next support is seen at 23.80 followed then by 23.55. On the upside, 24.15 is the immediate resistance now and then comes the critical 24.35/40 that if broken, should lead to more gains.“Taking into account the referred risks for inflation, economic activity and financial markets, major challenges arise for monetary policy and for the economy in general. Considering the room for maneuvering that on balance monetary policy has as a result of these implications, and with the presence of all its members, Banco de México’s Governing Board decided unanimously to lower the target for the overnight interbank interest rate by 50 basis points to a level of 5.5%”, said Banxico in its statement.On the back of lower inflation and the impact on the economic activity of the coronavirus, analysts continue to see more rate cut in the short-term in Mexico.  "
12,Silver prices breaking late April highs in deflationary enviroment,"Silver is playing catch up towards the end of the week with the gold and silver ratio falling close to 1%. At the time of writing, XAG/USD is trading at $15.83 having climbed over 1.65% from $15.45 to a high of $15.85.Silver prices tend to follow but lag behind gold, especially when the tide is coming in and prices are rising. There is a conundrum in the markets at the moment, as to whether we will see deflation before inflation and what it means for gold prices. However, when we look to the charts, gold has been performing no matter the outlook with respect to deflation or inflation or whether stocks and bond prices are up or down since late April.Everyone agrees to buy gold at the moment, whether you are a deflationist or reflationist. In an environment where rates are heading to zero and there is a race to the bottom on FX by the central banks, what is bullish for gold should typically be bullish for silver.However, we saw in 2008 and with the recent coronavirus crash of Black Thursday, when global markets crash, and investors run to cash to cover margin calls, both gold and silver fall. In the longer term over the length of prior recessions, the yellow metal has consistently demonstrated an increase in value. Silver, on the other hand, has remained flat during past downturns if not negative. Silver has a tendency to lose value due to its high usage in industry.However, it is extremely deflationary out there this time around, more s than previous recessions. With all currencies falling in value and commodities falling more than the currencies, this is an unprecedented scenario that should be supportive to both silver and gold. ""Our expectation remains that, when the dust settles, capital will seek to shelter itself from a prolonged period of negative real rates following the pandemic,"" analysts at TD Securities explained. In this context, we continue to see an elevated hurdle for a significant shift in CTA positioning, but note that trend followers have grown their gold length in recent days amid normalizing volatility.  "
13,AUD/NZD higher from here,"A central bank divergence can be a great way to pair up a weak currency against a stringer one. One of the tricky areas in trading FX recently has been that central banks have been cutting rates in a coordinated way. There has been a race to cut interest rates across all the banks. So, with all the central banks following the same path this has made a central bank divergence trade quite rare lately. However, the latest moves by the RBNZ has changed that. This is due to the RBNZ’s willingness to embrace native interest rates.On Wednesday the RBNZ Monetary Policy Committee agreed to significantly expand the Large Scale Asset Purchase (LSAP) programme potential to $60 billion. However, this was pretty much expected. It was the potential for negative interest rates which caused the kiwi to sell off. RBNZ’s deputy Governor Geoff Bascand confirmed that the RBNZ would like to be ready for negative rates by the end of the year. When a central bank reduces interest rates this causes its currency to fall.Given that New Zealand has already broken out of COIVD19 induced lockdown measures the dovish tilt was surprising. So, we have to remember that there is possibility of a domestic improvement which negates the need for negative rates going forward. The Reserve Bank of Australia,  by contrast,  is less inclined to negative rates and does not favour them. So, we can therefore expect to see a divergence between the AUD and the NZD. Due to this situation the yield spread between the Australian and New Zealand 10 year bond will be set to widen. See the chart here from a Bloomberg piece on this yesterday showing the yield spread difference between the tow 10 year bonds (white line). Notice how the AUDNZD pair follows the spread between the two bonds:Therefore, look for pullbacks on the AUDNZD pair and expect buyers to enter around the 1.0700 handle as long as this central bank divergence remains. Learn more about HYCM "
14,"Fed: Negative rates not impossible, but still unlikely – ABN Amro","Bill Diviney, a Senior Economist at ABN Amro, believes the chances of imposing negative rates by the Fed are not impossible, but still unlikely.“While there are certain circumstances in which negative rates become a viable option for the Fed, for the time being they look unlikely – at least not before other policy options are exhausted.” “We think more likely options for a Fed wanting to provide more accommodation include: expanding the breadth and pace of asset purchases, stronger forward guidance, and potentially caps on bond yields.” "
15,Gold Price Analysis: Massive pattern break sends us looking for upside targets,"The main story from the last couple of sessions has been the US-China trade tension escalation and Fed Chair Powell ruling out negative interest rates. These key themes are still the sticking points but today the US released the latest weekly jobless claims data too. Comments from earlier in the week by Dr Anthony Fauci also hit sentiment as he explained any ease to the lockdowns in the US could trigger a potential second wave of COVID-19 related issues. Stock markets are once again lower on the session but over the last few hours, there has been a bounce back. The Dow hit a low of 23,147 but now trades at 23,285 bouncing back nearly 140 points. With this rise in stocks, gold seems to be the biggest beneficiary to the change in risk as the majority of the gains happened in the last 4 hours or so in tandem with the rise in the indices. US Initial claims data printed at 2.981 million for the week ended May 9 vs 3.176 million in the prior week and marked the sixth straight weekly drop. Although higher than the consensus average it was comfortably within the high low estimate range from the surveyed analysts.Gold has pushed higher on Thursday as the safe haven pushed past the trend line and this comes despite the dollar index trading higher for the session. Now that the pattern has broken the first target of course is the wave high at USD 1747.82. Only if this level is broken can we look toward the Fibonacci extension targets in the chart below. 

On the weekly chart, USD 1791.18 is the level to beat. This is where the initial resistance came in from the lower high wave after the all-time high at USD 1921.07. This is bang in the middle of the two Fib extension zones in the red box. If there is a break above those zones then the aforementioned all-time high is the target.  "
16,What’s driving dollar gains in early NY trade,"The US dollar extended its gains against all of the major currencies this morning. Some market watchers are attributing the dollar’s rise to President Trump’s support for the greenback because in an interview this morning with Fox News he said “it’s a great time to have a strong dollar.” However the truth of the matter is that the currency is rising for other reasons because Trump’s dollar outlook has no real impact on its direction. Instead, investors are still reeling from the Federal Reserve’s perspective on negative interest rates. Fed Chairman Powell made it clear on Wednesday that negative rates are not on the table because their effectiveness is questionable and the central bank has other tools. Risk aversion is also lifting the greenback with Dow futures down another -200 points, adding to yesterday’s -500 point decline. Tensions between US and China continue to grow with the White House looking at US fund investments into Chinese companies and now, the accounting practices of publicly traded Chinese firms. China on the other hand could block US pension fund investment. None of this is good for the markets or global growth and that sentiment contributes to the sell-off in stocks. Jobless claims rose more than expected, adding fuel to the decline in equities. Unfortunately the gains in the next 24 hours could be modest as Friday’s retail sales report should be very weak with the ongoing shutdown in April leading to continued contraction in demand. The University of Michigan’s consumer sentiment index is also scheduled for release and while sentiment is expected to deteriorate further, the decline may be moderate as states begin to reopen.The Bank of England is also not interested in negative interest rates according to Governor Bailey. There’s no question that the central bank will ease further, most likely by boosting asset purchases but the “markets have calmed down in past few weeks” and the “UK financial system can handle more stress.” Most importantly, they fear that negative rates would create problems for banks, which is a view the Fed probably shares as well. Sterling is trading lower against the greenback despite the BoE’s outlook on negative rates. Meanwhile the US dollar’s rally drove EUR/USD below 1.08. Economic data from the region was mixed with France reporting an improvement in their unemployment rate and Germany reporting lower wholesale prices in April. First quarter GDP numbers are due on Friday and a steep contraction is expected.The weakest currency is the Australian dollar. Approximately 594,000 jobs were lost in the month of April, worst ever for Australia. More than 220K of those were full time, the rest part time. The unemployment rate rose to 6.2%, which was less than the 8.2% forecast but the smaller increase is understated by Australians leaving the work force completely. Consumer inflation expectations also declined but at the end of the day, deteriorating US-China relations is one of the primary reasons for A$ weakness. Chinese industrial production numbers are due for release this evening, which should have a significant impact on the currency.The decline in the New Zealand dollar is expected considering the dovishness of the Reserve Bank.  However, the government unveiled a $50 billion fiscal stimulus package to support the economy and help ease the RBNZ’s burden. Manufacturing PMI numbers are scheduled for release tonight and due to the lockdown, we are looking for manufacturing activity to fall sharply in March and April. No data was released from Canada but the rise in oil prices has not stopped USD/CAD from rallying 4 days in a row. Past performance is not indicative of future results.  Trading forex carries a high level of risk, and may not be suitable for all investors. The high degree of leverage can work against you as well as for you. Before deciding to trade any such leveraged products you should carefully consider your investment objectives, level of experience, and risk appetite. The possibility exists that you could sustain a loss of some or all of your initial investment and therefore you should not invest money that you cannot afford to lose. You should be aware of all the risks associated with trading on margin, and seek advice from an independent financial advisor if you have any doubts."
17,"AUD/NZD: Bulls stalling at trendline resistance, AUD overcooked","AUD/NZD is trading in the 1.0760s having climbed up to the highest levels since November 2019 on the divergence between the Reserve Bank of New Zealand and the Reserve Bank fo Australia. We are in a world of deflationary risk and we are seeing the markets adjust to that through the US dollar. The DXY has claimed back the 100 handle as markets prepare for a debt-riddled short squeeze on the dollar which can only spell more danger for commodities down the line. This leaves the Aussie exposed and looking rather precocious.  While the RBNZ's bias towards easing has supported a higher cross, when markets start to predict that that RBA will follow suit, this will be the crosses downfall.Now that the curve of infection rates has flattened in Australia, the federal government gave the green light for states to begin easing restrictions within their own timeline. However, while Australia's score sheet is one of the best when it comes to the economic impact and cases of COVID-19, the economy is far from out of the woods. One of the nearest domestic triggers for weakness in AUD will be when businesses refuse to reemploy staff that they let go of as employers worry about a second shutdown pertaining to the spread of COVID-19.The economy is highly dependent on the population spending – yet house prices have been forecast by the big banks to crash. However, the pillars of inflation, money velocity (spending) and mining CAPEX, when pulled from under the economy, with a flight to the greenback and the RBA's inability to respond to the economic crash fast enough, this will be the demise of AUD. The RBNZ, on the other hand, is ahead of the curve, which could give the NZ economy more of a soft landing. Meanwhile, yesterday’s ""mega Budget flagged a rise in NZGB issuance to $60bn in the year to June 2021, way more than any forecasters had tipped,"" analysts at ANZ Bank explained:Many in the market are likely betting that QE will be expanded and there is a strong signal for this in the Finance Minister’s letter of indemnity to the RBNZ, which explicitly indemnifies the Bank for up to 50% of nominal and 30% of linker outstandings. That being the case, the focus for the market should perhaps be that, rather than $60bn (although that is the QE cap for now and expanding it would require MPC approval). That has got to at least take some of the heat out of yesterday’s shock.  "
18,A cautious tone from Fed chair Powell and renewing trade tensions hit sentiment [Video],"The last few sessions have seen an increasing tide of risk negative influences hitting on market sentiment. Concerns over economies re-opening and the potential for second wave infection rates increasing are a factor. However, markets are also having to price for a re-emergence of trade risk, as the US and China both seem to be positioning themselves for less cordial relations. The latest comes as China is preparing measures to protect itself from litigation from the US over prospective COVID-19 damages. Jerome Powell cut a very cautious tone yesterday over the outlook for the US economy. Fed speakers have spent the week briefing against the prospect of negative interest rates and chair Powell stuck to this line. He did though also suggest the need for further fiscal support in the months ahead. This all added up to risk negative impact on markets but also dollar supportive. Treasury yields have fallen (the US curve also bull flattening) whilst equities are under growing pressure. It is interesting to see gold has edged higher from its $1700 consolidation area, whilst safe haven major forex is performing well (USD and especially JPY).Wall Street closed a second session decisively lower with the S&P 500 -1.7% at 2820 and technical top patterns are now threatening. US futures are further lower today with the E-mini S&Ps -0.4%. This is impacting across global markets, with Asian indices lower (Nikkei -1.7% and Shanghai Composite -0.8%). European markets are also under pressure with FTSE futures -1.1% and DAX futures -1.2%. In forex, there is a continuation of yesterday’s risk negative and USD positive theme. JPY is the main outperformer, whilst GBP continues to be the main underperformer. In commodities, the safe haven bias is helping gold perform well (despite the dollar strength) and hold support today, whilst silver is less of a positive outlook. Oil continues its recent consolidation.It is quite light on the economic calendar today. The only significant data of note will be the US weekly jobless claims at 1330BST which is expected to continue to reduce, but still at an enormous 2.500m claims (last week 3.169m claims).There will also be a two central bank governors speaking today. The Bank of England’s Andrew Bailey is speaking at 1130BST, whilst the Bank of Canada’s Stephen Poloz is speaking at 1530BST. For the FOMC, there is also Neel Kashkari (dove) speaking at 1600BST. We remain sceptical of the strength of the euro in the coming sessions, however, with supports breaching on Cable, we are more concerned by sterling weakness developing. Subsequently with strong support forming in recent weeks around £0.8680 we are now see the Euro/Sterling cross rate rising in recent sessions. This rally is now testing resistance of a month long range at £0.8865. What is notable is that this is a move which is being led by a decisive positive shift in momentum. The RSI is gaining impetus in a move to the high 50s which is a seven week high, whilst MACD lines are beginning to accelerate higher from a bull cross and Stochastics are pulling strongly higher too. Although yesterday’s intraday move above £0.8865 could not be sustained into the close, the bulls are having another look today. They will be fighting for a decisive move clear of the £0.8865 resistance which would effectively end the month long consolidation and complete a base pattern. This would then imply a move of +180 pips higher towards £0.9040 in due course. The hourly chart shows good support now forming between £0.8805/£0.8855 and any weakness towards 40/50 on hourly RSI is a chance to buy. A mild negative drift is increasingly taking hold on Brent Crude as the market consolidates around the $29 support. This drift has taken the steam out of the late April/early May sharp rebound. For now, this is still just a pause in the recovery. The improvement on momentum indicators is holding ground, with RSI above 50, Stochastics in strong configuration and MACD lines still rising towards neutral. However, oil traders will be eyeing the big bump in the road ahead, with the WTI June expiry on 19th May. The issues over a lack of storage and the May expiry was the source of last months huge sell-off and the technical set-up is again very similar. The initial support at $28.85 is a warning, whilst a move under $27.15 would really open for renewed weakness. It would be a sign of stability in the market if oil can get through the next week without serious renewed selling. Resistance at $31.50/$32.25 is a key barrier to overcome and if so, the way towards $36.40 can be open. For now though, the bulls are concentrating on holding support. We have now seen the first significant negative technical move on the Dow since the recovery began. A second successive bearish one day candlestick (on a -2.2% close) has resulted in a closing break of the reaction low at 23,360. Having formed resistance of at 24,380 on Tuesday, this now means that the Dow is forming lower highs and lower lows, which is the basis of a new trend lower. The confirmation of the move would now be a break below the late April low at 22,490 which is the first formal higher low of the recovery. If this is broken then Dow Theory suggests (no relation to the Dow Jones Industrial Average) that a new phase has formed and the bears are in control. Breaching 22,940 would also complete a month long top pattern and imply around 21,150 as a corrective target. There is resistance of near term overhead supply 23,360/23,660 which is initial overhead supply. Read More Analysis Here: EUR/USD, GBP/USD, USD/JPY, GoldRisk Warning for Financial PromotionsHantec Markets' various market reports and commentary are issued by Hantec Markets Limited, who is authorised and regulated by the Financial Conduct Authority (FCA) in the UK, No. 502635. The reports are prepared and distributed for information purposes only.Trading in Foreign Exchange (FX), Bullion and Contracts for Differences (CFDs) is not be suitable for all investors due to the high risk nature of these products. Forex, Bullion and CFDs are leveraged products that can result in losses greater than your initial deposit. The value of an FX, Bullion or CFD position may be affected by a variety of factors, including but not limited to, price volatility, market volume, foreign exchange rates and liquidity. You may lose your entire initial stake and you may be required to make additional payments. Please ensure you fully understand the risks involved, seeking independent advice if necessary prior to entering into such transactions. Before deciding to enter into FX, Bullion and/or CFD trading, you should carefully consider your investment objectives, level of experience, and risk appetite. You should only invest in FX, Bullion and/or CFD trading with funds you are prepared to lose entirely. Therefore, only your excess funds should be placed at risk and anyone who does not have such excess funds should completely refrain from engaging in FX and/or CFD trading. Do not rely on past performance figures. If you are in any doubt, please seek further independent advice.The reports do not constitute personal investment advice, nor do they take into account the individual financial circumstances or objectives of the clients who receive it. All information and research produced by Hantec Markets is intended to be general in nature; it does not constitute a recommendation or offer for the purchase or sale of any financial instrument, nor should it be construed as such. All of the views or suggestions within the reports are those solely and exclusively of the authors, and accurately reflect their personal views about any and all of the subject instruments and are presented to the best of the authors' knowledge. Any person relying on these reports to undertake trading does so entirely at his/her own risk and Hantec Markets does not accept any liability.© 2014 Hantec Markets Limited"
19,"GBP/USD Forecast: Pounded by Powell, Bailey's bailout unhelpful, next support in danger","Is a double-negative positive? Not for the pound. Both the Bank of England and the US Federal Reserve have rejected setting sub-zero interest rates and America's negation has the upper hand. The US dollar has been on the rise across the board, sending GBP/USD to five-week lows. Jerome Powell, Chairman of the Federal Reserve, said the bank has room to add more stimulus to support the economy but rejected the idea of setting negative interest rates, adding that his colleagues are in agreement and that their view has not changed. Bond markets and also President Donald Trump both expressed their desire. On the other side of the pond, Andrew Bailey, Governor of the Bank of England, also rejected that idea – which has proved unsuccessful in Japan and in the eurozone. However, he did open the door to expanding the bond-buying scheme and also added that the BOE stands ready to help finance the government's spending in these times of crisis.Bailey may have referred to the expansion of Britain's furlough scheme – which is proving costly – and the ongoing lockdown that Prime Minister Boris Johnson announced. However, ""help finance the government's spending"" may raise fears of outright debt monetization. So far, central banks have bought the debt on open markets in order to lower long-term borrowing costs. Purchasing new bonds directly from the government could already be frowned upon by markets.The pound's decline is mostly driven by the downbeat prospects for the UK rather than outright fears of currency devaluation. Another concern is a no-trade-deal Brexit, which remains on the cards as EU-UK talks continue without evidence of a breakthrough. Later in the day, US jobless claims stand are set to shower fewer new applications, yet an elevated rate of 2.5 million. See Initial Jobless Claims Preview: Marking time on the bottomCan cable continue lower? Momentum on the four-hour chart remains to the downside and the Relative Strength Index is holding above 30, thus outside oversold conditions. Moreover, the currency pair is trading below the 50, 100, and 200 Simple Moving Averages. Overall, bears are in the lead.Support awaits at 1.2165, which was April's low. The next support line is only at 1.1980, which dates back to March. The previous trough of 1.2250 is ow a resistance line. It is followed by 1.2270, and then by 1.2340, a swing high earlier this week."
