,title,text
0,EUR/USD Forecast: Dull trading ahead of a long holiday,"The EUR/USD pair is heading into Wall Street’s opening trading around 1.1080, having once again recovered from near the 1.1065 region. Financial markets are off in Europe, which means nothing goes on with major pairs. The US markets, however, will operate as normal, but close earlier.As commented on a previous update, the mood among investors is upbeat, with US indexes hovering at record highs. Little is to be expected in the next few hours, mainly after the release of the only piece of data, the Richmond Fed Manufacturing Index for December, foreseen at 9 from -1 in the previous month.The EUR/USD pair is confined to a range defined by Fibonacci levels, with the 61.8% retracement of its December rally at 1.1065, providing support and the 50% retracement at 1.1090 acting as resistance. In the 4-hour chart, the pair is developing below a bearish 20 SMA, which crossed below the 100 SMA. The 200 SMA remains flat, converging with the mentioned Fibonacci support. Technical indicators continue to lack directional strength within negative levels. Support levels:  1.1065  1.1020 1.0970Resistance levels: 1.1090 1.1120 1.1150  View Live Chart for the EUR/USD "
1,EUR/USD seen with potential to dip lower into the spring – Rabobank,"Analysts from Rabobank forecast the EUR/USD pair at 1.09 in a three month period and at 1.11 in nine months. “What is bad for the US economy, however, is enviably sour for the global economy. We expect any USD downside into the end of next year to be moderate as other central banks also provide more simulative monetary policy conditions. In Australia this could mean that Quantitative Easing is rolled out for the first time.”“During the past two years the market has underestimated the strength of the USD vs. the EUR. What has changed since the start of that period is that the market is no longer short of USD, meaning it should become more sensitive to any bad news. What remains the same is that the USD is still the only dominant currency on the global payments system and that the US economy continues to perform well relative to other major countries.”“We see potential for EUR/USD to dip lower into the spring. However, on our view that the Fed will be cutting interest rates aggressively into the end of the year and we see scope for the USD to lose some ground in H2 2020.”"
2,Gold Price News and Forecast: XAU/USD - Today’s Gold Upswing,"Gold maintained its strong bid tone for the second consecutive session on Tuesday and climbed to seven-week tops, around the $1490 region in the last hour.The precious metal added to the previous session's positive move and gained some follow-through traction through the early European session on Tuesday amid renewed concerns about US-China relations.As investors looked past the latest trade optimism, China's criticism over the US interference in its internal affairs – concerning Taiwan, Hong Kong – underpinned the precious metal's perceived safe-haven status. Read more... What a classic day Friday was! Gold moved a bit lower, miners moved significantly lower, and silver rallied. Truly classic and outstanding performance if one enjoys seeing topping patterns that are playing out according to their usual and likely characteristics. And Monday’s early session seems to be an encore.Let’s start with the examination of the most recent price action in gold. Read more...  Gold continue sideways, trading in a bull flag formation as we predicted for several weeks & this could go on for several weeks (unfortunately it is!). We edge higher to 1486, closing in on important resistance at 1490/92.Silver we wrote: finally beats 1710/12 as expected for a buy signal targeting 1726/30, perhaps as far as minor resistance at 1740/45 this week. Read more...  "
3,USD/INR expected to rise to 72-73 by mid-2020 – Rabobank,"Hugo Erken, Senior Economist at Rabobank, explains they see the Indian rupee appreciating against the US dollar in the near-term and then reversing its trend. They forecast USD/INR at 70.0 in three months, at 71.5 in six months and at 72.1 in a year. “In the short term, we expect the INR to appreciate vis-à-vis the USD to roughly 70, driven by a global positive sentiment towards EMs, relative calm on the US-China trade front and a gradual recovery of the Indian economy. The sharp pick-up in inflation is transitory in nature, so we expect the RBI to continue its accommodative stance.”“Mid-2020, however, we expect the USD/INR to rise to 72-73, caused by recessionary risks in the US, renewed trade tensions between China and the US (and perhaps even both sides of the Atlantic) and an underwhelming performance of the Indian economy due to a lack of structural reforms in the past.”"
4,AUD/USD at the upper end of its range,"The Australian dollar is the best performer against the greenback, holding on to higher ground above the 0.6900 level. The AUD/USD pair is confined to a tight intraday range amid the Christmas holiday keeping most major markets closed.A stronger gold, which trades at around $1.490 a troy ounce, and Wall Street flirting with all-time highs, provide support to the commodity-linked currency. Easing tensions between the US and China ever since announcing phase one of the trade deal, adds to the positive tone of the Australian currency.US markets will open their doors today but are due to an early close. The American macroeconomic calendar will offer the Richmond Fed Manufacturing Index for December, foreseen at 9 from -1 in the previous month.The AUD/USD pair, however, is unable to extend gains beyond the 0.6930 price zone, a level that was unable to surpass ever since breaking below it in July. The pair has broken a long-term descendant trend line coming from January 2018 high this month, which further adds to the bullish case.  "
5,German Stocks Fall as SEC Launches Sales Punching Investigation,"European stocks were largely positive in a thin trading session. In the UK, the FTSE rose by just 5 points while in France, the CAC index rose by 3 points. In Germany, the DAX index declined by 18 points. Part of the reason for the decline was a report that said Bayerische Motoren Werke (BMW) was under investigation by the Securities and Exchange Commission (SEC). The US regulator is looking into whether the company took part in something known as sales punching. This is a process in which the company asks dealers to register cars as sold when they are actually on car lots. BMW is not the only car company under investigation. In September, Fiat Chrysler paid $40 million on these charges. General Motors and Ford have also been accused of the same.In the United States, Futures tied to the Dow Jones Industrial Average, S&P 500, and Nasdaq rose by 15, 2, and 4 points respectively. US stocks are in pace for the best annual performance since 2012. The three indices are all up more than 25% YTD. The stocks got a boost yesterday when Boeing replaced its long-serving CEO based on how he has handled the 737-Max crisis. He will be replaced by David Calhoun, who is a long-term Boeing executive with deep ties to the aviation and private equity market. Boeing stock is up by 12% this year.The currencies market was muted today. This is because most market participants stayed away from the market. A good number of international markets were closed while others opened for just the morning session. There was no major economic data released today. Earlier in the day, the Bank of Japan released minutes of the October meeting. This did not lead to significant moves in the yen because the bank has already held its December meeting. The EUR/USD pair declined by 25 basis points and reached an intraday low of 1.1070. This is the lowest level since yesterday. On the hourly chart, the price is below the 14-day and 28-day moving averages. The pair also appears to be forming a triple bottom pattern. This implies that the price may start moving upwards in the coming days. However, this may not happen because of the current low volume.  The XBR/USD pair moved up slightly today on thin trading. The pair is trading at 65.50. The price is hovering near the highest level since September. On the hourly chart, the price is between the important support and resistance level of 64.86 and 65.92. The pair is trading slightly above the 14-day and 28-day moving averages while the RSI has been moving upwards. The pair may remain at the current level in the American session. The USD/CAD pair rose slightly to a high of 1.3167. This was slightly higher than the intraday low of 1.3136. The price is above the 14-day and 28-day moving averages while the RSI has been moving upwards. The momentum indicator is above the important level of 100. The pair may remain unchanged during the American session. General Risk Warning for FX & CFD Trading. FX & CFDs are leveraged products. Trading in FX & CFDs related to foreign exchange, commodities, financial indices and other underlying variables, carry a high level of risk and can result in the loss of all of your investment. As such, FX & CFDs may not be appropriate for all investors. You should not invest money that you cannot afford to lose. Before deciding to trade, you should become aware of all the risks associated with FX & CFD trading, and seek advice from an independent and suitably licensed financial advisor. Under no circumstances shall we have any liability to any person or entity for (a) any loss or damage in whole or part caused by, resulting from, or relating to any transactions related to FX or CFDs or (b) any direct, indirect, special, consequential or incidental damages whatsoever."
6,Crude Oil Price News and Forecast: WTI - The Expected Oil Reversal,"Oil futures were tilting slightly higher Monday, even as reports indicated that a recent pact to curb global output by OPEC and its allies may be eased and as Kuwait and Saudi Arabia appeared close to a resolution on a disputed territory, which could see fresh oil hit the market in coming months.West Texas Intermediate crude for February delivery CLF20, +0.61%, the U.S. benchmark grade, fell edged 7 cents, or 0.1%, higher at $60.51 a barrel on the New York Mercantile Exchange. The most-active contract gained 0.8% last week, according to Dow Jones Market Data. Read more... On Friday, we wrote:(…) Crude oil futures moved higher once again during yesterday’s session, overcoming the upper border of the rising green trend channel for the third time in a row. While the futures finished the day above this resistance, the bulls didn’t manage to hold gained ground in full.Earlier today, the futures opened with the red gap. This bearish development means invalidation of yesterday’s breakout, which doesn’t bode well for the bulls.The daily indicators are still very extended, also supporting the likelihood of upcoming resolution to the downside. Read more...  "
7,US: Richmond Fed Manufacturing Index slumped to -5 in December vs. 9 expected,"Manufacturing activity in the Fifth District continued to weaken in December, the latest Manufacturing Survey published by the Federal Reserve Bank of Richmond showed on Tuesday.""The composite index fell from −1 in November to −5 in December, weighed down by decreases in the already negative indexes for shipments and new orders, while the third component — employment — increased slightly,"" the press release read. This print missed the market expectation of 9 by a wide margin.The US Dollar Index pulled away from session highs after disappointing data and was last flat on the day at 97.67."
