,title,text
0,SPX500 is Strongly Bullish Targeting New Highs,"The SPX500 went exactly as expected, reaching all targets previously covered by my analysis.A break of a trend line might initiate a retracement. As the index makes more than 100 Forex pips for the ATR(5), it is perfectly suitable for trading on M15. A drop towards 1.3060 confluence zone might initiate new wave of buyers. 3058-62 is the zone. By the looks of the MTF and higher TF and momentum, the SPX500 is targeting 3088 followed by 3100.  The analysis has been done with the CAMMACD.MTF template.For more daily technical and wave analysis and updates, sign-up up to our ecs.LIVE channel."
1,Gold struggles today as risk sentiment remains strong," Gold looks set to test the psychological USD 1500 per ounce level as risk sentiment remain positive today.Equities markets in the EU and UK are both trading higher today with the FTSE 100 up 0.32%.Earlier in the session, UK services PMI moved back into expansionary territory printing at 50.0.This afternoon there is also some data that could inspire some more volatility as we get the latest US ISM non-manufacturing PMI reading.Also the despite strength in the US physical industrial commodities such as oil and copper are performing well while precious metals fall behind.On the four-hour chart below, if the USD 1500 level breaks USD 1496 per ounce will come into focus and the main consolidation low holds at USD 1477 per ounce.If the price does bounce back the two main resistance levels are at USD 1508 and USD 1516 per ounce. 
"
2,Euro Taking It on the Chin(a)!,"With the DXY going bid most of the US session because of positive China-US trade talk headlines, it’s only natural for the EUR/USD to have sold off today.  The Euro currently makes up about 57% of the US Dollar Index.  Currently EUR/USD is down -.55% at 1.1066.  With the DXY up +.41% on the day, one may expect GBP/USD to be lower as well.  However, the pair is actually just about unchanged. Granted, Sterling makes up only about 12% of the DXY, however usually if EUR/USD were to move lower, the GBP/USD would follow suit.  There were no major headlines today regarding Brexit, so that isn’t why GBP/USD is holding up.  However, if EUR/USD is falling, and GBP/USD is unchanged, something has to give.  The answer lies in the cross currency, EUR/GBP!EUR/GBP has been getting slammed all day, which means the Euro is heading lower while the Pound is going higher.  The cross currency is currently down nearly -.60% at .8685 (down 50 pips on the day).  The pair formed a flag pattern on a daily timeframe during the month of September and halted its selloff from the break lower towards the flag target at .8488.  The pair has been forming a symmetrical triangle since mid-October between .8580 and .8700 and is currently trading near the apex.On a 240-minute chart the symmetrical is clearer, and it looks as if EUR/GBP is trying to push through the lower trendline of the triangle.  If this is the case, the target is close to .8400 (whereas the target from the flag on the daily is .8488.Looking at the daily chart, there isn’t any support until the daily flag target, which is also lows from March and May, near .8475/.8500.  To find support below there, we need to look at a weekly chart.  The 38.2% retracement level from the lows of July 2015 to the highs in August 2019 is .8400 (which is also the target of the triangle on the 240-minute chart.  Below there, horizontal support comes across at .8308. If EUR/GBP does manage to hold within the triangle and bounce, resistance would be at the top, downward sloping trendline from the triangle near .8640.  Above that, there is horizontal resistance at .8715. Brexit headlines are usually key for movements in EUR/GBP.  However, with campaigning for elections ongoing, headlines may be sparse for a while, which may keep GBP/USD steady.  As we see today though, movement may come via EUR/USD and China headlines!"
3,AUD/USD with a sweet bullish setup [Video],"Donald Trump’s tweet ignite the markets again. This time, POTUS was optimistic about the future deal with China, which on some markets, caused and euphoric buying frenzy. There is an instrument, which is strongly supported by the positive comments from Trade Wars, most recent comments from the local central bank and own technical situation. This instrument is the AUDUSD.First of all, AUD is affected by the condition in the Chinese Economy. Big Dragon doing well is supporting the Aussie, simple is that. Second of all, we just got a rate decision and statement from the RBA. Although comments were not so hawkish “Prepared to ease monetary policy further if needed, reasonable to expect an extended period of low rates”, traders decided to eventually buy the AUD. That leads us to the technical situation, where we do have a beautiful inverse head and shoulders pattern, which I mentioned in one of our previous videos. The price broke the neckline and then defended that as a support, which is giving us a green light to go long. What is more, we are currently breaking the major down trendline and price closing a day above the red line, should be a bullish game changer.Similar setup can be found on the USDJPY. Yen is weakening across the globe. Here, the price also defended the neckline and went higher. For the legitimate buy signal, we need to break the resistance on the 109.Last one is the USDMXN, Dollar to Peso, where I showed you the symmetric triangle pattern. We are still inside but the buyers are not using the lower line of this formation as a trigger to go higher. This may indicate the willingness to break this support, which should bring us a sell signal. As for now, we wait but once the price will close below the green line, technical analysis will ring the bell to go short."
4,When is the New Zealand Q3 employment data and how could it affect NZD/USD?,"Early Wednesday in Asia, at 21:45 GMT Tuesday world over, the global market sees the quarterly employment data from the Statistics New Zealand. Despite rising calls for the RBNZ’s November rate cut, policymakers refrain from favoring such a move, which in turn highlights the third quarter (Q3) 2019 unemployment rate and employment change figures for the New Zealand dollar (NZD) traders. Additionally, participation rate and labor cost index are some other job indicators that are also up with the headline figures.Market consensus favors an uptick in the unemployment rate to 4.1% from 3.9% with a likely 0.3% increase in employment change versus +0.8% prior. Further, the participation rate and labor cost index (QoQ) are both expected to weaken to 70.3% and 0.6% respectively from 70.4% and 0.8% priors.Analysts at ANZ still support their forecast of a 25 basis points (bps) rate cut in November:The big event today locally will be the Q3 labour market report, due at 10:45am. We’re expecting the unemployment rate to tick back up to 4.2%, and for annual wage growth to hold steady at 2.2%. The labour market lags the economic cycle and the data are notoriously volatile, but the market will look for some direction from the print, following the paring back in pricing for a November rate cut in recent weeks. We continue to expect a 25bp cut in November and an OCR of 0.25% by mid-2020 (with further cuts in February and May).Given the mixed prints of headline economic data and comments from the Reserve Bank of New Zealand’s (RBNZ) policymakers that don’t support another rate cut, not to forget increasing trade optimism, a surprise uptick in employment will actually be a boost for the NZD/USD pair. However, the overall strength of the US dollar (USD) could keep the kiwi pair’s upside limited.On the chart, pair’s pullback from 100-day Simple Moving Average (SMA) seems to drag the quote towards a 21-day SMA level of 0.6358 ahead of highlighting 0.6330 and 0.6300 rest-points. On the upside, a sustained break beyond 100-day SMA level of 0.6462 seems to push bulls towards August month high and 200-day SMA near 0.6590.NZDUSD stalls at strong resistance ahead of labor market dataNZD/USD technical analysis: 100-day SMA, 50% Fibo. restrict immediate upsideThe quarterly report on New Zealand unemployment rate and employment change is being released by the Statistics New Zealand.The unemployment rate is the number of unemployed workers divided by the total civilian labor force. If the rate is up, it indicates a lack of expansion within the New Zealand labor market. As a result, a rise leads to weaken the New Zealand economy. A decrease of the figure is seen as positive (or bullish) for the NZD, while an increase is seen as negative (or bearish).On the other hand, employment change is a measure of the change in the number of employed people in New Zealand. Generally speaking, a rise in this indicator has positive implications for consumer spending which stimulates economic growth. A high reading is seen as positive (or bullish) for the NZ dollar, while a low reading is seen as negative (or bearish)."
5,"Gold technical analysis: Flirting with 50-DMA pivotal point, just above $1500 mark","Gold edged lower for the second straight session on Tuesday and retreated farther from a resistance marked by the top end of a one-month-old trading range, retested last week.
 
The prevalent risk-on mood, amid renewed optimism over a possible US-China trade deal, was seen as one of the key factors weighing on the precious metal's safe-haven demand.
 
Currently hovering around 50-day SMA pivotal point, any subsequent slide below the key $1500 psychological mark is likely to get extended towards the $1491 support area.
 
The downward momentum could further get extended towards the $1483 intermediate support en-route the lower end of the mentioned trading range, around the $1475-74 region.
 
Meanwhile, technical indicators on hourly charts have been gaining negative traction and support prospects for a further near-term downfall amid fading safe-haven demand.
 
However, oscillators on the daily chart have managed to hold in the positive territory and warrant some caution before placing any aggressive near-term bearish bets.
 
On the other hand, bulls are likely to wait for a sustained breakthrough the recent trading range resistance, around the $1520 region, before positioning for any meaningful upside.  "
6,BOE Preview: Three reasons why Carney's last Super Thursday may send GBP/USD down,"- The Bank of England may drop its hawkish bias despite the Brexit calm- The bank's fresh inflation forecasts and the Governor's sentiment will determine market movement- GBP/USD has more room to the downside than to the upsideSuper Thursday is even more super this time – and sterling volatility may surge – while its price may drop. The Bank of England publishes its interest rate, the meeting minutes from that decision, and the Quarterly Inflation Report. What makes this decision even more ""super"" is that it is the last one led by BOE Governor Mark Carney. Moreover, the forecasts included in the QIR feed into the elections.The bank is set to leave the interest rate unchanged at 0.75% and the Asset Purchase Facility – also known as Quantitative Easing – at £435 billion. The meeting minutes are also expected to show a unanimous vote within the nine-strong Monetary Policy Committee (MPC) to refrain from action. Unless one or two members dissent and either vote for a cut or a hike – an almost non-existent scenario – the focus would be on the QIR's forecasts and Carney's tone.And that is where the negatives may outweigh the positives despite the relative calm around Brexit.While unemployment remains low, the UK economy is suffering from a slump in investment. The BOE has already warned about this worrying trend – the result of Brexit uncertainty – several times. It is hard to make long-term decisions when the political landscape is changing at a rapid clip. Companies prefer hiring workers – which they can lay off quickly – than invest in machinery the may never pay off due to an uncompetitive environment. Source: Trading EconomicsGrowth has been slow and the economy even contracted in the second quarter of the year. While Britain likely returned to expansion in the third quarter, meager growth is on the cards. Fresh figures for the third quarter will only be made available next week, but data from the US, China, and the euro-zone all point to a slowdown. The UK is unlikely to be different, perhaps even worse.The ""Old Lady"" targets an annual Consumer Price Index rate of 2%. When inflation persistently exceeded these levels in 2018, the bank raised rates and signaled more hikes are in the pipeline. However, the data disappointed in the past two months and CPI stands at only 1.7%.The recent rise of the pound means that imported goods will now be cheaper, further depressing inflation. The QIR includes fresh inflation forecasts and these will likely be downgraded. An outlook showing weaker CPI may turn into the bank abandoning its hawkish bias – removing the intention to raise rates from its statement. Last but not least, the BOE is not alone. Slower growth and inflation are global phenomena – and the direction of monetary policy is also shared between different regions.The Federal Reserve has made a U-turn by cutting interest rates three times this year after hiking as late as December 2017.The European Central Bank set the deposit rate deeper into negative territory and restarted its bond-buying scheme. Central banks in Canada and Japan have been more dovish while Australia and New Zealand cut rates. These moves give Carney and his colleagues more reasons to become more dovish – at least for the sake of keeping the pound down and pushing inflation higher. 1) Abandoning the hawkish bias: All in all, despite some Brexit certainty and a low unemployment rate, there are good chances that the BOE will abandon its hawkish bias and weigh on sterling.2) Bias unchanged, lower forecasts: Another possible scenario is for the bank to lower its inflation forecasts but still state that it sees ""gradual and limited"" hikes down the line. In this case, sterling may shake, but is unlikely to move, as this is the BOE's current policy.3) No changes at all: The third and most unlikely scenario is for Carney and co. to maintain inflation forecasts unchanged. GBP/USD may rise in response to such potential defiance by the BOE. As it is the Governor's last post-QIR press-conference, he may feel freer to comment on current conditions and perhaps even share his opinions on Brexit. Carney has been extremely cautious about saying anything that could have been perceived as political. However, his last Super Thursday may be special. The Bank of England is responsible for setting interest rates in the UK. The government's target for the bank is 2% annual headline inflation with a band of 1% below or above.When the BOE raises interest rates, buying sterling becomes more attractive as the money deposited in British bank accounts provides a higher yield. When the London-based institution cuts rates, the pound becomes less attractive. After the financial crisis broke out, the BOE slashed its interest rates to 0.50% and introduced a bond-buying scheme. GBP/USD tumbled down and never recovered the levels around $2 per £1. The BOE's next move was to cut the rates to 0.25% after Brexit and that sent GBP/USD down from 1.50 to as low as 1.1876 at some point. Higher inflation allowed the bank to raise rates gradually to 0.75%. Governor Mark Carney, previously leading the Bank of Canada, will leave his post at the end of 2019 after two extensions. His successor is yet to be named. The BOE is waiting for the UK elections on December 12. "
7,VIX showing signs of life?,"The rally in risk assets has eased off a touch, but remains firmly intact, even as volatility shows signs of life.Equities are trimming gains this afternoon, after pushing relentlessly higher over the previous two sessions. Optimism on trade wars is the driving force behind the move, as the US and China continue to make the right noises about removing tariffs. But a rise in the Vix over the past 48 hours should send a message that the uninterrupted gains of the past few weeks may be challenged in fairly short order. Recent declines in the volatility index have seen it return to the lows of April, July and September, all periods that witnessed quick sell-offs. While a push to 15 or lower is possible, we could instead see some recent equity gains given back, perhaps if the trade war headlines take a more negative turn.ABF, or Primark with a sugar division, has hit the top of the FTSE 100 today after a solid set of numbers from its budget clothing arm. By this stage of proceedings, investors are paying little attention to the sugar division, especially now that Primark appears to have solidified its foothold in the US. Any improvement in sugar and grocery is welcome, but it is the clothing business that is the real driver of growth."
8,Tale of Two Indexes: Non-Manufacturing ISM vs Markit PMI,"The ISM Non-Manufacturing Index strengthened in October. Markit's Service PMI weakened.ISM Report on BusinessThe October 2019 Non-Manufacturing ISM® Index strengthened this month.Markit Services PMI™ Slowest Since Feb 2016Markit reports U.S. Services PMI™ Slowest Since Feb 2016Key FindingsThe seasonally adjusted final IHS Markit US Services Business Activity Index registered 50.6 in October, dropping slightly from 50.9 in September and downwardly revised from the flash figure of 51.0. The rate of increase in business activity was only marginal overall and the slowest since the current expansion began in February 2016. Growth was weighed on by lacklustre client demand and greater hesitancy among customers to place orders.Concurrently, the New Business Index posted below the 50.0 neutral mark for the first time since data collection began a decade ago, signalling a marginal drop new order levels. Companies stated that the postponement of orders placed by clients and weaker demand underpinned the broad stagnation.Meanwhile, new export orders fell for the third month running. The rate of contraction eased slightly from September's recent record, but was still the second-fastest fall in the series' history.Subsequently, service providers registered a faster decline in employment in October as voluntary leavers were not replaced and firms struggled to fill outstanding vacancies. The rate of contraction was solid overall and the sharpest for almost a decade.At the same time, backlogs of work fell for the third month running as service providers noted that weaker client demand allowed firms to process incoming new orders in a more timely manner.IHS Markit Services PMIChris Williamson, Markit Chief Business Economist CommentsThese reports supposedly measure the same thing.One shows a big jump in employment the other, the fastest decline in a decade. This material is based upon information that Sitka Pacific Capital Management considers reliable and endeavors to keep current, Sitka Pacific Capital Management does not assure that this material is accurate, current or complete, and it should not be relied upon as such."
9,,
10,,
11,Gold setzt Ausverkauf fort - Dollar gewinnt an Schwung,"Der Goldpreis hat am Dienstag gut 1,50 Prozent an Wert verloren. Sichere Anlagehäfen werden abgestoßen. Die Zehnjahresrendite aus den USA steigt gemeinsam mit dem USD/JPY. Das spiegelt eine hohe Risikobereitschaft der Marktteilnehmer wieder. Auch die US-amerikanischen und europäischen Aktienmärkte legen zu.Der Grund für den Stimmungsumschwung war der stärker als erwartet ausgefallene ISM-Index für den Dienstleistungssektor, der die Erwartungen übertroffen hatte. Zudem wurde berichtet, dass die USA und China zu Zugeständnissen bereit seien, um einen Handelsdeal zu erreichen. Im 4-Stundenchart wird das Drama im Goldpreis ersichtlich: die lange rote Kerze illustriert den Schmerz der Gold-Anleger.Die nächste, relevante Unterstützung könnte sich im Bereich von 1.480 Dollar befinden, wo mehrere Trendlinien zusammenlaufen. In den vergangenen Wochen konsolidierte der Goldpreis in einem Bereich von 1.520 bis 1.475 Dollar. Ein Breakout auf der ein oder anderen Seite würde eine kurzfristige Richtungsentscheidung herbeiführen.  "
12,,
