,title,text
0,EUR/USD Price Analysis: A test of 1.1420 appears closer,"EUR/USD is prolonging the rebound from Friday’s lows near 1.1250, managing well to retake last week’s tops in the 1.1370/80 band.If the buying bias picks up pace, there is increasing chances of a move to the 1.1400 barrier ahead of June’s high at 1.1422.Further out, as long as the 200-day SMA, today at 1.1050, holds the downside, further gains in EUR/USD remains well on the table.  "
1,EUR/USD: Break of 1.1369/71 to open the door toward March high at 1.1495 – Credit Suisse,"EUR/USD is trading above the 1.1355 level, up 0.12% on the day, and is set to test the 1.1369/71 key resistance. A break above here would open the door to a challenge on the March high for the year at 1.1495, analysts at Credit Suisse apprise.“A close above the key resistance at 1.1369/71 – the 38.2% retracement of the entire 2018/2020 fall and high of last week – remains seen as the barrier to see the range resolved higher with potential trend resistance seen at 1.1397 next, ahead of the high of June at 1.1423 and then more importantly the high for the year at 1.1495.”“Whilst we expect the 1.1495 level to remain a formidable barrier, a break higher at any stage would be seen completing a significant medium-term base to mark a more sustained trend higher which could eventually see the market test its early 2018 point-of-breakdown at 1.2155.” “Support moves to 1.1324 initially, with 1.1295/91 now ideally holding. Beneath can see a retest of price support at 1.1258/54, but only below here would warn of an in-range top.” "
2,EUR/USD steadies around 1.1400 after surging to fresh multi-week highs,"After spending the European morning around 1.1350, the EUR/USD pair gained traction during the American session and advanced to its highest level since June 10th at 1.1406. As of writing, the pair was up 0.5% on the day at 1.1396.The heavy selling pressure surrounding the greenback seems to be fueling the pair's rally in the second half of the day. In the absence of significant fundamental drivers, the US Dollar Index (DXY) continues to react to Wall Street's performance. Following an uninspiring start to the day, major equity indexes in the US turned north and made it difficult for the safe-haven USD to find demand.As of writing, the DXY was down 0.3% on the day at 96.25, while the Dow Jones Industrial Average and the S&P 500 were gaining 1.2% and 0.5%, respectively.Earlier in the day, the data published by the Eurostat revealed that Industrial Production in the eurozone expanded by 12.4% in May following April's contraction of 18.2%. Although this reading came in worse than the market expectation of 15%, the shared currency's reaction remained muted.On Thursday, the European Central Bank (ECB) will announce its interest rate decision and release its policy statement. Previewing this event, “we expect no major policy changes next week,"" said Rabobank analysts. ""The ECB waits for more data on the economic outlook, developments on the fiscal front as well as the impact of its own measures.”  "
3,"Forex technical analysis and forecast: Majors, equities and commodities","EURUSD is still moving upwards to reach 1.1380. Possibly, the pair may reach it and then form a new descending structure towards 1.1314 and then start another growth to reach 1.1350, thus forming a new consolidating range. If later the price breaks this range to the downside, the market may resume trading downwards with the target at 1.1225; if to the upside – form one more ascending structure towards 1.1400. After breaking 1.2586 to the downside, GBPUSD is still moving downwards. Possibly, today the pair may test the above-mentioned level from below and then start a new decline to reach 1.2509. Later, the market may form one more ascending structure to return to 1.2586. After breaking 70.66, USDRUB is expected to continue falling towards 69.94. Later, the market may form one more ascending structure to reach 71.09 and then start a new decline with the target at 69.00. After finishing the ascending wave at 107.07 and forming an upside continuation pattern around this level, USDJPY has broken 107.10 to reach the short-term target at 107.31; right now, it is trading around 107.20. Possibly, the pair may form a new descending structure to return to 107.07 and then start another growth to reach 107.50. Later, the market may resume falling with the target at 106.90. USD/CHF is consolidating around 0.9414. Today, the pair may grow to reach 0.9440 and then fall towards 0.9400, thus forming a new consolidating range. The main scenario implies that the price may break this range to the upside at 0.9440 and form one more ascending structure with the target at 0.9550. AUD/USD is still consolidating around 0.6964; it as already reached the downside border of the range at 0.6926 and right now is growing to break 0.6964. Later, the market may continue trading upwards to expand the range up to 0.7000. After finishing another correctional structure at 42.00, Brent is expected to form one more ascending wave to break 43.50. Later, the market may continue moving upwards with the short-term target at 45.00 and then start a new decline to test 43.50 from above. After breaking 1802.50, Gold is still falling towards 1794.00. Later, the market may form one more ascending structure to return to 1802.00 to test it from below and then start another decline with the target at 1792.50. After breaking 9180.00, BTCUSD is still falling towards 9060.00. After that, the instrument may correct to test 9180.00 from below and then start a new decline with the target at 8700.00. After reaching the short-term upside target at 3236.4, the S&P 500 Index is correcting to reach 3145.7. After that, the instrument may form one more ascending structure to reach 3240.4 and then resume trading downwards with the target at 3117.7."
4,"EUR/USD eases from 1-month tops, still well bid above mid-1.1300s post-US CPI","The EUR/USD pair edged higher through the early North American session and refreshed one-month tops, around the 1.1380 region in the last hour, albeit quickly retreated few pips thereafter.Following an early dip to the 1.1325 region, the pair managed to regain traction and turned positive for the third consecutive session on Tuesday. The uptick lacked any obvious fundamental catalyst and also seemed rather unaffected by weaker-than-expected German/Eurozone ZEW economic survey.In fact, the German ZEW Economic Sentiment came in at 59.3 for the current month, a tad below consensus estimates pointing to a reading of 60. Meanwhile, the Current Situation Index also fell short of market expectations and edged higher to -80.9 from -83.1 recorded in May.On the other hand, the US dollar struggled to capitalize on the previous day's late rebound and did little to provide any meaningful impetus to the EUR/USD pair. However, renewed concerns about worsening US-China relations and surging COVID-19 cases underpinned the greenback's relative safe-haven status.Meanwhile, the USD bulls seemed rather unimpressed following the release of the latest US consumer inflation figures, which showed that the headline CPI rose by 0.6% in June as compared to 0.5% expected and -0.1% previous. The yearly rate matched expectations and came in at 0.6%.It will now be interesting to see if bulls are able to maintain their dominant position or the pair once again meet with some fresh supply at higher levels as investors might be reluctant to place any aggressive bets ahead of the ECB decision on Thursday.  "
5,EUR/USD flirts with daily highs near 1.1360 post-ZEW,"The shared currency has left behind the initial pessimism and is now lifting EUR/USD to the area of daily peaks in the 1.1360/65 band on turnaround Tuesday.EUR/USD is up for the third session in a row on Tuesday, extending the breakout of 1.13 the figure and targeting the area of recent weekly tops around 1.1380.The price action in the pair remains sustained by the persistent bearish note surrounding the greenback and against the backdrop of unremitting hopes of a strong recovery in both the euro area and the US, in spite of the relentless advance of the COVID-19 pandemic.In the docket, the German Economic Sentiment tracked by ZEW came in a tad below estimates at 59.3 for the current month, while Industrial Production in the broader Euroland expanded strongly at a monthly 12.4% during May.In the NA session, inflation figures gauged by the CPI will take centre stage seconded by the NFIB index and speeches by FOMC’s Brainard and Bullard.EUR/USD as started the week on the positive side once again, always supported by the solid improvement in the risk-associated universe and advancing to the 1.1380 region. The constructive view in the euro, in the meantime, stays well and sound and supported by the improvement of key fundamentals in the region amidst the current (and massive) monetary stimulus delivered by central banks. On top, the solid performance of the region’s current account is also adding to the attractiveness of the shared currency.At the moment, the pair is gaining 0.11% at 1.1356 and a breakout of 1.1375 (monthly high Jul.13) would target 1.1422 (monthly high Jun.10) en route to 1.1495 (2020 high Mar.9). On the other hand, immediate contention is located at 1.1168 (monthly low Jun.19) seconded by 1.1147 (high Mar.27) and finally 1.1050 (200-day SMA)."
6,EUR/USD: Appetite to buy into weakness [Video],"The euro bulls continue to test the multi-week resistance between $1.1350/$1.1375 which has acted as a limit to their attempts to get real control on this market. There is an appetite to buy into weakness that means EUR/USD is pressuring higher, however, there needs to be a release of the shackles to truly back a bull run. Momentum indicators look primed and ready, with the Stochastics and RSI swinging higher in a positive bias, whilst MACD lines have converged above neutral, potentially ahead of a bull cross. Yesterday’s close of $1.1340 was the highest close for a month and adds further evidence that the bulls are ready. We look to buy into supported weakness. Support at $1.1255 needs to hold, but the bulls will want to build above $1.1300 now (shown on the hourly chart as a near term pivot). A close above $1.1375 would confirm the bulls in control to test $1.1420 and then the crucial $1.1490 March high comes into play. Risk Warning for Financial PromotionsHantec Markets' various market reports and commentary are issued by Hantec Markets Limited, who is authorised and regulated by the Financial Conduct Authority (FCA) in the UK, No. 502635. The reports are prepared and distributed for information purposes only.Trading in Foreign Exchange (FX), Bullion and Contracts for Differences (CFDs) is not be suitable for all investors due to the high risk nature of these products. Forex, Bullion and CFDs are leveraged products that can result in losses greater than your initial deposit. The value of an FX, Bullion or CFD position may be affected by a variety of factors, including but not limited to, price volatility, market volume, foreign exchange rates and liquidity. You may lose your entire initial stake and you may be required to make additional payments. Please ensure you fully understand the risks involved, seeking independent advice if necessary prior to entering into such transactions. Before deciding to enter into FX, Bullion and/or CFD trading, you should carefully consider your investment objectives, level of experience, and risk appetite. You should only invest in FX, Bullion and/or CFD trading with funds you are prepared to lose entirely. Therefore, only your excess funds should be placed at risk and anyone who does not have such excess funds should completely refrain from engaging in FX and/or CFD trading. Do not rely on past performance figures. If you are in any doubt, please seek further independent advice.The reports do not constitute personal investment advice, nor do they take into account the individual financial circumstances or objectives of the clients who receive it. All information and research produced by Hantec Markets is intended to be general in nature; it does not constitute a recommendation or offer for the purchase or sale of any financial instrument, nor should it be construed as such. All of the views or suggestions within the reports are those solely and exclusively of the authors, and accurately reflect their personal views about any and all of the subject instruments and are presented to the best of the authors' knowledge. Any person relying on these reports to undertake trading does so entirely at his/her own risk and Hantec Markets does not accept any liability.© 2014 Hantec Markets Limited"
7,EUR/USD Price Analysis: Bulls seeking a break of top side critical structure,"EUR/USD is showing signs of a bullish nature, although the price is likely to struggle as daily highs and weekly/monthly structure. On the hourly time frame, as per the first chart, we can see that there has been a correction of a significant degree which could start to attract an accumulation of bids in order to push the price into another bullish impulse.  However, there is a tough structure that the bulls will need to break through in the daily chart:On a break of the structure, it is blue skies:Failures to break through the top side opens risk of a re-run to the downside.However, while above the 21 moving average with MACD bullish, there are no confirmations that the Bulls are done yet. "
8,EUR/USD to see the June high at 1.1422 amid greenback weakness,"The German ZEW survey unexpectedly showed dented economic sentiment in Europe while US core inflation held at 1.2% in June, beating the market’s expectations. EUR/USD hovers near daily highs as heads towards June high at 1.1422, FXStreet’s Chief Analyst Valeria Bednarik briefs.“EUR/USD is up despite a dismal German ZEW survey, which showed that Economic Sentiment in the country eased to 59.3 in July, below the previous 63.4 and the expected 60. German inflation, in the meantime, held steady at 0.9% YoY in June. The US has just published its June inflation, up in the month by 0.2%. Yearly inflation met the market’s forecast with 0.6%, although core CPI resulted in 1.2%, better than the 1.1% expected.”“The 4-hour chart shows a strong upward Momentum as the RSI indicator also accelerates north, currently at 64. Moving averages in the mentioned time-frame, however, lack enough directional strength to confirm a new leg north. Nevertheless, and given the broad dollar’s weakness, further gains are to be expected.” "
9,EUR/USD major range in play no breakout yet,"The EUR/USD is fully rangebound. We can see that the price is going sideways in the form of rectangle which indicates no real trend.Although the EUR/USD might seem slightly bullish there are 2 major zones to pay attention to. 1.1370-1.1260. No breakout yet as the pair is sold from the top and bought at the bottom. If we see a breakout above 1.1370, next target is 1.1432 and below 1.1260 next target is 1.1162. At this point it’s getting close to resistance and it might drop. Median point is 1.1298 so intraday traders might look into the level for some quick scalps.  The analysis has been done with the CAMMACD.Core System.For more daily technical and wave analysis and updates, sign-up up to our ecs.LIVE channel."
10,EUR/USD Price Forecast: Room for a move to 1.14 and beyond,"The onging recovery in the greenback has prompted some correction in the price action around EUR/USD on Tuesday. In spite of the knee-jerk, the absence of a more significant catalyst to shift investors’ attention to the safe haven universe should keep the underlying upside bias in spot largely unchanged.On the more macro view, developments from the coronavirus pandemic remain the exclusive driver of the mood in the global markets, as market participants continue to look past the current pick-up in infected cases around the world and stay focused on the economic recovery.EUR/USD tested and briefly surpassed the area of recent tops around 1.1370 on Monday, coming under some selling pressure soon afterwards. The rebound from the 1.1170 region (June 19/22) remains thus well in place and the next target is now at the 1.14 neighbourhood. Further north comes June’s peak near 1.1420 ahead of YTD highs in levels just shy f 1.1500 the figure (March 9). On the other hand, there is an interim support at the Fibo level at 1.1186 ahead of the more relevant 1.1170/65 band. A breach of this support band should expose a deeper pullback to, initially, the 55-day SMA at 1.1116 ahead of the always-critical 200-day SMA, today at 1.1050."
11,Forex Today: Earnings saved the day,"Here is what you need to know on Wednesday, July 15:The FX market continued to depend on equities for direction. The dollar traded with a firmer tone against most of its major rivals at the beginning of the day amid a dismal market mood triggered late on Monday by coronavirus-related headlines in the US.Wall Street, however, managed to recover the ground lost and post substantial gains on the back of solid earnings reports from big banks such as Citigroup and JP Morgan. There’s a trick, as banks’ revenues are directly linked to Fed’s massive stimulus measures meant to prop up credit markets.The EUR/USD pair flirted with the year high, trading as high as 1.1406, despite  a disappointing ZEW report.GBP/USD ended the day flat at around 1.2550, with the Pound undermined by GDP figures.  Monthly GDP was up by 1.8%  in May, below the 5% expected. The NIESR GDP estimate for the three months to June came in at -21.2%, worse than anticipated, and after printing at -19.1% in the previous month.Swiss National Bank chief Jordan was on the wires, saying that FX interventions are the most-effective instrument to curb CHF, adding that negative rates are essential. The SNB usually intervenes in the market without notice, and market players have become used to it.Commodity-linked currencies held within familiar levels, following the lead of equities for intraday direction. AUD/USD settled around 0.6940, while USD/CAD finished the day just above 1.3600.Spot gold dipped to $ 1,790 a troy ounce but bounced back to settle at $1810. Crude oil prices held within familiar levels, with WTI settling at $40.20 a barrel ahead of the API report.Cryptocurrency Market News: PayPal already confirmed cryptocurrency rumors back in March, according to a recent reportThe focus is now on the BOJ monetary policy decision. "
12,"Gold Price Analysis: XAU/USD struggles above $1,800 amid risk-on mood","Gold drops to $1,808.30 during the pre-Tokyo open Asian session on Wednesday. The bullion has so far remained in the positive territory during the week. Though, $1,807 to $1,811 area seems to restrict the quote’s immediate upside moves.The safe-haven asset recently took clues from the market’s upbeat mood. While Wall Street’s performance offered initial push to the risk-on sentiment, increasing odds of the coronavirus (COVID-19) vaccine helped to extend the optimism. In doing so, the Sino-American tension and surge in the pandemic figures seem to have been ignored.In their latest earnings reports, the key US banks like JP Morgan and Citi portrayed the success of the government’s efforts to fuel the economy. The updates not only helped Wall Street to shrug off the previous day’s pessimism but propel the S&P 500 Futures to remain solid by the press time.Also supporting the risk-on mood could be upbeat signals form Moderna and US President Donald Trump concerning the COVID-19 vaccine. While the leading pharmacy marked ‘robust’ results during the third round of trials, American President Trump also cited nearness to the cure.On the contrary, the Sino-American tension gets heated as the US rolls out sanctions on diplomats from Beijing while also defying Hong Kong’s special treatment. Further portraying the tussle among the world’s top two economies are threats from the Republican leaders to China. Additionally, rising pandemic cases in Nevada, Los Angeles County and Texas, not to forget recent worries from Tokyo, keep the risk-on mood chained.Against this backdrop, S&P 500 Futures prints 0.90% gains to 3,212 but the US 10-year Treasury yields await fresh clues to extend the latest recoveries beyond 0.62%.Moving on, the Bank of Japan’s (BOJ) monetary policy meeting, at 0.3:00 GMT, could offer immediate direction while updates concerning the US-China story and the virus woes will also be the key to follow.Unless slipping below the month-start top near $1,790, bulls are less likely to forget aiming for the multi-year high of $1,818.17.  "
13,"Gold probes multi-day lows around $1,790/oz","Prices of the ounce troy of the precious metal are fading Monday’s uptick and are resuming the downside in sub-$1,800 levels on turnaround Tuesday.The negative price action in the yellow metal comes despite the softer tone in the greenback and amidst the almost-constant bias among investors towards the riskier assets.Further out, Gold now appears somewhat decoupled from the recent move up in tandem with the riskier assets, which was mainly sustained by the declining opportunity costs of holding the metal in a context dominated by negative real interest rates.However, the commodity is expected to remain vigilant on bouts of risk aversion exclusively in response to the advance of the pandemic and its impact on the economy as well as geopolitical/trade jitters from the US-China scenario.Later in the session, investors will look to the release of US inflation figures measured by the CPI for the month of June.As of writing Gold is losing 0.49% at $1,793.61 and faces the next support at $1,756.00 (monthly low Jul.6) seconded by $1,737.01 (55-day SMA) and then $1,670.88 (monthly low Jun.5). On the other hand, a breakout of $1,818.14 (2020 high Jul.8) would expose $1,912.29 (monthly high Aug.2011) and then $1,920.94 (monthly high Sep.2011). "
14,SNB's Jordan: Forex interventions most effective instrument to curb CHF's strength,"An expansive monetary policy in Switzerland is now more necessary than ever, Swiss National Bank Chairman Thomas Jordan said on Tuesday, as reported by Reuters.""Forex interventions are the most effective instrument to curb franc's strength.""""Forex interventions, negative rates are essential.""""Even though we still have scope for further interest rate cuts, the fact remains that one cannot lower interest rates indefinitely.""""Coronavirus has increased upward pressure on franc.""""Challenge will be when and how quickly to normalise policy.""The USD/CHF pair largely ignored these comments and was last seen losing 0.15% on the day at 0.9397."
15,Wall Street Close: Bulls clinch onto bullish territory by the tops of their hooves,"Wall Street rose on Tuesday, but it was a volatile two-days and for one moment, it seemed as though the bull's had finally given up the ghost.However, stocks on Tuesday rebounded led by gains in energy and materials, as investors looked beyond a recent surge in coronavirus cases.Instead, earnings were the main focus with Amazon and other recent strong performers helping to push the bulls along out of the danger zones.The S&P 500 posted five new 52-week highs and no new lows; the Nasdaq Composite recorded 26 new highs and 28 new lows.The main focus was on the S&P 500 banks.The iS&P 500 banks index lost 1.6% as the three banks set aside a combined $28 billion to cover potential losses on loans to borrowers hurt by the coronavirus pandemic.JPMorgan Chase & Co, the largest US lender, gave some impressive results, albeit jarred by pessimism in the guidance. The stock rose 0.3% after it posted a smaller-than-expected 51% drop in second-quarter profit.Wells Fargo & Co dropped a large 5.3% after booking a quarterly loss for the first time since the 2008 financial crisis. Citigroup Inc also fell 3.6% as it reported a steep fall in quarterly profit.
Despite some recent positive macroeconomic data and significant, decisive government action, we still face much uncertainty regarding the future path of the economy,”Chase CEO Jamie Dimon said in a statement. However, we are prepared for all eventualities as our fortress balance sheet allows us to remain a port in the storm.However, his guidance in the following statement is probably the most alarming for investors:This is not a normal recession. The recessionary part of this you're going to see down the road... You will see the effect of this recession. You're just not going to see it right away because of all the stimulus.Meanwhile, analysts at ANZ Bank noted that the negotiations over Phase 4 of the US fiscal response are still ongoing.Senate Democrats are pushing Fed Chair Powell and Treasury Secretary Mnuchin for more state aid, highlighting the need for a balanced recovery. Policymakers are looking to minimise fiscal tightening in late July and early August, provide support for furloughed workers, and support the broader economy through stimulus.   "
16,Chart of the Day: DXY,"The DXY is in a ""bear flag"" pattern currently and the target is well below the 94.00 level on a breakdown. However, there is a downtrend line (blue) and if this is broken it will negate the bear flag and turn the DXY index bullish. Currently, the risk remains lower as long as the 97.00 level is not broken or closed above. Any reviews, news, research, analysis, prices or other information contained on this website is provided as general market commentary, does not constitute investment advice and may undergo changes from time to time. Trading the Financial and Currency Markets on margin carries a high level of risk and may not be suitable for all investors. The high degree of leverage can work against you as well as to your favor. Before entering trading Financial and Currency Markets, you should carefully consider your investment objectives, level of experience and risk appetite. There is a possibility that you could sustain a loss of some or more of your initial investment and therefore you should not invest money which you cannot afford to lose. You should be aware of all the risks associated with Financial and Currency Markets trading, and in case you have any doubt, rather seek advice from an independent financial advisor. FOREXANALYTIX LLC, its owners, employees, agents or affiliates do not give investment advice, therefore FOREXANALYTIX LLC assumes no liability for any loss or damage, including without limitation to, any loss of profit, which may be suffered directly or indirectly from use of or reliance on such information. We strongly encourage consultation with a licensed representative or financial advisor regarding any particular investment or use of any investment strategy.
As part of our service we provide “Patterns in Play” (abbreviated as “P.I.P.’s”). These PiPs are derived from certain clearly defined patterns that the team members identify from their analysis. Each PiP is indicated with its corresponding theoretical entry, target and invalidation levels. Please note that these are not trade recommendations; they are simply our team’s interpretation of these patterns and their theoretical levels.
Any information or material contained on this website including, but not limited to, its design, layout, look, appearance and graphics is owned by or licensed to FOREXANALYTIX LLC. Reproduction is prohibited without FOREX ANALYTIX LLC prior license in writing."
17,"Euro nears 4-month highs, CAD rate decision","Over the past few weeks, euro has been one of the best performing currencies. It rose to a nearly 4 month high versus the US dollar despite weaker than expected economic data. Eurozone industrial production rose only 12.4% against a 15% forecast. The expectations component of the German ZEW survey dropped to 59.3 from 63.4. The current conditions component rose from -83.1 to -80.9 but economists were looking for a much more significant improvement to -65. The Eurozone ZEW survey ticked up slightly to 59.6 from 58.6.  These numbers tell us that while the Eurozone is beginning to recover, investor sentiment remains subdued.  At best, investors anticipate a gradual recovery which is reasonable because the surge in cases in the US prevents a stronger global recovery.With that in mind, the outlook for the Eurozone is still brighter than other parts of the world, as they successfully controlled the spread of COVID-19. Italy, one of the countries hit the hardest by the virus reported only 114 new cases today, its lowest since February.  Yesterday Germany reported only 159 cases, but that number increased to 412 on Tuesday.  Investors are still worried about a second wave in Europe especially with borders reopening and tourism resuming. Spain reported a surge in cases on Monday leading the government to return to a flexible stage two lockdown for areas affected. These numbers still pale in comparison to the huge numbers reported in the US on a daily basis. The greenback traded lower against most of the major currencies despite stronger consumer prices. Stocks continued to rally on Tuesday after Biotech firm Moderna announced that will be starting phase 3 of their COVID-19 vaccine trails at the end of the month, joining Pfizer and BioNTech. The hope for a vaccine trumps everything else including the massive loss reported by Wells Fargo. Citigroup and JPMorgan reported significantly weaker earnings while Delta said sales plummeted 88%. The Empire State manufacturing survey and Federal Reserve Beige book report are scheduled for release tomorrow.  Economists are looking for improvements in manufacturing activity but softer numbers or a more subdued Beige Book could reverse the gains in equities triggering a sell-off in currencies.Sterling sold off on the back of softer monthly GDP and industrial production numbers. The Australian dollar traded higher on the back of stronger business confidence and Chinese trade data. Despite Australian and Chinese trade tensions, China’s demand for coal and iron has increased significantly. Iron ore imports into China rose 10% in the first half of the year while coal imports rose 13%. The New Zealand dollar fell despite stronger housing data. The focus will be on the Canadian dollar tomorrow with a Bank of Canada rate decision on the calendar. This will be the very first meeting for Governor Tiff Macklem who succeeded Poloz last month. When the central bank last met, they issued their latest economic projections which were less pessimistic. Earlier this year, they expected the economy to contract by 22% but altered that to -12%. It will be interesting to see if Macklem’s outlook differs. In mid-June, he said it will be a long time before the central bank removes stimulus as it's going to be a long slow recovery. They avoided the worse case scenario but don’t know how much damage there is to the economy. As such, the BoC can scale existing programs if needed. Since their last meeting in June, Canada has flattened the curve with only 222 cases reported over the weekend. The table below shows the fruits of the labor with employment, housing and manufacturing activity improving. Unfortunately, the country’s proximity to the US and its economic reliance on its southern neighbor means the outlook is uncertain so chances are Governor Macklem won’t be overly optimistic. USD/CAD has been slowly inching upwards over the past few days so renewed concerns could drive it to 1.37.  Past performance is not indicative of future results.  Trading forex carries a high level of risk, and may not be suitable for all investors. The high degree of leverage can work against you as well as for you. Before deciding to trade any such leveraged products you should carefully consider your investment objectives, level of experience, and risk appetite. The possibility exists that you could sustain a loss of some or all of your initial investment and therefore you should not invest money that you cannot afford to lose. You should be aware of all the risks associated with trading on margin, and seek advice from an independent financial advisor if you have any doubts."
18,"Bank of Canada Preview: Data confirms a bottom, policymakers to remain cautious","The Bank of Canada will have a monetary policy decision this Wednesday, the first lead by new Governor Tiff Macklem. A couple of weeks ago he offered his first speech as governor, and reaffirmed that the primary mission of the central bank is to deliver low, stable and predictable inflation, calling it “the foundation of economic growth.”Policymakers are expected to maintain the main rate at 0.25%, the level set last March when the ongoing coronavirus pandemic forced them into three rate cuts within a month. Speculative interest will be looking for any change in the bond-buying program, although chances of that happening are quite a few. Meanwhile, negative rates in Canada are off the table for now, as well as a rate hike, given the high levels of uncertainty surrounding how the economic recovery will unfold.Ever since the June meeting, Canadian numbers have been confirming that the economy had hit a bottom, which further points to a wait-and-see stance from policymakers. The country has added roughly 850K new jobs in June after recovering 290K in May. However, Canada has 1.8 million fewer jobs that there were in February.Manufacturing output also improved, with the Ivey PMI hitting 58.2, its highest since November 2019. The Markit Manufacturing PMI remained within contraction territory but improved from 40.6 to 47.8 in June, a result of the economic reopening.Inflation is probably the weakest indicator at this point, as yearly CPI resulted in -0.4% YoY in May, negative for the second month in-a-row. However, it’s still too early for policymakers to make decisions based on headline inflation. Governor Macklem has already acknowledged continued downward pressure on inflation.  Also, the central bank released early July the Canadian Survey of Consumer Expectation, which showed that, in the second quarter of 2020, “consumer expectations for one-year-ahead inflation rose slightly from 2.5 to 2.8 percent, close to the peak reached in mid-2018,” probably reflecting higher inflation in food prices following increased spending on store-bought food during the pandemic.As it happens with most major central banks, policymakers these days are focused on providing support to the economy throughout the coronavirus crisis. Rates are expected to remain on hold at the mentioned 0.25% for the foreseeable future.Back in April, the BOC launched the Government of Canada Bond Purchase Program (GBPP), a program to purchase Government of Canada securities in the secondary market, to “address strains in the bond market and to enhance the effectiveness of all the other actions have taken to support core funding markets,” which targets a minimum of $5 billion per week across the yield curve. No changes are expected in the GBPP either this month, as long-term bond yields remain at historical lows, in line with the BOC’s target.    In the last 4-weeks, major pairs have been struggling for direction, and USD/CAD has been no exception. Speculative interest is in wait-and-see mode, seesawing between hopes and fears correlated to coronavirus headlines.The pair is hovering around the 23.6% retracement of its latest daily decline, neutral in the daily chart. A horizontal 200 DMA around 1.3490 has provided support, while sellers have been strong around the current 1.3630 price zone. The top of the monthly range comes at 1.3715. It seems unlikely that the BOC can trigger a movement strong enough to push the pair outside the mentioned boundaries.An optimistic stance could see it pulling down to 1.3600, while below this last, an approach to the mentioned 1.3490 level seems likely, particularly considering the market is quick when it comes to selling the greenback. A test of the 1.37 area is possible only if risk aversion returns alongside dovish Canadian policymakers. "
19,Indonesia: BI to keep rates unchanged this week – UOB,"Lee Sue Ann, Economist at UOB Group, gives her views on the upcoming Bank Indonesia (BI) meeting.“BI cuts its policy rate by 25bps in June to 4.25%. The move was aimed to support the slowing economy amidst negative ramifications from the COVID-19 pandemic. Given the low inflationary pressure, anchored FX stability, and the continuous need to boost economic growth, we expect another 25bps of rate cut in 3Q (likely in August), bringing the benchmark rate to 4.00%.”“Risk to our forecast remains on the downside given the lingering uncertainty”."
