,title,text
0,USD/JPY Tests Double Top Resistance - Fibonacci Retracement In Play!,"The USD/JPY is examining the prior resistance level around 109.50-110, which is a major decision-making level for a bullish breakout or bearish reversal.The US dollar has extended to pound higher versus the Japanese yen throughout the Asian session on Tuesday. Japanese yen weakens as the demand for safe-haven assets fades over Phase one trade deal between the U.S. and China. China’s trade delegation showed confidence about the trade deal, yet few of the government officials were cautious. The USD/JPY exhibited a bullish trend in prices amid the boosted optimism related to the trade deal. Technically, the USD/JPY is heading north, and but now it may examine the double top resistance near 109.700. The USD/JPY has formed Doji patterns below 109.700 resistance, while the RSI and MACD are crossing over in the bearish zone. The 50 periods EMA is suggesting chances of a bearish retracement in the USD/JPY as it stays far away at 109.  Sell Below - 109.750 Take Profit - 109.450Stop Loss - 110.000"
1,EUR/USD Forecast: Momentum fading amid lack of follow-through,"The EUR/USD pair has extended its advance to 1.1174, a fresh weekly high, but retreated from the level to settle above the 1.1150 price zone. The market mood turned sour at the beginning of the day, as fears of a hard-Brexit returned, alongside uncertainty around the US-China trade deal, as the market is waiting for details on what they have agreed to.  Data didn’t move the bar, as minor figures were out from both economies. The EU released October Trade Balance, with the seasonally adjusted surplus up to €24.5B. The US, on the other hand, published November Housing Starts and Building Permits, which surprised to the upside by rising 3.2% and 1.4% respectively. Industrial Production in the same month rose 1.1%, beating expectations, but Capacity Utilization contracted to 77.3%. This Wednesday, attention will be on the German IFO survey and EU November inflation data. The US macroeconomic calendar has nothing relevant to offer.The EUR/USD pair has advanced above the 23.6% retracement of its December rally at 1.1145, but there was no follow-through. The risk remains skewed to the upside, according to the 4-hour chart, although the bullish potential is fading,  as, despite holding above a 20 SMA, the moving average has turned horizontal. Technical indicators in the mentioned chart remain directionless, the Momentum below its mid-line and the RSI at around 58, keeping the downside potential limited. The pair could resume its advance on a break above 1.1180, October high, and the immediate resistance.Support levels: 1.1110 1.1090 1.1050Resistance levels: 1.1180 1.1220 1.1250View Live Chart for the EUR/USD "
2,"EUR/USD Forecast: Grinding higher, but still below 1.1180"," The EUR/USD pair has advanced in London trading hours to reach a fresh daily high of 1.1174, now hovering a few pips below the level. The advance seems mostly related to the dollar’s weakness, as speculative interest pared greenback’s buying ahead of Wall Street’s opening.The market mood is mostly down, amid renewed concerns about a hard-Brexit, following news indicating that UK PM Johnson would set a new deadline to prevent any extension of the Brexit transition period beyond 2020. Also, the silence from Chinese authorities on details about the trade deal spooked investors.Earlier today, the EU released October Trade Balance, with the seasonally adjusted surplus up to €24.5B. The US has just released November Housing Starts and Building Permits, which surprised to the upside by rising 3.2% and 1.4% respectively. Pending of release are Industrial Production and Capacity Utilization for the same month.  The market barely reacted to positive US data, and politics keep overshadowing macroeconomic figures.The EUR/USD pair is trading at fresh weekly highs, having advanced modestly above the 23.6% retracement of its December rally at 1.1145 In the 4-hour chart, the pair continues offering a  neutral-to-bullish stance as it continues advancing above a mild-bullish 20 SMA, as the RSI indicator slowly grinds higher, currently at 60. The Momentum indicator remains below its mid-line, reflecting the limited buying interest at the time being. As commented in a previous update,  the risk could turn south on a break below 1.1110, while bulls should increase buying once the pair breaks above 1.1180, October high, and the immediate resistance.Support levels: 1.1045 1.1110 1.1090  Resistance levels: 1.1180 1.1220 1.1250View Live chart for the EUR/USD "
3,"GBP/USD Forecast: Further falls expected, eyes on UK inflation","The GBP/USD pair plummeted this Tuesday, touching a low of 1.3098 and finishing the day a handful of pips above the 1.3100 figure. The collapse came after Downing Street announced plans to write into law that the UK will leave the EU in 2020 without allowing an extension of the transition period. The news revived concerns about a possible hard landing.The UK released an update in employment data, which came in mixed, as the number of people claiming jobless benefits rose by 28.8K in November, against 25.4K previously, revised from 33K. The ILO unemployment rate for the 3-month to October resulted at 3.8% matching the previous reading but below expected. Finally, average weekly earnings excluding bonuses arrived at 3.5% 3Mo YoY, while the gauge, including bonus, came in at 3.5% 3Mo YoY, both slightly better than anticipated.This Wednesday, the UK will publish November inflation figures. Monthly CPI is foreseen up by 0.2% after falling by 0.2% in October. However, yearly inflation is expected to come at 1.4%, slightly below the previous 1.5%. Core annual CPI is seen unchanged from its previous reading at 1.7%.The GBP/USD pair has turned bearish after losing the 1.3300 threshold, retaining the negative stance, after plummeting below pre-election levels. In the 4-hour chart, the pair has fallen below a now bearish 20 SMA, barely holding above the 100 SMA. Technical indicators have stalled their slides near oversold readings, falling short of indicating bearish exhaustion. Chances of a bearish extension will decrease if the pair recovers beyond 1.3175, the immediate resistance.Support levels: 1.3085 1.3040 1.3000Resistance levels: 1.3175 1.3220 1.3265View Live Chart for the GBP/USD"
4,Forex Today:  Pressure on the dollar,"Here is what you need to know Wednesday, December 18th:"
5,GDT price index falls 5.1 percent - Reuters,"The GDT price index falls 5.1 percent, with an average selling price of $3,302 per tonne - global dairy trade, as reported by Reuters news.The New Zealand milk co-operative, which is owned by about 10,500 farmers, controls nearly a third of the world dairy trade, therefore,the auction results can affect the New Zealand dollar as the dairy sector generates more than 7 percent of the nation's gross domestic product.  "
6,Banxico to cut policy rate 25bp to 7.25% on Thursday – Rabobank,"Previewing the Central Bank of Mexico's (Banxico) monetary policy meeting this week, ""we expect Banxico to cut the policy rate 25bp to 7.25% on Thursday, December 19th,"" said Rabobank analysts.""Unlike the previous meeting, analysts seem united in calling for a 25bp move (no calls for 50bp) with all those surveyed by Bloomberg unanimous in their forecasts. Of the 12 analysts surveyed by Bloomberg, the call for a 25bp cut is unanimous.
We expect growth in 2019 was non-existent and we only expect growth of 0.3% y/y in 2020.""""Banxico is likely to continue cutting in 2020 and we expect some 50bp moves taking the policy rate down to 4.50% by year-end. This is in contrast to the 6% mode of analyst expectations on Bloomberg, the 6.50% consensus from Banxico’s survey, and the 6.4% implied by the front-end of the rates curve. We expect USD/MXN to primarily trade a 19.20 to 19.60 range in the next 1-3 months."""
7,Inflation Threat Looms in 2020 as Fiscal and Monetary Stimulus Ramp Up,"The Federal Reserve left its benchmark interest rate unchanged as expected last week. However, Fed Chairman Jerome Powell made news with some of his most dovish remarks to date – stating flatly that he won’t hike rates again until inflation moves up significantly.“In order to move rates up, I would want to see inflation that’s persistent and that’s significant,” Powell said at a news conference following the Fed’s announcement.He would be anticipating “a significant move up in inflation that’s also persistent before raising rates to address inflation concerns.”He could get his wish in the months ahead as monetary policy, fiscal policy, and the economy all seem to be lining up to push the inflation rate higher. In 2020, inflation may become a front-page problem for the first time in many years.The government’s release of a blockbuster jobs report this month diminishes the odds of the economy falling into a recession next year. At the same time, it increases the likelihood of inflation rates rising.It’s not that the economy is at risk of “overheating.” Overall GDP growth is likely to come in moderate at best next year.Rather, the economy is merely showing signs of sustaining its expansion at a time when fiscal and monetary policy are extremely stimulative.The U.S. government is now running trillion-dollar budget deficits for the first time since the aftermath of the 2008 financial crisis. It will effectively pump $1 trillion worth of artificial demand back into the economy in 2020.Needless to say, there is no will or way in Washington to cut spending or raise taxes in an election year.At the same time, the Fed is holding its benchmark short-term interest rate at 1.50%-1.75%, which is a negative real rate.Explains Barron’s columnist Randall W. Forsyth, “The fed-funds rate is actually below zero in real terms, that is, after factoring in inflation. Negative real rates usually are imposed to spur spending and investment to stimulate an economy in recession, which is far from the present state.”Inflation as measured by the Consumer Price Index is running at 2.1% annually according to the latest data reported by the Bureau of Labor Statistics on Wednesday. Consumer prices have climbed more than expected this fall on rising energy costs.But it’s still not enough inflation for the Fed’s liking!The central bank’s preferred inflation gauge is the core Personal Consumption Expenditures index, which is running only at an estimated 1.5% year-on-year. Jerome Powell and company want to push it to 2%...and above, on a “persistent” basis, before tightening monetary policy.Let’s not forget (like some in the financial media apparently have) that the Fed is also pursuing a massive balance sheet expansion. Even though policymakers refuse to call it QE, the monthly liquidity injections and T-bill purchases are of similar magnitude as previous rounds of Quantitative Easing.In fact, since “not QE” was announced in September (and subsequently expanded), the Fed’s balance sheet has been growing at a 28% rate. The money supply itself is expanding at an 11% clip.All this stimulus will have consequences, and they won’t just show up in the form of higher stock prices. Although the stock market seems poised to continue advancing, higher commodity and consumer prices could begin to spread through the economy as well.Though long depressed, crude oil prices have started to trend higher in recent months.Copper and precious metals prices are also showing some strength and could be on the verge of major breakouts heading into year end.When Americans think of nasty inflation, they tend to recall the late 1970s stagflation. It coincided with spikes in gold and silver markets.The inflation monster wasn’t finally tamed until Fed chairman Paul Volcker stepped in and jacked up interest rates to double-digit levels, triggering a recession. Volcker’s decision wasn’t popular on Wall Street or in Washington, but it did restore confidence in the dollar and set the stage for the expansions of the 80s and 90s.The current crop of central bankers is too cowardly, too beholden to bankers and politicians, to do what Volcker did. He passed away this month and will be remembered as an inflation hawk.But today, the doves are in charge at the Fed – and they bound and determined to create a new inflation cycle."
8,Crude Oil Price News and Forecast: WTI prices rise on easing energy demand concerns,"Crude oil extended its rally into the fourth trading day on Tuesday with the barrel of West Texas Intermediate rising to its highest level since September 17 at $61.04. As of writing, the WTI was up 1.15% on the day at $60.90.Read more...WTI oil futures for January delivery continued their upside trajectory on top of the 60 level and closed marginally above the 50% Fibonacci of the 76.87-42.53 bearish wave on Monday.Read more...  "
9,"AUD/USD Forecast: Bearish potential increased, 0.6800 on the table","The AUD/USD pair is ending Tuesday with sharp losses near a daily low of 0.6837, following dovish Minutes from the Reserve Bank of Australia. The document highlighted the relevance of the February meeting, hinting a rate cut in Q1, with policymakers worried about the rate of wages’ growth falling short of expectations.  Furthermore, Australian Home Loans rose a modest 0.5% in October, missing the market’s expectations of 1.0%. Investment lending for Homes in the same month was up by 2.0%, better than the previous 1.1%.  The poor performance of equities limited chances of recovery. The upcoming Asian session will bring the November Westpac Leading Index, previously at -0.08%The AUD/USD pair is at risk of extending its decline after breaking below the 0.6865 level, now a relevant static resistance level. In the 4-hour chart, the 20 SMA is gaining downward traction above the current level, as the price barely holds above directionless 100 and 200 SMA. Technical indicators have recovered modestly from near oversold readings, but lack strength enough to suggest the pair could recover further.Support levels: 0.6830 0.6800 0.6770Resistance levels: 0.6865 0.6900 0.6935  View Live Chart for the AUD/USD"
10,UK’s FTSE 100 and FTSE 250 soar,"The FTSE 100 and FTSE 250 had a great day yesterday surging higher as the relief over Brexit starts to be priced into the equity markets. For three years investors had been sitting on the sidelines waiting for some sort of clarity on Brexit. The Conservative majority victory, the most since 1987, has given PM Johnson a majority number of 78 seats in Parliament. This means that the UK will now be able to have their exit from the EU. PM Johnson will try to approve his Withdrawal Agreement Bill through the House of Commons and this time he will be able to secure a majority.The FTSE 100 has had around £40billion added to it yesterday and that is to be added to the £20billion of gains which came last Friday. The FTSE 100 closed up 2.25% after the steepest one day increase in nearly a year. The FTSE 250 also ripped higher. Wall Street also opened higher yesterday at record highs as optimism on the US-China trade war continued to make its way into the Equity markets. These rallies in the UK and the US have pushed global stock markets to their highest ever levels yesterday during the PM London session. The MSCI All country World Index, which measures stocks all over the world, hit record levels yesterday.With the FTSE 100 looking like it will be supported in the near term I am expecting buyers on retracements. One event risk to be aware of is the Bank of England meeting on Thursday, as the market will be keenly waiting to see what forward guidance on interest rates is given.  Learn more about HYCM"
11,GBP/USD to consolidate – Commerzbank,"Axel Rudolph, analyst at Commerzbank, suggests that GBP/USD slid back below the March peak at 1.3382, having briefly reached 1.3515 post the UK election result last week with further sideways trading below the 1.3382 level remains in store for today.“Above the high at 1.3515 sits the December 2017 high at 1.3550 and still further up the September 2017 peak at 1.3658 as well as the February 2018 low at 1.3712, all of which remain in focus for the weeks to come.”“Support is to be found between the 1.3270 late March high and the 1.3217 January peak. There is also support to be seen at the 1.3187 May peak.”“A daily chart close below the 1.3050 December 12 low would put the 200 day moving average at 1.2700 back on the plate.”"
12,"No-Deal back on the table, GBP bulls squeezed, 1.3051 election-day lows are on the radar","GBP/USD's cloud-nine time is up and the anticipated uncertainty about the extension of the transition period has come home to roost early for the bulls. GBP/USD has tumbled back to test below the 1.31 handle and bears have wiped the floor clean with the bulls in a full-on reversal of the UK election rally. GBP/USD is currently trading at 1.3126 at the time of writing having travelled from a high of 1.3335 in a move that started in early Asia following a Telegraph report which indicated that PM Boris Johnson intended to legislate against the possibility of extending the Brexit transition period beyond 2020. This (transition uncertainty) was always the risk which faced the pound, but it has kicked-up far sooner than anticipated. Leaving without a trade deal is much the same as a hard Brexit – consequently, the soft Brexit premium is currently being priced out of GBP and bulls have been sent back to the drawing board, having peaked too soon at 1.3514, the post-election Tory victory high.When the UK leaves the EU on 31 January, difficult and complex negotiations over the future relationship will begin. The country will remain in the single market and customs union until 31 December 2020 with an extension of the arrangement permitted for up to two years if it is both found necessary and agreed before 1 July. The government has said, however, it will legislate to prevent such an extension.While the Tory Party manifesto made clear that it will not extend the implementation period, the announcements that it will be put into law are, quite frankly, bewildering for markets that know all too well that 11 months would be insufficient to negotiate a comprehensive trade deal. The negotiations are going to have to deal with multiple areas, not just a free trade agreement, which will require detailed negotiations. By enshrining in law his campaign promise not to extend the transition period beyond the end of 2020, Johnson cuts the amount of time he has to strike a trade deal to 11 months from nearly three years. Markets are of the mind that the move is reckless and clearly bearish for the UK economy and currency. The laws needed to enact Brexit will be put before parliament on Friday, Johnson's spokesman had said earlier.However, on the other hand, it is not as if the UK will be bound to any domestic legislation and if push came to shove, such legislation can be easily reversed, perhaps faster than it was put into law in the first place, especially considering Johnson's 80-seat majority. It would appear that Boris Johnson is determined with his 'social-justice' agenda, acknowledging the UK's vote, to send a bold message to the EU and move quickly on behalf of the UK population, but at what cost? The bloc's chief Brexit negotiator, Michel Barnier, has also warned that 11 months is not enough time to strike a comprehensive trade deal. If negotiations between the EU and UK fail to strike a deal and the transition period were not extended, then World Trade Organisation (WTO) terms will kick in which is more burdensome for businesses on both sides.On Thursday, the Queen will formally open Parliament. PM Johnson will be laying out what he hopes to achieve in a Queen's speech and on Friday, the PM will re-introduce his Brexit deal to Parliament and there could be more light shed on all of this then. Bulls will be looking to capitalise on any headlines that are to the contrary to this latest development and will be seeking a bargain before the next leg up in GBP.Meanwhile, it might be too soon to delve into UK economic data, but this week is a busy one for the UK calendar. Yesterday's PMIs were a disappointment and today's jobs data made for some food for thought.""For now the official jobs data doesn't look quite as bad as other hiring indicators have signalled,"" analysts at ING Bank argued, however also warning that with ""Brexit uncertainty already making a comeback and investment set to remain low in 2020, hiring appetite is unlikely to improve significantly any time soon.""The employment data for the three months to October showed the unemployment rate unchanged at 3.8%, but better than the expected 3.9%. Employment gains surprised to the upside at +24k. All this, of course, comes ahead of the Bank of England meeting on Thursday but is unlikely to pose any challenge to the status quo.UK Inflation Preview: CPI bottoming, positive ahead of the BOE?It seems that the honeymoon period for the bulls has come to an abrupt end with this and the pound has faced a sudden and fast liquidation of near-term long positions. Looking forward, analysts at TD Securities think cable may be relegated back to ""untradable"" status now that No-Deal is back on the table for end-2020. ""Hopes for renewed inflows to UK markets may instead be met with investor disengagement as longer-term risk/reward deteriorates again. Ahead of this, the 1.3100/10 zone should provide support ahead of the Election Day low of 1.3051. Beyond this, 1.3011 would be the next target for GBP bears.""Despite the hardcore fundamentals, from a technical basis, there are still bulls among us:GBPUSD – Looking To Buy On Pullbacks Into SupportOn the other hand, analysts at Commerzbank argue that a daily chart close below the 1.3050 December 12 low would put the 200-day moving average at 1.2700 back on the plate. "
13,Currency Markets defined,"Currency Markets as a whole viewed from distorted JPY pairs trades totals 2 1/2 Standard Deviations. Factors as 2.65 and ranges from 46.99  to 44.34. Overall Translates as 265% and 26,500 Basis Points. The purpose to factor JPY as currently traded is to understand the entire mathematical length and ranges to currency prices. Yet factor JPY as 0.01 is off kilter to remainder 21 currency pairs against total 28.The entire Currency market factored to JPY as is, reciprocals or JPY rearranged any manner reveals the Currency Market is miles to high. To understand what miles to high means, currency markets trade a correct range from  0.7443 -1.5329. Any currency pair trades above or below is either overbought or oversold.Eliminate JPY but include GBP/JPY then the currency market range becomes 0.7696 to 1.6082. The difference to the range equates to USD/JPY and all cross pairs trade a total available of 500 pips.Reciprocal currency pairs for the total market trades from a range 0.6589 to 1.2989. Eliminate JPY except GBP/JPY then  all currencies as reciprocals  range 0.6393 to 1.3319. Or NZD V GBPUSD USDCAD and GBPCHFMost vital levels to all 28 currency pairs are located at 1.0937 1.1386 and 1.3247.Note 1.3247 and 1.2989. The vast majority of currency price trade action is found in the center and this is represented predominately by GBP/USD and USD/CAD as most vital to overall currency markets. An example. GBP/USD 1.3328USD/CAD 1.3166GBP/CHF 1.3106CAD/CHF 0.7475EUR/USD 1.1118 USDGBP 0.7503CADUSD 0.7595CHFGBP 0.7630CADCHF 0.7475USDEUR 0.8994Represented by reciprocals is USD/EUR as outlier, 1 USD Currency USD/GBP Vs counter currency pair CAD/USD and CADCHF as forecast Currency and CHF/GBP as safe haven. The driving force to all currency prices is GBP/USD and CAD. To total 28 currency pairs, 8 currency pairs are represented by a 0 Point. Those 8 currencies with 0 point not only self contain a market control for higher 1 point currencies but perform correct duties to forecast higher 1 point currencies. EURAUD Broke 1.6201, then traded higher but 1.6201 is a statistical point of reference.Actual reality forecast from central bank interest rates, AUD/EUR Bottoms are located at 0.6149, 0.6141, 0.6134 and 0.6126. AUD/EUR translates as EUR/AUD 1.6262, 1.6283, 1.6302 and 1.6323.AUD/EUR overnight range factors as 0.6153 to 0.6167 or EUR/AUD most vital break point levels at 1.6252  and 1.6215.AUD/EUR 14 pips as overnight range only traded less than 1/2 its allowable daily range.Rarely are 0 point currencies traded at full daily ranges because this is not only how currency prices are controlled but 0 point currencies are employed as forecast currencies.If AUD/EUR was allowed to trade its full 32 pip daily range then EUR/AUD range becomes 1.6155 to 1.6323.Currency prices and pairs easily defines itself as a chess game. For every white move, black must counter and vice versa. White may violate black space but then retreat against Black's defense. This may take a minute but it defines currency price lead and lags as well as overbought and oversold.  The currency price as  Chess game reveals how to forecast currency prices from other currency prices without use of charts, graphs and sophisticated math. Simply, currency prices forecast currency prices by use of a calculator."
14,"GBP/USD Technical Analysis: Bounces off lows, remains vulnerable below 200-hour SMA","The GBP/USD pair remained under some heavy selling pressure through the early European session on Tuesday and failed to gain any respite from the mixed release of the latest UK employment details for November.The pair tumbled below the 1.3200 handle, reversing Friday's massive rally to over 1-1/2-year tops, but now seems to have found some support near the 50% Fibonacci level of the 1.2823-1.3515 positive move.Technical indicators on the 1-hourly chart are already flashing oversold conditions and held investors from placing any fresh bearish bets, which eventually helped limit the downside, at least for the time being.Meanwhile, bearish acceptance below 200-hour SMA, coupled with the fact that oscillators on the 4-hourly chart have started gaining negative traction support prospects for an extension of the corrective slide.Some follow-through selling below the mentioned support, around mid-1.3100s, will reinforce the bearish outlook and set the stage for a slide towards challenging the 1.3100 handle – nearing 61.8% Fibo. level.On the flip side, any meaningful recovery attempt might now confront some fresh supply near mid-1.3200s (38.2% Fibo. level), above which the pair is likely to aim towards reclaiming the 1.3300 round-figure mark.  "
15,Dow Jones Continues Bullish Despite Fears of a Financial Crisis,"Former members of the Federal Reserve expressed concern over a possible financial crisis triggered by lower interest rates and easing of banking regulation.Dow Jones prices move slightly bearish this Tuesday descending 0.01% declining to 28,226.6 points, as the S&P 500 index climbs a modest 1.4 points or 0.04%, reaching 3195 points. Meanwhile, the NASDAQ 100 index rises 3.2 points or 0.04%, touching 8,581 points.The former director of the area of financial stability of the Federal Reserve has pointed out that when the interest rates are low, and the incentives for loans increase the risks in the market tend to grow.On the other hand, although the latest financial stability report indicated that an extended period of low-interest rates could threaten financial stability, which banks and other financial institutions assume, the Federal Reserve leaders rejected these conclusions.Despite these financial warns, the stock market still looks expecting for a new Christmas rally extending the gains of the latest sessions.The Dow Jones Index, in its daily chart, shows that the Industrial Average reached a new all-time high this Monday 16 reaching 28,344 points.The current structure shows an expansive triangle that could correspond to the fourth wave of the fifth upward impulsive movement.In other words, the bullish sequence developed by the Dow Jones Index is incomplete; thus, the price action should reach a new record high.The 4-hour chart below shows that the expansive triangle has completed four internal segments. According to what is described by the Elliott Wave Principle, a triangle has five internal segments overlapped which follow an inner 3-3-3-3-3 sequence. Additionally, this pattern is typically found on a wave four or a wave B.According to this sequence, the Industrial Average should is be making a new bearish corrective movement to, then, continue its primary bullish trend, which would take it to a new record high.In short, as long as the price action keeps the Dow Jones above 27,161.91 points, the trend of the leading US stock market will remain bullish."
16,GBP/USD: momentum indicators are beginning to wane [Video],"The dust is settling on the Conservative election victory and sterling is beginning to drift back. We continue to hold a positive medium to longer term view on Cable, but the near term picture is beginning to turn corrective. A neutral to negative candle yesterday is being followed by initial weakness today. Momentum indicators are beginning to wane, with the RSI dropping back from 78 to 70 (no basic profit-taking signal yet) and the Stochastics sliding below 80. The hourly chart shows a basis of support around $1.3300 has been breached (since becoming a basis of resistance) with a near term lower high ($1.3420) and lower low in place. A retreat back into the $1.3175/$1.3200 area of breakout support could be seen near term, however, we would be looking for a retracement to find support above $1.3000 for the next bull leg to then build. Risk Warning for Financial PromotionsHantec Markets' various market reports and commentary are issued by Hantec Markets Limited, who is authorised and regulated by the Financial Conduct Authority (FCA) in the UK, No. 502635. The reports are prepared and distributed for information purposes only.Trading in Foreign Exchange (FX), Bullion and Contracts for Differences (CFDs) is not be suitable for all investors due to the high risk nature of these products. Forex, Bullion and CFDs are leveraged products that can result in losses greater than your initial deposit. The value of an FX, Bullion or CFD position may be affected by a variety of factors, including but not limited to, price volatility, market volume, foreign exchange rates and liquidity. You may lose your entire initial stake and you may be required to make additional payments. Please ensure you fully understand the risks involved, seeking independent advice if necessary prior to entering into such transactions. Before deciding to enter into FX, Bullion and/or CFD trading, you should carefully consider your investment objectives, level of experience, and risk appetite. You should only invest in FX, Bullion and/or CFD trading with funds you are prepared to lose entirely. Therefore, only your excess funds should be placed at risk and anyone who does not have such excess funds should completely refrain from engaging in FX and/or CFD trading. Do not rely on past performance figures. If you are in any doubt, please seek further independent advice.The reports do not constitute personal investment advice, nor do they take into account the individual financial circumstances or objectives of the clients who receive it. All information and research produced by Hantec Markets is intended to be general in nature; it does not constitute a recommendation or offer for the purchase or sale of any financial instrument, nor should it be construed as such. All of the views or suggestions within the reports are those solely and exclusively of the authors, and accurately reflect their personal views about any and all of the subject instruments and are presented to the best of the authors' knowledge. Any person relying on these reports to undertake trading does so entirely at his/her own risk and Hantec Markets does not accept any liability.© 2014 Hantec Markets Limited"
17,Global Strategy Q1 2020,"Political uncertainty appears to be subsiding somewhat and a moderate economic recovery should take hold in 2020. Central banks will maintain the course they have adopted and keep an easy monetary policy in place. In this environment we prefer risk assets to safe haven assets. Growth in corporate earnings should underpin further stock market gains. In the corporate bond market we continue to recommend IG hybrid bonds as well as BB-rated HY bonds.

Economy: While a sustainable resolution of the US-China trade dispute does not appear to be within imminent reach, we expect at least no renewed escalation. The US economy should post a solid performance in the coming year, primarily driven by consumer spending. While the labor market is in strong shape, there are nevertheless no indications of a build-up of inflation risks. The inflation rate should fluctuate between 1.5% and 2.0%. The unfavorable global environment weighed on export growth in the euro zone and pushed GDP growth in 2019 markedly below the level of 2018. We expect the pace of economic growth to improve slightly in 2020 and are forecasting GDP growth of 1.2%. While the exit of Great Britain from the EU is now actually materializing, growth could be dampened by political upheaval in Italy and/or Spain. Core inflation should slightly increase, but not to an extent sufficient to push headline inflation close to the ECB's target in the foreseeable future.

Bonds: Both the Fed and the ECB will maintain their policy bias in 2020 and implement loose monetary policy. In the US we are forecasting an unchanged federal funds rate and a slight rise in yields across the entire yield curve. However, a renewed emergence of political risks (e.g. a further escalation of the trade war) could unsettle the markets and put downward pressure on yields. The ECB will leave short term interest rates unchanged. A moderate improvement in economic data should weigh on the bond market, while the ECB's asset purchase program should concurrently provide support. All in all this is likely to result in just a slight increase in yields. In the corporate bond market we continue to recommend IG hybrid bonds and bonds of the rating category BB, the highest credit quality level within the HY segment.

Currencies: Provided political problems do not escalate, the euro should benefit from an improving economic outlook in 2020. Thus we expect a moderate appreciation of the euro against both the US dollar and the Swiss franc. We are forecasting a sideways move for gold in a trading range from USD 1,450 to USD 1,500.

Stocks: Diminishing political risks and improving growth prospects are leading to a slight increase in investors' risk appetites. The prospects for corporate earnings growth in 2020 are strong and the valuation of stocks continues to be attractive in comparison to government bonds. We expect the global stock indexes to post gains ranging from 0% to +5% in the first quarter. Among sectors we specifically favor the technology, health care, industrial, retail trade and consumer goods sectors.Download the full report"
18,EUR/AUD: choppy daily chart but the H1 looks bullish,"EUR/AUD produced two consecutive bullish candles on the daily chart. The price still has some space to go towards the North. Thus, the buyers may want to go long upon consolidation on the major intraday charts. Usually, the Forex market gets sluggish in December. Most of the pairs are getting a bit sluggish already. Thus, it would be tough to get a breakout on the daily charts. Intraday charts, however, may be able to find a few entries with good risk-reward.The chart shows that the price produced a Bullish candle at a level where the price reacted several times. A Spinning Top forms after the candle.Today’ intraday price action has been bullish as well. The daily traders may not be very enthusiastic about keeping an eye on the pair since the resistance is at 1.6300. The H4 chart looks good for the buyers, and it may end up offering a long entry. Let us have a look at the H4 chart.The chart shows that the price after finding its support has been heading towards the North with good bullish momentum. It is about to breach the highest high of the last bullish wave. The chart also shows that there is enough space for the price to travel. Buyers may go long with good risk-reward upon an upside breakout.The H1 chart shows that the price after producing an Inside Bar has been heading towards the North. On its way, it made a breakout and consolidated at the breakout level. It produces Tweezer Bottom at the breakout level, which suggests that the price may head towards the North further. Buyers may go long upon a breakout at the level of 1.6248 by setting Stop Loss below the level of 1.6220. The price may find its next resistance around the level of 1.6300 on the H1 chart as well. This allows a very lucrative risk-reward to the H1 traders.The daily chart looks choppy. The H4 chart looks satisfactory, but the H1 chart looks very good for the buyers. Since the market is getting sluggish, so the H1 traders may not think about taking partial profit at the resistance and let the rest of the trade run to earn more profit. Usually, December is a month, which tests traders’ patience. They are to pass this little test by the market by being patient.  Try Secure Leveraged Trading with EagleFX!"
19,"Bitcoin's recovery back on track, or is it a dead cat bounce?","Bitcoin (BTC) bottomed at $6,818 on Monday and managed to recover above $6,900 by the time of writing. Mostly unchanged on a day-to-day basis, the first digital coin struggles to regain ground above critical $7,000 amid market indecision. Meanwhile, this day two years ago, Bitcoin hit its all-time high at $19,811. A Twitter user Th Moon (@themooncarl), noted this fact.Exactly two years ago today, the  #Bitcoin price hit its $19,931 all-time-high. Exactly 1 year ago today, the  #BTC  price was $3,245, very close to the bottom. December seems to be a significant month for Bitcoin! If history is any guide, we may be in for an exciting December. However, it is hard to tell whether the excitement will result in strong recovery or sharp sell-off, considering the increased volatility ahead of the pre-Christmas period.Many cryptocurrency experts expected Bitcoin's recovery int the end of the year. The upside trend, known as Santa's rally, is typical for the financial markets; however, the cryptocurrency industry may miss it out this year unless BTC/USD recovers above $7,000 in the nearest future. From the technical point of view, there is no clear evidence that the recovery is around the corner. The downward-looking RSI (the Relative Strength Index) on the intraday charts implies that the price is more likely to retest the recent low. Once it gives way, stronger support of $6,500 will come into focus, This barrier, created by November low, is followed by the lower line of the weekly Bollinger Band at $6,350. On the upside, a move above $7,000 will mitigate the initial pressure; however, it is not enough to get BTC back on the recovery track. The upper boundary of the recent consolidation range at $7,300 is likely to stop the bull and push the price back into the channel. Once it is out of the way, the recovery may be extended towards $7,500."
