,title,text
0,EUR/USD: Bounce a selling opportunity,"EUR/USD has recovered from the new four-month lows but leans lower as neared the 2019 low of 1.0879 on Tuesday. Yohay Elam from FXStreet sees the dead cat bounce pattern as an opportunity to sell the pair.“Another bounce, another selling opportunity? The `dead cat bounce´ pattern is characterizing EUR/USD in February. Every recovery attempt is limited in range and is followed by a fresh four-month low. On Tuesday, the world's most popular currency pair dipped below 1.09 and already neared the 2019 low of 1.0879.”“EUR/USD is trading above 1.09 but below the 50, 100, and 200 Simple Moving Averages on the four-hour chart and suffers from downside momentum. Moreover, the Relative Strength Index has risen above 30, outside oversold conditions and allowing for additional falls.”“Support awaits at the fresh low of 1.0891 recorded on Tuesday. It is followed by 1.0879, the 2019 low.” "
1,EUR/USD moves to tops above 1.0920 on risk-on mood,"The single currency is adding to Tuesday’s gains and is now lifting EUR/USD to fresh daily highs in the 1.0920/25 band.The pair is up for the second session in a row on Wednesday, so far managing well to leave behind Tuesday’s 2020 lows in the 1.0890 zone.Diminishing concerns around the COVID-19 continues to lend extra oxygen to the risk-associated universe and thus supporting further the recovery in the spot, all against the backdrop of renewed selling pressure hurting the greenback. Indeed, the US Dollar Index (DXY) remains on the defensive for another session after hitting new yearly highs on Tuesday.Later in the euro docket, Industrial Production figures in the broader Euroland will be the sole release along with the German 10-year auction. Across the pond, Mortgage Approvals measured by MBA are due seconded by the Monthly Budget Statement and the EIA’s weekly report on US crude supplies.In addition, Fed’s Powell will testify once again, this time before the Senate Banking Committee. Powell reiterated on Tuesday that the economy remains in “a good place”, while he stressed that it is still premature to evaluate the impact of the coronavirus on the economy.The pair has managed to bounce of YTD lows in the 1.0890 region (Tuesday) on the back of an apparent change of heart among investors towards the risk complex. In the meantime, USD-dynamics are expected to dictate the pair’s price action for the time being along with the broad risk trends, where the COVID-19 is still in the centre of the debate. On another front, the ECB is expected to finish its “strategic review” (announced at its January meeting) by year-end, leaving speculations of any change of the monetary policy before that time pretty flat. Furthermore, recent poor releases in Germany results in the euro region as of late seem to have lent support to the idea that the bloc could have left the worst behind, although that view looks premature, to say the least.At the moment, the pair is gaining 0.03% at 1.0917 and faces the next resistance at 1.0989 (10-day SMA) seconded by 1.1063 (100-day SMA) and finally 1.1094 (weekly high Jan.31). On the other hand, a break below 1.0891 (weekly/2020 low Feb.11) would target 1.0879 (2019 low Oct.1) en route to 1.0569 (monthly low Apr.10 2017)."
2,GBP/USD: Buying point at 1.2580 – TDS,"Analysts at TD Securities review the sterling outlook with the EU-UK negotiations on the horizon. They are optimistic in the long-term for the pound so recommend to buy the cable at 1.2580 seizing declines due to Brexit tensions. “We think tensions between the EU and UK are likely to escalate over the next few months. Here, we think the risks of a breakdown in negotiations by April is a very real possibility. Unsurprisingly, we think investors would view such a breakdown in discussions as a significant risk factor for the GBP.”“We think the UK economy may struggle to counter difficulties. With this in mind, we continue to look for the BoE to deliver a 25bps rate cut in May.”“We think GBP/USD is likely to have a better second half of 2020. Indeed, we retain our current target of 1.40 for year-end, although we do see some downside risks to this amid a still-strong USD overall. In line with this, we think the decline in the cable we anticipate as a result of these tensions could provide an attractive entry point for strategic longs. Here, we think the 1.2580 pivot could be an area of notable buying interest.” "
3,EUR/USD Analysis: could consolidate,"On Tuesday, the EUR/USD currency pair consolidated in the 1.0920 area. During today's morning, the pair maintained its consolidation.Note that the exchange rate is pressured by the 55-hour moving average, currently located near 1.0920. Thus, some downside potential could prevail in the market in the short term.However, note that the currency pair could gain support from the weekly S1 at 1.0895. Thus, the Euro could continue to consolidate against the Greenback in the short run."
4,EUR/USD: Limited bullish potential,"EU Industrial Production fell in December, limiting the bullish potential of the EUR. Meanwhile, EUR/USD is neutral-to-bearish in the short-term, according to Valeria Bednarik from FXStreet.“The EUR/USD pair hovers around 1.0910 for a second consecutive day, meeting sellers in the 1.0920 price zone. EU data came in worse-than-anticipated, adding pressure on the Euro. December Industrial Production was down by 2.1% monthly basis, and by 4.1% when compared to a year earlier.”“The US published MBA Mortgage Applications for the week ended February 7, which were up by 1.1%, after advancing 5.0% in the previous week.”“In the 4-hour chart, EUR/USD continues to develop below firmly bearish moving averages, with the 20 SMA at around 1.0930. A critical support level comes at 1.0878, the low from 2019.” "
5,EUR/USD drops to lowest level since May 2017 below 1.0880,"The EUR/USD pair spent a large portion of the day consolidating in a tight range above the 1.09 mark but lost its traction during the American trading hours and slumped to its lowest level since May 2017 at 1.0877. As of writing, the pair was trading at 1.0880, erasing 0.37% on a daily basis.Earlier in the day, the data published by the Eurostat revealed that Industrial Production in the euro area contracted by 4.1% in 2019 and came in worse than the market expectation for a decline of 2.3%. However, the greenback's uninspiring performance allowed the pair to stay in the positive territory.With the USD gathering strength in the second half of the day, the pair turned south and now remains on track to post its lowest daily close of 2020.Although there weren't any significant macroeconomic data releases featured in the US economic docket, the upsurge seen in the US Treasury bond yields and FOMC Chairman Powell's relatively remarks helped the USD find demand.While testifying before the Senate Banking Committee in Washington, Powell said there was nothing about the current US economy was was ""out of kilter or unbalanced."" The US Dollar Index, which dropped to 98.70 on Wednesday, is now up 0.2% on the day at 98.93. On Thursday, inflation data from Germany and the US will be looked upon for fresh catalysts. Analysts expect the annual core CPI in the US to tick down to 2.2% in January from 2.3%.  "
6,EUR/USD prints fresh lows below 1.09 in late New York,"Despite a better risk tone on Wednesday, pertaining to relief that the coronavirus spread is showing signs of slowing down, the euro took a dive o the lowest levels since May 2017. EUR/USD has just printed a fresh low of 1.0865 and has travelled form 1.0925 the high for the day. While central banks maintain an easing bias, we have seen relief in markets and the fear of missing out has lead US stocks higher in the US session. The US dollar has taken out the 99 handle in the DXY regardless of the safe-haven spill over drying up and the euro is taking up the punishment in the G10 FX space.The bears have pushed the barriers today following yet further indication that industrial production had slumped in the eurozone coming in 2.1% MoM in December to leave YoY output down 4.1%. ""The data reflect the extreme weakness in the national data at the end of 2019 which was probably exaggerated by US-Sino trade tensions and the intense Brexit uncertainty in Q4,"" analysts at ANZ Bank explained. ""Weakness was broad-based across member states. The monthly drop was the largest decline since February 2016. It was led by a sharp drop in capital goods output which fell 4.0% m/m (- 6.7% y/y). The data need to bounce back in January; if not, alarm bells will be ringing loudly on every floor of the 45 story ECB tower in Frankfurt. The euro extended its weakness as a result,"" the analysts at ANZ Bank concluded.  "
7,EUR/USD: A long way to walk  – Westpac,"Analysts at Westpac Institutional Bank are predicting a measured and steady recovery for the European currency in the next months. “The move higher for Euro will be measured and steady, with EUR/USD unchanged at its current level until March, and then only rising a cent per quarter to USD1.12 at year's end. This trend is set to continue in 2021, through to USD1.15.”“If Euro were to gap higher and/or GDP growth disappoint our 1.0%/1.2% expectation for 2020/2021, then the ECB may look to jawbone the currency.”“Although we are forecasting a 10bp cut to the deposit rate mid-year in response to the FOMC's first cut, this should only be regarded as a token gesture. There is no economic or financial market justification to take the deposit rate towards –1.0%, or any belief that it would be effective.” "
8,EUR/USD: Will the Bear continue its domination?,"EUR/USD has been bearish on the daily chart. The chart produced six consecutive bearish candles followed by a spinning top. It suggests that the price may consolidate. If the chart produces a bearish reversal candle followed by a breakout at the lowest low, the sellers may go short on the pair and drive the price towards the South further. Major intraday charts' traders such as the H4 and the H1 may keep an eye on the pair today to look for short opportunities. Let us now have a look at those three charts. The chart shows that it has been bearish on the daily chart for a long time. The last bearish wave had good momentum. Yesterday's candle came out as a spinning top. If the chart produces a bearish engulfing candle closing below the last candle's body, the sellers may go short on the pair. The price may find its next support at around the level of 1.07645. On the other hand, if the chart produces a bullish engulfing candle, the price may head towards the level of 1.10000 with moderate bullish momentum. The chart shows that the price has been in consolidation. The level of 1.09220 has been working as a level of resistance, and 1.09030 as a level of support. The chart produced a bullish engulfing candle with what the buyers may get optimistic about its bullish breakout. If the price makes a bullish breakout, it may head towards the level of 1.09700. Considering the daily chart, it may make a bearish breakout. In that case, the price may find its next support at the level of 1.08420. The price has been on long consolidation. The chart produced a strong bullish engulfing candle earlier. Moreover, the pair is trading around the level of resistance as of writing. In case of a bullish breakout, the price may find its next resistance around the level of 1.09445. If it makes a bearish breakout, it may find its next support around the level of 1.08730. The long-term bearish trend may attract the sellers more to trade on the pair than the buyers.The H1 and H4 charts look quite good, and the daily chart looks extremely good for the sellers. A bearish breakout on any intraday chart may lead towards major charts' breakout, which may make the pair remain bearish for some days to come.  Try Secure Leveraged Trading with EagleFX!"
9,EUR/USD New York Price Forecast: Is there fuel left in the euro bear tank?,  
10,S&P: Australia credit rating unlikely to be hit by coronavirus,"S&P Global Ratings came out with the latest note, citing that the economic fallout of the China coronavirus is unlikely to threaten Australia’s triple-A credit rating.Economic impact of coronavirus unlikely to negatively affect Australia’s sovereign rating.Forecasts virus outbreak will trim 0.5% point from Australia’s real GDP growth in 2020.Short, temporary delay in balancing government budget unlikely to strain Australia’s creditworthiness."
11,"EUR/SEK: Targeting 10.60 in 3 months, 10.80 in 6 months – Danske Bank","The Riksbank decided to keep its policy rate unchanged at 0%. Strategists at Danske Bank analyze the reaction of the EUR/SEK and the outlook for the pair in the coming months.“Improved global risk appetite rather than positioning for a hawkish Riksbank is the main reason why EUR/SEK has headed lower ahead of today’s rate decision.” “For EUR/SEK the decision was completely undramatic and the cross barely moved.” “EUR/SEK trades close to our mid-February 10.50 target and we stay neutral for now.”“We still think the market may want to discount a higher probability for a rate cut going forward and therefore we see EUR/SEK as a buy on dips, targeting 10.60 in 3M and 10.80 in 6M.” "
12,FX Update – A weaker Yen and Stronger Kiwi today,"The Yen remained soft while the Dollar bloc currencies extended recent gains as risk appetite in global markets held up, with a reported dip in new coronavirus (now Covid-19) cases in China being tonic for investors. Wall Street yesterday saw fresh record highs, while the MSCI Asia-Pacific equity index rose by another 1% today. USDJPY lifted through 110.00 to 110.13 and above Tuesday’s high at 109.96. AUDJPY, now in its third consecutive day of ascent, carved out a five-day high at 74.23 , stalling at R2. AUDUSD and NZDUSD lifted to respective a six-day highs, at 0.6737 and 0.6476, while USDCAD fell to a six-day low at 1.3272. The RBNZ left policy on hold following a board meeting today, and also removed guidance for more rate cuts, saying that only a longer than currently anticipated impact from the Covid-19 outbreak would warrant any further easing. New Zealand also has an election this November. Governor Orr is due to testify later today (19:10 GMT) on today’s MPC statement before Finance and Expenditure Select Committee.Elsewhere, EURUSD looks to have found a footing after a run of seven consecutive down days, steadying so far today around 1.0900-1.0925, above the four-month low that was printed at 1.0891. Cable edged out a six-day high at 1.2969, surpassing yesterday’s high by a pip, while EURGBP ebbed to a nine-day low at 0.8413. The Pound is amid a phase of modest outperformance, with available January data out of the UK have shown a rebound in economic activity as the fog of political uncertainty cleared following the December general election, while Prime Minister Johnson announcing big plans for infrastructure projects. These have helped quell, for now, concerns about Brexit and divergence from the EU."
13,"WTI firmer, regains the $51.00 mark ahead of EIA","Prices of the barrel of the American reference for the sweet light crude oil are trading in weekly highs above the $51.00 mark on Wednesday.Prices of the West Texas Intermediate are advancing for the second session in a row on Wednesday, trading back to the levels beyond the $51.00 mark per barrel on improving risk-on sentiment in the global markets and news that the OPEC reduced its oil output during the first month of the year.In addition, the cartel also revised lower its forecasts for crude oil demand for the current year to more than 29M bpd, some 200K barrels lower than the previous projections.In the meantime, and with ebbing concerns regarding the coronavirus, traders keep looking to the possibility that the cartel could extend further the oil output cut agreement, while a decision to implement deeper cuts is still waiting for Russia’s decision on the fact.Moving forward, the EIA will publish its weekly report on US crude oil inventories. Late on Tuesday, the API reported a 6M build during last week, adding to the previous weekly increase.Crude oil prices are attempting a serious rebound after bottoming out in 2020 lows around $49.30 per barrel of West Texas Intermediate. All the attention has now shifted to the OPEC+ and the palpable likelihood that the cartel could extend the ongoing agreement and announce deeper cuts. Also adding to the upbeat tone in the commodity, the military unrest in Libya remains unsolved, while declining production keeps weighing on exports from the key North African producer.At the moment the barrel of WTI is advancing 3.12% at $51.47 and faces the next resistance at $52.18 (weekly high Feb.6) seconded by $54.35 (weekly high Jan.29) and then $56.66 (200-day SMA). On the other hand, a breach of $49.31 (2020 low Feb.5) would aim for $42.20 (2018 low Dec.24) and finally $41.83 (2017 low Jun.21)."
14,Fitch Ratings: Global ports vulnerable to coronavirus-related volume declines,"Early on Thursday morning in Asia, the global rating giant Fitch released a press note while saying that the Global ports will see reduced trade volumes as a result of the coronavirus, COVID-19, which would become more severe should Chinese production take time to recover to pre-epidemic levels.Decreased production in China because of the extended work holiday and factory closures will affect import and export volumes in first-quarter 2020 but diversified revenue streams and long-term contracts help shield most US, EMEA and LATAM port revenues from significant trade volatility. However, some rated APAC ports will be affected if the slowdown in trade is prolonged.US-China trade levels were expected to pick up somewhat with Phase One of the US-China trade deal set to go into effect on Feb. 15 but this rebound may take longer to take hold because of the virus-related production slowdown.Throughput at other Indonesian ports will also be affected as China is the country's top trading partner. India, on the other hand, has less trade exposure to China than Indonesia, and Indian port operators are better placed to absorb a reduction in trade.While this has mostly been reckoned by the markets off-late, the news had a negligible impact on the markets with the risk-recovery on its way. The AUD/USD and USD/JPY, the barometers to trade sentiment, remain mildly positive around 0.6740 and 110.11 by the press time."
15,US: Fed to cut rates probably in April – Danske Bank,"Strategists at Danske Bank analyze the situation of the American economy and which steps can take Fed’s Chair Powell in the coming months. Their view is that the Fed will cut rates in the first half of this year.  ""In our view, Fed chair Powell has positioned himself as one of the more dovish members of the centrist camp, suggesting that a rate hike is not in the cards anytime soon and that risks are skewed towards more easing.""""It is fair that investors continue to price in cuts. Investors have priced in around 1.4 cuts this year and nearly a 50% probability of a rate cut by June. At the beginning of the year less than one cut was priced in.""""We have not changed our macro outlook for the US significantly on the back of the virus outbreak. We believe private consumption will remain the main growth driver but that renewed uncertainty is likely to postpone a potential rebound in investments by a few months, depending on how long the uncertainty drags out."" ""For now, we stick to our view that the Fed will cut rates again during the first half of 2020, probably in April, although it is not a high conviction call at this point. We disagree with the Fed when it says that monetary policy is accommodative, as the real Fed funds rate is at the same levels as real yields."" "
16,US: CPI probably anchored in January – TDS,"The United States will release tomorrow at 13:30 GMT the consumer price index (CPI) data for the month of January. The EUR/USD remains vulnerable as CPI is not a threat to the US dollar in the opinion of analysts at TD Securities.  “The overall CPI was probably held down by a decline in gasoline prices in January; our 0.1% forecast is below the 0.2% consensus. The 12-month change probably rose 0.1 points to 2.4%.” “We expect the 12-month change in core prices to fall 0.1 points to 2.2%, even with a 0.2% m/m rise, although it is a close call between 2.2% and 2.3%.” “CPI presents no threat to the USD maintaining its high altitude. We are particularly mindful of EUR/USD and the 1.0879/1.0925 support zone, where we think it remains vulnerable to break lower in the coming weeks.” "
17,USD/CAD extends slide toward 1.3260 as WTI targets $51,"The USD/CAD pair failed to hold above the 1.3300 mark and erased 30 pips on Tuesday before stretching lower. As of writing, the pair was trading at 1.3268, losing 0.15% on a daily basis.The recovery seen in crude oil prices amid easing concerns over the coronavirus outbreak's impact on the global oil demand helps the commodity-sensitive CAD find demand. Ahead of the OPEC's monthly report and the US Energy Information Administration's (EIA) weekly oil market report, the barrel of West Texas Intermediate is up 1.78% on the day at $50.80.On the other hand, the uninspiring performance of the greenback doesn't allow the pair to stage a rebound. The US Dollar Index, which advanced to its highest level since October at 98.95 on Tuesday, is flat on the day at 98.75.The economic docket won't be featuring any significant macroeconomic data releases from the US or Canada and crude oil prices are likely to continue to impact the pair's movements.Later in the session, FOMC Chairman Powell will deliver his remarks on the second day of his testimony before the Senate Banking Committee. Powell on Tuesday said that it was too early to determine the impact of the coronavirus outbreak on the US economy and reiterated that the current policy stance was appropriate.   "
18,Gold: Traders holding a long position – TDS,"Gold is sitting at $1565.75 while the context for the yellow metal is a market where traders are holding long, but not large positions, according to strategists at TD Securities.“Gold is a crowded trade. The bull market narrative is widely acknowledged, which translates to an above-average number of traders holding a long position, although the average trader's position size is not excessive, suggesting that greed is not widespread.” “The risk to gold bugs is a change in narrative that would prompt a decline in the number of traders long. A reversal of recent safe-haven flows driven by fears that the Wuhan coronavirus could contaminate global reflation appears to be an obvious candidate for a narrative-driven reversal. "
19,Dax: the daily outlook is neutral,"Dax we wrote: back up through first resistance at 13510/520 opens the door to 13590/610. A break higher tests the more important January high at 13635/640. A break higher targets 13660/67We beat 13635/640 but reversed from the next target dipping back to the 13590/610 level & bounced. Dax holding above 13635/640 is positive targeting 13660/670 then 13695/705. On further gains look for 13765/785.First support at 13640/620 but below 13590 risks a slide to support at 13550/540. Longs need stops below 13510 for a buying opportunity at 13400/380, with stops below 13340. Weekly outlook is positive.Daily outlook is neutral.Short Term outlook is positive."
