,title,text
0,Forex Today: Chaos in the US won’t let the greenback keep going,"Here is what you need to know on Monday, August 3:The American dollar recovered nicely on Friday, but weekly basis, closed in the red against most major rivals, a sign of its persistent weakness. Extreme oversold conditions and profit-taking ahead of the weekend were behind its recovery.The US Congress failed to agree on a new stimulus deal after weekly unemployment benefits of $600 expired last week.  Republicans and Democrats continue to discuss a coronavirus relief package. Democrats pretend to extend the full $600-a-week federal unemployment payments through January as part of a sweeping $3 trillion recovery plan, while Republicans aim for a short-term extension or a continuation of the aid at a lower rate.On Friday, Fitch Ratings has affirmed the United States' Long-Term Foreign-Currency (LTFC) and Local-Currency (LC) Issuer Default Ratings (IDRs) at 'AAA' and revised the Outlooks to Negative from Stable.  US President Trump suggested delaying this year’s presidential election, indicating that postal voting could lead to the “most inaccurate and fraudulent election in history.” He does not have the power to do so, and any delayed would need to be approved by Congress.The number of new coronavirus cases in the country seems to have stabilized at around 60,000 new cases per day. The death toll in the country has reached 158K according to Sunday morning figures.The dollar has little room for a sustained advance in this scenario.The EUR/USD pair traded as high as 1.1908 and settled at 1.1780, with the shared currency affected by a record GDP contraction of 12.1% in the second quarter of the year.In the UK,  the UK government imposed new restrictions on 4.3 million people in northern England after a recent rise in cases. Also, PM Johnson announced a delay to the further easing of coronavirus restrictions in England for at least two weeks, initially scheduled to take place at the beginning of August.  British Trade Minister Liz Truss will meet top U.S. officials in Washington this week to assess progress on reaching a free trade agreement between the two countries. Brexit concerns have remained in the background. GBP/USD holds near 1.31. In Australia, Victoria’ officials toughen its social distancing measures after announcing a state of disaster. The measures come after the Melbourne area reporter over 670 new coronavirus cases on Sunday and will extend the current lockdown for another six weeks. The news may hit the Aussie at the weekly opening.Gold trades near record highs, after it hit $1,983 a troy ounce last week. Crude oil prices, on the other hand, remain stable with WTI trading at around $40.00 a barrel.US indexes were sharply down for a second consecutive week. Treasury yields remained depressed and near record lows. Yields for the 3-year note and the 5-year note hit all-time lows, while that on the 10-year note plunged to 0.52%, a four-month low.BTC/USD spirals on rejection at $12,000"
1,"Volatile August price action here we come, traders focussed on USD resurgence","Here is what you need to know as we start a new week and month where seasonality comes into play in what is traditionally a volatile month for the forex market:The week and month ended as we are likely to continue with volatility in the FX space induced by a big bounce in the US dollar vs the yen.Japan's finance ministry was warning about the yen's ""rapid"" rise. Consequently, USD/JPY's low averted 104.19 key supports and it rose back to the May-June low by 106 that it broke below a week ago.The rebound in the pair played a significant role in the dollar’s broader demand across FX.The move essentially stripped back all of the hard work done the previous Friday below 106 USD/JPY which had helped fuel last week’s sell-off in the greenback.Meanwhile, it was a day of dollar short covering across the G10s.EUR/USD had set a 26 month high before seller's emerged in early European trade which had taken the pair down to 1.1850 from Asia's 1.1909 highs. New York continued to sell and the pair made a low of 1.1762. As mentioned, the yen was a driver in forex so had it not been for gains in the cross, the major would likely have been looking deeper down into the abyss. EUR/JPY bids buoyed the single unit, with a test of 125.20 before easing back below the figure to 124.75 towards the close.Yen jawboning will likely leave the dollar in a peddle stool in risk-off conditions which leaves the bears vulnerable of further upside in USD/JPY in what is seasonally a poor month for risk appetite. The June and May lows were tested on Friday and could come under renewed pressure following potential and an initial fades if 105.20/50s support structure holds.GBP/USD fell short of the March highs near the 1.32 level in what has been a phenomenal month for cable bulls, in what can only be described as the law of inertia influencing the price rallying from the mid 1.2250s despite the Brexit tail-risks. AUD, representing the commodity complex, set a 17-month high in early Europe at 0.7227. The pair was, however, dropping back to a low of 0.7133 for the day in NY, holding at prior resistance and support structure where it will face the bears again at the start of the week where we now await the Reserve Bank of Australia. Similar to the euro, had it not been for intense yen selling, supporting AUD/JPY, lower levels might have been expected to challenge the bull's commitments at such a critical level as the 0.7060s are in the daily chart.For the day ahead, July PMI data will set the tone on Monday and we will have Chinese Caixin Manufacturing PMI in Asia to start with. This data will follow  China's July manufacturing PMI which last week surprisingly increased to 51.1 from 50.9 in June, its highest since Mar 20. The steep decline in the DXY for July, a 4.4% loss, was its worst monthly percentage drop in a decade.Here is some background to the dollar's recent decline:It is August, a month where the majority of the world usually goes on holiday.This month has been the worst month for global equities, which would suggest, the dollar should thrive.However, there is nothing at all bearish looking on the charts of US stocks following last week's super busy week which included the Federal Reserve, Congressional testimonies, outstanding earnings from some of the markets biggest names and multi-trillion companies such as Amazon, Apple and Facebook.The S&P 500 index ended in a highly bullish position and chart formation:However, all said and done, the US dollar has emerged as the most oversold currency on the board.In fact, it is the most oversold since March's panic plunge in daily RSIs and its most oversold on weekly RSIs since January 2018's low, which was the lowest since 2011.When we look to positioning, the IMM net spec positioning has been revealing the heaviest net spec dollar short versus the G10 currencies since 2018's all-time short extremes.As we head into this week, the technical stars are aligning for a rebound to snap a series of consecutive days of lower highs and lows.The below chart shows the daily stick reaching a resistance structure, so some downside corrective action can be expected still.Going down to the 4HR time frame, we can see that a 38.2% Fib retracement of the closing price action for last week would have confluence with prior support and resistance.However, on such weekend headlines as these,        "
2,Coronavirus: Major incident declared in Greater Manchester - BBC,"The BBC has reported that a major incident has been declared by authorities in Greater Manchester following recent rises in coronavirus infection rates.Greater Manchester Police (GMP) said the decision was taken to help agencies respond ""as effectively as possible"", including with extra resources.People ""should not be alarmed"" by the news as it was ""standard practice"", Manchester City Council said.Greater Manchester is one the areas subject to new lockdown measures.The new restrictions announced on Thursday - that also apply in east Lancashire and parts of West Yorkshire - ban separate households from meeting each other at home.GBP is already toppy with the dollar overstretched on a positioning basis.At a failed retest of structure opens risks for a deeper downside correction this week.    "
3,"EURUSD-Rally bekommt Gegenwind auf dem Weg zu 1,20 USD","EURUSD steht in der Rally vor einer möglichen Korrektur. Auch AUDUSD und EURCAD warten am Widerstand nach dynamischen Bewegungen mit Kursrückgängen auf.EURUSD wurde in seiner Rally vom Zwischentief bei 1,11700 USD durch alle Widerstände hinweg im Hoch bis auf 1,19088 USD getragen. Mit Blick auf den längeren Zeithorizont hat die FX-Paarung Raum für weitere Zuwächse bis über 1,20000 USD. Sollte nach der starken Bewegung der letzten Wochen allerdings eine korrektive Phase vor der Tür stehen, bieten sich zunächst die untergeordneten Drehbereiche um 1,17300 USD und 1,16970 USD und später  – je nach Ausmaß der Gegenbewegung – das Ausbruchslevel um die Marke von 1,15700 USD als planbare Kursbereiche auf der Chartunterseite an.AUDUSD hat im laufenden Aufwärtstrend inzwischen das Kursziel um den Widerstand bei gut 0,72000 USD erreicht. Die progressive Phase steht im weiten Verlauf. Die in dieser Verortung am Freitag aufgetretene Short-Umkehrkehrze ist ein erstes Indiz für eine bevorstehende Korrektur. Eine Bestätigung dieses Signals durch weiter fallende Kurse ebnet der Gegenbewegung den Weg in den jüngsten Ausbruchbereich um 0,70500 USD sowie in die tieferliegenden Drehpunkte des Bewegungsarms um 0,69780 USD und 0,69200 USD. Bleibt die Korrektur aus, steht bei Kursen über dem Trendhoch um 0,72270 USD der Test des nächsten Wochentrendhochs um 0,73000 USD auf dem Plan.Seit dem Austritt aus der Seitwärtsphase hat sich EURCAD von seiner bullischen Seite gezeigt. Ohne großartige Korrekturen stieg die FX-Paarung von der Rangeoberseite um 1,54500 CAD bis in den Widerstand bei gut 1,59800 CAD an. Hier kam es am Freitag zu Gewinnmitnahmen, die zunächst am kleinen Kaufbereich um 1,5770 CAD eine Unterstützungszone fanden. Zieht es hier zum Wochenstart wieder Käufer in den Markt, bietet sich der Handel aus der Korrektur des 4-Stundentrends in Richtung Zwischenhoch bei 1,59790 CAD an. Ein ausbleibendes Kaufinteressen hingegen macht die Ausweitung der Korrektur opportun. Eine Short-Szenarioplanung offenbart hier das tiefere Bewegungstief um 1,56580 CAD sowie die Kauf- bzw. Ausbruchslevel um 1,55300 CAD und 1,54500 CAD als mögliche Drehpunkte innerhalb der übergeordneten Aufwärtsrichtung.Tickmill’s LIVE-Besprechung: Wo Bulle und Bär um die Vorherrschaft ringen, warten oft beste Chancen. Behalten Sie börsentäglich die wichtigsten Fakten im Blick und verpassen Sie keine Gelegenheit. Melden Sie sich jetzt für die LIVE-Besprechung der täglichen Trading-Ideen um 8:30 Uhr bei Tickmill unter https://www.tickmill.co.uk/de/education/webinars/93017117289/1594017000000 an.Erfolgreiches Trading wünscht IhnenIhr Mike SeidlRisikohinweis: 73% der Privatanleger-Konten verlieren Geld beim Handel mit CFD’s bei Tickmill UK Ltd.Advertisement
 Find more about Tickmill "
4,,
5,,
6,,
