,title,text
0,EUR/USD challenges 1.13 post-Payrolls,"The buying interest around the single currency stays unaltered at the end of the week, with EUR/USD navigating the area above the key barrier at 1.1300 the figure.EUR/USD has practically ignored the strong results from US Nonfarm Payrolls, which showed the economy created 273K jobs during February, surpassing expectations at 175K and matching January’s 273K (revised from 225K).Additional data showed the unemployment edged lower to multi-decade lows at 3.5% and the critical Average Hourly Earnings – a proxy for inflation via wages – expanding at a monthly 0.3% and 3.0% from a year earlier.At the moment, the pair is gaining 0.64% at 1.1310 and a break above 1.1340 (2020 high Mar.6) would target 1.1347 (high Jun.13 2019) en route to 1.1412 (monthly high Jun.25 2019). On the flip side, initial contention is seen at 1.1186 (61.8% Fibo of the 2017-2018 rally) seconded by 1.1098 (200-day SMA) and finally 1.1041 (55-day SMA)."
1,"Forex Technical Analysis and Forecast:  EUR/USD, GBP/USD, USD/CHF, USD/JPY, AUD/USD, USD/RUB, USD/CAD, Gold, Brent, BTC/USD","After forming another consolidation range around 1.1178, EURUSD has broken it to the upside. Possibly, the pair may extend the wave up to 1.1260. Today, the price may reach 1.1250 and then fall to return to 1.1185. After that, the instrument may form one more ascending structure towards 1.1260 to complete the wave and then resume trading downwards with the target at 1.1170. After forming the consolidation range around 1.2870 and breaking it to the upside, GBPUSD has reached the short-term correctional target at 1.2960; right now, it is forming a new consolidation range around it. Possibly, today the pair may fall to test 1.2870 from above and then start a new growth towards 1.3010. After forming another consolidation range around 0.9565, USDCHF has broken it to the upside to reach 0.9444. Today, the pair may form grow towards 0.9515 and then fall to reach 0.9474, thus forming a new consolidation range between these two levels. After that, the instrument may start a new growth with the target at 0.9600. After breaking the consolidation range downwards and extending the wave, USDJPY has reached the target at 105.85. Possibly, today the pair may start another growth towards 107.10 and then form a new descending structure to reach 106.38, thus forming a new consolidating rage between these two levels. Later, the market may break the range to the upside and resume trading upwards with the target at 109.00. AUDUSD is still consolidating above 0.6580. If later the price breaks this range to the downside, the market may start a new correction to reach 0.6520; if to the upside – resume trading upwards with the target at 0.6700. USDRUB is consolidating around 66.86. If later the price breaks this range to the upside, the market may grow to reach 67.97 or even extend this wave up to 68.20; if to the downside – start a new decline with the target at 65.25. USDCAD is still consolidating around 1.3410. Possibly, the pair may expand the range down to 1.3379 and then form one more ascending structure with the short-term target at 1.3494. After forming the consolidation range around 1639.00, Gold has broken it to the upside. According to the main scenario, the instrument is expected to form one more ascending structure with the target at 1694.00. Possibly, today the pair may reach 1688.40 and then start a new correction towards 1652.00. Later, the market may resume trading upwards with the above-mentioned target. Brent has broken its consolidation range to the downside. Today, the pair may fall to reach 59.40 and then start another growth with the target at 51.25. Later, the market may form a new descending structure towards 48.50 to complete this wave and then resume trading upwards to reach 55.05. BTCUSD has broken 8900.00 to the upside; right now, it is trading around 9000.00. Possibly, the pair may continue growing with the short-term target at break 9400.00. After that, the instrument may start a new correction to return to 9000.00 and then form one more ascending structure with the first target at 9600.00."
2,EUR/USD Forecast: Overbought? ECB's inability to fight coronavirus opens door to more gains,"California's declaration emergency overshadowed Italy's school closure, and as coronavirus extends its spread in Europe, it is only beginning to roam around the US. The upcoming week may see a limited response by the European Central Bank after the Federal Reserve's dramatic emergency cut -- and may extend EUR/USD's gains. After a week colored in red, financial markets were able to enjoy rallies. A promise for coordinate action by ministers and central bankers provided some hope, allowing for some short covering. However, for US treasuries, demand never seemed to stop -- and that pushed the dollar down alongside yields.The Federal Reserve then surprised investors with an unscheduled rate cut of 50 basis points -- double the standard -- and in an unscheduled meeting. While it helped stocks, bond markets had a hunger for more and pointed to additional reductions of borrowing costs as soon as March 18 -- The bank's scheduled meeting.Money markets price in a rate cut by the ECB, but that is limited to 10 basis points, thus having a limited negative impact on the euro. Moreover, the Frankfurt-based institution has limited space to act. Its deposit rate stands at -0.50%, deep in negative territory. The faster direction of travel of monetary policy -- not the favorable higher rates -- pushed EUR/USD higher. An economic advantage for the US, as confirmed by forward-looking Purchasing Managers' Indexes for February, was also ignored. Statistical data seems to lag behind the fast-moving virus which is wreaking havoc around the world. When Italy's death toll surpassed 100, Rome decided to close schools and universities until March 15. The dramatic move -- which undermines the productivity of parents to work at home -- temporarily weighed on the euro.However, America's slow response in producing enough test kits and taking the illness with seriousness -- President Donald Trump called it a hoax at one point -- implies further potential damage to the world's largest economy. Fears only leaped when California confirmed its first coronavirus mortality and declared a state of emergency. Investors are realizing that the strong US economy -- and especially the home to Silicon Valley -- has more to lose. When Washington advanced a special $8 billion budget to fight the illness, investors were unimpressed. The dollar received a meaningful boost -- albeit insufficient to make it a winner -- from Joe Biden's victory in Super Tuesday's primaries in the Democratic Party. The centrist former Vice President enjoyed his victory in South Carolina and the backing of former rivals to overwhelm left-leaning Senator Bernie Sanders. While the race is far from over, markets are relieved that a more business-friendly candidate is now in the lead. The dollar another temporary boost from the excellent Non-Farm Payrolls report for February. It showed an increase of 273,000 jobs on top of upward revisions worth 85,000. Wage growth is healthy at 3% yearly. However, markets quickly shifted to worrying about the disease. See NFP Analysis: Superb data insufficient to stop the Fed from another double cut, USD vulnerableContrary to the US, the old continent is still unwilling to introduce fiscal stimulus. Germany's reluctance to loosen its debt limits in the wake of the health crisis weighed on the euro in the last week of February and was forgotten afterward. If finance minister Olaf Scholz can convince Chancellor Angela Merkel to open Berlin's purse strings, the common currency has room to rise.Until that happens, monetary accommodation is the only game in town. Christine Lagarde, President of the European Central Bank, has a substantial dilemma. If she pushes through a rate cut, it is unlikely to do much to help the eurozone economies and may only hurt banks. Moreover, she will find herself in a fight with hawks within the Governing Council. German and other members of the ECB opposed the latest rate cut and restart of the bank's bond-buying scheme in September. Lagarde aimed to soothe tensions and bring doves and hawks together by announcing a comprehensive strategic review. However, if she fails to act, the euro may rise and further hurt European exports and push inflation lower. The ECB's aims for 2% or close to 2% headline inflation and at 1.2% in February, it is far from achieving this goal. /Moreover, as a savvy politician, Lagarde wants to be seen as doing her part in alleviating pressure -- just like her peers all over the world.A bolder and more effective step would be to step up its QE program from €20 billion per month to as much as the peak of €80 billion seen several years ago. For that, the ECB would need to loosen its self-imposed ruled and Lagarde would require additional work in persuading some skeptical colleagues in Frankfurt. Overall, it is a tough choice. For the euro, a rate cut of 10 bp to -0.60% is priced in. A deeper decrease of borrowing costs or announcing a large leap in the QE program would weigh on the common currency. Inaction would boost the common currency.A few other noteworthy events may impact the euro. German Industrial Output figures -- which have been horrible in December -- are set to recover in the report for January. Another fall -- which would predate the coronavirus crisis -- would weigh on the common currency.Final Gross Domestic Product figures for the fourth quarter are likely to confirm the sluggish expansion of the 19-country bloc while eurozone industrial output figures for January are impacted by the prior German release. Here are the events lined up in the eurozone on the forex calendar:
The US dollar will likely move mostly on coronavirus cases, speculation about Federal Reserve action and the government's response to the disease. With more testing kits coming into play and few restrictions on movements, the number of cases will likely increase. In turn, economists may forecast weaker growth and further rate cuts -- thus weighing on the dollar.President Donald Trump and Congress may change this potential course by upping their game and launching infrastructure and another spending -- not only to fight the virus but also to boost the economy. The current climate in Washington does not seem conducive for immediate action but may come later on.The Democrats' primaries -- and polling toward the next races -- continue and could occasionally move the dollar. If Biden continues gaining ground, the greenback has more room to the upside. If Sanders makes strides towards recapturing his front-runner position, the dollar may decline.Two economic indicators also have room to make it through the noise. The Consumer Price Index report for February is forecast to show a deceleration of headline inflation from 2.5% to 2.3%. More importantly, Core CPI is projected to remain unchanged at 2.3%. It is probably too early to see the impact of the virus on prices. In the future, the supply shock may push inflation higher. The second release is the University of Michigan's preliminary Consumer Sentiment survey for March. Is the public worried about the illness? A small drop is on the cards, but the level of uncertainty is high. Here are the scheduled events in the US:Euro/dollar has shot above the 50, 100, and 200-day Simple Moving Averages and the currency pair is enjoying upside momentum. On the other hand, the Relative Strength Index is flirting with 70 – entering overbought conditions. This technical situation implies a downside correction before the rally resumes. An extension of the upside move is supported by the break above the long-term downtrend resistance that accompanied the pair since early 2019. Overall, a correction could be followed by a fresh rise. Support awaits at 1.1285, a resistance line from mid-2019. It is followed by 1.1240, December's peak. Next, the former triple-top of 1.1170 is critical support. It is followed by 1.1050, which played both roles in the past, followed by 1.0980, a low point in December. 1.0925 and 1.0880 are next. The first line of resistance is 1.1350, which capped EUR/USD around June. Next, 1.1405 was the summer's high point. It is followed by 1.1450, which was a peak in the spring. 1.1515 and 1.1550 are next.Unless the ECB comes out with all guns blazing, EUR/USD has room to rise. It may extend its gains if Germany ups its game and the risk to the rally comes from the outside chance that the US halts the disease. All in all, the wind is blowing in favor of EUR/USD bulls.The FXStreet Poll is showing that experts are skeptical about the recent rally and are bearish on all time frames. While the short-term target has been upgraded, medium and long-term goals have remained mostly unchanged."
3,"EUR/USD picks up pace, now eyes 1.1330/70 – UOB","FX Strategists at UOB Group highlighted the upbeat mood in EUR/USD and noted it could visit 1.1330 and 1.1370 in the next weeks.24-hour view: “Our view that a ‘short-term top is in place’ was wrong as EUR not only broke above Tuesday’s peak of 1.1212 but also the late December top of 1.1239 (overnight high of 1.1244). While the rally is overbought, solid momentum could continue to carry EUR higher from here. That said, 1.1285 is a major level and is expected to offer solid resistance. Support is at 1.1185 but only a breach of 1.1155 would indicate that the current upward pressure has eased.”Next 1-3 weeks: “We highlighted yesterday (05 Mar, spot at 1.1135) that ‘there is no change to our view even though shorter-term momentum is beginning to wane and unless EUR can move and stay above 1.1190 within these 1 to 2 days, the odds for a move to 1.1239 would diminish quickly’. EUR not only moved above 1.1190 but managed to crack 1.1239 as well (overnight high of 1.1244). Upward momentum is given a strong boost and from here, the next level to focus at is 1.1330 followed by 1.1370. On the downside, the ‘strong support’ has moved higher to 1.1100 from yesterday’s level of 1.1050.”"
4,EUR/USD advances to YTD highs near 1.1280,"The upbeat tone in the single currency remains well and sound so far at the end of the week and is now lifting EUR/USD to fresh 2020 highs in the proximity of 1.1280.EUR/USD is adding to Thursday’s gains above the 1.1200 mark and is already trading at shouting distance from 1.1300 the figure, levels last seen in mid-July 2019. Indeed, after bottoming out in the 1.0780/75 band in February, the pair managed to reverse the pessimism and gain around five cents, or nearly 4.70%.In the meantime, the continuation of the risk aversion mood in the global markets keeps the downside pressure on US yields and boosts the demand for the safe haven JPY, all in detriment of the greenback, which has receded to levels last seen in July 2019 when gauged by the US Dollar Index (DXY).In the calendar, German factory Orders surprised to the upside and expanded at a monthly 5.5% during January, reversing the previous 2.2% contraction. Later in the session, all the attention will be on the US Payrolls, where consensus expects the economy to have created 175K jobs during last month.EUR/USD has quickly left behind the key barrier at 1.1200 the figure and advanced to new yearly highs near 1.1280, now refocusing its interest on the 1.1300 mark. In the meantime, the ECB remains vigilant and ready to act in case the outlook deteriorates further in response to the coronavirus and particularly after the Fed cut rates on Tuesday. On another front, the ECB is expected to finish its “strategic review” (announced at its January meeting) by year-end, leaving speculations of any change in the monetary policy before that time pretty flat. Further out, recent better-than-expected results in both Germany and the broader Euroland appear to have re-ignited some optimism among investors regarding the possibility of some recovery in the region and the currency. This view is also supported by rumours of fiscal stimulus in Germany.At the moment, the pair is gaining 0.31% at 1.1272 and a break above 1.1277 (2020 high Mar.6) would target 1.1286 (high Jul.12 2019) en route to 1.1347 (high Jun.13 2019). On the flip side, initial contention is seen at 1.1186 (61.8% Fibo of the 2017-2018 rally) seconded by 1.1098 (200-day SMA) and finally 1.1041 (55-day SMA)."
5,EUR/USD: Euro is set to depreciate – ANZ,"It may take a while for markets to settle, but analysts at ANZ Research still stands for euro depreciation in the coming months. The outlook for euro area growth is deteriorating sharply, and reflationary policy tools are limited. “The euro area is very exposed to downturns in global trade. Domestic demand will also weaken. We have cut our EA 2020 GDP forecast to 0.2%. Disinflationary pressures will intensify.”“We anticipate only limited cuts to the deposit rate (20bps to -0.70%). Targeted measures to support credit availability are likely, while a temporary, reluctant increase in QE purchases from EUR20bn to EUR30bn per month can’t be ruled out.“In the short term, adjusting to recent financial movements and the desire among policymakers to contain volatility could leave EUR/USD becalmed. However, the US is better equipped economically to respond to the current crisis. Whilst interest rate support for the USD has been eroded, the growth outlook is better. We forecast US growth will rise by 1.5% this year vs 0.2% in the euro area.”“Owing to the better US growth outlook and policy optionality, we expect that the EUR’s depreciation will resume in time.” "
6,EUR/USD: At 6-month highs – Commerzbank,"EUR/USD has eroded the top of the 14 month down channel at 1.1182 and the 1.1240 December high. Karen Jones,  Team Head FICC Technical Analysis Research at Commerzbank analyzes the pair technically.“While we are unable to rule out a correction back 1.1060 and possibly 1.1020 near term, currently the market looks bid.” “Above lies the 1.1300 55 month ma and the 200-week ma at 1.1346. This is critical from a longer-term perspective, a weekly close above here would target the 12-year downtrend at 1.1950.” "
7,"EUR/USD Forecast: 500-pip rally only be the beginning as coronavirus spreads in America, NFP eyed","If coronavirus can make it there, it can make it anywhere, New York, New York – paraphrasing Frank Sinatra's words, the spread of the disease to NYC has had a profound impact on markets and the dollar's weakness has already sent EUR/USD to 1.1278, which is 501 pips below the trough in mid-February. Thousands of people are reportedly quarantined in the world's financial capital. Moreover, the US is lagging behind in testing for the disease, and many fear that the number of cases in the world's largest economy will leap.President Donald Trump has finally acknowledged that the US will suffer economically from the disease after expressing doubts earlier. Vice President Mike Pence – who Trump nominated to concentrate coronavirus efforts – has admitted not enough testing kits are available. Stocks have tumbled down on Thursday and investors fled from stocks into the safety of bonds, pushing the ten-year benchmark treasury yield down to 0.80%. Markets are now pricing in a 100% chance of another rate cut by the Federal Reserve on March 18 – of an additional 50 basis points. The Fed's unscheduled reduction of borrowing costs on Tuesday continues weighing on the greenback.The disease also continues spreading in Europe with Italy confirming 148 deaths and Germany's infection rate surpassing 500. Italy's decision to close schools and universities through March 15 weighed on the euro earlier this week but is now forgotten as the focus shifts to the US. The US Non-Farm Payrolls report – usually a massive market-mover – is likely to have only a temporary impact as coronavirus news hogs the headlines. Nevertheless, it may influence the Federal Reserve's upcoming decision.Economists expect an increase of 175,000 jobs in February – a healthy figure despite falling short of January's 225,000 gain. Annual wage growth carries expectations for deceleration from 3.1% to 3%, also a satisfactory outcome. See:Overall, coronavirus updates are set to be left, right, and center, with a brief interlude for the NFP.The Relative Strength Index on the four-hour chart has topped 70 once again, indicating overbought conditions 0 and implying a correction. Such a downward move would likely be temporary as EUR/USD is trading above the 50, 100, and 1200 Simple Moving Averages and momentum remains positive. Initial resistance awaits at the daily high of 1.1280, followed by 1.1320 and 1.1390 – levels last seen in the summer. Support is at 1.1215, a swing high from earlier this week, followed by 1.1180, a level that capped EUR/USD before and after this swing move. 1.1120 provided support this week and 1.11 is a double bottom."
8,GBP/USD Forecast: Extending the coronavirus-correlated rally or correcting with Brexit?,"Coronavirus climb – the US dollar plunged as fears of coronavirus spread in the US and the Federal Reserve's rate cut weighed heavily on the dollar. GBP/USD was unable to take full advantage of this downfall as post-Brexit talks reached roadblocks after a more promising start. Apart from these two topics, manufacturing data in the UK and US consumer confidence are of interest. The whole world is talking about coronavirus – which has more infected more than 100,000 people and taken the lives of over 3,000. The focus shifted from Italy to the US. The Federal Reserve slashed interest rates by a double-dose of 50 basis points – and with hardly any early notice. The G7 conference call failed to result in a pledge for coordinate action – but the Fed acted. The move only temporarily stopped stocks from falling and investors kept on buying bonds – pricing in a reduction of 75 basis points on March 18 at one point. The US dollar came under immense pressure and GBP/USD moved higher. The British monetary response to the coronavirus crisis was calmer. Mark Carney, the outgoing Governor of the Bank of England, and his successor Andrew Bailey both said they are ready to act – but seemed to be in no rush to slash rates immediately. Moreover, the BOE entered the crisis with an interest rate of 0.75% while the pre-shock move rate of the Fed stood at 1.75%. The Fed has more room to cut, and that boosted GBP/USD. Nevertheless, the pound failed to rally like against the greenback like its peers – such as the euro and the yen – and the reason is Brexit. Talks about future relations kicked off in Brussels and were initially off to a positive start. While negotiators did not shake hands – due to coronavirus fears – they described the atmosphere as positive. However, the mood changed toward the end of the week. Michel Barnier, Chief EU Negotiator, said that there were difficulties in reaching an accord by year-end – when the transition period ends.Late in the week, the dollar gained some ground as Non-Farm Payrolls beat expectations with 273,000 jobs gained, better than expected. However, the focus quickly shifted back to concerns about the disease.See NFP Analysis: Superb data insufficient to stop the Fed from another double cut, USD vulnerableThe number of coronavirus cases in the UK continues climbing, but the country is not one of the worst-hit on the planet. If this changes, the pound could plunge. However, there is a greater chance that the US remains the center of attention. Brexit talks continue in the upcoming week and that will likely be a more significant market mover. If both sides report progress – even on the easier parts – sterling has room to shine. On the other hand, if the EU and the UK tackle the ""level playing field"" topic – Brussels' demand that the UK follow EU rules – the pound may fall. That is the most contentious topic.The economic calendar features monthly Gross Domestic Product figures for January. Monthly GDP statistics usually have a minimal impact and the upcoming report predates the worst of the coronavirus crisis so far. Manufacturing data is also of interest. Most figures are posed for moderate gains.Here is the list of UK events from the FXStreet calendar:Coronavirus headlines in the US are far more significant. The world's largest economy has been slow to respond to the health crisis and is only now ramping up the production of testing kits. The number of infections is set to leap and states may take additional measures to curb the crisis. California – home to Silicon Valley and Hollywood – declared a state of emergency and others may follow. If events are canceled, the dollar may fall on expectations for weaker economic output and additional interest rate cuts by the Federal Reserve.Two economic releases stand out on the calendar. US inflation figures for January are set to show steady Core Consumer Price Index figures – 2.3% year on year. Headline CPI is set to soften. Perhaps more importantly, the University of Michigan's preliminary Consumer Sentiment Index is due to show a moderate drop. If shoppers fear the virus, it could plunge and weigh on the greenback.The dollar will likely remain well-correlated to US bond yields and to expectations for the Federal Reserve to cut rates in the following week. Here the upcoming top US events this week:Pound/dollar is now benefiting from upside momentum on the daily chart and has tentatively broken above the 50 and 100-day Simple Moving Averages. The Relative Strength Index is still below 70 – outside overbought conditions. Resistance levels to watch are 1.3170, which capped GBP/USD in February, followed by 1.3210, a high point in late January. It is followed by 1.3285, the peak around Christmas, and then by 1.3420 and 1.3510 from mid-December. Support is found at 1.2950, which worked as support in January, followed by 1.29, a round level that was a low point in December. Another 50 pips down we find 1.2850, a swing low in February, followed by 1.2780, and 1.2725, the 2020 low. The FX Poll is pointing to further, albeit moderate gains for the pound in the short and medium terms, with no significant moves later on. Both the short and medium-term average targets have been modestly upgraded."
9,Online Trading Academy: Free premium service from FXStreet to OTA users,"The Online Trade Academy has been struggling with legal issues, and users looking for education may be struggling. FXStreet is granting three free months of premium services to OTA clients who are at risk of losing their current training. There is no obligation whatsoever to continue viewing the content after this period ends. The online training sessions include more than 20 weekly events every week, ranging from forex, options, stocks, long-term strategies, and also a Q&A slot. Jose Blasco is one of the leading experts behind the new initiative. Apart from webinars, the premium offering includes dedicated monitoring to help traders get on their feet. Mentoring sessions broadcast live on-line during key market hours. Recordings are available to either catch up with missed sessions or for review purposes.FXStreet is one of the largest forex portals and has been in business since 2000. The firm strives to provide trustworthy education to all traders, without looking for shortcuts. Operating in markets can be tricky and includes pitfalls that traders should be aware of. Having more knowledge and experience raises the chances of success, but nothing is guaranteed. Setxi Fernández, CEO at FXStreet.com, stated. “Traders often believe that operating in markets can help become rich easily, and unfortunately, this is not the case. Trading requires practice, effort, and familiarity with markets”.Celebrating 20 years in 2020, the firm considers that regardless of the situation, traders should not be affected – whether from the disappearance of an offshore broker or by any other event. You can check the new service here."
10,Iranian OilMin: One of worst meetings I've seen in history of OPEC,"""There were six hours of private negotiations but Russia and Saudi Arabia could not reach an agreement,"" noted Iranian Oil Minister Zanganeh following the OPEC+ meeting in Vienna on Friday.""This was one of the worst meetings I've seen in the history of OPEC,"" Zanganeh added. ""Some members of OPEC were insisting that non-OPEC join production cuts.""These comments were largely ignored by the market participants. The barrel of West Texas Intermediate was last seen trading at $42.33, erasing 7.9% on a daily basis. "
11,Crude Oil Shows Exhaustion Signals,"In our article released last February 24th, our team mentioned the short-term bearish sequence that Crude Oil developed dragged mainly by the coronavirus worries.Until our previous analysis, and according to the Elliott wave perspective, the 2-day chart showed an incomplete wave (2) of Intermediate degree in progress, which exposed a wave (c) of Minuette degree in development.The following chart represents Crude Oil in its daily timeframe. Currently, the price advances in the wave (c) of Minute degree labeled in black that began on January 08th when the price found sellers at $65.62 per barrel. Additionally, from the chart, we distinguish that wave B of Minor degree could be building an Irregular flat pattern. This structure will validate if the wave ((c)) of Minute degree identified in black raises in five waves.In the short term view, Crude Oil continues its sell-off as a ""climatic bearish move""  that is testing the Christmas' 2018 low at $42.40 per barrel. This context makes us suspect that the price action is in an ending stage.The next figure unveils Crude Oil in its 12-hour chart. The price action reveals the bearish momentum that the energy commodity gained in the last weeks supported by increasing the virus spread. In the same way, during the latest two weeks, the news media has been contributing to increase the bearish sentiment. However, from the Elliott wave point of view, Crude Oil declines in a fifth extended wave of Subminuette degree identified in green. As can be noted with previous articles released by our team, the extended wave in the fifth wave is an Elliott wave formation that tends to appear especially in the commodities group.Finally, the current bearish leg still is intact while the price continues moving below $48.62 per barrel.In conclusion, the short-term structure that Crude Oil develops suggests the progress in an extended fifth wave, which could finish in the coming trading sessions.In the short term, our preferred positioning locates in the bearish side while the price action continues moving below $48.62 per barrel.  Try Secure Leveraged Trading with EagleFX!"
12,NFP: Jobs report is old news – Wells Fargo,"Data released on Friday, showed the US economy added 273K jobs in February. According to analysts at Wells Fargo, the bright state is unlikely to last. “The February employment report covered the week ending the 15th, so before concerns over COVID-19 escalated. But before the recent volatility in financial markets and steppedup efforts to contain the virus, the labor market was on solid ground.”“As with last month, the unseasonably mild winter weather appears to have given some lift to hiring.”“Even before accounting for the coronavirus outbreak, payroll growth exCensus workers looks poised for a sharp slowdown in March.”“The Fed is already looking ahead to the ripple effects of efforts to contain COVID-19, so today’s report does not change our assumption for additional easing before the end of Q2. Hiring was resilient through the past two growth scares of the current cycle. But those scares—triggered by uncertainty over trade policy (2019) and commodity prices collapsing (2015-2016)— were centered around goods-producing industries.”“The COVID-19 environment stands to impact hiring in the service sector much more directly, in addition to dealing another blow to the manufacturing and mining industries. Delayed shipments, canceled travel and forgone outings are ripe to reduce hiring in the months ahead.”"
13,"Saudi OilMin: Will 'keep you wondering' on oil output, WTI attacks $42 mark","After leaving the meeting at OPEC headquarters in Vienna on Friday, Saudi Arabia’s Energy Minister Prince Abdulaziz bin Salman said that he would “keep you wondering” when asked if Saudi will raise oil production.This comes after the collapse of an OPEC+ deal on the output cut, as Russia disagreed to support deeper oil cuts to cope with the outbreak of coronavirus.Both crude benchmarks are down over 8% and trading at multi-year lows. WTI is attacking the 42 mark while Brent drops below $46 handle."
14,OPEC oil ministers “trying” to hold an informal meeting - CNBC,"Citing sources with the knowledge of the matter, CNBC reports that there are some OPEC oil ministers ""trying"" to hold an informal meeting to come to an agreement on crude oil production.Contradicting the above headlines, Iran’s Oil Minister said that “holding another meeting soon between OPEC and non-OPEC members will be difficult because of coronavirus health concerns but agreements can be reached by videoconference.”The mixed headlines had virtually no impact on the oil markets, as both crude benchmark nurse losses amid OPEC+ fallout on the oil output cut policy.WTI defends 42 level, down about 8% so far. The US oil hit the lowest levels since 2016 at 41.77 earlier today."
15,Oil Market Week Ahead: Worse Before it Gets Better,"The week ahead in Europe will get worse before it gets better, bringing a large level of uncertainty to the oil markets.The number of new coronavirus cases in Germany and France is gathering critical mass, big enough to start disrupting working life, close schools and bring businesses to a standstill. Looking at how Italy has responded to the spread there, European countries are looking at school and university closures, travel restrictions and the cancellation of events that bring a large number of people into close proximity. The European Commission has already started teleconferencing instead of meeting in person after the first cases of the virus were registered in Brussels.The UK is lagging “behind” this curve with some 160 registered cases versus Germany’s and France’s 570. For the oil markets this will mean reduced transport demand and to a lesser extent industrial demand with much depending on how badly the virus spreads over the course of next week. The coronavirus has now spread into around 80 countries, putting travelers off both business and leisure travel. While in January, only flights in and out of China were being cut, there is now reduced demand for flights along major international routes. Delta and United Airlines have already responded by cutting the number of domestic flights in April and May by about 10% and international flights by 20%. This may end up being a conservative move at this stage.The bigger problem for the industry is European regulation which requires airlines to continue flying on routes to Europe unless they want to lose their flight spots. This means that airlines are now flying to Europe with close to empty planes, incurring massive costs without any income to compensate for it, a situation that is tenable only for a short period of time as was demonstrated by the collapse of British airline Flybe this week. Look for demand for jet fuel to take a further hit over the coming weeks, particularly from European carriers. Despite trying to persuade Russia to take part in plans to cut production from OPEC+ countries since mid February, OPEC+ failed to reach an agreement on output cuts Friday. Russia played a round of poker knowing that Saudi Arabia and OPEC will still likely go ahead and reduce output by around 1m bbl to mitigate the coronavirus induced decline in prices. Russia also speculated that it can outlast US producers in surviving a decline in oil prices, which could last for weeks if not months.As the picture from the Dallas Federal Reserve below shows, breakeven prices for shale oil production in the US are between $48 and $54 a barrel, depending on the basin. The current prices for WTI of awfully close to $40 will grant smaller US shale oil producers only a short amount of time during which they will be able to continue operating.  This research is for informational purposes and should not be construed as personal advice. Trading any financial market involves risk. Trading on leverage involves risk of losses greater than deposits."
16,Gold Is the Strongest Currency Since the Coronavirus Scare,"Another tumultuous week in equity and interest rate markets has helped fuel a big pop in safe-haven demand for gold and silver. The major market moving event was, of course, the Federal Reserve’s emergency rate cut on Tuesday. The Fed slashed its overnight funds rate by 50 basis points. But even before the Fed acted, the bond market had already forced its hand as yields on the 10-year Treasury note plunged to record low levels. By Friday morning, the 10-year treasury yielded less than a paltry 0.90%. That represents almost no reward in exchange for the risk involved. Bond buyers are apparently willing to make a decade-long bet on U.S. government finances remaining solid and inflation remaining extremely low. It’s still possible for bonds to experience capital appreciation if rates ultimately head to zero or below – as they have already done in other parts of the world. The Fed is almost certain to cut rates again. There is a good chance at least some portion of the yield curve will be at zero later in the year.As central bankers act furiously to devalue cash assets, the U.S. dollar is likely to come under downside pressure. If for no other reason than the Fed still has room to cut rates further while much of the rest of the developed world has already run out of conventional tools to depreciate their currencies. There has been lots of talk of “coordinated action” among world central banks. Perhaps they will all get together and roll out some sort of global quantitative easing or other unconventional form of stimulus. Since zero and even negative interest rates haven’t had the desired effect, maybe they will just try dropping cash out of helicopters – or whatever the digital equivalent may be. Gold is emerging as the strongest currency in the world since the outbreak of the coronavirus. Although the monetary metal got hammered in futures markets in last Friday’s trading, it has quickly recouped those losses. Gold is showing tremendous relative strength versus the stock market, which continues to swing wildly on a daily basis. The Dow Jones Industrial Average has so far suffered just a sharp correction in the big picture. It was just a month ago that the blue-chip average was hitting new record highs. But when measured in term of gold, the Dow is in a major bear market. In fact, the Dow:gold ratio dropped this week to a 3-year low of 15.6:1.Another ratio we monitor closely is the gold:silver ratio. It is now trading at an extreme high of about 96:1. You’d have to go all the way back to 1991 to find gold selling at a more elevated premium to silver – and then only briefly. If coronavirus fears continue to drive markets, then gold could potentially spike to 100 times the silver price. But we suspect that when markets finally calm down and prospects for the global economy improve, silver will begin playing catch-up to gold. And it has a long way to go to get back to a more historically typical relationship with its more prestigious counterpart.We are also seeing a big surge in demand for silver bullion products. The U.S. Mint reported that it sold 675,000 Silver Eagles in just the first three days of March. By comparison, it supplied dealers with just 650,000 Silver Eagles for the entire month of February. Coming off of three years of subpar demand for physical precious metals – the downturn really began after the election of Donald Trump in November 2016 – this year could see a significant rebound. Although fears of a debilitating global pandemic may fade – and we certainly hope they do – other drivers of bullion buying are likely to persist. The Fed’s return to zero interest rate policy makes hard money look like an increasingly attractive place to hold wealth. Plus, we could see rising political uncertainties and worries heading into this fall’s election – especially if investors fear the outcome could be bad for Wall Street.  The threat of an overt socialist becoming president seems to have subsided with Bernie Sanders losing several key states to Joe Biden on Super Tuesday. But Sanders is still winning the youth vote overwhelmingly. That large and growing cohort of radical leftists could propel more AOC types into Congress and into powerful positions at the state and local level. Both Joe Biden and President Trump will talk a lot about unifying the country on the campaign trail. But the reality is that the U.S. is likely to remain as politically polarized as ever. There are no bipartisan solutions in sight for chronic problems such as trillion-dollar budget deficits. All our big fiscal and economic issues are being handed off to the Fed to handle. The only strategy it has to deal with them is to paper over everything with more fiat dollars.
 "
17,Gold Price Analysis: Harmonic patterns emerge in the gold market,"The price of gold fell from its daily peak of $1,690.04 after the Non-Farm Payroll data earlier in the session.Now it seems the price found some support at the 38.2% Fibonacci retracement.The candle also managed to close above the 261.8% Fibonacci extension and trendline.This also confluences with a support zone at $1.653.83. Now it seems the price might be edging back toward the highs but if the Fibs keep working the 76.4% level ($1,678.34) could be the new 1-2 wave low from an Elliott wave perspective.If the bulls win the battle then $1,720.00 is the 1.618% extension to the upside.  "
18,EUR/CAD: Loonie vulnerable to further weakness as price of oil collapses – MUFG,"Analysts at MUFG Bank, see the EUR/CAD pair rising further in the short-term. They have a target for the pair at 1.5800. “We are recommending a long EUR/CAD trade idea to reflect building downside risks for CAD. The price of oil has come renewed selling pressure following reports that OPEC+ talks are on the verge of collapse. Russia does not agree with the OPEC proposal for deeper cuts. It reinforces downside risks for the price of oil from demand disruption related to the coronavirus shock.”“The BoC followed the Fed and delivered a 0.50 point rate cut and left the door wide open for further easing. The BoC has more room to cut rates than other G10 central banks posing downside risks for the CAD. On the other hand, the EUR is expected to benefit further from the liquidation of funding positions amidst elevated coronavirus fears. There is also upside risk for the EUR if the ECB fails to meet expectations for easing in the week ahead. Unlike the Fed and BoC, the ECB has less room for manoeuver.”"
19,ECB: A cut is not the cure for COVID-19,"We plan to monitor closely next week's ECB meeting following the outbreak of the COVID-19 virus and with the policy response space less than for other central banks. In our view, the ECB will have to be innovative to address this special situation. Contrary to market pricing, we do not expect the ECB to cut rates but rather to focus on liquidity facilities targeting small and medium-sized enterprises (SMEs), a tweak to the QE programme and potentially reintroducing its date-based forward guidance. However, it is important to stress that we see a significant risk of a 10bp cut at next week's meeting.We expect the ECB to stand ready to ease monetary policy via rate cuts should the economic outlook deteriorate sharply in the near future. As such, we see the possibility of a rate cut in Q2, perhaps as early as the 30 April meeting.We expect the new ECB staff projections to lead to lower GDP growth and broadly unchanged inflation projections. However, with the limited amount of data released taking into account the COVID-19 effect, we believe markets will focus on the narrative rather than the projections.From a risk-reward perspective, we recommend paying the EONIA 2Y1Y for a positioning into Q2 and paying Mar20 EONIA heading into the ECB meeting next week. Over the past week, particular focus has turned to ECB Governing Council (GC) members' views of the impact of COVID-19 on the economy. At the January meeting, the ECB said that the balance of growth risks was on the downside but had become ‘less pronounced' and while we have seen another downside risk from a sharp slowdown, we do not expect the ECB to launch a large easing package – at least not yet. In Christine Lagarde's first real test as ECB President, we believe she will seek the consensus of the GC by allowing tasked committees to examine the impact of the virus on the inflation outlook and, as such, design policy responses should they be needed. In the meantime, we expect liquidity facilities and a call for co-ordinated fiscal stimulus to be the clear message.The list of GC members' comments in recent days (see Appendix) shows that they view the monetary policy as being already very accommodative and that governments should act prior to central banks. Therefore, with the exception of Philip R. Lane's comment on 27 February, we do not see any appetite to take hasty decisions. Lagarde's statement on Monday night also suggested no hasty decisions, as it stated that the ECB stands ready to take ‘appropriate and targeted measures' in response to the impact on the economy and medium-term inflation expectations. As the data have yet to be released to gauge the economic and inflationary impact of COVID-19, we expect the ECB to adopt monitoring, not forcefully reacting, and focus on targeted liquidity measures and QE tweaks rather than changing the overall monetary policy stance. In summary, we expect the ECB to sound ready to ease monetary policies (beyond liquidity injections) without a clear guidance of how. We see a risk of markets being disappointed next week on the lack of clear easing guidance. Download The Full ECB PreviewThis publication has been prepared by Danske Bank for information purposes only. It is not an offer or solicitation of any offer to purchase or sell any financial instrument. Whilst reasonable care has been taken to ensure that its contents are not untrue or misleading, no representation is made as to its accuracy or completeness and no liability is accepted for any loss arising from reliance on it. Danske Bank, its affiliates or staff, may perform services for, solicit business from, hold long or short positions in, or otherwise be interested in the investments (including derivatives), of any issuer mentioned herein. Danske Bank's research analysts are not permitted to invest in securities under coverage in their research sector.
This publication is not intended for private customers in the UK or any person in the US. Danske Bank A/S is regulated by the FSA for the conduct of designated investment business in the UK and is a member of the London Stock Exchange.
Copyright () Danske Bank A/S. All rights reserved. This publication is protected by copyright and may not be reproduced in whole or in part without permission."
