,title,text
0,EUR/USD: The gong from Hong Kong benefits the greenback,"EUR/USD remains on the back foot, approaching 1.0900, amid intensifying tensions between the US and China. The ECB's meeting minutes are also eyed, FXStreet’s analyst Yohay Elam informs.“The new security law that tightens China's group over Hong Kong angered citizens of the financial hub, which are set to demonstrate in droves over the weekend. It also angered American lawmakers. Both countries have also been clashing over coronavirus.”“Investors seemed to ignore rising unemployment in America, as both initial jobless claims and continuing ones came out worse than expected.” “The ECB releases its meeting minutes later on Friday. The document may shed some light on deliberations regarding adding more stimulus.”"
1,EUR/USD Price Analysis: The euro fails to break above the horizontal channel," The euro opened the week on a strong footing, buoyed by a positive market mood as the main economies started easing coronavirus lockdowns. The pair appreciated about 1.7% to find sellers several pips below 1.1000 psychological level, right at the top of the horizontal channel, between 1.0770 and 1.0980 where the EUR/USD has remained trapped over the last two months.The common currency has given away gains over the last sessions retreating to the 1.0900 area, weighed by US dollar strength as market mood worsened amid the escalating tensions between the US and China. The 4-hour chart shows the pair still above the main moving averages, which suggests that bulls remain in control in the medium-term. A clear move below 10870/80 area where the moving averages lie, might increase negative momentum and might send the pair to test 1.0800 before aiming for trendline support at 1.0770. On the upside, 1.1000/15 (trendline resistance and the 200-day SMA) remains a key resistance area. Above there the pair might gain bullish traction paving the path towards 1.1040 (March 31 highs) on the way to 1.1145 (March 27 high).     "
2,"Murrey math lines: EUR/USD, GBP/USD","In the H4 chart, EURUSD is no longer moving inside the “overbought area”. In this case, the pair is expected to fall to break 5/8 and then continue trading downwards to reach the support at 4/8. However, this scenario may no longer be valid if the price breaks the resistance at 8/8 to the upside. After that, the instrument may continue growing to reach +1/8.As we can see in the M15 chart, the pair has broken the downside line of the VoltyChannel indicator and, as a result, may continue trading downwards. In the H4 chart, GBPUSD is consolidating. The main scenario implies that the pair may break 4/8 to the downside and then continue falling towards the closest support at 3/8. However, this scenario may no longer be valid if the price breaks the resistance at 5/8. After that, the instrument may continue growing to reach 6/8.As we can see in the M15 chart, the pair has broken the downside line of the VoltyChannel indicator and, as a result, may continue moving downwards to reach 3/8 from the H4 chart."
3,"Friday update on SP500, Gold and EUR/USD [Video]","Today we see that markets are finally looking outside of the Coronavirus crisis as tensions around Hong Kong are renewed and a clash between China and the US is once again stirred. Jobless claims were probably a better topic, but here we are. Recent developments have triggered a small correction in the bullish sentiment which has allowed sellers to gain some traction. The reversal is still relatively small and it seems like buyers have it all under control.Let’s start with the SP500 which is currently bouncing from the upper line of the flag, which was broken at the beginning of the week. As long as the price stays above the line of the flag, the buy signal stands. The best scenario for now is a breakout of the 2980 resistance level which has persisted since the end of April. In the least, we may see that level tested.Moving on to Gold, which is currently testing the ultra-crucial resistance level of 1740 USD/oz, where not one, not two but three resistances were met.  The first is a mid-term up-trendline which was broken yesterday so this is the first time we test this level as a resistance. The second is the upper line of the wedge pattern – which is promoting a rise. The third is a horizontal barrier, which was already stopping buyers in the second half of April. A breakout of any of these three resistances would give us the ultimate buy signal.Lastly, we’ll checkout the EURUSD where the price is collapsing after being wounded by the triple top formation and a false breakout from the symmetric triangle. For now, buyers can catch a breath at the horizontal support of around 1.088 but with the negative factors mentioned above, the sentiment is definitely negative."
4,EUR/USD analysis: Declined below 1.0920,"On Thursday, the EUR/USD currency pair failed to exceed the resistance level—the weekly R3 at 1.1008. During today's morning, the pair declined below 1.0920.Theoretically, it is likely that the exchange rate could gain support from the 200-hour SMA, the weekly R1 and the Fibo 23.60% in the 1.0880 area. If the given support holds, it is likely that a reversal north could occur in the short run.Meanwhile, note that the pair would have to surpass the resistance cluster formed by the 55– and 100-hour SMAs, as well the weekly R2 in the 1.0935/1.0960 range. If the given resistance holds, it is likely that the Euro could consolidate against the US Dollar."
5,"EUR/USD: Downside risks for euro have eased, but upside potential remains limited for now – MUFG","Analysts at MUFG Bank, point out the Eurozone economy is beginning to pick-up, but hey warn the outlook remains highly uncertain. They see the downside risks for the euro have eased, but at the same time, limited upside potential for now.“EUR/USD attempted and failed to break above the 1.1000-level in recent days amidst the broadening USD sell off. It takes the pair back towards the middle of 1.0800 to 1.1200 trading range that has been in place for the majority of the time since last summer. Even more notable has been the EUR’s advance against both the CHF and JPY. It is the largest move higher for EUR/CHF since last November. Spot price action has triggered some excitement that the EUR is at a turning point. Demand for EUR/USD downside protection in the options market has also eased especially covering the next three months.”“There are two main drivers providing more support for the EUR in the near-term. Firstly, there is building optimism that the euro-zone economy is through the worst of the COVID-19 crisis. (...) Secondly and more importantly has been the Franco-German proposal for an EU Recovery Fund.”“We are not yet convinced that the EUR is set strengthen on a more sustained basis against the USD, CHF and JPY like in 2017. While we agree that downside risks for the EUR have eased, upside potential for EUR/USD should remain limited for now by the top of the 1.0800 to 1.1200 range.”
 "
6,UK OBR: Rise in debt-to-GDP ratio driven by assumed sharp fall in GDP,"The rise in the debt-to-GDP ratio is driven more by the assumed sharp fall in the GDP rather than an increase in debt, the UK's Office for Budget Responsibility (OBR) said on Friday.""Latest official budget deficit data rely heavily on estimates, it will be months before the true cost is clear,"" the OBR added in its statement. ""It's not possible to say at this stage what the overall size or direction of future public borrowing revisions might be.""The GBP/USD pair largely ignored these remarks and was last seen losing 0.4% on the day at 1.2175."
7,EUR/USD Forecast: Feel lost? So do central bankers,"The EUR/USD pair hit a weekly high of 1.1008, triggering some enthusiasm among speculative interest about the pair finally waking up. It was short-lived though, as the pair quickly retreated from the level, to end the week around the 1.0900 level.As it has been happening lately, the sentiment was the main market motor. The mood fluctuated on the back of two main issues. Progress around the coronavirus pandemic, and renewed tensions between the US and China.Major economies have slowly started to reopen, although easing restrictive measures remains slow and painful. Most leaders agree on the fact that the crisis is far from over. They won’t hesitate on toughening measures should the number of cases increase. The world needs to learn to live with the virus until a vaccine is found, or 70% of the population gets antibodies. Despite news of progress in some vaccines and treatments, the road ahead is still too long. In the meantime, economies continue to deteriorate.These last few days, both central banks, the Fed and the ECB, published the Minutes of their latest meetings. Policymakers from around the globe had made it clear that they are ready to pump in extra stimulus, to keep the economies afloat throughout the pandemic.In its latest meeting, the US Federal Reserve has kept rates and the QE unchanged, although several FOMC members proposed clearer forward guidance and to make asset purchases a traditional program for easing financial conditions. Despite agreeing on using every tool available, policymakers have left negative rates out of the picture, at least for now.  The European Central Bank also stands ready to do more, according to the Monetary Policy Meeting Accounts. One other thing global central banks agree on is the high level of uncertainty amid the ongoing coronavirus pandemic.Growth-related data released these last few days showed that manufacturing and services activity bounced from record lows in May, but also indicated that the coronavirus-related downturn will likely steepen in the second quarter of the year. Inflation did no better, as April’s annual CPI in the Union was at 0.3%, while the core reading at 0.7%.In general, data has backed what sentiment dictates: nothing is certain until the coronavirus crisis is over, and there’s no way to predict when that will happen.The upcoming week, Germany will release the final version of Q1 GDP, expected to be confirmed at -2.3%. The most relevant event coming from the EU will be May Consumer Confidence.  The US   will publish next Thursday when the country will release April Durable Goods Orders, expected to have fallen by 18.1%, and the first revision of Q1 GDP, foreseen at -5.0%. The week will end with German Retail Sales, EU’s May CPI, and US core PCE inflation, all to be released next Friday.As said, the EUR/USD pair is ending the week with gains, although there are no technical signs that it may continue advancing. The pair retreated after briefly surpassing a still bearish 20 SMA in the weekly chart, while still developing well below the larger ones. Technical indicators turned marginally higher, but remain within neutral levels and the momentum is limited.In the daily chart, the pair is neutral-to-bearish, given that it retreated from its 200 SMA, and is now approaching the 20 SMA, which lacks directional strength. The Momentum heads nowhere around its 100 level, while the RSI gains downward strength, now at around 50.Ending the week below 1.0900 is a worrisome signal for bulls. The immediate relevant support is 1.0820, followed by 1.0760. Below this last, the pair is at risk of retesting the yearly low at 1.0635. To the upside, 1.0920 and the 1.1000/10 price zone are the levels to watch, with a clear break above this last favouring a bullish extension towards 1.1120/40.The FXStreet Forecast Poll shows that disappointed bulls are willing to give up, as most polled experts expect the pair to fall in the upcoming weeks. Bears represent 64% in the weekly perspective and decrease to 50% in the monthly one. However, bulls in this last time frame represent just 22%. On Average, the pair is seen holding between familiar levels, unable to run past the 1.1000 critical figure but holding above the mentioned yearly low.In the Overview chart, moving averages have turned marginally higher but lack strength enough to confirm an upcoming bullish movement. In the weekly chart, most possible targets accumulate around or below the current level.AUD/USD Forecast: Relations with China reversed the rally, can an improvement revive it?GBP/USD Forecast: Boris's Brexit and lockdown decisions stand out after the vaccine-driven rally"
8,"EUR/USD – Rejection, retrace, sell-off","EURUSD has drifted down to a fresh four-day low at 1.0886, driven lower by a broad haven-bid for Dollars as Hong Kong re-emerges as a flash point in US-China, and West-China, relations. The narrow trade-weighted USDIndex (DXY) rose to a three-day high at 99.62, extending the rebound from the 18-day low seen on Wednesday at 99.01. EURUSD continues to trade in a broad consolidation range near the halfway mark of the volatile range that was seen during the height of the global market panic in March, which was marked by 1.0637 on the downside and 1.1494 on the upside. Expectations are for the pair to lack sustained directional bias for now, though political tensions among Eurozone members, coupled with the dollar’s role as a haven, suggest the risks are to the downside, as demonstrated in the H1 chart. Below we can see that there was a rejection of 1.1000 yesterday (1) and a retrace of the initial fall to the 50-hour moving average (2), followed by the sell-off during the Asian and European sessions today (3).There is little divergence in central bank policy currently, with both the ECB and the Fed pursuing aggressively accommodative policy, with both Europe and the US facing significant economic headwinds from virus-containing lockdown measures. Both are amid the early stages of reopening from lockdowns."
9,EUR/USD Intraday: The downside prevails,"  Stay on top of the markets with Swissquote’s News & Analysis   Pivot (invalidation): 1.0970Our preference 
Short positions below 1.0970 with targets at 1.0915 & 1.0900 in extension.Alternative scenario
Above 1.0970 look for further upside with 1.1005 & 1.1030 as targets.Comment
The RSI is bearish and calls for further downside. Pivot (invalidation): 1.2250Our preference
Short positions below 1.2250 with targets at 1.2185 & 1.2150 in extension.Alternative scenario 
Above 1.2250 look for further upside with 1.2290 & 1.2325 as targets.Comment 
As Long as the resistance at 1.2250 is not surpassed, the risk of the break below 1.2185 remains high. Pivot (invalidation): 107.85Our preference 
Short positions below 107.85 with targets at 107.35 & 107.20 in extension. Alternative scenario 
Above 107.85 look for further upside with 108.00 & 108.15 as targets.Comment 
The RSI lacks upward momentum."
10,EUR/USD drops to fresh four-day lows below 1.0900,"The EUR/USD pair came under renewed selling pressure during the American session and fell to its lowest level since Monday at 1.0885. As of writing, the pair was trading at 1.0890, losing 0.53% on a daily basis.Earlier in the day, the European Central Bank's (ECB) Meeting Accounts showed that the Governing Council could adjust the Pandemic Emergency Purchase Programme (PEPP) and other tools at the June meeting.Commenting on the ECB's statement, “we continue to expect that the PEPP will be expanded and extended. Further modifications to the TLTRO terms could also be in store,"" said Nordea analysts. ""We do not expect the ECB to lower its benchmark rates anymore. It is clearly focusing on other means to ease policy.”Nevertheless, the EUR/USD pair largely ignored the ECB's remarks and stayed in a consolidation phase near 1.0900.However, the sour market sentiment amid heightened US-China tensions allowed the USD to continue to gather strength against its rivals and weighed on the pair. The US Dollar Index (DXY), which turned north after testing 99 on Thursday, was last seen gaining 0.4% on the day at 99.83. Reflecting the risk-off atmosphere, Wall Street's three main indexes are down between 0.3% and 0.6%. There won't be any macroeconomic data releases in the remainder of the day. On Monday, first-quarter GDP data from Germany will be looked upon for fresh catalysts.  "
11,"Forex technical analysis and forecast: Majors, equities and commodities","EUR/USD is trading downwards to reach 1.0922. Later, the market may correct towards 1.0969 and then resume trading inside the downtrend with the target at 1.0840. GBP/USD continues falling towards 1.2170. After that, the instrument may correct to reach 1.2222 and then continue trading downwards with the first target at 1.2100. USD/RUB has extended the descending wave down to 70.70; right now, it is consolidating below this level. Today, the pair may correct towards 72.60 to test it from below and then resume trading inside the downtrend with the target at 69.44. USD/JPY is moving downwards to break 107.30. After that, the instrument may continue falling with the short-term target at 106.66. After breaking 0.9700 to the upside, USDCHF is expected to continue growing towards 0.9737. Later, the market may start a new correction to reach 0.9696 and then form one more ascending structure with the first target at 0.9750. After reaching the downside target at 0.6533, AUDUSD is expected to consolidate above this level. If later the price breaks this range to the upside, the market may start a new correction to reach 0.6575; if to the downside – form a new descending structure with the target at 0.6478. Brent is correcting towards 33.33. After that, the instrument may resume trading upwards with the short-term target at 39.00 and then start another correction towards 32.50. After finishing the descending wave at 1721.80, Gold is expected to form one more ascending wave to reach 1737.20 (at least). After that, the instrument may start a new decline towards 1710.10 and complete a Flag correctional pattern. After completing the correction at 8888.80, BTCUSD is expected to consolidate near the lows. If later the price breaks this range to the upside, the market may start a new growth to break 9500.00 and then continue trading upwards with the target at 10150.00; if to the downside – form a new descending structure to reach 8300.00. The Index is consolidating not far from the downside border. Possibly, the pair may break 2920.0 downwards and start a new correction to reach 2888.5. Later, the market may form one more ascending structure with the target at 3012.5."
12,Daily technical and trading outlook - EUR/USD,"  DAILY EUR/USD TECHNICAL OUTLOOK
Last Update At 22 May 2020 00:06GMT

Trend Daily Chart
Sideways

Daily Indicators
Rising

21 HR EMA
1.0959

55 HR EMA
1.0951

Trend Hourly Chart
Sideways

Hourly Indicators
Falling

13 HR RSI
43

14 HR DMI
-ve

Daily Analysis
Consolidation with downside bias

Resistance
1.1067 - 80.9% r of 1.1147-1.0728
1.1043 - 61.8% proj. of 1.0776-1.0976 fm 1.0919
1.1018 - May's high (01)

Support
1.0938 - Thur's low
1.0896 - Last week's high (Wed, now sup)
1.0850 - May 15 high (now sup)

EUR/USD - 1.0950.. Although euro retreated fm 1.0988 (AUS) to 1.0957 due to rebound in usd after Trump's tweet with China-bashing comments Thur.Price hit 1.0953 in Europe b4 climbing to 1.1008 in NY morning but only to fall to 1.0938.

On the bigger picture, despite euro's LT upmove fm 2017 near 14-year low of 1.0341 to a fresh 3-year peak of 1.2555 in mid-Feb 2018, subsequent selloff to as low as 1.0778 in mid-Feb 2020 signals said impressive rise has ended. Although price had staged a surprise rally to a 13-month high at 1.1494 in early part of Mar, euro's selloff on renewed usd's strength due to funding demand to a near 3-year low of 1.0637 the same month confirms LT fall fm 1.2555 has resumed n would head twd next chart obj. at 1.0531. Having said that, euro's rise fm Apr's 1.0728 low to 1.1018 in May suggests choppy trading abv 1.0637 would continue b4 another fall n only abv 1.1018 would risk stronger gain twd 1.1147 in late May/Jun.

Today, despite resumption of upmove to a 2-week 1.1008 high, as this lvl was accompanied by 'bearish divergences' on hourly indicators, subsequent fall to 1.0938 after failure to re-test 1.1018 suggests consolidation with downside bias remains, below 1.0938, 1.0903, then 1.0888. Only abv 1.1018 risks 1.1050/54.  "
13,"Gold Price Analysis: XAU/USD bulls fight back control as US-China row escalates, eyes $1740","The recovery in Gold prices (XAU/USD) from Thursday’s troughs of 1717.34 regained traction above the 1730 mark in European trading, following a brief consolidative stint in Asia.The fresh leg higher in the yellow metal is mainly driven by the European traders’ reaction to the escalation in the US-China tensions, in the face of Beijing taking ‘forceful measures’ on Hong Kong under the National Security bill.The deepening concerns prompted a fresh flight to safety wave and lifted the ultimate safe-haven back on the 1730 barrier. The spot now trades with 0.44% gains at 1735.56, although remains on track to book a weekly loss.The weekly decline could be likely associated with the increased expectations of a global economic upturn, as some countries relaxed lockdown restrictions. Meanwhile, the US dollar continued to draw the haven demand on the back of the US-China row and fading optimism over the anti-coronavirus vaccine that weighed heavily on the global stocks.Looking ahead, the US dollar price action and risk trends will continue to influence the gold trades while the near-term sentiment around the metal will likely remain underpinned by the massive stimulus announced globally to combat the virus impact.With the renewed uptick, the next resistances are aligned at 1740 (round number), 1749.14 (May 21 high) and 1765.38 (7-year high). To the downside, immediate support is seen at 1716.31 (21-DMA). A break below which the 1700 mark will be tested.  "
14,EUR/GBP FX pair Elliott Wave and longer term cycles,"Firstly as seen on the monthly chart below there is data back to January 1975 in the pair. The EUR part being derived from the German Deutsche Mark up until the point EURUSD currency existed.Secondly as seen on the monthly chart below I will describe how I think the pair has risen thus far & what can be seen in the future. You can see the bounce from the February 1981 lows appears to be 3 swings to the November 1995 highs. There are usually a few counts that can be valid. This move appears to be a double three. I prefer to use momentum indicators to show when a cycle ends from any point in time. Whenever a proposed wave two, B, X or wave four of any degree has been taken by the momentum indicator it is likely it has ended that cycle whether it is up or down. From the November 1995 highs the pair declined hard enough to the May 2000 lows to suggest it was correcting the cycle from the February 1981 lows. The pair has not made another low since then. From the May 2000 lows it made another high in December 2008. From there it declined until July 2015 hard enough to suggest it was correcting the cycle up from the February 1981 low. That suggests the move from the February 1981 low to the December 2008 high was of three swings. The aforementioned December 2008 to July 2015 lows move appears to have been another typical three swings. Thirdly and in conclusion. From the July 2015 lows it made a relatively clean five waves impulse higher to the August 2017 highs. From there the pair traded sideways to lower until it made another 5 waves up to the August 2019 highs. That finished an expanded flat structure. Then so much for the old rule of alternation, the decline to the December 2019 lows was five waves. This also completed a larger degree expanded flat. The pair should be bullish in the second larger degree while above there. While above the April 2020 lows during pullbacks expect the pair continues higher above the December 2008 highs"
15,FX week ahead: Our present financial crisis is primarily a medical crisis,"Positive initial vaccine trials from the company Moderna boosted risk sentiment this week as the market became optimistic that COVID-19 could be restrained more quickly than anticipated. This resulted in strength across the commodity currency block in AUD, NZD, CAD, and weakness in the USD midweek. The key aspect to remember about our present financial crisis is that it is primarily a medical crisis rather than a financial one. This means that a medical solution can be the answer that the market needs to put in a swift recovery. Expect Moderna's vaccine to be closely followed for further data releases going forward. EURO: Franco-German proposal, Europe, Tues, May 19. The euro extended gains midweek boosted by a Franco-German proposal for a common fund that in-crease hopes of a European fiscal union. USD weakness on risk positive flows further boosted EURUSD demand midweek.US-China: Trade war tensions return, All week. Tensions have returned between the US and China after the US Senate passed a bill potentially causing some Chinese companies to de-list from the US Stock exchanges. This caused some risk-off flows going into Thursday which supports the DXY above 99.00Moderna Vaccine: Will it work? Note that vaccine hopes were questioned on Tuesday. STAT news reported that Moderna's COVID-19 vaccine did not produce critical data to properly assess the vaccine. However, this news was shaken off by Wednesday as the market focused on the optimism of a promising vaccine. US-China: Further trade disputes, May 25. In a light data slate next week there is unlikely to be many market-moving economic releases. However, of much greater concern will be if the negative US-China trade rhetoric turns into more action. If this happens then risk sentiment could easily become negative again.XAU/USD: Short term demand for gold to fall? With vaccine hopes gold's surge higher was halted at $1750. If the positive sentiment continues next week will gold head back down towards support at $1725 or be able to keep grinding higher to $1800?Coronavirus: Watch out for the latest virus news. Positive vaccine news from Moderna will continue to support risk, but keep aware that any negative news concerning the vaccine will result in risk-off markets returning.  Learn more about HYCM "
16,"Gold prices pick up on risk aversion to approach long-term highs at $1,765"," The precious metal appreciates on Friday, favoured by the risk-averse trading as the escalation of the Sino-US tensions have boosted demand for safe-haven assets.  XAU/USD’s reversal from $1,755 highs on Thursday found support at $1,717 to bounce up and returning to $1,740 area, with eight-year highs, at $1,765 on sight. Bullion prices are marching higher, with equity index in red during Friday’s North American trading session. US President Donald Trump has stirred Sino-US tensions vowing with a strong reaction against China’s intention to pass new security legislation to curb protests in Hong Kong. This comes after the US government blocked chip supplies to Chinese Huawei.Furthermore, China’s refusal to set a growth target for 2020 reveals the severe damage caused by the coronavirus shutdown in the world’s second economy. This decision has triggered a flight to safety which reflects in lower oil and stocks lower and firmer gold and US dollar. XAU/USD drawing closer to the $1,765 peakGold prices are being capped now below $1,740 intra-day highs, with next potential resistance levels a $1,755 and then long-term highs at $1,765. On the downside, immediate support lies at $1,725 and below here $1,717 and $1,680.XAU/USD key levels to watch   "
17,GBP/JPY: Further downside scope for the pound on negative rate speculation – MUFG,"Analysts at MUFG Bank consider a good trade idea to short GBP/JPY around 131.85, with a target at 126.60 and a stop loss at 134.10.“We still have a bias favouring yen strength and looking at currencies to seek GBP against we see JPY as a good option. The JPY has under-performed in recent weeks so the move weaker in GBP/JPY has been less than GBP weakness versus other currencies.”“Speculation on negative rates in the UK could spark selling in the Japan retail market where market participants have built substantial long positions. Declining yields outside of Japan is a key supporting factor for JPY and if speculation of negative rates in the UK persists it will increase downside pressure.”“We are conscious that short GBP is already a popular trade and this is the risk in this trade – that we are entering a crowded position. However, as highlighted above, negative rates in the UK would be a very different prospect for GBP when compared to negative rates for EUR, JPY, CHF and SEK. A far greater negative hit for GBP is likely.”"
18,BOE’s Ramsden: It is reasonable to have an open mind on negative rates,"The Bank of England (BOE) Governor Dave Ramsden told Reuters on Friday, it is reasonable to have an open mind on negative rates.“BOE was very clear in May statement there are downside risks to post-COVID recovery.”""Literal read"" of latest indicators suggests Q2 GDP fall might be slightly less than BOE’s May scenario, but still very early days.”“Markets are in a better place than they were, but still fragile.”“It is quite possible BOE will do more QE at June meeting or subsequently.”“There is plenty of headroom for more conventional QE gilt purchases.”“It is reasonable to have an open mind on negative rates, but it is a very complex issue.”“BOE scenario only looked at scarring from reduced investment, but stranded capital and labor market hysteresis are risks too.”“BOE comments on negative rates not main driver of negative gilt yields.”“Do not see a case for BOE to buy index-linked gilts or gilts with maturities under 3 years.”“Buying riskier assets as part of QE would need a finance ministry indemnity.”The GBP/USD pair extends post-UK retail sales losses, as the dovish comments from BOE’s Ramsden add to the negative sentiment around the pound. At the time of writing, the cable drops 0.25% to fresh daily lows of 1.2192. "
19,Crude Oil staging furious comeback,"Crude Oil prices are staging impressive comeback after last month's collapse to -$30. Sentiment in Oil has vastly improved in the past few weeks. Hopes of the supply cut as well as demand rebound help to support oil. China's oil demand has come back to the pre-Covid 19 level at 13 million barrels/day. Crude storage report on Tuesday turns out to be not as bad as the original forecast. The projection by analysts is for an inventory build of 1.151 million barrels. The EIA forecast was for a slight build but it turned out to be an actual decline of 0.7 million barrels. This fuels the bets that the worst of the industry's storage crisis has passed.Prices are still below levels which most producers can make profit. Thus, many companies and shale drillers shut down the operation. The OPEC+ production cut, combined with shutdown of most oil producers, and rising factory activity in China finally lifted Oil's price up. As the world's biggest oil exporter, Saudi Arabia has said they would cut supply to the lowest level since 2002. Demand for gasoline also starts to recover as drivers slowly return to the road as US and Europe plan to relax the lock down measures. 4 hour chart of WTI Light Crude Oil July contract (CL N20) above shows a possible impulsive rally from 4.21.2020 low. The nest is a possibility but what is clear is that the rally from 5.8.2020 low is an impulse. Short term, the area of 35 – 37.5 may see sellers for 3 waves pullback. This is the 100% extension from 4.29.2020 measured from 5.8.2020. From there, if the nesting structure is playing out, then the pullback should find buyers for more upside."
