,title,text
0,"Breaking: EUR/USD breaks above 1.10 on coronavirus-linked USD weakness, levels","EUR/USD has hit the highest levels in three weeks, trading at 1.10 and completing a remarkable V-shaped recovery since setting a 2020 low at 1.0777 in mid-February. Coronavirus has sent stock markets crashing and traders are flocking to safe-haven US bonds. In turn, lower yields are pricing in rate cuts by the Federal Reserve – even as soon as the March meeting. The common currency is also benefiting from hopes that Germany unleashes fiscal stimulus to face the economic slowdown that began before the disease scare. The International Monetary Fund has announced it will downgrade its global growth outlook. Resistance awaits at 1.1020, followed by 1.1035, 1.1065, and 1.11. All served as either support or resistance levels when the currency pair was trending down earlier in February. Support awaits at 1.0990, 1.0965, 1.0940, 1.0925, and 1.0895.-- more to come"
1,"Forex Technical Analysis and Forecast: EUR/USD, GBP/USD, USD/CHF, USD/JPY, AUD/USD, USD/RUB, USD/CAD, Gold, Brent, BTC/USD","After failing to continue the descending wave, EURUSD has broken 1.0886 to the upside; right now, it is still moving upwards. Possibly, the pair may grow to reach 1.0918 and then start another correction with the target at 1.0881. After expanding the range down to 1.2895, GBPUSD has returned to 1.2922. Possibly, today the pair may form one more ascending structure towards 1.2940. After that, the instrument may start another decline with the target at 1.2882. After rebounding from 0.9771, USDCHF is trading downwards to reach 0.9717. Later, the market may start another growth towards 0.9737 and then form a new descending structure with the target at 0.9696. After forming another consolidation range above 110.18, USDJPY is falling. The main scenario implies that the price may break the range to the downside and then continue trading downwards to reach 109.90 or even 109.70. After that, the instrument may form one more ascending structure to return to 110.18. After reaching the target at 0.6540, AUDUSD is moving upwards. Today, the pair may reach 0.6571 and then form a new descending structure towards 0.6519. Later, the market may start another correction with the target at 0.6660. USD/RUB is still consolidating around 65.25. Possibly, the pair may expand the range up to 65.88 and then start a new decline towards 64.40. USD/CAD has reached the target at 1.3344. Today, the pair may consolidate near the highs and expand the range up to 1.3348. Later, the market may resume trading downwards with the target at 1.3300. Gold is still consolidating around 1641.65. Possibly, the pair may form one more ascending structure towards 1660.22 and then start a new decline to break 1625.15. Later, the market may continue the correction with the target at 1594.50. Brent is moving downwards. Today, the pair may reach 51.75 and then start another growth towards 54.85, thus forming a new consolidation range between these two levels. After breaking the range to the upside, the instrument may resume trading upwards with the target at 59.90. BTC/USD has reached the downside target at 8600.00. Possibly, today the pair may consolidate near the lows. Later, the market may expand the range down to 8450.00 and then start another growth with the first target at 9200.00."
2,EUR/USD: Scope for another move lower towards 1.08 in the coming weeks – Rabobank,"According to analysts from Rabobank, the EUR/USD pair could drop back toward to 1.08. They warn that if it holds above 1.0980/1.1000, the recent move higher could strengthen. “While the Eurozone’s fundamentals are likely to be damaged by the coronavirus, the market has been pricing in a weakened outlook for the EUR for some weeks. Hopes at the start of the year of a turnaround in German economic data were dashed by a run of poor December releases for the production sector. In reflection of this CFTC data indicate that speculators have been building up the level of net short EUR positions since the end of January. This is in contrast to the USD where net longs have been growing. Positioning and over-stretched momentum data were therefore suggesting that EUR/USD was ripe for a correction.”“Technical indicators suggest that EUR/USD would have to hold above resistance to the 1.0980/1.10 area for the corrective bounce to become more established.”“The USD remains a practical safe haven currency for many investors given its function as a transaction currency, liquidity and positive yield. Consequently in our view, the USD is unlikely to yield too much to the EUR in the current environment. We see scope for another move lower towards EUR/USD 1.08 in the coming weeks.”"
3,DXY: Markets pricing in a Fed rate cut although a EUR/USD correction is on the cards,"With fears of the coronavirus spreading, markets are now pricing in roughly three rate cuts from the Fed in 2020. The DXY is extending its downside correction on Thursday to complete a 38.2% Fibonacci retracement of the 2020 rally to a key support structure in the midpoint of the 98 handle. At the time of writing, DXY trades at 98.54 between a low of 98.36 and a high of 99.05, -0.62% on the day, so far. The coronavirus has sent a shock wave of risk-off in global markets heavily impacting the US stock market, US yields and the exodus from Wall Street has impacted the US dollar. In the past five days, the S&P 500 has been down by around 8%. In comparison, equities tanked around 14% in the fourth quarter of 2018. However, the US 10-year yields are sliding deeper into the record territories well below 1.30% (to a low of 1.2350% today, -4.12%).Jitters around the coronavirus spreading within the US, knocking positions out of US stocks with money flowing into safe-haven assets including US bonds. There are risks of further slides in the stock markets should the coronavirus spread advance at a faster pace than the government has presumed, either on the domestic scale or globally, by impacting global economic supply chains and growth. This is raising prospects for a Federal Reserve rate cut. Weighing on the dollar further today, in the latest CME FedWatch Tool, the count down to the next Federal Open Market Committee (FOMC) rate hike with the CME FedWatch Tool, based on the Fed Funds target rate, shows a 70% probability of a rate cut as soon as March compared to 33% on Wednesday.""The market pricing can be attributed to an “asymmetric risk outcome” in the sense that the bar for a rate hike in the coming years appears to be set at an unprecedented high level, a rate cut has moved closer,"" analysts at Norda argued.""In our view, the arguments are in place for the Fed to act soon. On several economic key metrics (PMIs, ISM, wages etc), the economy looks more gloomy than, for instance, prior to the July 2019 rate cut decision. Furthermore, we do not see the upcoming election as a real barrier to a rate cut.""However, the analysts at Nordea are not of the opinion that rate cut will come as soon as March. ""If the coronavirus is not soon contained, we think a rate cut in April could be on the cards.""Looking to the charts, the DXY has dropped to a key support structure and is leaving a larger monthly bearish pin bar in. The price has completed a 38.2% Fibonacci retracement of the 2020 range and a 61.8% retracement of the late Jan and early Feb daily lows -YTD highs. Reinforced by November resistance, this could be a strong level of support and a subsequent correcting back to the 99 handle for a test could be on the cards, especially when factoring overbought conditions in EUR/USD.EUR/USD daily chartEUR is weighed to the DXY by 57.6% and EUR/USD has rallied to a strong resistance structure, breaking through sell stops at 1.0880/20 all the way to the 1.10 handle for a 50% mean reversion of the 2020 downtrend. Bears will be looking for opportunities here and profit-taking for month-end could well be the catalyst for a correction back to higher volume nodes of price (according to VPA), with a target back towards 1.0920. This would likely boost the DXY back towards 98.90."
4,EUR/USD now looks to 1.0925 – UOB,"In opinion of FX Strategists at UOB Group, a breakout of 1.0925 should allow EUR/USD to attempt a move to 1.0980 in the near-term.24-hour view: “We highlighted yesterday that EUR ‘could edge above the strong 1.0900 resistance but 1.0925 is unlikely to come into the picture’. EUR subsequently rose to 1.0908 before easing off quickly. While upward pressure has eased, it is too early to expect a significant pullback. For today, could try to move above 1.0900 again but any advance is still unlikely to move beyond 1.0925. Support is at 1.0840 followed by 1.0820.”Next 1-3 weeks: “We indicated on Monday (24 Feb, spot at 1.0835) that the weak phase in EUR that started in early February has ended. Our view was that EUR has moved into a consolidation phase and is expected to trade within a relatively broad 1.0770/1.0900 range. EUR rose to 1.0890 yesterday (25 Feb) and upward momentum is beginning to improve. For now, we continue to hold the same view but if EUR were to register a NY closing above 1.0925, it would indicate the start of a stronger rebound towards 1.0980. The prospect for such a scenario is not high for now but it would continue to increase if EUR can hold above 1.0805 within these few days.”"
5,EUR/USD Forecast: Dollar sold-off on speculation of a Fed’s rate cut,"The EUR/USD pair surged to a three-week high of 1.1006, as Wall Street’s and the dollar’s route continued. The coronavirus keeps spreading worldwide and fueling demand for safe-haven assets. US government bond yields collapsed, with the yield on the benchmark US 10-year Treasury note bottoming at a record low of 1.24%. Yields’ slump fueled speculation that the Fed will have to cut rates as soon as next April.The shared currency found support in better than expected local data, and headlines indicating that Germany is considering a fiscal stimulus program if the coronavirus hits the economy. The EU released February Consumer Confidence, which came in better than expected at -6.1 from -6.6 previously. The Economic Sentiment Indicator for the same month bounced to 103.5 from 102.6, also beating previsions of 102.8. As for the US, the country released Q4 Gross Domestic Product, which met the market’s expectations with 2.1%. Durable Goods Orders for January beat expectations, down by 0.2% in the month against a -1.5% forecasted. Unemployment claims for the week ended February 21 were up to 219K worse than the anticipated 212K. This Friday, Germany will release the preliminary estimate of February inflation, seen stable at 1.7% YoY. The US will publish January PCE inflation, with the core reading seen ticking up to 1.7% from 1.6%.The  EUR/USD pair eased from the mentioned top but retains substantial gains ahead of the Asian opening. It is trading around 1.0985, above the 61.8% retracement of its latest daily decline, retaining its positive stance. In the 4-hour chart, the pair is struggling to overcome a bearish 200 SMA, but holding above the shorter ones, and with the 20 SMA crossing above the 100 SMA. Technical indicators in the mentioned time-frame have stabilized at overbought levels, suggesting that the pair could resume its advance after some consolidation. The main bullish target is now 1.1095, a daily high from late January.Support levels: 1.0935 1.0900 1.0860Resistance levels: 1.0980 1.1020 1.1060  View Live Chart for the EUR/USD"
6,Forex Today: Soaring Fed's rate cut odds hit the greenback,"Here is what you need to know on Friday, February 28th:"
7,EUR/USD hits three-week highs above 1.1000 as DXY tumbles,"The EUR/USD pair is rising sharply on Thursday, having the best day in months on the back of a weaker US dollar against majors. Recently the pair reached at 1.1005, the highest level in three weeks. Economic data from the US showed some better-than-expected numbers but did not offer help to the greenback. The DXY is falling 0.40%, trading at 98.60, the lowest in almost three weeks. Risk aversion continues to dominate global markets, pushing the greenback higher versus emerging market currencies but not against majors. The decline in US yields weighs on the DXY. The 10-year yield bottomed earlier today at 1.25%, a new all-time low before bouncing modestly to the upside. The CME FedWatch Tool shows Fed Funds futures have priced a nearly 70% probability of a rate cut from the Federal Reserve at the March meeting. Rate cut expectations continue to rise boosted by the sharp decline seen in Wall Street and the potential economic impact of the coronavirus. Another factor supporting the rally in the pair related to yields is the decline in the spread between US and German bonds. The trend remains bullish for EUR/USD. The immediate support emerges at 1.0955/60 followed by 1.0905 and the uptrend line from last week lows at 1.0865. On the upside, the pair faced resistance around the 1.1000 area that has become the critical level. A consolidation above 1.1000 would suggest more gains ahead, probably targeting 1.1025. Short-term technical indicators stand at extreme overbought readings, so a consolidation below 1.1000 could take place over the next hours, particularly if the US dollar stabilizes.    "
8,EUR/USD: Continues its run of posting higher daily highs and higher daily lows [Video],"The euro has performed relatively well against the major forex currencies in the past week. This has allowed EUR/USD to engage in a recovery. The issue is that this is a near term unwinding of the oversold position that has built up throughout February, but one which is essentially a bear market rally. Despite yesterday’s doji candle (denotes uncertainty), the market is this morning pulling clear of the resistance of the old key October low at $1.0875. The recent bull cross on MACD lines and improvements on RSI and Stochastics show the recovery is still progressing. The hourly chart shows a small base implying $1.0950 as a rebound target. This is still well within the 8 week downtrend (today at $1.0990) and under the overhead supply $1.0980. SO we are happy to run near term positive positions towards $1.0950 and wait for renewed sell signals. The market also continues its run of posting higher daily highs and higher daily lows in each of the past four sessions. Initial support is $1.0855/$1.0875. Risk Warning for Financial PromotionsHantec Markets' various market reports and commentary are issued by Hantec Markets Limited, who is authorised and regulated by the Financial Conduct Authority (FCA) in the UK, No. 502635. The reports are prepared and distributed for information purposes only.Trading in Foreign Exchange (FX), Bullion and Contracts for Differences (CFDs) is not be suitable for all investors due to the high risk nature of these products. Forex, Bullion and CFDs are leveraged products that can result in losses greater than your initial deposit. The value of an FX, Bullion or CFD position may be affected by a variety of factors, including but not limited to, price volatility, market volume, foreign exchange rates and liquidity. You may lose your entire initial stake and you may be required to make additional payments. Please ensure you fully understand the risks involved, seeking independent advice if necessary prior to entering into such transactions. Before deciding to enter into FX, Bullion and/or CFD trading, you should carefully consider your investment objectives, level of experience, and risk appetite. You should only invest in FX, Bullion and/or CFD trading with funds you are prepared to lose entirely. Therefore, only your excess funds should be placed at risk and anyone who does not have such excess funds should completely refrain from engaging in FX and/or CFD trading. Do not rely on past performance figures. If you are in any doubt, please seek further independent advice.The reports do not constitute personal investment advice, nor do they take into account the individual financial circumstances or objectives of the clients who receive it. All information and research produced by Hantec Markets is intended to be general in nature; it does not constitute a recommendation or offer for the purchase or sale of any financial instrument, nor should it be construed as such. All of the views or suggestions within the reports are those solely and exclusively of the authors, and accurately reflect their personal views about any and all of the subject instruments and are presented to the best of the authors' knowledge. Any person relying on these reports to undertake trading does so entirely at his/her own risk and Hantec Markets does not accept any liability.© 2014 Hantec Markets Limited"
9,When is the US GDP report and how could it affect EUR/USD?,"Thursday's US economic docket highlights the release of Preliminary (revised) US Q4 GDP growth figures, scheduled to be published at 13:30 GMT. The second estimate is anticipated to show that the economic growth in the October-December quarter stood at 2.4% annualized pace, unchanged from the advance estimate.According to Joseph Trevisani, Senior Analyst at FXStreet – “The small downward adjustment to the December retail spending component is not likely to produce a change in the GDP estimate, though its existence tilts the risk a bit to the negative.  Either way the dollar will not be affected, currency traders having more timely concerns.”Given the recent concerns over the global outbreak of the deadly coronavirus and its impact on the world economy, a big divergence from the expected reading – though seems unlikely – might be enough to infuse a fresh bout of volatility in the currency markets.Meanwhile, Yohay Elam offered a brief technical overview of the EUR/USD pair and explained: “Euro/dollar has broken above the uptrend channel that accompanied it since last week. On its way up it also broke above the 100 Simple Moving Average on the four-hour chart and momentum is to the upside. The Relative Strength Index is nearing 70 – which represents oversold conditions.”“Resistance awaits at 1.0968, which provided support on the way down. It is followed by 1.0980, a support line from early February, and then by 1.1020 and 1.1035. Support awaits at 1.0940, a support line on the way down, followed by 1.0925, a resistance line from mid-February and by 1.0885, which separated ranges several weeks ago. 1.0860, 1.0810, and 1.0777 are next,” Yohay added further.   •   US Fourth Quarter GDP Preview: Old news   •   EUR/USD Forecast: Trump-ed up above the channel and finally a genuine reason to rise   •    EUR/USD Price Analysis: Recovery now targets the 1.0980 areaThe Gross Domestic Product Annualized released by the US Bureau of Economic Analysis shows the monetary value of all the goods, services and structures produced within a country in a given period of time. GDP Annualized is a gross measure of market activity because it indicates the pace at which a country's economy is growing or decreasing. Generally speaking, a high reading or a better than expected number is seen as positive for the USD, while a low reading is negative."
10,EUR/USD Forecast: About to challenge a critical resistance level,"The shared currency soared against its American rival this Thursday, as investors continue to price in an upcoming rate cut in the US. Persistent coronavirus´ concerns fuel demand for safe-haven assets including government bonds. The yields for the US 10-year Treasury note stand at record lows of 1.27% triggering speculation the Fed will have no choice but to cut rates as soon as next April. Even Janet Yellen, former Fed’s head, said that the coronavirus outbreak could throw the US economy into recession, depending on how widely it spreads.The EU released earlier today February Consumer Confidence, which came in better than expected at -6.1 from -6.6 previously. The Economic Sentiment Indicator for the same month bounced to 103.5 from 102.6, also beating previsions of 102.8.The US just published the second estimate of Q4 Gross Domestic Product, which met the market’s expectations with 2.1%. Durable Goods Orders for January beat expectations, down by 0.2% in the month against a -1.5% forecasted. Unemployment claims for the week ended February 21 were up to 219K worse than the anticipated 212K.The EUR/USD pair has not moved with US data, holding near its daily high of 1.0973. The pair is trading a few pips below the 61.8% retracement of its latest daily slump at 1.0975, the immediate resistance. In the 4-hour chart, the pair is developing above its 20 and 100 SMA, with the shortest about to cross above the larger one. The 200 SMA maintains its bearish slope a few pips above the mentioned Fibonacci resistance, reinforcing its relevance. An acceleration beyond 1.0980 will likely result in a full 100% retracement to 1.1095, a relevant daily high from late January.Support levels: 1.0935 1.0900 1.0860Resistance levels: 1.0980 1.1020 1.1060  View Live Chart for the EUR/USD"
11,Euro area Economic Sentiment Indicator improves to 103.5 in February vs. 102.8 expected,"The Economic Sentiment Indicator for the euro area improved to 103.5 in February's final reading from 102.6 (revised from 102.8) in the previous estimate and came in better than the market expectation of 102.8.Further details of the report revealed that the Business Confidence Index in the same period rose to -0.04, the Industrial Confidence Index edged higher to -6.1, both readings beating analysts' estimates, and the Services Sentiment Index came in at 11.2 as expected.Finally, the Consumer Confidence Index arrived at -6.6 to match experts' forecasts.The shared currency preserves its strength after the data. The EUR/USD pair was last seen trading at 1.0940, adding 0.55% on a daily basis."
12,EUR/USD Forecast: Trump-ed up above the channel and finally a genuine reason to rise,"A tectonic shift among the Teutons? Germany is inching closer to fiscal stimulus – and if that happens, it would provide the euro a long-term boost. Olaf Scholz, the center-left finance minister, is pushing to allow local governments some slack in spending. His intentions were met with objection from Chancellor Angela Merkel's ruling CDU party, but it is fair to say that something is changing.The European Central Bank and several governments in the eurozone have urged Berling to open its purse strings well before the recent coronavirus scare. Monetary policy seems to be exhausted and the lack of investment is weighing on the whole continent. Europe's largest economy has been sticking to its Schwarze Null policy – a minimal fiscal surplus. Germany's constitution contains a limit debt-spending which comes into question when yields on the country's debt are negative. EUR/USD has also been benefiting from US dollar weakness. Investors are flocking into the safety of American bonds, pushing yields – such as the ten-year returns, now around 1.30% – to record lows.Moreover, the short end of the curve is now pricing in no fewer than three rate cuts from the Federal Reserve this year, with the first coming in April. The initial move was priced for June only on Wednesday. The potential for a rate cut – urged by President Donald Trump – is weighing on the dollar.Trump finally addressed the coronavirus scare and tried to play it down. He said it is a minor flu and that the US is ready for everything. In the meantime, the number of infections is on the rise – including one without known origins in the US. Around Europe, Denmark, Estonia, and Greece have joined the long list of countries confirming their first cases while infections in northern Italy – the epicenter in Europe – continue rising rapidly. For the first time in this health crisis, the number of new patients outside China has surpassed those inside the country. Investors will likely continue reacting to every virus-related headline. The depressing news is set to continue pressuring US yields and the dollar while optimism may boost the greenback. Two interesting US figures are due out today but their impact may be limited as they are from before the recent escalation in fears. Economists expect US Gross Domestic Product to be confirmed at 2.1% annualized for the fourth quarter, with consumption pushing the economy forward.See US Fourth Quarter GDP Preview: Old newsDurable Goods Orders numbers for January will provide a first look at investment in 2020. However, it is essential to note that supply disruption was not so prevalent last month.See US Durables Preview: As China turnsEuro/dollar has broken above the uptrend channel that accompanied it since last week. On its way up it also broke above the 100 Simple Moving Average on the four-hour chart and momentum is to the upside. The Relative Strength Index is nearing 70 – which represents oversold conditions. Resistance awaits at 1.0968, which provided support on the way down. It is followed by 1.0980, a support line from early February, and then by 1.1020 and 1.1035. Support awaits at 1.0940, a support line on the way down, followed by 1.0925, a resistance line from mid-February and by 1.0885, which separated ranges several weeks ago. 1.0860, 1.0810, and 1.0777 are next."
13,"USD/CHF Price Analysis: Dollar bouncing after falling to three-week’s lows, trades above 0.9700 figure",  
14,US: Annual GDP expanded 2.1% in Q4 (second estimate) as expected,"Real Gross Domestic Product (GDP) in the US is expected to grow by 2.1% at an annual rate in the fourth quarter of 2019, the second estimate published by the US Bureau of Economic Analysis showed on Thursday. This reading matched the previous estimate and came in line with the market expectation.The US Dollar Index largely ignored this data and was last down 0.55% on the day at 98.62.""The increase in real GDP in the fourth quarter reflected positive contributions from personal consumption expenditures (PCE), federal government spending, exports, residential fixed investment, and state and local government spending that were partly offset by negative contributions from private inventory investment and nonresidential fixed investment.""""The price index for gross domestic purchases increased 1.4% in the fourth quarter, the same increase as in the third quarter.""""The PCE price index increased 1.3%, compared with an increase of 1.5%. Excluding food and energy prices, the PCE price index increased 1.2%, compared with an increase of 2.1%."""
15,"Gold clings to gains near session tops, around $1650 region","Gold traded with a mild positive bias through the early European session and is currently placed near the top end of its daily trading range, around the $1650 level.As investors remain concerned over the global outbreak of the deadly coronavirus and its impact on the world economy, the prevailing risk-off mood continued underpinning demand for traditional safe-haven assets – including gold.The precious metal added to the overnight modest gains and edged higher for the second consecutive session on Thursday. The ongoing slump in the US Treasury bond yields provided an additional boost to the non-yielding yellow metal.In fact, the yield on the benchmark 10-year US government bond fell to fresh all-time lows on Thursday, which kept the US dollar bulls on the defensive and remained supportive of the bid tone surrounding the dollar-denominated commodity.Bulls, however, seemed reluctant, rather refrained from placing any aggressive bets and preferred to wait for a fresh catalyst from Thursday's important US macro releases – the first revision of the Q4 GDP figures and Durable Goods Orders.Hence, it will be prudent to wait for some strong follow-through buying before traders again start positioning for the resumption of the commodity's recent strong bullish momentum witnessed over the past two weeks or so.  "
16,The killing of 29 Turkish troops creating risk-off in early Asia,"Reuters reports twenty-nine Turkish soldiers have been killed in a Syrian government forces attack in Syria's Idlib.The Turkish army suffered mass casualties in an airstrike, Turkish officials say, an attack that could dramatically shift the course of the Syrian war.In the Guardian, it reports that he Turkish attempts to broker a ceasefire, and growing international calls for a halt to the violence, have so far been met with indifference from the Kremlin. ""Erdoğan has vowed Ankara will not take the “smallest step back” in the standoff with Damascus and Moscow over Idlib, giving the regime until the end of the month to pull back.""However, Turkey has helped rebels to retake one town but had already lost 17 military personnel in the campaign before a strike on Thursday morning killed three, and the evening strike killed at least 22, marking the biggest single day of losses for the country’s forces.US senator Lindsey Graham called on Thursday for the establishment of a no-fly zone over Idlib and called on Donald Trump to help stop the violence against civilians there.“The world is sitting on its hands and watching the destruction of Idlib by Assad, Iran, and the Russians,” Graham, a Republican and an ally of Trump, said in a statement.The safe havens, such as CHF and Yen including gold will be underpinned on such geopolitical escalations in traditional risk-off fashion. Yen dropped 30 pips on the news but has recovered ahead of the data dump that starts with the Consumer Price Index at the top of the hour.     "
17,EUR/JPY challenges weekly highs around 120.50,"The better tone in the European currency is managing to offset the renewed demand for the Japanese yen, all lifting EUR/JPY to the vicinity of 120.60, near weekly highs.The cross is advancing for the second consecutive session on Thursday, flirting at the same time with the critical 200-day SMA around 120.30. It is worth mentioning that above this key area, the downside pressure is expected to subside somewhatMonth-end flows, declining yields and re-ignited rumours of potential easing by the Fed in the next months are all weighing on the dollar and are sponsoring the continuation of the upbeat sentiment in the euro, while unremitting jitters on the Chinese coronavirus support the demand for the yen (and caps the daily upside).In the euro docket, several gauges of sentiment/confidence in the broader Euroland came in on the positive side (in general), while the ECB’s M3 Money Supply expanded less than expected at an annualized 5.2% in January and Private Sector Loans expanded 3.7% from a year earlier.Later in the NA session, another revision of the US GDP figures during the October-December period is due seconded by Durable Goods Orders, weekly Claims and additional housing data.At the moment the cross is gaining 0.23% at 120.42 and faces the next up barrier at 120.68 (100-day SMA) followed by 121.39 (weekly high Feb.20) and then 122.65 (monthly high Dec.13). On the downside, a drop below 119.41 (weekly low Feb.25) would expose 118.46 (2020 low Feb.18) and finally 117.07 (monthly low Oct.7 2019)."
18,March Madness: 5 critical (mostly) coronavirus-linked events to rock markets in first week of March,"How much economic damage has the coronavirus outbreak already caused? After weeks of anxiety, reports of infections, travel restrictions, factory shutdowns, and anecdotal evidence – clearer data is coming from China and the US. The Federal Reserve is pressured to cut interest rates.The first week of March also consists of a critical political event in the US – ""Super Tuesday"" and the all-important Non-Farm Payrolls report may seal the deal. Here is a guide to five critical events:While attention has shifted from China to Europe, the world's second-largest economy is the epicenter of the coronavirus. Around 50 million people remain in lockdown in around Wuhan and not all factories outside Hubei province have fully opened. Together with the extended lunar new year holidays, it has been hard to assess China's growth – or lack thereof – in the first quarter. The disease became well-known in mid-January but the full impact has been seen only in the following month. Purchasing Managers' Indexes for February are set to provide answers on business sentiment. Beijing publishes its official manufacturing and services sector PMIs on Saturday – while markets are closed – and Caixin's independent assessment is due out early on Monday. Economists expect a plunge of manufacturing PMIs well below 50 – indicating outright industrial contraction – and a significant slowdown in services figures. The publications are set to impact the market open. A moderate fall may trigger a massive relief rally while devastating figures could exacerbate the market plunge.See Chinese PMIs preview: Coronavirus-related plunge must be deep to push markets lowerSaturday, and then Caixin on Monday at 1:45 GMT. Crossing the Pacific, traders will want to see if the same trends are confirmed in the world's largest economy and any trend stemming from Chinese figures may reverse if American figures are different. The ISM Manufacturing PMI is the first US figure of high interest. Economists expect it to hold above 50 points – indicating expansion for the second month in a row. A drop below this level may reveal concern about the virus. If statistics coming out of Beijing are depressing but ISM's figures are satisfactory – stocks may recover. And if Chinese PMIs prove optimistic in comparison to signals of a contraction in America's industry – markets may turn south.The most significant impact would be if both datasets point in the same direction. A combination of depressing figures from the world's largest economies could weigh heavily on the dollar as the Federal Reserve would be urged to cut rates. Conversely, signs of optimism could trigger a massive greenback comeback.Monday, 15:00 GMT. Members of the US Democratic Party go to the polls in 14 states on Tuesday – including large Texas and California. That will be the largest contest so far after a series of primaries and caucuses in four smaller states. Left-leaning Bernie Sanders is the lead after the initial votes – and ""Super Tuesday"" is the chance for centrist candidates to fight back and even overwhelm the Vermont Senator's advantage. Former Vice President Joe Biden – who was the frontrunner during most of 2019 – has a chance of leaping forward. It will also be Michael Bloomberg's first dip into the race. The billionaire media mogul has been sitting out of early states while spending on ads. However, he failed to make an impression in two televised debates.The wide-open race also includes left-of-center Senator Elisabeth Warren, her moderate colleague Amy Klobuchar, and South Bend, Indiana mayor Pete Buttigieg, another moderate.If a clear winner emerges from the vote, it has room to move markets. Investors prefer a centrist such as Biden or preferably Bloomberg, a businessman to confront President Donald Trump. Sanders' plans to nationalize healthcare and Warren's financial reform agenda are both sending shivers down Wall Street types' spines. If Sanders consolidates his lead, markets may tumble and the dollar may follow through. A victory for a moderate could trigger the opposite reaction. Stay tuned for a full preview from FXStreet's Joseph Trevisani.Tuesday, results due early on Wednesday.While the combination of Chinese PMIs and the US ISM manufacturing one are set to provide a broad picture of investor confidence in the wake of the virus, America's largest sector has the final word in PMIs. The services sector is not only around 70% of the economy but has also shown signs of weakness. Markit's Services PMI fell to 49.4 points in the preliminary read for February – the lowest since 2013 and reflecting contraction in a sector that has seen robust growth. Consumers have been pushing the economy forward and the sharp drop caused some alarm.ISM tends to carry more weight than Markit when it comes to US PMIs. However, the sensitivity that markets showed in response to Markit's Services PMI makes the upcoming ISM Non-Manufacturing PMI more important than usual.Wednesday, 15:00 GMT. The ""king of forex indicators"" is always a market mover. After an impressive increase of 225,000 jobs in January, economists expect a more modest gain – yet still healthy – of nearly 200,000 positions. Annual wage growth is remain above 3%. Overall, upbeat figures from America's labor market may remind everybody that the world's largest economy is stil leading the way forward. As the data is for February – the first full month of coronavirus fears – it may soothe investors and allow for a dollar correction.On the other hand, if the mood has not improved by Friday, even a minor miss could trigger the next the sell-off. For the Federal Reserve, a small disappointment may have the final word and push the bank to cut rates in March, thus sending the dollar lower.Friday, 13:30 GMT.  It is hard to exaggerate the importance of events due out in the first week of March as coronavirus fears have sent global markets spiralling. Top-tier economic figures that reflect the level of worry, compunded with significant political development and the seemingly non-virus related Non-Farm Payrolls should provide for top volatility. "
19,EUR/GBP up up and away as markets position for hard line EU/UK negotiations,"EUR/GBP has been on the front-foot in the later stage of the week with a comeback in the euro, (50% mean reversion in EUR/USD), and a lower pound as investors position in month-end flows ahead of formal EU/UK trade negotiations kicking off in March. At the time of writing, EUR/GBP is trading at 0.8519, between a range of 0.8427 and 0.8542. Sterling is not far behind commodity-FX in terms of weakness on a daily basis this week as investors pair back long positions in the build up to trade negotiations between the UK and Europe. In recent news, the UK has warned the EU it will walk away from trade talks in June unless there is a ""broad outline"" of a deal.On Thursday, Michael Gove told MPs the UK wanted to strike a ""comprehensive free trade agreement"" in 10 months. But the government would not accept any alignment with EU laws as the EU is demanding, with Mr Gove adding: ""We will not trade away our sovereignty."" As both sides set out ambitious priorities, the prospect of a hard Brexit is being priced back into the pound. ""We think this is likely to sour sentiment toward the pound once again. We see additional upside risks for the pair and look for a move toward 0.86,"" analysts at TD Securities argued. The Bank of England’s steady hand in January was accompanied with dovish commentary. Due to the coronavirus spread, the post-election surge in UK business confidence and ongoing strength in the labour market could come under pressure if the virus were to travel across the channel to the island. Such an event would see risks tilting back towards a BoE rate cut in coming months, given the UK economy will also feel some impact from a global slow down regardless.However, the euro has rallied on the dollar's weakness and a correction would likely weigh on the cross. DXY has completed a 38.2% Fibonacci retracement back to an area prior resistance which could act as a support and potentially weigh on the euro. However, there is growing assumptions in the market that the Federal Reserve could cut rates as soon as next month. According to the CME watch, the odds of a rate cut have jumped from 33% yesterday to a 72% probability today – it is now a toss-up between risk-off flows and the Federal Reserve. On the other hand, the coronavirus risks seem not to have been priced into the euro fully. Considering the borderless eurozone, the risks of contagion are particularly high in Europe. Despite that, there were some stronger Business Climate numbers and the Economic Sentiment Indicator was also higher. Meanwhile, the new chancellor is expected to raise taxes in his first Budget or he will be breaking the government's rules on borrowing, a leading economic think tank has warned and this too is weighing on the pound. Rishi Sunak is under pressure to increase spending on the NHS, social care and schools. He has also inherited a fiscal target from his predecessor Sajid Javid to bring spending in to balance by 2022. The BBC reports, however, ""the Institute for Fiscal Studies has suggested this will not be possible without increasing taxes. It said that loosening or abandoning the rules, set out in last year's Conservative election manifesto, would undermine the credibility of any fiscal targets the government set.""  "
