,title,text
0,EUR/USD Forecast: Pre-Black Friday volatility likely amid a data-packed day,"President Donald Trump has suggested that US-Sino talks are in their ""final throes"" – a term that is often used for describing violent, uncontrolled movements that a person makes just before dying. However, markets are far from behaving violently, with EUR/USD steady above 1.10.The president has probably meant that most of the deal is done, echoing the sentiment from officials on both sides of the Pacific. He added that sealing the deal depends on him. Optimism has been moderately weighing on the safe-haven dollar. Lael Brainard, Governor at the Federal Reserve, has reaffirmed the bank's stance about leaving monetary policy unchanged. The Fed remains data-dependent, and it will undoubtedly receive top-tier data today.A substantial amount of economic figures is coming out today, some of it usually published on Thursdays, but authorities have brought forward several publications due to the Thanksgiving holiday. The upcoming absence of US traders may trigger choppy movements.There are three substantial numbers to watch. First, Gross Domestic Product for the third quarter will likely be confirmed at 1.9% annualized, better than other developed economies. Changes in the composition of growth are of interest. Consumption has to lead the economy while investment has been dragging it lower.See US GDP Preview: Stronger than predicted US growthThe Conference Board's Consumer Confidence measure for November edged lower but remains at high levels. Today's second significant publication is related to investment – Durable Goods Orders. Excluding defense and aircraft, economists expect orders to have dropped in October, extending the slump in long-term outlays. See Durable Goods Orders Preview: The revival in business investment is not yet in sightLast but not least, the Fed's preferred measure of inflation, the Core Personal Consumption Expenditure (Core PCE) is set to show that underlying inflation remained below the bank's 2% target in October. In the old continent, the European Parliament is set to confirm the new European Commission led by Ursula von der Leyen. The former German defense minister has struggled to confirm some of her nominees. Von der Leyen will first have to steer the bloc's seven-year budget before trying to tackle climate change and other topics.All in all, EUR/USD is data-dependent.While volatility has been limited, euro/dollar set lower highs and lower lows, a bearish sign. Moreover, the currency pair is trading below the 50, 100, and 200 Simple Moving Averages on the four-hour chart and momentum is to the downside. Bears remain in control.Support awaits at 1.10, a round number, and then by 1.0990, which is the low point in November. Further down, 1.0925 was a double bottom in September and 1.0879 is the 2019 low.Looking up, some resistance awaits at 1.1035, the weekly high. It is closely followed by the double-bottom of 1.1050, and then by 1.11, another round number and last week's high. Next, we find 1.1130 and 1.1180."
1,EUR/USD Forecast: Painful decline continues,"The EUR/USD pair has spent the first part of the day consolidating at the lower end of its measly 30 pips’ weekly range, barely holding above the 1.1000 level. Speculative interest has paid little attention to comments related to the US-China trade relationship and was rather focused on first-tier US data.According to the official release, the second estimate of Q3 GDP beat expectations revised up to 2.1%. Durable Goods orders were up by 0.6% in October, largely surpassing the market’s expectation of -0.8%. Even further, weekly unemployment claims declined to 213K in the week ended November 22, better than the 221K expected. There’s more in the docket, as the US is still to release October Personal Income and Personal Spending, Pending Home Sales for the same month, and core PCE inflation.The news gave the dollar a modest boost, with the EUR/USD pair now battling with the 1.1000 figure and trading at its lowest in two weeks. The pair is technically bearish, despite lifeless, barely holding above the 61.8% retracement of its October rally.In the 4-hour chart, the pair is below all of its moving averages, with the 20 SMA now at around 1.1020. A Fibonacci resistance comes at 1.1030, with the pair most likely remaining under selling pressure as long as below this last. Technical indicators, in the meantime, resumed their declines within negative territory.Support levels: 1.0990 1.0950 1.0920Resistance levels: 1.1030 1.1065 1.1110View Live chart for the EUR/USD "
2,Crude Oil Follows Short-Term Ascending Channel,"Oil prices move mixed this Wednesday session waiting for the OPEC + group meeting, which will be held next week.
Crude oil moves back 12 cents or 0.18% to $58.22 per barrel on Wednesday, while Brent Oil climbs 9 cents or 0.14% to $64.30 per barrel.The group formed by the OPEC countries plus Russia will meet next week in Vienna. Members are expected to reach an agreement on reducing production at least until mid-2020.
The meeting is to be held on 5 and 6 December. One key subject to be discussed during that meeting is the decision to increment or hold the daily production rate. Currently, the OPEC+ group has an agreement in force until March 2020, which establishes a reduction in the daily production of 1.2 million barrels per day.Crude oil in its daily graph shows the price moving within a lateral consolidation structure since June 2019. The corrective pattern may correspond to an expansive triangle, which may be advancing in its wave ((e)), labeled in green.In the following 8-hour WTI chart, the price action moves in an upward channel. Currently, crude oil has met resistance in the congestion zone between $57.98 and $59.25 per barrel. This zone corresponds to the consolidation developed by the WTI during the second half of September.If the oil price surpasses the congestion zone, the crude oil might advance to the post-attack peak area of the Saudi Aramco plant. Otherwise, the price could plummet and reach the August lower levels.From the last CFTC report, institutions informed an increase of 0.43% (WoW) in the long-side positioning. With this advance, speculative traders maintain 82.93% of the total institutional positioning.On the other hand, the institutional traders reported a reduction of their positions on the short side of 2.73% (WoW) or 3,040 contracts compared to the previous week.Concerning to the net institutional positioning, this increased to 429,975 contracts last week, advancing from the 424,597 positions registered in the previous report. The current level of net positions is above the 13-weeks moving average, which reaches 397,446 contracts.Finally, based on institutional positioning, we can observe that the bias of crude oil continues to be bullish in the long-term. On the other hand, short-term, according to the formation of the ascending channel, crude oil could advance and make a new high.
  Try Secure Leveraged Trading with EagleFX!"
3,"USD/JPY Forecast: At November’s high, heading toward 110.00","The USD/JPY pair jumped to its November’s high, rallying in the US afternoon, following the release of solid US data indicating steady economic growth. Additionally, Wall Street remained in the green, and while indexes’ rallies were not too relevant, they flirted with all-time highs. Safe-haven assets remained out of the speculative radar, and even Treasury yields managed to post intraday gains.Japan will release October Retail Trade during the upcoming Asian session, seen flat monthly basis and down by 4.4% when compared to a year earlier. Large Retailers’ Sales in the same month are expected to post a modest 1.2% advance after rising by 10% in the previous month.The USD/JPY pair is trading just below 109.50, retaining its short-term bullish stance. Technical readings in the 4-hour chart support additional gains ahead, as the pair has moved well above all of its moving averages, while the 20 SMA accelerated above the larger ones. Technical indicators lack momentum but remain well into positive ground, with the RSI, in fact, consolidating in overbought territory. Pullbacks should be contained by buyers in the 109.10/20 price zone to support a test of the 110.00 figure in the upcoming sessions.Support levels: 109.15 108.85 108.50  Resistance levels: 109.85 110.05 110.40View Live Chart for the USD/JPY"
4,GBP/JPY Technical Analysis: Surges to fresh six-month top after YouGov’s MRP poll,"With a famous YouGov MRP poll predicting the ruling Tory Party to have a huge lead in the United Kingdom’s (UK) December month elections, GBP/JPY rises to fresh six months high, around 141.77, during early Asian session on Thursday.Read: YouGov Poll: MRP model projects a Tory majority of 68 – The TimesWhile prices are at the six month top, the quote needs to sustain a break above May month high of 141.75 in order to extend its rise towards March-April lows, near 143.72/78. In doing so, May 14 high near 142.18 can offer an intermediate halt.Also, May month high of 146.52 will be on the bull’s radar if prices manage to stay positive above 143.78.Alternatively, 61.8% Fibonacci retracement of March-August fall, near 140.30, followed by 140.00 round-figure, will keep the pair’s near-term declines limited.Should there be additional weakness past-140.00, 200-day Simple Moving Average (SMA) level of 138.41 will be on the cards.Trend: Bullish  "
5,"Indian Rupee Price News and Forecast: USD/INR rebounds from key support near 71.40, will it last?","The USD/INR pair extends its three-day losing streak in Europe, having witnessed a temporary bounce to near 71.50 in early trades. The spot hit fresh three-week lows of 71.27 and now recovers to 71.33, still down -0.20% on a daily basis.The cross fails to benefit from broad-based US dollar strength led by rising expectations of a likely US-China trade deal, especially after US President Trump’s pro-trade deal comments. The US dollar index flirts with two-week highs of 98.40, up +0.13% so far. Read more... The USD/INR pair reverses early loses, after having hit two-week lows at 71.405 in the opening trades. At the press time, the cross trades near 71.47 levels, almost unchanged on the day.The pullback in the spot can be mainly attributed to the resurgent demand for the US dollar across the board, as the US Treasury yields are recovering on the back of increased expectations that a US-China trade deal will be soon clinched. The US dollar index is back on the bids and remains within a striking distance of the weekly tops of 98.38 reached on Monday. Read more... Indian Rupee is likely to remain better bid on Wednesday, according to technical charts. The uptick in China's Yuan could also bode well for the Indian currency.The USD/INR pair created a bearish Marubozu candle on Monday, which comprises of long body and little or no shadows. Put simply, it indicates the sellers remained in control from the opening bell to the close of the day and is considered very bearish.The bearish cross of the 5- and 10-day moving averages also indicates the path of least resistance is to the downside. Read more..."
6,USD/MXN: A less supportive environment for the Mexican peso next year – ING,"Gustavo Rangel, Chief Economist at ING for Latin America points out that the outperformance of the Mexican peso seen during the current year will be hard to sustain in 2020. “Mexico’s high-carry was the crucial anchor to its stellar FX performance in 2019, but that advantage should shrink in 2020 as Banxico’s rate-cutting cycle deepens.”“In the very near term, high interest rates should remain an effective stabilising factor for the MXN, which should keep the USDMXN trading close to 19.5. A steady pace of 25bp cuts suggests, however, that high rates should gradually become a less effective FX anchor, while the risk of a more frontloaded monetary easing cycle has increased, adding greater uncertainty to the outlook for the currency in the longer-term.”“Our base case is for Banxico to cut the policy rate an additional 150bp, with the policy rate ending 2020 at 6.0%. But poor activity data could increase pressure on the bank to bring monetary policy more firmly into neutral territory (possibly closer to 5.5%), while a change in the board’s composition at the end of 2020 could set the stage for a more substantial change in policy bias.”“Our view is that Mexico’s inferior GDP growth outlook, lingering risk of credit rating downgrades, among other factors, suggest that the scope for MXN outperformance should become increasingly challenging throughout 2020. In fact, our expectation is that the USD/MXN gradually depreciates towards 20.0 by the end of 2020.”
 "
7,BRL: Guided by the BCB intervention – Deutsche Bank,"Deutsche Bank analysts point out that the Brazilian Real depreciated -0.17% to its weakest-ever level against the dollar yesterday, in spite of intervention from the central bank.“The move came after Brazil’s Economy Minister commented that a weaker currency is not a problem. Meanwhile, The Brazilian central bank has embarked on a series of rate cuts recently, with 50bp reductions at each of the last 3 meetings.”“Added to this has been general concerns over political stability in Latin America in light of recent protests across the continent, while former President Lula’s release from prison has raised the prospects of a more radical, populist left-wing government further down the line as he re-enters the political fray.”“Overnight, Brazil’s central bank chief Roberto Campos Neto has said that the central bank will intervene further if they need to normalize the foreign exchange market.” "
8,Gold Price News and Forecast: XAU/USD initial resistance at $1462 under $1473 [Video],"Gold was little moved on Wednesday after U.S. President Donald Trump's comment that Washington was close to an interim trade deal.On China's industrial front, data showed profits of firms fell at their steepest pace in eight months in October. This comes after U.S. consumer confidence fell for a fourth straight month in November. Traders are now awaiting the Fed's Beige Book of economic condition among other data due later in the day. Read more... Despite the tick higher on gold yesterday there is still an ongoing corrective bias to the chart which points towards using rallies as a chance to sell. The past few weeks have the momentum indicators consistently sluggish in corrective configuration, whilst the failure at the overhead supply around $1480 will have been a key concern for stale bulls. There is a consistent theme of lower highs and lower lows in recent months, which points towards pressure on the $1445 November low. Read more... Gold prices inched lower in early trading on Wednesday after comments from US President Donald Trump boosted expectations of a trade deal with China and US stocks closed at record highs.On Tuesday, President Trump said that the United States and China are near to reaching an agreement on a ‘phase one’ trade deal. However, he also voiced Washington's support for protesters in Hong Kong, a sensitive point of discord between the superpowers. Speaking to reporters at the White House, Trump said:We're in the final throes of a very important deal, I guess you could say one of the most important deals in trade ever. It's going very well but at the same time we want to see it go well in Hong Kong.Read more..."
9,AUD/USD Analysis: decline likely to continue,"The Australian Dollar appreciated about 23 basis points against the US Dollar on Tuesday. The surge was stopped by the 100– hour simple moving average at 0.6786 during yesterday's trading session.All things being equal, the 100– hour SMA is likely to continue to pressure the currency pair lower within this session. The pair could target the weekly S1 at 0.6763.If the support level holds, the AUD/USD exchange rate will make an upside reverse in the nearest future.However, if the currency exchange rate passes the weekly S1, the next target for bearish traders would be at the 0.6744."
10,The Final Throes,
11,AUD sees temporary dip after Westpac changes it’s house forecasts,"The Australian Dollar saw a dip during yesterday’s midday trading session after Westpac changed it’s forecast on the back of Governor Lowe’s speech on quantitative easing on Tuesday night. Their previous forecast was for the policy rate to fall of 0.5%, but now Westpac predicts that RBA is likely to cut interest rates twice next year, taking the cash rate to 0.25% and then introduce quantitative easing. The AUD since than has clambered up to open at 0.6777 against the USD this morning.The Australian Bureau of Statistics will release their quarterly report on private capital expenditure just before midday today. Showing the change in the total inflation-adjusted value of new capital expenditures made by private businesses it is a leading indicator of economic health and expected to have a major impact on the AUD.In the UK, a YouGov poll will release their multi-level regression poll of the UK general election. An MRP is generally accepted to be more accurate than normal polling, as it is carried out nationwide and uses a mathematical model of how various groups of people are likely to vote. The MRP model correctly predicted the 2017 UK general election result that former PM Theresa May will lose her majority and is currently showing that PM Boris Johnson is on course to secure a “significant majority” a Guardian journalist said, citing a source who has seen the poll.We saw a plethora of data being release in the US ahead of Thanksgiving day tomorrow, with the most important of these being the Chicago PMI. This data shows the level of diffusion index based on a survey of around 200 purchasing managers in Chicago and came in at 46.3, lower than it’s forecasted rate of 47.2 indicating contraction.In terms of other macroeconomic data, over in Canada they will be releasing their monthly GDP data just after midnight on Saturday. The data will show the change in the inflation-adjusted value of all goods and services produced in the economy and is the primary gauge of the economy’s health.AUD/CAD: 0.8930 - 0.9045 ▼

AUD/EUR: 0.6080 - 0.6195 ▼

GBP/AUD: 1.8795 - 1.9285 ▲

AUD/NZD: 1.0485 - 1.0595 ▼

AUD/USD: 0.6700 - 0.6845 ▼IMPORTANT: This information has been prepared for distribution over the internet
and without taking into account the investment objectives, financial situation and particular
needs of any particular person. Oz Forex Foreign Exchange makes no recommendations as to the merits of
any financial product referred to in this website, emails or its related websites. Please read our Product Disclosure Statement and our Financial Services Guide.Regulated in Australia by ASIC (AFS Licence number 226 484)
© 2010 Copyright Oz Forex Foreign Exchange Pty Ltd ABN 65 092-375-703
OzForex Foreign Exchange ServicesMember of FOS (Financial Ombudsman Service)
Full Member of AFMA (Australian Financial Markets Association)"
12,US: Annual core PCE Price Index ticked down to 1.6% in October vs. 1.7% expected,"The United States (US) Bureau of Economic Analysis on Wednesday reported that the core Personal Consumption Expenditures (PCE) Price Index, the Federal Reserve's preferred gauge of inflation, edged down to 1.6% on a yearly basis in October from 1.7% and fell short of the market expectation of 1.7%. On a monthly basis, the core PCE Price Index rose 0.1% as forecasted.Further details of the publication revealed that the PCE Price Index, which includes food and energy prices, rose 1.3% annually to match the previous reading and increased 0.2% after staying unchanged in September.Additionally, Personal Income remained steady in October to miss analysts' estimate for an increase of 0.3%  and Personal Spending rose 0.3%.The US Dollar Index retreated from the two-week high that it set at 98.44 after these figures and was last up 0.13% on the day at 98.38."
13,"Cannabis Stock Price: Have Aurora, Canopy Growth, and Tilray bottomed out?","The US Food and Drug Administration (FDA) has been weighing on cannabis stocks with fresh guidance. The might regulator has said that CBD products may cause liver injury and other damages. The news came as another blow to the marijuana sector which has been struggling with a slow Candian blowout and financial issues. Prices of pot stocks declined across the board, extending their climbdown after rising last week on hopes for US legalization.However, some positive news may help individual stocks.Aurora has neared the recent cycle lows of $3 per share but may find buyers after announcing a new deal. The Edmonton-based company will develop CBD topicals with UFC and is set open a flagship WEM store, which will be Canada's largest retail space for marijuana products. ACB's stock price may rise after it will save some C$190 by abandoning the construction of two facilities. The news comes after the company concluded its convertible debentures swap. Overall, the firm may enjoy a better financial footing.Canopy Growth Corporation (CGC) has managed to weather the storm may be ready for a recovery. The firm invested in hemp assets in the state of New York. Moreover, CGC has a massive war chest of funds that could help it survive in case of a downturn, while its competitors are weeded out.The Smiths Falls, Ontario based firm has also enjoyed an upgrade from Bank of America, which may convince institutional investors to jump in.Tilray Inc. based in Nanaimo, on Vancouver Island, was one of the darlings of the stock markets in 2018, when interest in marijuana stocks went sky-high. After a peak near $150, Tilray's price has been declining.Tilray (TLRY) is trading around $20, a massive downfall, but that may be an attractive price. The firm, which has operations in Australia, New Zealand, Portugal, Germany, and also Latin America, may enjoy bargain seekers. While the company lost some C$47 million, its revenue soared to $68. Since Canada fully legalized marijuana in late 2018, weed shares have been on a roller coaster ride. Similar to the dot-com bubble, the potential is always there, but the hype proved exaggerated. As the industry matures, investors are crunching companies' finances and health regulators are also stepping in. Many companies that tried to ride the tide may find themselves out of business, while More Top 3 Cannabis Stocks: Aurora(ACB), Canopy(CGC), New Age(NBEV), high volatility, different directions"
14,Hackers stole $ 50 million in Ethereum from Upbit exchange,"The company's CEO confirmed the information about the hack. All deposits and withdrawals are suspended.The Upbit exchange has been hacked, company CEO Sok-Wu Lee said. He confirmed the information that someone withdrew 342,000 ETH coins to an unknown wallet. The estimated damage amounts to about $ 50 million.The CEO of the exchange Sok-Wu Lee apologized for the inconvenience. He promised that Upbit will compensate for the damage caused to platform users. The exchange is expected to get back online within two weeks. Currently, the deposits and withdrawals are not available.Twitter-bot Whale Alert has registered the transaction from the Upbit exchange to cold wallets. The total amount of funds withdrawn exceeded $ 70 million. However, Lee emphasized that only Ethereum refers to stolen assets, and the rest of the transfers were made by the exchange itself for security purposes.The news might have triggered the sell-off on the cryptocurrency market. The total capitalization of all digital assets in circulation dropped to $191 billion. BTC/USD dived under $7,000. While the downside momentum seems to be contained, for now, the market is still vulnerable to further losses.
 "
15,US President Trump tweets on the Wednesday's US stock market record highs,"Stocks eked out record closes in the major benchmarks again on Wednesday following an improved assessment of the US economy on the back of an upbeat Beige Book and solid individual data releases ahead of the Thanksgiving Day holiday Thursday.The Dow Jones Industrial Average, DJIA, ended up 42.32 points or 0.15% at 28,164.00 for a record, while the S&P 500 added 13.11 points or 0.42% to 3,153.63, The Nasdaq was higher by 57.24 points or 0.66% and closed at 8,705.18.President Trump tweets, ""New Stock Market Record today, AGAIN. Congratulations USA! The second estimate of US Q3 GDP was 2.1% annualized, nudged up from 1.9%, with solid personal consumption but a lift in inventories which could detract from Q4 GDP. Oct durable goods orders rose a solid +0.6%m/m (vs est. -0.9%), the important ex-transport orders measure also rising +0.6%m/m (vs est. +0.1%m/m). Capital goods orders were also stronger than estimated (non-defence/ex-air rising 0.8%m/m, est. -0.2%m/m)Chicago PMI rose in line with estimates in Nov but remains weak at 46.3 (est. 47.0, prior 43.2). The employment component was weak, though the decline in new orders was more subdued.US Oct personal income was disappointing at flat m/m (est. +0.3%m/m) and with spending at +0.3% (as est.) the savings ratio slipped to 7.8% from 8.1%. Core PCE inflation was also disappointing at +1.6%y/y (est. +1.7%y/y).Analysts at Westpac explained.   "
16,"Top 3 price prediction Bitcoin, Ethereum, Ripple: XRP can be the green light among the massive red ones","The crypto market seems determined to be able to offer excellent price levels to buy on Black Friday. At mid-morning of the European session, the news of a new malicious attack that has managed to steal Ethereums worth $49 million from the UpBit exchange crypto jumped.In the previous days, no major asset had managed to beat key resistance levels, and only one trigger was needed to get the downtrend back on track.I think it is important to note that professional investors and traders do not perceive the current downturn as a threat. The charts provided by Bakkt on the trading volume of his Bitcoin futures shows how institutions significantly increased their open long positions in the hardest days of the recent crash.The public wants to buy cryptos at a reasonable price, and the declines of the last few days are an opportunity. Bitcoin, Ethereum, Litecoin or EOS are attracting the attention of fresh money, while XRP is again penalized by the uncertainty of its relationship with the parent company Ripple Ltd. A very long term bearish trend line is expected at the 0.23 level, which, if exceeded, would open up a bullish market for the high potential profit pair.Above the current price, the first resistance level is at 0.0208, then the second at 0.022 and the third one at 0.023.Below the current price, the first support level is at 0.020, then the second at 0.019 and the third one at 0.018.The MACD on the daily chart remains in the positive territory of the indicator and therefore keeps the momentum of the bullish momentum intact.The DMI on the daily chart shows us how the bears lose the support of the ADX line and activate a pattern of leadership change. The bulls, for now, ignore it and do not lend themselves to exchange leadership with the bears.The BTC/USD pair is currently trading at the $7,100 price level and takes advantage of a new security breach in exchange as an excuse to look for lower prices that may attract fresh money.The bearish scenario has its limit at the $5,000 level, where the most aggressive traders will plant their best orders. Above the current price, the first resistance level is at $7,120, then the second at $7,400 and the third one at $7,500.Below the current price, the first support level is at $6,750, then the second at $6,500 and the third one at $6,350.The MACD on the daily chart shows the formation of a terminal pattern. We can say that it is at the mid-point of development, which leads us to project the critical phase of this bearish movement within a couple of weeks.The DMI on the daily chart shows the bulls at minimum levels not seen since late September. The bears pause and seek support in the ADX line. If this dynamic support holds, we will see a new significant downtrend.The ETH/USD pair is currently trading at the $146.2 price level. The $140 price congestion support holds for the moment, but only a surprise twist of events can prevent the Ethereum from visiting the $115-$120 zones.Despite the recent news with which I open this article, the ETH/USD pair is not turning out to be the most cautious, reinforcing the idea that the theft is only an excuse to go down.The ETH/USD pair is very deviated from average levels, both on moving averages and on indicators. This situation could lead to a robust upward bounce at the first bullish excuse.Above the current price, the first resistance level is at $150, then the second at $155 and the third one at $160.Below the current price, the first support level is at $140, then the second at $130, and the third one at $125.The MACD on the daily chart shows an active bearish profile and, similar to the case of the BTC/USD pair, projects a continuation of the bearish trend in the short term.The DMI on the daily chart shows the bulls at ground levels, not seen since December 2018. The bears also did not see bearish trend strength levels since December 2018.The XRP/USD is currently trading at the $0.219 price level. XRP shows a stronger resilience to the new bearish wave than Bitcoin or Ethereum.As we will see in the analysis of indicators, XRP can be the first to evolve to the rise of the three components of the Top3.Above the current price, the first resistance level is at $0.22, then the second at $0.24 and the third one at $0.25.Below the current price, the first support level is at $0.19, then the second at $0.17 and the third one at $0.165.The MACD shows a much more extensive development than we see in the Bitcoin and Ethereum pairs. In the last few days, it seems that the indicator begins to lose the bearish slope.The DMI on the daily chart clearly shows how the bears lose the support of the ADX line, while the bulls react quickly and are already leaning upwards. This structure is very conducive to a possible upturn.
Get 24/7 Crypto updates in our social media channels: Give us a follow at @FXSCrypto and our FXStreet Crypto Trading Telegram channel"
17,UK election: Conservative lead over labour has fallen to 7 points - Savanta comres poll for Telegraph,"UK election polls coming through. This one is from the Savanta Comres Poll for the Telegraph.Conservative lead over Labour has fallen to 7 points.Earlier, we had a snippet from the YouGov Poll: YouGov MRP poll shows significant Tory majority – The GuardianNow we are hearing 211 for Labour predicted seats from the MRP YouGov poll.GBP is unchanged at the time fo writing. Traders are waiting for the  UK Times to publish the YouGov poll at 2200GMT which the official release should see some action in GBP crosses. "
18,XRP/USD Technical Analysis: Ripple breaks higher but can it sustain the move?,As you can see from the chart below the price has recently shot higher.The 0.2255 level has been used on a number of occasions as a support and resistance level.The next potential resistance lies at 0.2355 which has been respected on three occasions.The daily chart still looks under some serious pressure.Although the lower timeframes have shown a bullish breakout the psychological 0.25 would be the level to beat on the higher timeframe.Longer term the channel high is the main target for the bulls as the hammer candle two days ago provided a bullish signal.
19,,
