,title,text
0,"EUR/USD: Shared currency, unshared debt","EUR/USD has been under pressure as tension is mounting towards the EU Summit later this week, FXStreet’s analyst Yohay Elam reports.“Coronabonds are dividing Europe and weighing on the common currency. Leaders will convene via video on Thursday, but countries are reiterating their positions early on Monday and already having an impact.”“Internal clashes and uncertainty about exit strategies are also engulfing the US. While cases and deaths are on the decline, governors and the Federal government are suffering frictions.”“The good news from Washington is that Republicans and Democrats are nearing an agreement on further aid to individuals and businesses, following the $2.2 trillion packages. If they announce another substantial stimulus, the market mood will improve, weighing on the dollar and allowing the dollar to recover.” "
1,EUR/USD Forecast: Clueless investors to keep favouring the dollar,"It was a slow start to the week in terms of activity in the FX board, as most major pairs remained confined to familiar levels. Collapsing oil prices, however,  were in the eye of the storm. The barrel of WTI plunged to a multi-decade low of $1.00 a barrel, as the coronavirus pandemic erased demand for the commodity, dragging equities lower across the world. As for currencies, major pairs remained within familiar levels, without relevant directional movements across the FX board. The EUR/USD pair is ending the day little changed at around 1.0870, after a failed attempt to recover the 1.0900 threshold.The European Commission has announced that, within its Coronavirus Response Investment Initiative, Hungary, which has 172 coronavirus fatalities, will get €5.6bn double the amount Italy will receive. With the death toll above 23.6K, Italy will get €2.3bn. The news has spurred rage, and for sure, won’t help the shared currency strengthen.The macroeconomic calendar was light as if offered minor figures from both shores of the Atlantic, which the market ignored. Nevertheless, the figures continued to reflect the effects of the lockdown in economies. This Tuesday, Germany will publish its April ZEW Survey on Economic Sentiment, expected to have improved, but also to remain near record lows. The US will publish March Existing Home Sales, foreseen down by 8.1%.The EUR/USD pair has held within a range defined by Fibonacci level, as support is being provided by the 61.8% retracement of the latest daily advance around 1.0830, while sellers surge in the 1.0890 price zone, the 50% retracement of the same rally. The short-term picture is neutral-to-bearish, as, in the 4-hour chart, technical indicators are turning marginally lower but remain around their midlines, as the price struggles with a mild-bearish 20 SMA and below the larger ones.Support levels: 1.0830 1.0790 1.0750Resistance levels: 1.0925 1.0960 1.1000View Live Chart for the EUR/USD "
2,"Murrey math lines: EUR/USD, GBP/USD","As we can see in the H4 chart, EURUSD is still moving at 1/8. In this case, the pair may continue falling towards the target at 0/8. However, this scenario may no longer be valid if the price breaks 2/8 to the upside. After that, the instrument may continue growing to reach the resistance at 3/8.In the M15 chart, the pair may break the downside line of the VoltyChannel indicator and, as a result, continue the descending tendency. As we can see in the H4 chart, GBPUSD is still trading not far from the downside border of the range at 3/8; right now, it is rebounding from this level. The main scenario implies that the pair may resume growing towards the resistance at 3/8. However, this scenario may no longer be valid if the price breaks the support at 3/8 to the downside. After that, the instrument may continue falling to reach 2/8.In the M15 chart, the pair may break the upside line of the VoltyChannel indicator and, as a result, continue trading upwards to reach 4/8 from the H4 chart."
3,"EUR/USD in daily highs, approaches 1.0900","The single currency has started the week on a firm note, prompting EUR/USD to test the upper end of Monday’s range near 1.0900.EUR/USD is looking to add to Friday’s gains, although a test/surpass of the key barrier at 1.0900 the figure still remains elusive.In the meantime, developments from the coronavirus keep dictating the risk appetite trends for the time being amidst efforts from some countries to relax some of the lockdown measures as well as to start opening the economies albeit at a snail pace.Furthermore, the Spanish government will propose a €1.5 trillion fund to help countries recover from the coronavirus aftermath. This plan is expected to be presented on Thursday at the Eurogroup meeting.In the docket, the EMU’s Current Account surplus widened to €40.2 billion during February (from €31.8 billion. Across the pond, the Chicago Fed National Activity Index will be the only release later on Monday.The euro remains on a cautious mood at the beginning of the week, always looking to the coronavirus and its impact on the economy as the main driver of both sentiment and price action. On the more macro view, the single currency is expected to remain under scrutiny in the next periods in light of the forecasted contraction in the economy of the region in the first half of the year, relegating hopes of a strong recovery to Q3 and/or Q4. In the very near-term, attention is likely to remain on the upcoming Eurogroup meeting as well as potential announcements of extra stimulus in the euro area.At the moment, the pair is gaining 0.13% at 1.0884 and a breakout of 1.0990 (weekly/monthly high Apr.15) would target 1.1050 (200-day SMA) en route to 1.1147 (weekly high Mar.27). On the flip side, immediate contention aligns at 1.0812 (weekly low Apr.17) followed by 1.0768 (monthly low Apr.6) and finally 1.0635 (2020 low Mar.23)."
4,EUR/USD: A close above $1.0935 is needed for the bulls to regain control [Video],"The euro bulls fought back on Friday to suggest that they are not going to just rollover amidst signs of renewing dollar strength. Having broken the near four week recovery uptrend the risk is now to the downside. So the rebound from $1.0810 will have come as welcome relief for the bulls. However, there is still a negative bias that has formed on EUR/USD in recent sessions, and this is once more weighing as the market has drifted back lower this morning. Momentum indicators are relatively settled but are threatening to tail off again. The RSI moving below 40 would be a bear signal now, as would a decisive bear cross on MACD lines. The hourly chart shows that the resistance band $1.890/$1.0925 is where the rallies are fading in recent sessions, and with hourly momentum retaining a negative configuration (RSI failing around 60, hourly MACD falling over around neutral), we prefer a retest of $1.0810 and potentially $1.0770 in due course. Below $1.0770 would be the next key bearish breakdown. A close above $1.0935 is needed for the bulls to regain control. Risk Warning for Financial PromotionsHantec Markets' various market reports and commentary are issued by Hantec Markets Limited, who is authorised and regulated by the Financial Conduct Authority (FCA) in the UK, No. 502635. The reports are prepared and distributed for information purposes only.Trading in Foreign Exchange (FX), Bullion and Contracts for Differences (CFDs) is not be suitable for all investors due to the high risk nature of these products. Forex, Bullion and CFDs are leveraged products that can result in losses greater than your initial deposit. The value of an FX, Bullion or CFD position may be affected by a variety of factors, including but not limited to, price volatility, market volume, foreign exchange rates and liquidity. You may lose your entire initial stake and you may be required to make additional payments. Please ensure you fully understand the risks involved, seeking independent advice if necessary prior to entering into such transactions. Before deciding to enter into FX, Bullion and/or CFD trading, you should carefully consider your investment objectives, level of experience, and risk appetite. You should only invest in FX, Bullion and/or CFD trading with funds you are prepared to lose entirely. Therefore, only your excess funds should be placed at risk and anyone who does not have such excess funds should completely refrain from engaging in FX and/or CFD trading. Do not rely on past performance figures. If you are in any doubt, please seek further independent advice.The reports do not constitute personal investment advice, nor do they take into account the individual financial circumstances or objectives of the clients who receive it. All information and research produced by Hantec Markets is intended to be general in nature; it does not constitute a recommendation or offer for the purchase or sale of any financial instrument, nor should it be construed as such. All of the views or suggestions within the reports are those solely and exclusively of the authors, and accurately reflect their personal views about any and all of the subject instruments and are presented to the best of the authors' knowledge. Any person relying on these reports to undertake trading does so entirely at his/her own risk and Hantec Markets does not accept any liability.© 2014 Hantec Markets Limited"
5,EUR/USD: Confined to a range defined by Fibonacci levels,"The EUR/USD pair has been confined to the same range defined by Fibonacci levels since last Wednesday, with attempts to leave the area being quickly reverted, FXStreet’s Chief Analyst Valeria Bednarik reports. “Support is being provided by the 61.8% retracement of the latest daily advance around 1.0830, while sellers surge in the 1.0890 price zone.”“The short-term picture is neutral-to-bearish, as, in the 4-hour chart, technical indicators are turning marginally lower within neutral levels, as the price struggles with a mild-bearish 20 SMA. The larger moving averages stand above the current level.”“Support levels: 1.0830 1.0790 Resistance levels: 1.0925 1.0960” "
6,"US Pres. Trump: Oil price drop is very short term, a lot of people got caught","US Pres Trump: Asked if he would like OPEC+ nations to make more cuts, states we have already done that.The president is responding to the events that took place during the Wall Street session on Monday. The price of oil collapsed with the front-month contract, due to expire today, plummetting to below ZERO. More on that here: Saudis mull applying oil cuts as soon as possible, time to buy oil?"
7,EUR/USD outlook: Limited recovery warns of fresh weakness,"The Euro holds in directionless, 25-pips range on Monday, with attempts to extend last Friday’s recovery remaining capped by 1.0891/99  (broken Fibo 50% of 1.0637/1.1147 ascend, reinforced by converged 5/10DMA’s and broken bull-trendline off 1.0635).
Daily studies are in negative setup, with near-term action being weighed down by last week’s bull-trap.
While the upside stays limited, risk of repeated probe below cracked support at 1.0831 (Fibo 61.8%) exists, with close below to open way for bearish extension towards 1.0768/56 (6 Apr low / Fibo 76.4%).Res: 1.0899; 1.0915; 1.0943; 1.0959
Sup: 1.0831; 1.0811; 1.0768; 1.0756  "
8,Forex Today: Crazy crude oil price’s behaviour shocked investors,"What you need to know on Tuesday, April 21st:"
9,NIFTY 50 preparing for a new bearish leg,"The Indian stock market led by the NIFTY 50 index closed slightly negative in the first trading session of the week retracing by 0.05% closing at 9.261.85 pts.The stock market sentiment turned negative on Monday due to the sharp drop in the prices of Crude Oil futures contract that plummeted more than 25% on Monday, reaching $11.40 per barrel, which is the lowest value since december, 1998.On the other hand, stock market traders seem to be looking forward to the battery of data that will be released during this week that could give an overview of the damage that the virus has done to the global economy.From the technical point of view, the short-term Elliott Wave vision shows the advance in an upward corrective sequence that began with the March 24th low at 7,511.10 pts, which could correspond to an incomplete zigzag pattern.The NIFTY 50, in its 2-hour chart, shows a second bullish movement that could correspond to an ending diagonal pattern, which belongs to a wave ((c)) of Minute degree identified in black.Likewise, it can be confirmed that the upward wave ((c)) is still in progress as the price action continues to develop on the structural trendline that links the end of the waves (ii)-(iv) of Minuette degree labeled in blue.Once the Indian benchmark completes the short-term structure divided into three waves corresponding to the zigzag pattern, the NIFTY 50 will end a wave A of Minor degree identified in green, which in turn belongs to an Intermediate degree labeled in blue wave (B).After the completion of wave A in green, the Indian stock market should begin to develop a new bearish sequence corresponding to wave B.According to the alternation principle defined by Elliott in his Treatise, since the first corrective wave of the structural series corresponds to a zigzag pattern, the next movement should be a flat or triangle pattern.In conclusion, in the short-term, our preferred positioning is neutral, awaiting confirmation of the completion of wave A in green. Also, in the mid-term, the bias is kept on the neutral side until the end of wave B. Finally, in the long-term, we expect the bullish development of the wave C in green, which could drive the Indian stock index up to the psychological resistance of the 10,000 points.  Try Secure Leveraged Trading with EagleFX!"
10,FX update: Oil-correlating currencies pressured,"Oil currencies have come under pressure concomitantly with crude prices hitting 21-year lows, while most Dollar pairings and associated crosses have been trading in comparatively narrow ranges amid a backdrop of sputtering stock markets.Most of the main Asian equity indices are showing losses of varying degrees, though Chinese markets bucked the trend with moderate gains, while USA500 futures are down 0.4%.Baker-Hughes weekly rig count on friday, saw 66 oil rigs shuttered in the latest reporting week, down to 438, the lowest seen since late 2016. This marked the fifth straight week of declines, with the count falling 36% over that period. WTI crude prices shrugged off the report with the May contract of WTI crude oil futures showing an intraday loss of 20% in hitting a low at $14.47, which is the lowest WTI benchmark prices have traded since March 1999. May futures expire tomorrow, while the June contract posted a low at $23.75. The Oxford Institute for Energy forecast China’s annual demand for Oil will fall by between 100k and 250k barrels per day in what would be the first contraction since records began in 1990, which chimes with OPEC saying last week that global oil demand is set to fall to just 20 mln barrels per day, the lowest since 1989.In forex markets, the oil-correlating Canadian dollar is the weakest of the main currencies, off lows at the time of writing but still showing a loss of 0.6% to the US Dollar, which marginally registers as the firmest currency on the day.USDCAD printed a high at 1.4103, up on Friday’s low at 1.3998. So far remains in the mid range at 1.4050. Given the massive demand/supply imbalance in oil markets, and after the IEA said last week in its monthly report, that there is “no feasible agreement that could cut supply by enough to offset such near-term demand losses,” theoretically USDCAD could sustain a bullish view, as CAD is positive correlated to Oil price. Technically however, it remains for a 10th day in a row below the 20-day SMA, with momentum indicators presenting that the asset has entered a ranging market. Hence for the overall outlook to turn positive, USDCAD should sustain a move above 1.4100- 1.4135 (Friday’s peak)."
11,"Oil at twenty year lows; equities tread water, FX mixed","Oil below 15 as storage runs out
Equities, FX flat
Nikkei -1.15% Dax 0.17%
UST 10Y 0.63%
Oil $14/bbl
Gold $677/oz
BTCUSD $7161 EUR EZ Trade Balance CAD Wholesale Sales 8:30Oil collapsed at the start of the week’s trade dropping below the $15/bbl as the world ran out of storage and crude supplies continued to pile up due to coronavirus lockdowns across much of the world.Crude has been the prime victim of the collapse of global demand with market dynamics further exacerbated by the price war between Saudi Arabia and Russia. The fresh 20 year lows are sure to take their toll on smaller export-driven petro economies like Mexico and Nigeria and could usher in the complete collapse of social order in Venezuela.It’s hard to forecast what kind of financial shocks the collapse of the energy complex will bring, but if the bankruptcy of the Singaporean spot oil trading firm Hin Leong Trading is any indication of things to come, investors in the sector are in for a lot more pain.FX for its part was relatively subdued. With loonie barely reacting to the slide in crude while Aussie and kiwi were both bid on hopes that some of the lockdown restrictions would be lifted. EURUSD meanwhile crept along the bottom of recent lows as traders awaited Eurogroup meetings this week to see if policymakers could agree on a coordinated effort to help revive the region’s badly battered economy. Although new caseloads in Italy, Spain, and France have are now at three-week lows, they remain stubbornly high for authorities to consider the lockdown restrictions.The most optimistic assessment of the current COVID-19 mitigation global strategy is that in most of the highly affected countries the curve is starting to flatten but so far shows no signs of dipping. That suggests equity investors may have been much too optimistic in their hopes for a “return to normal” and the runup last week may see some profit-taking this week. For now, equity futures remain relatively strong – only 0.5% off Friday’s highs but unless the market sees some material improvement in data, equity prices could begin to drift lower as the week proceeds.Past performance is not indicative of future results.  Trading forex carries a high level of risk, and may not be suitable for all investors. The high degree of leverage can work against you as well as for you. Before deciding to trade any such leveraged products you should carefully consider your investment objectives, level of experience, and risk appetite. The possibility exists that you could sustain a loss of some or all of your initial investment and therefore you should not invest money that you cannot afford to lose. You should be aware of all the risks associated with trading on margin, and seek advice from an independent financial advisor if you have any doubts."
12,"Crude oil down over 18%, can it drop to $10?","Oil has dropped to a 21-year low today. Basically, bears are out for blood. The WTI West Texas Crude Oil dropped over 18 percent today and made a low of $14.45, a price level that has surprised traders today. The steep fall in the price is because of the lack of sufficient demand and lack of storage place given the fact that the production cut has failed to address the supply glut. There is a strong possibility that WTI Crude Oil prices can drop to $10. Yes, I mean $10! And here it is why.Since the start of the Coronavirus pandemic, oil’s demand has been crippled. There is little done from the supply side, the CAPEX cut by energy companies aren’t enough, we need organic oil production cut from the U.S. During the 2015 oil supply glut, there has been a massive focus on the U.S. rig count number. As shown in the chart below, the rig count fell to its lowest level in late June 2016. It took a fairly long time for these rig count to touch this level – just under one year.The same rig count measure has started to fall from its peak level now, but we are still nowhere close enough to find the same level – the level that pushed oil prices higher back in 2016. To put things in perspective, the US total rig count is down 51% from its December 2018 peak, but it is still up over 25% from its recent low. The interesting element about rig count is that it doesn’t work like a light switch, meaning they don’t go down or up instantly. It takes time for rigs to go offline due to the complexities in nature of the business, such as terms of contracts and rigs’ operation level. In my estimate, I believe that it is highly likely that it may take another month or two for the rig count number to reach the previous level. In terms of price, unfortunately, it means lower price levels. In terms of technical price levels, here are some important support and resistance levels based on short-term (4 to 7 months) time frame.If the price falls to $13 to $16 range (which it already has), the upside range could be $20 to $23.If the price falls to $10 to $13, a likely scenario, the immediate ceiling level could be $15 to $18. The bottom line is that there is no doubt that oil prices are way oversold at the current level, but given the circumstances, it is likely that the price may continue to fall further because the rig count hasn’t touched its bottom yet. But for an investor who holds a long term perspective, a time frame of 12 months to 24 months, the current plunge in oil price represents an opportunity.  "
13,Coronavirus: What forex traders should look for and the one thing to avoid – Interview with Navin Prithyani,"Coronavirus has upended the world and triggered high volatility in foreign exchange markets. The risk-on/off trades stand out and traders may want to be on the lookout for encouraging news, says Navin Prithyani, Founder and CEO of Forex Watchers.In an interview with Yohay Elam, Prithyani discusses what fundamental figure to look out for, what charts he uses and provides tips for traders – with one significant thing to avoid.  "
14,GBP/USD Forecast: Eyes on March employment figures,"The GBP/USD pair is ending Monday with modest losses around 1.2450, unable to find directional strength throughout the day. Demand for the greenback was the main driver for the pair, with the dollar depending on the market’s sentiment. The coronavirus pandemic continues to take its toll on global economic progress, and the UK is no exception. The contagion and the death toll figures are giving some modest signs of improvement, but it’s too early to call for flattening curves. Furthermore, UK PM Johnson’s spokesman said that the government is concerned about a second peak if they move too quickly to relax the lockdown.This Tuesday, the UK will release its latest employment data, which still does not fully include the crisis data. The ILO unemployment rate for the three months to February is seen stable at 3.9%, while Average Earnings in the same period are seen at 3.0%, slightly below the previous 3.1%. The Claimant Count Change for March, the number of unemployed people, is expected to have increased to 172.5K from 17.3K previously.The GBP/USD pair has been consolidating right below the 61.8% retracement of its March slump at 1.2515. The short-term picture is neutral-to-bearish as, in the 4-hour chart the pair is unable to advance beyond its 20 SMA while barely holding above the 100 SMA, both within an eighty pips’ range. Technical indicators in the mentioned time-frame remain flat just below their midlines, skewing the risk to the downside without confirming it.Support levels: 1.2410 1.2370 1.2320Resistance levels:1.2515 1.2550 1.2595View Live Chart for the GBP/USD"
15,EUR/AUD bearish breakout targeting 1.6990 and below,"The EUR/AUD is bearish. At this point the market is close to breaking out below the trendline. SHS pattern shows signs of rejection at the top of the right shoulder.1.7100 zone is where we can see sellers. The ATR pivot point is exactly at 1.7096 and a move lower might cause the pair to close below the trend line and proceed with bearish continuation move. Targets are 1.7052, 1.7008 and 1.6993. If the price moves below 1.6990 which is the weekly L3 camarilla pivot, we could expect 1.6900. Only a move above thr 1.7190 might negate this bearish scenario.  The analysis has been done with the CAMMACD.Core System.For more daily technical and wave analysis and updates, sign-up up to our ecs.LIVE channel."
16,"Week Ahead Commodity Report: Gold, silver & crude oil price forecast (Video)","US Oil plunged into negative territory for the first time in history on Monday, trading below $0 dragged down by a supply glut and sagging demand for crude due to the coronavirus Investors sold the May futures contract due to expire on Tuesday in a series of waves. At one point the contract hit negative $40. When the trading stopped, crude oil had ended the day at a negative $37.63 a barrel, a decline of some 305%, or $55.90 a barrel.Elsewhere gold climbed 1% on Monday after earlier hitting a one-week low, with the collapse of U.S. crude oil prices to a record low driving investors to the safety of gold. Where are commodity prices heading next?  Watch Phil Carr at The Gold & Silver Club review Gold, Silver and Crude Oil with the latest price forecast and predictions:  "
17,GBP/USD: A return to normality should favor the pound – CitiBank,"Analysts at Citibank point out that when FX volatility is elevated, the pound is high beta to risk-on, risk-off, risk-on/risk-off so they warn that, in the short-term in global equity markets, another leg lower will weigh on Sterling.“When FX volatility is elevated, GBP is high beta to risk-on, risk-off (ro-ro) dynamics. In the short term, heightened risk aversion/ another leg lower in global equity markets will weigh on Sterling. That said, there is no doubt that GBP is fundamentally cheap, and we note the reluctance of Cable to trade <1.18. A return to a more ‘normal’ economic/ market regime should see GBP trade more robustly and drift back towards levels witnessed at the beginning of 2020 (around 1.29-1.34).”“GBPUSD‘s daily momentum is the most overbought it has been since we went to the peak in Dec 2019, with resistance at the convergence of 50d and 200d MA which at 1.2613 and 1.2726 respectively, and with support at 1.1959 and 1.2166.”
 "
18,,
