,title,text
0,EUR/USD Forecast: At the lower end of the range,"Financial markets were in a better mood this Monday, amid some encouraging news related to the coronavirus pandemic. According to the latest data available the contagion curve and the death toll seem to be flattening in Italy, Spain and New York, the three places where coronavirus has hit the hardest. Nothing is yet done and things can worsen again. Furthermore, most major economies continue in lockdown, and governments have not yet figure out how to get out of it, as the most likely scenario is that the spread of the virus will take a turn to the worse. Equities rallied worldwide while high-yielding currencies recovered with uneven results.In the case of EUR/USD, the pair spent the day hovering around the 1.0800 threshold, as the shared currency got undermined by the EU Sentix Investor Confidence index plummeted to -42.9 in April, down from -17.1 in March and worse than the -30.3 expected. This Tuesday, the macroeconomic calendar will remain quite light, as Germany will release February Industrial Production, while the US will only publish minor reports that have no chances of affecting the price.The EUR/USD pair has fallen to a daily low of 1.0767, while the upside remained capped by sellers aligned around 1.0830, the 61.8% retracement of the latest bullish run. The short-term picture is bearish, as, in the 4-hour chart, the pair is developing below bearish moving averages, wit the 20 SMA accelerating south below the larger ones and nearing the current level. Technical indicators, however, had spent the day directionless within negative levels, maintaining the risk skewed to the downside without confirming further declines ahead. Support levels: 1.0770 1.0725 1.0680Resistance levels: 1.0830 1.0890 1.0940View Live Chart for the EUR/USD"
1,"Forex technical analysis and forecast:  EUR/USD, GBP/USD, USD/CHF, USD/JPY, AUD/USD, USD/RUB, USD/CAD, Gold, Brent, BTC/USD","After completing another descending structure at 1.0773, EURUSD is expected to resume growing towards 1.0846 and the fall to reach 1.0830, thus forming a new consolidation range between these two levels. If later the price breaks this range to the upside, the market may continue forming the ascending wave towards 1.0930; if to the downside – resume moving inside the downtrend with the target at 1.0752. GBP/USD is forming the first descending wave with the target at 1.2160. After that, the instrument may form one more ascending structure towards 1.2315 and then resume moving inside the downtrend to reach the short-term target at 1.2050. USD/CHF is consolidating around 0.9766. Today, the pair may expand the range down to 0.9737. Later, the market may return to 0.9766 and then form a new descending structure with the target at 0.9696. USD/JPY continues trading upwards. The main scenario implies that today the price may reach 109.24 and then form a new descending structure towards 108.20. Later, the market may start another growth to reach 109.40 and then resume moving downwards with the target at 105.80. AUD/USD is forming a new descending structure with the short-term target at 0.5940. After that, the instrument may start another growth towards 0.6028 and then resume falling to reach 0.5822. USD/RUB is forming a new descending structure towards 74.90. According to the main scenario, the price is expected to reach this level and then resume growing towards 77.20. Later, the market may resume trading downwards with the first target at 74.22. USD/CAD is still consolidating below 1.4240. Today, the pair may trade downwards to break 1.4060 and then continue falling with the short-term target 1.3888. Gold is consolidating around 1614.80. Possibly, today the pair may fall to reach 1605.65 and then grow to return to 1614.80. If later the price breaks this range to the downside, the market may form a new descending structure towards 1586.59; if to the upside – trade upwards to extend the wave up to 1650.25 (an alternative scenario). Brent continues forming the ascending wave towards 35.86. After completing it, the instrument may correct to reach 30.80. If later the price breaks this level to the downside, the market may continue the correction towards 25.77. BTC/USD is still forming the ascending structure towards 7330.00, which may later be followed by another decline to reach 6600.00. After that, the instrument may resume growing towards 7600.00 and then start a new correction with the target at 5600.00."
2,EUR/USD trims gains and returns below 1.0800,"After climbing as high as the 1.0830/35 band during early trade, EUR/USD has now come under some selling pressure and recedes to the sub-1.0800 region.Following a positive start of the week, EUR/USD has given away those gains and is now resuming the downside for the sixth consecutive session amidst the generalized firm sentiment around the dollar.In the meantime, developments around the COVID-19 keep ruling the price action in the global assets, while market participants continue to digest the latest US Payrolls and the increasing deterioration of the US labour market.On the domestic front, the need for further stimulus (i.e. via of extra issuance of bonds) to counteract the hard impact of the coronavirus in the Spanish and Italian economies is confronting the view of (mainly) German and Dutch officials, all this carrying the potential to keep weighing on the single currency ahead of the Eurogroup meetings due later this week.In the docket, German Factory Orders contracted less than forecasted 1.4% MoM during February, although reversing the nearly 5% expansion recorded at the beginning of the year. Further data saw the Sentix Index deteriorating further to -42.0 in April.The downside pressure in EUR/USD remains well and sound for yet another session, always on the back of the solid demand for the greenback. On the macro view, recent better-than-forecasted PMIs in both Germany and the broader Euroland opened the door to some respite in the prevailing downtrend in fundamentals in the bloc, although the underlying stance still remains well on the negative side and aggravated by recession fears in response to the COVID-19 fallout as well as the probability of the re-emergence of disinflationary trends in the region.At the moment, the pair is losing 0.17% at 1.0788 and faces the next support at 1.0777 (monthly low Feb.20) seconded by 1.0635 (2020 low Mar.20) and finally 1.0569 (monthly low Apr.10 2017). On the flip side, a break above 1.0964 (38.2% Fibo of the March drop) would target 1.0992 (monthly low Jan.29) en route to 1.1068 (200-day SMA)."
3,EUR/USD Stopped Falling,"After a continuous decline, the major currency pair is reaching stability early in the new April week; it is trading at 1.0810.The statistics published by the USA last Friday showed exactly what it was expected to. The Unemployment Rate went from 3.5% in February to 4.4% in March, which is worse than expected, 3.8%. The Non-Farm Employment Change dropped to -701K over the same period of time after being 275K and against the expected reading of -100K. The Average Hourly Earnings added 0.4% m/m in March after expanding by 0.3% m/m the month before.Most likely, the March readings don’t seem to reveal all stress that the labor market is exposed to, that’s why the April report is expected to be more insightful. For example, the Morgan Stanley report was more pessimistic about the future outlook: they assume that the unemployment in the USA may skyrocket up to 15.7% in the second quarter 2020 and the entire labor market may lose about 20-21M jobs. Probably, this is the gloomiest scenario right now.In the H4 chart, EUR/USD is growing towards 1.0847. Possibly, the pair may reach this level and then start a new correction towards 1.0800. After that, the uptrend may resume to break 1.0850 and then continue with the short-term target at 1.0900. From the technical point of view, this scenario is confirmed by MACD Oscillator: its signal line is moving outside the histogram area but still below 0. There is a possibility of a new decline towards 1.0725. However, if the line breaks 0 to the upside, the pair may boost its growth on the price chart to reach 1.0940.As we can see in the H1 chart, after reaching the short-term target of the first rising wave and then correcting towards 1.0807, EUR/USD is expected to grow to reach 1.0847 (at least). Later, the market may form a new descending correction with the target at 1.0800. From the technical point of view, this scenario is confirmed by Stochastic Oscillator: its signal line is moving above 50 and may grow to reach 80 to complete the rising wave. Later, the line may fall to return to 50, thus resulting in a new correction on the price chart."
4,"Ichimoku cloud analysis: BTC/USD, EUR/USD, USD/JPY","BTC/USD is trading at 6967.00; the instrument is moving above Ichimoku Cloud, thus indicating a bullish tendency. The markets could indicate that the price may test the cloud’s upside border at 6690.00 and then resume moving upwards to reach 7915.00. Another signal to confirm further ascending movement is the price’s rebounding from the rising channel’s downside border. However, the scenario that implies further growth may be canceled if the price breaks the cloud’s downside border and fixes below 6205.00. In this case, the pair may continue falling towards 5705.00. EUR/USD is trading at 1.0822; the instrument is moving below Ichimoku Cloud, thus indicating a descending tendency. The markets could indicate that the price may test the cloud’s downside border at 1.0860 and then resume moving downwards to reach 1.0645. Another signal to confirm further descending movement is the price’s rebounding from the descending channel’s upside border. However, the scenario that implies further decline may be canceled if the price breaks the cloud’s upside border and fixes above 1.0955. In this case, the pair may continue growing towards 1.1045. USD/JPY is trading at 109.04; the instrument is moving inside Ichimoku Cloud, thus indicating a sideways tendency. The markets could indicate that the price may test the cloud’s downside border at 108.45 and then resume moving upwards to reach 113.45. Another signal to confirm further ascending movement is the price’s rebounding from the descending channel’s upside border. However, the scenario that implies further growth may be canceled if the price breaks the cloud’s downside border and fixes below 107.85. In this case, the pair may continue falling towards 106.95."
5,Weekly Trading Plans: EUR/USD – USD/JPY – SPX500 and WTI [Video],"Good trading setups ahead! Elliott Wave theory helps the trader to understand the markets and navigate the chaotic price action. This week in our Elliott Wave live analysis report, we are looking for profit-taking on the EUR/USD and a new short trade on USDJPY. While the S&P500 is not clear yet, if the end of the corrective wave happened, WTI is having quite an exciting week because the price is likely to drop.Do not forget to lower your trading risk during high volatility days, stay safe, stay at home, and have a great trading week! DISCLAIMER: No Earnings Projections, Promises or RepresentationsTrading currencies, stocks, futures, and options implicate significant risk of loss and is not suitable for every investor. The quotes of financial markets may fluctuate, and, as a result, clients could lose more than their investment. The highly leveraged of futures trading means that modest market movements will have a greater shock on your trading account, and this can go against your trading capital, that can result in considerable losses or can benefit your trading capital, resulting in significant gains.If the price of any financial instrument moves against you, you may result in more massive loss than the original money deposited into your account. You are entirely responsible for all the risks from your trading decisions and resources you use and for a trading system that you are using. You should not make any trading decisions unless you understand entirely the nature of the trades (transactions) you are entering into and your exposure to loss.

If you do not fully understand these risks, you must find independent advice from your financial advisor.All the trading reports, videos, webinars, and strategies are used at your own risk.All the content on elliottwavestreet.com should not be used as advice or recommendation of any type. It is your responsibility to confirm and decide which trades to make based on your analysis. Trade only with risk capital; that you can afford to lose, and that will not negatively impact your lifestyle and your financial obligations needs. Past results are no indication of future performance. The information found on this website should not be interpreted as an implied promise or guarantee.ElliottWaveStreet.com is not responsible for any losses incurred as a result of using any of our trading reports, courses, webinars, video, strategies and any information posted by us.There is no assurance that any prior successes or past results as to earnings or income (whether monetary, whether convertible to cash or not) will apply, nor can any prior successes be used, as an indication of your future success or results from any of the information, content, or strategies. Any and all claims or representations as to income or earnings (whether monetary or advertising credits, whether convertible to cash or not) are not to be considered as “average earnings”.(i) The Economy: The economy, both where you do business, and on a national and even worldwide scale, creates additional uncertainty and economic risk. An economic recession or depression might negatively affect the results produced by our Service.(ii) Your success or lack of it: Your success in using the information or strategies provided at elliottwavestreet.com depends on a variety of factors. We have no way of knowing how well you will do, as we do not know you, your background, your work ethic, your dedication, your motivation, your desire, or your business skills or practices. Therefore, we do not guarantee or imply that you will trade successfully.(iii) Forward-Looking Statements: Materials contained on this website or in materials purchased and/or downloaded from this website may contain information that includes or is based upon forward-looking statements within the meaning of the securities litigation reform act of 1995. Forward-looking statements give our expectations or forecasts of future events. You can identify these statements by the fact that they do not relate strictly to historical or current facts, they use words such as “anticipate,” “estimate,” “expect,” “project,” “intend,” “plan,” “believe,” and other words and terms of similar meaning in connection with a description of potential earnings or financial performance.Any and all forward looking statements here, in other materials contained on this website or in materials purchased and/or downloaded from this website are intended to express our opinion of earnings potential. Many factors will be important in determining your actual results and no guarantees are made that you will achieve results similar to ours or anybody else, in fact no guarantees are made that you will achieve any results from our ideas and techniques in our material.(iv) Due Diligence: You are advised to do your own due diligence when it comes to making trading decisions and should use caution and seek the advice of qualified professionals. You should check with your accountant, lawyer, or professional advisor, before acting on this or any information. You may not consider any examples, documents, or other content on the website or otherwise provided by us to be the equivalent of professional advice. Nothing contained on the website or in materials available for sale or download on the website provides professional advice in any way.We assume no responsibility for any losses or damages resulting from your use of any link, information, or opportunity contained within the website or within any information disclosed by the Company in any form whatsoever.Information provided in this website is intended entirely for informational and educational purposes and is gathered from sources considered to be safe. Information found on this website is not guaranteed. No guarantee of any kind is implied or possible when possible future price movements on the financial markets are published on this website.https://elliottwavestreet.com nor any of its directors, employees, employees, partners, agents or affiliates, collect money from the public or manage third-party accounts, we are not licensed for this purpose. All our services are focused solely for academic purposes that promote research. Reports, comments, opinions and any written or audiovisual expression do not represent a suggestion of trading or investment, past events do not guarantee future events, investments in stock markets, FOREX, derivatives among others are considered high risk and such risk may not be suitable for your investment capital, remember that handling your money is your responsibility, do not invest money that cannot bear to lose, we recommend you to seek advice before making any investment and verify with the authorities of your country the rules and laws on investment in financial markets.We have created alliances with third party brokers to reduce the cost of some products and services made available through https://elliottwavestreet.com; if you make the decision to deposit your money in one of the brokers that https://elliottwavestreet.com has alliance, remember that you are NOT depositing your money at https://elliottwavestreet.com or World Markets Academy LLC. Before depositing your money check the permits, regulations, disclosure of risk, terms and conditions of these brokers, this verification is your responsibility, do not forget to consult with the authorities of your country of residence all the requirements to make these investments.Remember that https://elliottwavestreet.com and World Markets Academy LLC do not have access to the management of your money, therefore the decisions that you take based on the technical analysis presented in the products, services, videos, courses and blog of https://elliottwavestreet.com and World Markets Academy LLC are your responsibility, when taking the products or services made available through https://elliottwavestreet.com you accept that the losses and / or profits are your responsibility, remember that https://elliottwavestreet.com is for the sole purpose to teach market analysis techniques, past situations do not guarantee future situations.Your use of https://elliottwavestreet.com is at your own risk. The products and services made available through https://elliottwavestreet.com are provided “as is” and “as available”, without warranties of any kind, expressed or implicit, including but not limited to, warranties of merchandising, suitability for a particular purpose, non-infringement or course of performance.World Markets Academy LLC, its affiliates and their licensor providers do not guarantee that a) https://elliottwavestreet.com will operate uninterrupted, secure or available at any time or place; b) errors or defects will be corrected; c) https://elliottwavestreet.com is free of viruses or other harmful components; or d) the results of the use of https://elliottwavestreet.com comply with your requirements or demands.CFTC RULE 4.41 – HYPOTHETICAL OR SIMULATED PERFORMANCE RESULTS HAVE CERTAIN LIMITATIONS. UNLIKE AN ACTUAL PERFORMANCE RECORD, SIMULATED RESULTS DO NOT REPRESENT ACTUAL TRADING. ALSO, SINCE THE TRADES HAVE NOT BEEN EXECUTED, THE RESULTS MAY HAVE UNDER-OR-OVER COMPENSATED FOR THE IMPACT, IF ANY, OF CERTAIN MARKET FACTORS, SUCH AS LACK OF LIQUIDITY. SIMULATED TRADING PROGRAMS IN GENERAL ARE ALSO SUBJECT TO THE FACT THAT THEY ARE DESIGNED WITH THE BENEFIT OF HINDSIGHT. NO REPRESENTATION IS BEING MADE THAT ANY ACCOUNT WILL OR IS LIKELY TO ACHIEVE PROFIT OR LOSSES SIMILAR TO THOSE SHOWN."
6,EUR/USD: How sustainable is the prospect of recovery? [Video],"There has been a pause in the run of decisively negative candles this morning, as the euro has come into the new trading week with a degree of support. The question is, how sustainable is the prospect of recovery? There needs to be a move that breaks the run of lower highs, and for that, it needs a breach of $1.0865. Momentum maintains a negative bias on the daily chart, but there is a suggestion on the hourly chart that the bulls are testing the water. Hourly momentum is more positive this morning, but needs the RSI above 60 and MACD lines rising above neutral to suggest there is any real intent in this move today. There is an old pivot at $1.0830 which is being tested, but Friday’s reaction high at $1.0865 is important, whilst a move back above $1.0900 to confirm the bulls are fighting back. For now, in the absence of any sustainable recovery signals, this early bounce today is still most likely to be taken as a bear rally and another chance to sell. Support initially around $1.0800 this morning, with $1.0770 from Friday’s low being breached would simply re-open $1.0635 again. We favour selling into strength still at this stage. Risk Warning for Financial PromotionsHantec Markets' various market reports and commentary are issued by Hantec Markets Limited, who is authorised and regulated by the Financial Conduct Authority (FCA) in the UK, No. 502635. The reports are prepared and distributed for information purposes only.Trading in Foreign Exchange (FX), Bullion and Contracts for Differences (CFDs) is not be suitable for all investors due to the high risk nature of these products. Forex, Bullion and CFDs are leveraged products that can result in losses greater than your initial deposit. The value of an FX, Bullion or CFD position may be affected by a variety of factors, including but not limited to, price volatility, market volume, foreign exchange rates and liquidity. You may lose your entire initial stake and you may be required to make additional payments. Please ensure you fully understand the risks involved, seeking independent advice if necessary prior to entering into such transactions. Before deciding to enter into FX, Bullion and/or CFD trading, you should carefully consider your investment objectives, level of experience, and risk appetite. You should only invest in FX, Bullion and/or CFD trading with funds you are prepared to lose entirely. Therefore, only your excess funds should be placed at risk and anyone who does not have such excess funds should completely refrain from engaging in FX and/or CFD trading. Do not rely on past performance figures. If you are in any doubt, please seek further independent advice.The reports do not constitute personal investment advice, nor do they take into account the individual financial circumstances or objectives of the clients who receive it. All information and research produced by Hantec Markets is intended to be general in nature; it does not constitute a recommendation or offer for the purchase or sale of any financial instrument, nor should it be construed as such. All of the views or suggestions within the reports are those solely and exclusively of the authors, and accurately reflect their personal views about any and all of the subject instruments and are presented to the best of the authors' knowledge. Any person relying on these reports to undertake trading does so entirely at his/her own risk and Hantec Markets does not accept any liability.© 2014 Hantec Markets Limited"
7,"Forex Today: Market’s mood improved, UK PM Johnson in intensive care","Here is what you need to know on Tuesday, April 7th:"
8,CAD/JPY: Buyers eyeing on the breakout level,"CAD/JPY has been bullish for the last two trading days. The H1 chart shows that the price has been bullish since the market started. It made a breakout at yesterday’s highest high. The price upon finding its resistance has been heading towards the breakout level to make a bearish correction. If the breakout level produces a bullish reversal candle, the buyers may get an opportunity to go long in the pair. The chart shows that the price had a bounce at the level of 76.000. It produced a bullish candle having a long upper shadow but continued its move towards the North. The price had a rejection and consolidated around the level of 77.500. As of writing, the price has been heading towards the South. If the chart produces a bullish engulfing candle at the level of 76.940, the buyers may trigger a long entry above the level of 77.245. Entry: Buy above 77.245.Stop Loss: Below 76.940.Take Profit 1: 77.890.Take Profit 2: 78.140.Take Profit 3: 78.485.  Try Secure Leveraged Trading with EagleFX!"
9,FX update: Risk reappears to start the week,"Commodity currencies have rallied out of early weakness as a risk-on theme took hold in markets, with Asian stock markets and European equity markets rallying on tentative signs in some locked-down countries that the coronavirus spread is being pushed from an exponential rate towards a linear rate, and with both France and Italy reporting a dip in the mortality rate. Japan’s Nikkei 225 and Australia’s ASX stock indices finished with 4%-plus gains. Chinese markets were closed for a public holiday in China today. The DAX & FTSE100 trade up over 3% currently.Oil prices are down about 2%, as of the early London session. While Russia-Saudi talks on cutting output were delayed, the head of the Russian state wealth fund told CNBC said that a deal was “very, very close.” In the Forex realm, the biggest gainers out of the main currencies have been the Australian, New Zealand and Canadian dollars, while the biggest loser has been the Yen, which has seen is safe-haven premium unwind. AUDUSD, after initially dropping to an 11-day low at 0.5992, sprang back to an intraday high at 0.6048. AUDJPY rallied by over 1%. USDCAD retraced most of Friday’s gain in printing a low at 1.4113.Sterling dipped in early trading on news that Prime Minister Johnson had been admitted to hospital 10 days after testing positive to the coronavirus. Cable posted a low at 1.2210 before recovering significantly to retake 1.2300. Friday’s low at 1.2206 was left unchallenged. Elsewhere, USDJPY gained over 0.5% in making a 10-day high at 109.24. EURUSD has been settled in a narrow range in the lower 1.0800s, above Friday’s 12-day low at 1.0773."
10,Is the relief rally in FX sustainable?,"Early signs of COVID-19 curve flattening in Europe and the US kicked off with a relief rally in currencies and equities this morning. USD/JPY jumped above 109 as AUD/USD and NZD/USD rose nearly 2%. This contemporaneous rally is a confirmation that investors are not just bullish dollars but also less pessimistic about other currencies. Risk appetite is improving as the daily death toll in Spain and France rise at a slower pace. In Italy, new cases appear to be leveling off and in New York new confirmed cases are rising at a slower pace.These trends suggest that lockdown measures are ""working"" but it is still too early to tell if these improvements are sustainable. Hospitalizations tend to be lighter over the weekend and in some countries in Asia where it seemed like the curve flattened, new cases are cropping up. Singapore announced fresh lockdown measures last week, Japan plans state of the emergencies in Tokyo and six other prefectures that would allow governors to issue stay at home orders and direct businesses to close. In South Korea, the country that moved the quickest on containing the virus and eased lockdown measures in March is now seeing a second wave that tells us curves don't stay flat. The bright side is that after a spike last week, South Korea reported only 47 new cases on Sunday compared to 81 earlier. If these trends continue, we could see a further relief rally in currencies and equities.Coronavirus curves aside, the fact that investors completely shrugged last week's abysmal labor market reports is another reason why the recoveries are sustainable – at least in the near term. The greenback should have sold off hard after jobless claims topped 6 million and non-farm payrolls fell more than -700K but instead of rising, currencies and equities shrugged off these numbers easily. While it can be argued that it was a matter of time before the data turned ugly, there's no questions that April figures will be even worse. Yet with no major US economic reports outside of the FOMC minutes and inflation numbers scheduled for release, there will be a reprieve in data. It is no secret that the Federal Reserve is dovish, troubled by the outlook for the economy and willing to do more to ease the pain. This is also typically a lighter week with some markets closed for Easter holidays however it is unclear if liquidity will really be all that different with stay at home / work from home measures at all major financial centers.The strongest currencies this morning are the Australian and New Zealand dollars. Tonight is a busy one for the Australian dollar. Service sector PMI and the trade balance are scheduled for release but the main focus will be on the Reserve Bank of Australia's monetary policy announcement. The RBA cut interest rates by 50 bp since the beginning of the year. About 2.5 weeks ago they surprised the market with a quarter point emergency cut that took interest rates to an all time low of 0.25%. They also launched quantitative easing for the first time ever. Tonight, they'll need to consider whether a third round of easing is necessary and how to adjust bond purchases. Given the reluctance of members to resort to negative rates we think that there will be no changes this evening. They will be dovish, very worried about the outlook for Australia's economy and willing to provide more support, most likely in the form of additional QE. They could also officially reduce growth forecasts which may trigger a fresh wave of selling in A$.The Canadian dollar is in focus this week with IVEY PMI and labor market numbers on the calendar. Last month's decline in IVEY was modest from 57.3 to 54.1. This month's decrease should be far more significant – IVEY is due tomorrow. With oil resuming its slide, we expect the Canadian dollar to remain in a downtrend. Euro and sterling are down modestly. Euro is holding steady thanks to curve flattening and reports that Germany is looking at how to ease lockdown restrictions (although no date has been set). Sterling on the other hand should be weaker with the Prime Minister in the hospital, the Queen delivering a rare address to reassure Britons and the government considering tighter lockdown measures.Past performance is not indicative of future results.  Trading forex carries a high level of risk, and may not be suitable for all investors. The high degree of leverage can work against you as well as for you. Before deciding to trade any such leveraged products you should carefully consider your investment objectives, level of experience, and risk appetite. The possibility exists that you could sustain a loss of some or all of your initial investment and therefore you should not invest money that you cannot afford to lose. You should be aware of all the risks associated with trading on margin, and seek advice from an independent financial advisor if you have any doubts."
11,USD/CAD heading past 1.45 by mid-year before moving back down later – NFB,"Analysts at the National Bank of Canada see the USD/CAD pair rising to 1.46 during the second quarter and then falling to 1.43 in the third and to 1.41during the fourth.“The Canadian dollar lost 6% against the USD in March, its worst monthly performance in five years. Granted, the economy is now in recession and GDP growth this year is set to be the worst ever recorded. But the U.S. is in a similar position.”“Could the loonie lose more ground against the USD? That’s contingent on (you guessed it) the price of oil whose path in coming weeks will depend on whether or not producers can agree to curtail supply amid shrinking global demand. Seeing the devastation in America’s oil fields, even U.S. President Trump – who famously chided OPEC for not pumping enough oil ─ is now seeking production cuts from the cartel.”“We still think oil price will remain grounded by this unprecedented global recession which, in the IMF’s estimation, will be “as bad if not worse” than the 2008/09 downturn. The downgrade to our 2020 forecasts for world GDP growth and OPEC/Russia price war prompted us to lower our projections for oil prices. WTI oil is now expected to average around $28/barrel this year (versus roughly $47 in our previous forecast). That translates to lower path for the Canadian dollar than anticipated earlier.”“We now see USDCAD heading past 1.45 by midyear due to a combination of disastrous economic data and weak oil prices, before moving back down (i.e. C$ appreciation) later in the year as WTI recovers.”
 "
12,USD/MXN and Other EM Currencies may be Topping,"Mexican President AMLO has been slow to pull the trigger on a large stimulus plan as many other countries have done.  However, on Sunday he established a public works program to help the poor and to create jobs. In addition, he created a program to provide low interest rates loans to boost small businesses and housing. Emerging market currencies, in general, have been getting hit over the last few weeks. However, after putting in all-time highs on March 24th, USD/MXN appears as though it may be ready for a pullback.  Although there is still half the day left in US trading, the pair appears to be putting it a shooting star candlestick formation, after spiking through the all-time highs to 25.78 in the Asian session.  This is an indication of a possible reversal as bears overtake the bulls (on a possible short squeeze above the highs) and push price lower, closer to the open.  In addition, the RSI is diverging from price as it is nowhere near a new high, as price had done.Source:  Tradingview, FOREX.comOn a 240-minute USD/MXN has put in a  bearish engulfing candlestick formation at the highs, which is also considered a reversal formation.  The pair is close to support near the 38.2% Fibonacci retracement level from the low on March 26th to todays highs near 24.6590.  There also horizontal support near this level.  If price breaks lower from here, the next support would be the 50% retracement level and trendline support near 24.3152. Below here is the 61.8% retracement level from the same time frame at 23.9700 and final horizontal support at a full retracement of the recent move, at 22.85.  Resistance is at today’s highs near 25.77.Source:  Tradingview, FOREX.comIs this move in USD/MXN solely related to the fiscal moves by President ALMO?  Probably not.  The reversal nature appears to be common today across other emerging market pairs as well.After the USD/ZAR put in all-time new highs today at 19.34, the pair is reversing and has pulled back into the body of Fridays candle and is currently down 1.6% today. Source:  Tradingview, FOREX.comAnd USD/BRL is currently putting in a bearish engulfing candlestick formation today, down 2.15% near 5.2350 after putting in an all-time high at 5.3529 on Friday. The RSI is also diverging with price.Source:  Tradingview, FOREX.comAlthough Mexico has finally put in measures over the weekend to help the Mexican economy, today’s move in USD/MXN may not be solely because of that.  Other Emerging Market currencies are also taking a breather vs the US Dollar as pairs need to unwind a bit after a strong move higher.Risk Warning Notice

Foreign Exchange and CFD trading are high risk and not suitable for everyone.  You should carefully consider your investment objectives, level of experience and risk appetite before making a decision to trade with us.  Most importantly, do not invest money you cannot afford to lose.

There is considerable exposure to risk in any off-exchange transaction, including, but not limited to, leverage, creditworthiness, limited regulatory protection and market volatility that may substantially affect the price, or liquidity of the markets that you are trading.

Margin and leverage

To open a leveraged CFD or forex trade you will need to deposit money with us as margin.  Margin is typically a relatively small proportion of the overall contract value.  For example a contract trading on leverage of 100:1 will require margin of just 1% of the contract value.  This means that a small price movement in the underlying will result in large movement in the value of your trade – this can work in your favour, or result in substantial losses.

Your may lose your initial deposit and be required to deposit additional margin in order to maintain your position.  If you fail to meet any margin requirement your position will be liquidated and you will be responsible for any resulting losses."
13,AUD/NZD: Move to 1.00 over the coming weeks – TDS,"Macro drivers point to more downside in the weeks ahead. Analysts at TD Securities like parity in the AUD/NZD cross.“We expect a move to 1.00 in AUD/NZD over the coming weeks. We also note that NZD short positioning is slightly more stretched than AUD.”“The relative MRSI weights underscore another push lower in the cross. Most notably, the factors have worked against AUD over the past month, reflecting relative growth and inflation downgrades.” "
14,GBP/USD Forecast: Selling opportunity? Sterling set to suffer if Boris stays in hospital,"""We shall meet again,"" said Queen Elisabeth in a rare address to the nation – and she probably also referred to Prime Minister Boris Johnson. The 55-year old leader has been admitted to a hospital in London late on Sunday in what was described as a ""precautionary step.""  Housing Secretary Robert Jenrick has said that Johnson is doing well, allowing the pound to recover.Earlier, GBP/USD kicked off the week on the back foot as concerns about UK leadership in a critical time cause greater uncertainty. Johnson tested positive to COVID-19 in late March and continued working from self-isolation. However, the symptoms of the illness refused to abate and his doctor advised him to seek further assistance. Downing Street insisted that he remains in charge of the government, but his de-facto deputy Dominic Raab will chair Monday's cabinet meeting. Housing minister Robert Jenrick has said on Monday that he heard that Johnson is doing well.However, there are reasons to be worried. Most of those sick with coronavirus recover within a week and overcome fever and cough. With Britain's hospitals overwhelmed by patients, it is unlikely that Johnson was sent there only for routine checks.The longer he stays there, the higher the fears for his health and the further the pound can fall.Foreign secretary Raab is mostly known for his support for a hard exit of the EU, quitting his position as Brexit Secretary in anger over a compromise led by then PM Theresa May. He later fell in the leadership race to inherit May and does not enjoy broad support like Johnson. Moreover, if the PM remains unable to lead the government, Raab could find himself struggling for power with other ministers and Johnson's top adviser Dominic Cummings. GBP/USD has been able to stabilize as a better market mood is weighing on the US dollar. Investors are encouraged by the drop in new cases and deaths in Europe. Italy and Spain – the hardest-hit countries –have both reported their best statistics in over a week with fewer deaths and confirmed cases. France, Germany and New York have also published figures that all amount to ""light at the end of the tunnel."" If new COVID-19 cases, deaths, and Intensive Care Unit utilization all fall, the world would gradually return to normal, allowing the economies to reopen. Global coronavirus cases are nearing 1.3 million and 70,000 mortalities. The new optimism replaces pessimism after America's Non-Farm Payrolls report on Friday. The world's largest economy lost 701,000 jobs – worse than expected – and reflecting the situation in mid-March, before the latest layoffs. The quick determination in the world's largest economy is drawing funds toward the safe-haven dollar. Later in the day, health updates from the UK, Spain, Italy, and the US will all be of interest. Yet for the pound, any update on Boris Johnson remains central. Without a report that the PM has returned to Downing Street, sterling may suffer. Pound/dollar is suffering from downside momentum but is trading above the 100 Simple Moving Average, battling the 50 SMA, and trading below the 200 SMA. The relative Strength Index is balanced. All in all, bears enjoy a marginal lead.Support awaits at 1.2210, the daily low. It is followed by 1.2140, a low point in late March, followed only by 1.20 – a psychologically significant level.Resistance is at 1.2320, the daily high and a support line from last week. It if followed by 1.2490, a stubborn cap in late March and early April. 1.2610 is next.Despite a limited range in recent days, volatility may explode later on."
15,WTI rebounds above mid-$27s as investors stay focused on OPEC headlines,"Crude oil prices came under strong selling pressure after developments over the weekend revealed that the OPEC+ emergency meeting got postponed to Thursday to give more time to sides to negotiate.The barrel of West Texas Intermediate (WTI) erased more than 10% from Friday's closing level and touched a daily low of $25.27 in the early trading hours of the Asian session but has been recovering its losses since. As of writing, the WTI was trading at $27.63, still down around 4% on a daily basis. Citing a top Russian oil negotiator, Reuters on Monday reported that Saudi Arabia and Russia were close to a deal on oil production reductions and helped crude oil extend its rebound. ""I think the whole market understands that this deal is important and it will bring lots of stability, so much important stability to the market, and we are very close,"" Kirill Dmitriev, head of Russia's sovereign wealth fund, told CNBC.Moreover, Iraq's oil minister said that he was optimistic about reaching a new supply cut deal after talking to his OPEC+ counterparts over the weekend.  "
16,Gold: Multi-year bull market is being cemented – TDS,"The better news flow over the weekend has seen the yellow metal continue its strength above $1600/oz and move safely away from CTA selling triggers for now, per TD Securities.“We're not out of the woods just yet should panic reemerge and the highly deflationary impulse from containment effort send real rates higher.”""Looking forward on the horizon, we think the set-up for a multi-year bull market is being cemented as the market is awash with both monetary and fiscal stimulus while rates are at the zero bound, which suggests investors will continue to seek gold's warm embrace as real global rates become entrenched in negative territory.” "
17,Mid-day market update: Crude Oil down over 6%; Wayfair shares spike higher,"Midway through trading Monday, the Dow traded up 4.75% to 22053.54 while the NASDAQ rose 4.72% to 7721.07. The S&P also rose, gaining 4.62% to 2,603.75.The U.S. is now the epicenter of the coronavirus pandemic with the highest number of cases around the world. U.S. reported a total of 337,600 coronavirus cases with around 9,600 deaths. Spain confirmed a total of over 131,600 coronavirus cases with 12,600 deaths, while Italy reported a total of at least 128,900 confirmed cases and 15,800 deaths. In total, there were at least 1,280,000 cases of COVID-19 worldwide with over 69,700 deaths, according to data compiled by Johns Hopkins University.Utilities shares climbed 6.9% on Monday. Meanwhile, top gainers in the sector included Companhia Energetica de Minas Gerais CIG 13.56%, up 11%, and NorthWestern Corporation NWE 13.03%, up 11%.In trading on Monday, energy shares rose by just 2.3%.Simply Good Foods Co SMPL 4.16% reported better-than-expected results for its second quarter.Simply Good Foods reported quarterly earnings of $0.23 per share, beating analysts’ estimates of $0.18 per share. The company’s sales came in at $227.1 million, exceeding the consensus view of $220.9 million.Immunomedics, Inc. IMMU 93.71% shares shot up 99% to $18.70 after the company said it would stop its Ascent Study due to compelling evidence of efficacy.Shares of XpresSpa Group, Inc. XSPA 49.08% got a boost, shooting 50% to $0.3265 after jumping over 31% on Friday. The company is converting its airport spa locations into testing locations.Wayfair Inc W 38.3% shares were also up, gaining 33% to $67.33 after the company said it expects to meet or exceed its previously announced guidance. Wayfair reported private placement of $535 million of convertible senior notes.Millendo Therapeutics Inc MLND 69.28% shares tumbled 68% to $1.55 after the company announced its phase 2b trial did not achieve statistically significant results.Shares of Menlo Therapeutics Inc MNLO 48.65% were down 48% to $1.35 after the company announced two phase 3 trials did not achieve their primary endpoints.OncoSec Medical Incorporated ONCS 18.07% was down, falling 18% to $1.65. OncoSec reported collaboration with providence cancer institute to conduct first-in-human trial of its CORVax12 investigational vaccine as prevention for coronavirus.In commodity news, oil traded down 6.3% to $26.57, while gold traded up 2.6% to $1,688.60.Silver traded up 3.2% Monday to $14.95, while copper rose 1.2% to $2.2185.European shares were higher today. The eurozone’s STOXX 600 rose 3.52 % the Spanish Ibex Index rose 3.99%, while Italy’s FTSE MIB Index climbed 3.57%. Meanwhile, the German DAX gained 5.31%, and the French CAC 40 rose 4.34% while UK shares rose 2.93%.The TD Ameritrade Investor Movement Index for March is scheduled for release at 12:30 p.m. ET."
18,Brazil: GDP growth forecast revised down to -1.2% – Rabobank,"GDP growth forecast for the Brazilian economy also succumbs to Covid-19. USD/BRL is trading at 5.345.“Agents’ expectations in March exacerbate Covid-19 fears triggering our 2020 GDP growth forecast revision from +1.8% down to -1.2%.”“In the realm of inflation, IBGE releases March IPCA report on Thursday, and we expect a gain of 0.15% m/m.”“Our estimate implies that the annual change will recede to 3.4% y/y (from: 4.0% y/y), bringing the headline back well below the BCB’s mid-target (of 4.00%) for 2020.” "
19,From economic crisis to the financial crisis,"While the novel coronavirus outbreak is raging around the world, financial markets and economies globally have suffered a rare, sweeping shock. The global sell-off, led by U.S. stocks, has sparked fears of a renewed financial crisis.From February 12 to March 23, 2020, the Dow Jones index has plunged from a high of 29,551 to 18,591, a drop of 37%. During the same period, U.S. stocks have lost more than US$ 10 trillion, while European markets have lost more than 30%. Due to a large amount of funds poured from the stock market to the bond market, the yield on the benchmark 10-year Treasury note fell from 1.63% on February 12 to 0.498% on March 9. International oil prices have also tumbled since 2020, with brent crude down 67% from the year's high. In the face of a rout in equities, bond yields and oil prices, markets are exclaiming that 12 years after the 2008 financial crisis, a more savage financial crisis is imminent.Facing financial market turmoil, central banks around the world have issued policies to rescue the market. Taking the Federal Reserve as an example, it has frequently carried out various policy operations to cut interest rates and release liquidity recently. According to ANBOUND's tracking research, from March 3 to 26, the Fed has conducted as many as 9 times of aggressive policy operations. There were several main operations: First is to cut interest rates, the Fed lowered the required reserve ratio for three consecutive times until it reached zero; The second is to buy back U.S. treasuries in large quantities through unlimited quantitative easing, and inject liquidity into the market; The third is to establish dollar swap facility with foreign central banks to ensure the liquidity of the dollar.In a familiar move, the Fed took similarly drastic steps to rescue financial markets during the 2008 financial crisis. From a series of operations, the Fed is completely in response to a financial crisis with similar theory, methods, operation, and logic behind. However, the strength of its combined bailout measures this time is far greater than that of the bailout in 2008, which shows that the Fed is eager to put an end to the rarest “financial crisis” in history.It should be pointed out that the changes in global financial markets following this outbreak are markedly different from previous financial crises. Every financial crisis in the past was marked by the failure of large financial institutions or quasi-financial firms, such as the collapse of Long-Term Capital Management (LTCM) during the 1998 Asian financial crisis, the collapse of Enron Corporation after America's dot-com bubble burst in 2001, as well as financial institutions that failed in the 2008 financial crisis, such as Bear Stearns, America's fifth-largest investment bank, which fell into default after the 2008 financial crisis, were acquired by JP Morgan Chase; Merrill Lynch went into crisis and was bought by Bank of America; Lehman Brothers failed without a government bailout. Although the U.S. and European stock market crash at the beginning of 2020 led to a major impairment of assets, there have been no cases of the failure of large financial institutions, the risk exposure of systemic financial institutions is relatively low, there is no problem of international balance of payments, and there has been no large-scale debt defaultANBOUND's researchers believe that such contrast is a reflection of the different causes of the two crises. The crisis in 2008 is a direct and typical financial crisis. According to the summary of Li Xunlei, the chain of the crisis outbreak is as follows: the decline in housing prices -> subprime mortgage crisis -> the burst of financial products -> investment bank bankruptcy. The crisis reflected the structural collapse of the financial system caused by excessive financial innovation, excessive financial leverage and excessive growth of the financial industry in the context of excessive capital. The crisis in 2020 is an economic crisis, a fundamental crisis. Over the past decade or so, there has been a global overproduction and excess capital; the global trade friction intensifies under the background of anti-globalization; global debt surges and defaults rise; coupled with sluggish global growth, large emerging markets such as China, in particular, are on a recessionary trajectory. The accumulation and superposition of many problems have promoted the systematic evolution and occurrence of the global economic crisis. In particular, since the 2008 financial crisis, countries around the world have not made structural adjustments to their economies and financial systems. They have not eliminated their risk factors. Instead, they have covered the bubble of the previous crisis with a bigger financial bubble by injecting more liquidity.The economic crisis is growing, the risks in the financial system have not been eliminated, and what we are waiting for is only a trigger pull, and this is the background for the Wall Street stock market to fall from 30,000 points to 20,000 points in 2020. Therefore, the novel coronavirus outbreak in early 2020 is the main cause of the sudden global economic crisis. We can observe these phenomena from several aspects that were not seen in the 2008 financial crisis:First, the spread of the Covid-19 pandemic has disrupted the global supply chain. The supply chain was first disrupted in ""the world's factory"", i.e. China, then came the pandemic, which led to unprecedented disruptions in global supply chains, logistics systems, and air transport;Second, most countries in the world are in a state of lockdown. So far, there are at least 3 billion people in the world staying at home and only maintaining basic subsistence consumption. The global consumption demand has been greatly reduced, resulting in a sharp drop in foreign trade orders and shipping demand, as well as the stagnation of many service industries;Third, the global economy has entered a ""frozen"" mode, which has significantly reduced global energy demand, accelerated the sharp drop in international oil and gas prices, and caused a huge impact on oil-producing countries, oil producers, petrochemical industry chains and commodity trading;Fourth, the global pattern of isolation has directly caused a large number of people to lose their jobs, especially in the United States, Europe and other countries with developed services and consumption models. The soaring unemployment rate is forming a new economic and social crisis. Some even predict that unemployment in the United States will rise to more than 50 million people. On China’s side, if external demand shrinks, tens of millions of jobs could be affected.Fifth, the intensification of the global economic crisis will also tighten the global debt chain and credit chain, the quality of bank assets will deteriorate, and the phenomenon of debt default will continue to increase. Each of these partial crises will eventually be transmitted to the financial system and evolve into greater financial risks.Of course, economic and financial crises are not separated from each other. As the crisis factors increase, they will interact and evolve easily. As analyzed by Former Federal Reserve Chairwoman Janet Yellen, the globally synchronized deceleration is a foregone conclusion, that is, the global economy is sinking into a recession due to bad performance of trade and financial transactions. In addition, the duration of the recession is still uncertain. Whether it is a V-shaped recovery or some other form of recovery depends on the quality and execution of policy responses. Besides, the longer the recession lasts, the longer it will take to recover.The transformation from economic crisis to financial crisis is likely to be reflected in the following risk transmission chain: demand reduction + supply chain disruption -> lack of orders -> corporate balance sheet crisis -> liquidity shortage -> corporate debt explosion -> increase of bank bad debts + increase of debt defaults -> weak consumption -> endangers financial institutions -> financial crisis. From the beginning of the economic crisis, the customer base of the service industry began to be affected, which in turn affected the customer market and cost of the financial industry. The basic economic crisis eventually evolved into a financial crisis after a period of delay. At this time, the market scenario is the financial crisis that people are familiar with in modern society.Distinguishing between the economic crisis and the financial crisis is not only allows us to understand the causes of the crisis, but also of great constructive significance in public policy. According to ANBOUND’s researchers, there are two particular concerns for policy departments: First, the theoretical approach to the financial crisis will not solve the problem of the current economic crisis, so the Fed's approach may not be the right one. By contrast, the American Democratic Party’s proposition of favoring blue-collar workers and maintaining their livelihoods is conducive to consumption and more realistic. Because the focus of overcoming the current crisis is to prevent the economic crisis from persisting and to curb its momentum into a financial crisis. To mitigate the financial crisis, we must first contain the economic crisis. Second, since the crisis originated from the economic crisis in the first place, it is impossible to expect a V-shaped recovery and we must be fully prepared for the medium- and long-term impact of the crisis. In fact, the desire for a V-shaped recovery is unrealistic. As the previous analysis shows, this economic crisis covered many crisis factors of the original economy, and the virus outbreak was just a trigger point. If the foundation is affected, the economic structure will be affected as well, and it will certainly affect the overall situation. It just takes some time for the impact to reach the top level.The current crisis sweeping the world is an economic crisis, which could evolve into a financial crisis. If only the measures to overcome the financial crisis are adopted, it would be difficult to solve the problems existing in the economic crisis. Given the complexity of the crisis, we need to be prepared for its long-term implications.
 "
