,title,text
0,EUR/USD Price Analysis: EUR/USD moves above the 200 weekly SMA and the price printed at its highest level in over a month,"EUR/USD is one of the best-performing currencies on Monday as the pair moves over 0.60% higher. In general, the euro is having a great day as EUR/JPY rises 0.86% and EUR/NZD pushes 0.74%. The single currency is the pick of the bunch as Brexit woes hit the pound and the US continues to deal with the coronavirus pandemic. Risk sentiment is also important as there were large inflows into the greenback during the initial COVID-19 panic.Looking at the chart below the price has now conclusively broken above the 200 weekly Simple Moving Average. This is not the first time as you can see some of the shadows (wicks) have penetrated the resistance only to fall back below. Obviously we will have to wait till the end of the week to see if the bulls can sustain this momentum but the signs are good at present. Another key feature on the chart it the price breaking the trendline which has been in place since the peak back in February 2018. The trendline has been tested twice but once again the bulls could not manage to keep hold of the area and the subsequent move took the price below the resistance. There is also some bullishness in the indicators. The MACD histogram is green and the signal lines have crossed the mid-point. While the Relative Strength Index is now holding pretty nicely above the 50 area.   "
1,EUR/USD is hitting the HFT sell zone!,"The analysis of HFT algorithms in the Fx market this morning shows that EURUSD bulls are getting turned away at the light HFT selling pressure zone, noted at 1.133 and above.The price reacted well at the HFT sell zone, and the bullish attempt was quickly repelled soon after entering this zone. Furthermore, EURUSD has created a triangle-like formation on the 1-hour chart, which now appears to be breaking to the downside.The light HFT buying pressure zone will come into focus in a bearish scenario, and is noted at 1.1261 and below today.   FX Trading Revolution - Your Revolutionary Forex SourceHigh Risk Warning: Please note that foreign exchange and other leveraged trading involves significant risk of loss. It is not suitable for all investors and you should make sure you understand the risks involved, seeking independent advice if necessary.ADVISORY WARNING: Any news, opinions, research, data, or other information is provided as general market commentary and does not constitute investment or trading advice. FXTradingRevolution.com expressly disclaims any liability for any lost principal or profits without limitation which may arise directly or indirectly from the use of or reliance on such information."
2,EUR/USD forecast at 1.17 in 6-12 months – CitiBank,"Analysts at Citibank see the EUR/USD moving to the upside over the next months. They forecast EUR/USD at 1.14 in three month and at 1.17 in six to twelve. “Renewed or increased political uncertainty from Italy, Brexit or elsewhere may put downside risks on EUR.”“EA ‘break-up’ risk premia has now markedly been reduced.The key inflection point for EA risk premia was the good news on the EU recovery fund. Euro denominated risk assets have traded much more robustly. Besides, the ECB also upsized and lengthened its PEPP to defend its mandate. It is synchronised monetary and fiscal support that have proven to yield the most “positive“ results during the recovery, favoring EUR.”“EURUSD’ RSI stay at neutral level. The pair may trade between 1.1168-1.1422 in the short term, with next support and resistance at 1.1050 and 1.1495 respectively.”
 "
3,EUR/USD moves to session tops above 1.1350,"The upbeat note in the risk complex is now putting the buck under further pressure and pushes EUR/USD to fresh tops in the vicinity of 1.1350.EUR/USD is adding to Friday’s gains above 1.1300 the figure on Monday, opening the door at the same time for a potential test of last week’s peaks around 1.1370.On the other hand, the greenback is extending the bearish note for yet another session, starting the fourth consecutive week with losses and well below the 97.00 yardstick.Hopes of an end of the coronavirus pandemic keep sustaining the bid note in the risk universe, this time exacerbated after Pfizer Inc. and BioNTech SE received the Fast Track status from the Food and Drug Administration (FDA) for two COVID-19 vaccine candidates.Nothing worth mentioning data wise in Europe, while the Monthly Budget Statement and the speech by FOMC’s J.Williams are only dye across the pond.EUR/USD as started the week on the positive side once again, always supported by the solid improvement in the risk-associated universe and targeting last week’s tops around 1.1370. The constructive view in the euro, in the meantime, stays well and sound and supported by the improvement of key fundamentals in the region amidst the current (and massive) monetary stimulus by central banks. On top, the solid performance of the region’s current account is also adding to the attractiveness of the shared currency.At the moment, the pair is gaining 0.49% at 1.1352 and a breakout of 1.1370 (monthly high Jul.9) would target 1.1422 (monthly high Jun.10) en route to 1.1495 (2020 high Mar.9). On the other hand, immediate contention is located at 1.1168 (monthly low Jun.19) seconded by 1.1147 (high Mar.27) and finally 1.1049 (200-day SMA)."
4,Will COVID cases overshadow earnings?,"It's been a decent start to the week for stock markets, carrying over some momentum from Friday's bounceback as we head into earnings season in a positive frame of mind.It's worth noting that we started last week strongly as well and it didn't take long for that to peter out. That was similarly driven by seemingly little so we shouldn't be surprised if the momentum quickly fades as we navigate through another hectic week on all fronts, with earnings, data, central bank meetings and geopolitics all having a role to play.One difference this week is that packed schedule which could make things very interesting. Earnings season is the standout, for obvious reasons. Safe to say, expectations are low, with profits seen taking a 40-50% hit as the coronavirus forced businesses to close their doors around the world.That question is, has the bar been set low enough? And what will companies have to say about what lies ahead? Many declined to offer guidance three months ago and everyone was quite forgiving, they may not be so this time, especially coming alongside what's going to be some quite horrific numbers. Wall Street is setting a nice low bar though so even if we see some ugly numbers, investors may still find reason for optimism.The challenge for stock markets may not come from what companies have to say though, with many states in the US seeing trends reversing on the case count and now the death count seems to be rising again. This was inevitable with the economy reopening, but how much is rises could become cause for concern. Huge spikes in the number of cases is a lot easier to take if not met with corresponding spike in deaths. We'll soon see whether that is the case but recent numbers are a concern.Crude prices are a little flat today, with this weeks big event being the Joint Ministerial Monitoring Committee (JMMC) meeting on Wednesday, as members of the OPEC+ alliance decide on whether the extend production cuts an extra month to August or risk a taper tantrum as countries continue to experience reopening setbacks.The 9.6 million barrel cut was crucial to stabilizing oil prices and rising back to levels more tolerable for producers but with economies reopening, some may be keen to start increasing production again. That seems a quite risky option, with the safer being a one month extension but there's a lot of speculation that it could be reduced to 7.7 million. It may be time to brace for volatility once again.Gold came agonisingly close to ending the week above $1,800 following a hard fought breakout earlier in the week. The level proved a step too far back in 2011 and 2012 but, despite momentum lagging in the run up to it, it seemed to go through with relative ease this time around.The yellow metal added to these gains early in the day but once again finds itself hanging around the $1,800 level. We're talking small margins when it comes to Friday's close so how it trades over the next couple of days could be key to whether it takes off from here or once again sees momentum wane.This article is for general information purposes only. It is not investment advice or a solution to buy or sell securities.Opinions are the authors — not necessarily OANDA’s, its officers or directors. OANDA’s Terms of Use and Privacy Policy apply. Leveraged trading is high risk and not suitable for all. You could lose all of your deposited funds."
5,EUR/USD Forecast: At daily highs but without momentum,"The EUR/USD pair surged to the 1.1330 price zone, where it stands ahead of the US opening. Speculative interest seems confident despite the continued increase in new coronavirus cases around the world, mainly because major economies are working to avoid new lockdowns. Furthermore, hopes are based on reports that the Gilead’s drug, remdesivir, reduces the mortality rate.Financial markets, however, lack follow-through, with the early enthusiasm on pause. A scarce macroeconomic calendar today, alongside relevant data scheduled for the upcoming days, backs a wait-and-see stance.Some encouraging news came from Germany, as the economy ministry, Peter Altmaier, said that the country is in the process of recovering and that the low point has passed. He added that the commercial relationship with China remains the same, despite the controversy around the Hong-Kong security law.The EUR/USD pair holds near a daily high of 1.1338, offering a neutral short-term technical stance. The 4-hour chart shows that it’s finding intraday support around a mild bullish 20 SMA, which advances above the larger ones. Technical indicators, however, continue to hover directionless around their midlines. The pair has an immediate resistance in the 1.1340/50 price zone and would need to clear it to be able to extend its advance towards 1.1422, June monthly high.Support levels: 1.1310 1.1270 1.1220  Resistance levels: 1.1345 1.1390 1.1425View Live Chart for the EUR/USD"
6,EUR/USD consolidation zone prepares for critical breakout,the EUR/USD is in an uptrend but unable to push beyond the 1.1350 resistance (red box). This could increase the chance of a bearish ABC wave pattern. The EUR/USD needs to break below the 21 ema zone and 144 ema close to confirm a bearish wave 3 of wave C (purple). The bearish breakout (orange arrows) could aim for the 38.2% Fibonacci level at 1.11.The EUR/USD bullish breakout above the resistance could restart the uptrend and aim for the wizz 7 target at 1.1425. The next target is at the round level of 1.15.  The analysis has been done with the ecs.SWAT method and ebook.
7,EUR/USD Forecast: Poised to test June monthly high at 1.1422,"The EUR/USD pair slowly but steadily advanced this Monday, reaching a fresh July high at 1.1374 during the American afternoon. The dollar weakened against most major rivals amid a cautious optimism across the financial world. Speculative interest continued to cheer Friday news coming from Gilead, which reported its drug remdesivir has an encouraging survival rate. Another factor pushing high-yielding assets higher is the fact that governments are trying to avoid returning to lockdowns, which could interrupt the shy economic progress seen after March´s chaotic collapse, despite the continued increase in coronavirus cases.The macroeconomic calendar had not much to offer, although Germany published the June Wholesale Price Index, which rose 6.0% monthly basis. The German economy ministry, Peter Altmaier, said that the country is in the process of recovering and that the low point has passed, further fueling the EUR’s advance. Tuesday will be a busier day, as Germany will publish its June inflation and the July ZEW survey, while the Union will publish Industrial Production for May. The US, on the other hand, will release June CPI.The EUR/USD pair is trading near its daily highs by the end of the US session but continues to lack bullish momentum. The 4-hour chart shows that the pair is developing above a bullish 20 SMA, this last around 1.1310 and above the larger ones. Technical indicators hold within positive levels, although without directional strength. The former 1.1340/50 resistance area now is the immediate support region. As long as the pair holds above it, there’s room for an extension towards 1.1422, the high set last June.Support levels: 1.1350 1.1310 1.1270    Resistance levels: 1.1390 1.1425 1.1460View Live Chart for the EUR/USD "
8,EUR/USD: Positioning for a move to break higher [Video],"It has been interesting to see how the market has dealt with the initial failed break above $1.1350. Pulling back into near term support around $1.1255 (effectively the mid-point of a near term range) was used as an opportunity as the bulls bounced back on Friday. Ticking higher again today, they are looking to push forward once more to test $1.1350. For a while we have been looking for the breakout of this range to be to the upside and a close above $1.1350 is favoured in the coming sessions. This would then open key resistance of $1.1420 and on towards $1.1490 in due course. This rally has been a slow burn for EUR/USD bulls (and still is) but the market is once more positioning for a move to break higher. The positive medium term bias to momentum points towards buying into weakness, although on a near term basis we continue to see momentum indicators are ranging (daily RSI between 52/61 for the past three weeks). The mild positive bias on the hourly chart has seen the market edging back above $1.1300 which is an initial basis of support today. Thursday’s high of $1.1370 is a barrier. Risk Warning for Financial PromotionsHantec Markets' various market reports and commentary are issued by Hantec Markets Limited, who is authorised and regulated by the Financial Conduct Authority (FCA) in the UK, No. 502635. The reports are prepared and distributed for information purposes only.Trading in Foreign Exchange (FX), Bullion and Contracts for Differences (CFDs) is not be suitable for all investors due to the high risk nature of these products. Forex, Bullion and CFDs are leveraged products that can result in losses greater than your initial deposit. The value of an FX, Bullion or CFD position may be affected by a variety of factors, including but not limited to, price volatility, market volume, foreign exchange rates and liquidity. You may lose your entire initial stake and you may be required to make additional payments. Please ensure you fully understand the risks involved, seeking independent advice if necessary prior to entering into such transactions. Before deciding to enter into FX, Bullion and/or CFD trading, you should carefully consider your investment objectives, level of experience, and risk appetite. You should only invest in FX, Bullion and/or CFD trading with funds you are prepared to lose entirely. Therefore, only your excess funds should be placed at risk and anyone who does not have such excess funds should completely refrain from engaging in FX and/or CFD trading. Do not rely on past performance figures. If you are in any doubt, please seek further independent advice.The reports do not constitute personal investment advice, nor do they take into account the individual financial circumstances or objectives of the clients who receive it. All information and research produced by Hantec Markets is intended to be general in nature; it does not constitute a recommendation or offer for the purchase or sale of any financial instrument, nor should it be construed as such. All of the views or suggestions within the reports are those solely and exclusively of the authors, and accurately reflect their personal views about any and all of the subject instruments and are presented to the best of the authors' knowledge. Any person relying on these reports to undertake trading does so entirely at his/her own risk and Hantec Markets does not accept any liability.© 2014 Hantec Markets Limited"
9,EUR/USD Price Forecast: Scope for a move to 1.1370,"The better tone in the risk-associated complex is sustaining another positive start of the week for EUR/USD, all despite the coronavirus pandemic is giving no signs of subsiding for the time being.In fact, the relentless re-opening of the economy on both sides of the Atlantic coupled with the proximity of the earnings season appear to be enough to sustain the buying interest in the riskier assets and to keep the buck under persistent pressure.Ideally, EUR/USD should try to test/surpass last week’s tops around 1.1370 in order to open the door to extra gains. If that’s the case, then the June peaks around 1.1420 should come to the fore ahead of a probable move to YTD highs in levels just shy f 1.1500 the figure (March 9). On the other hand, there is an interim support at the Fibo level at 1.1186 ahead of the more relevant 1.1168 recorded in mid-June. A breach of this support band should expose a deeper pullback to, initially, the 55-day SMA at 1.1106 ahead of the always-critical 200-day SMA, today at 1.1048."
10,Weekly trading plans: EUR/USD - SPX500 and Bond [Video],"Each new week is a fresh start in the markets. No matter how good or bad was your performance the previous week. On Mondays, everything restarts. On the EUR/USD we are looking for a move up to the 1.1420/50 area, however, before going. The price needs to complete a corrective wave. If the price shows a bearish signal, we can take it for a quick swing trade. The S&P 500 is in a healthy and dominant bullish trend. We are looking forward to this week get to 3300. And the US 10 year bond is going south. Now watch the weekly video to get a deep understanding of these plans. DISCLAIMER: No Earnings Projections, Promises or RepresentationsTrading currencies, stocks, futures, and options implicate significant risk of loss and is not suitable for every investor. The quotes of financial markets may fluctuate, and, as a result, clients could lose more than their investment. The highly leveraged of futures trading means that modest market movements will have a greater shock on your trading account, and this can go against your trading capital, that can result in considerable losses or can benefit your trading capital, resulting in significant gains.If the price of any financial instrument moves against you, you may result in more massive loss than the original money deposited into your account. You are entirely responsible for all the risks from your trading decisions and resources you use and for a trading system that you are using. You should not make any trading decisions unless you understand entirely the nature of the trades (transactions) you are entering into and your exposure to loss.

If you do not fully understand these risks, you must find independent advice from your financial advisor.All the trading reports, videos, webinars, and strategies are used at your own risk.All the content on elliottwavestreet.com should not be used as advice or recommendation of any type. It is your responsibility to confirm and decide which trades to make based on your analysis. Trade only with risk capital; that you can afford to lose, and that will not negatively impact your lifestyle and your financial obligations needs. Past results are no indication of future performance. The information found on this website should not be interpreted as an implied promise or guarantee.ElliottWaveStreet.com is not responsible for any losses incurred as a result of using any of our trading reports, courses, webinars, video, strategies and any information posted by us.There is no assurance that any prior successes or past results as to earnings or income (whether monetary, whether convertible to cash or not) will apply, nor can any prior successes be used, as an indication of your future success or results from any of the information, content, or strategies. Any and all claims or representations as to income or earnings (whether monetary or advertising credits, whether convertible to cash or not) are not to be considered as “average earnings”.(i) The Economy: The economy, both where you do business, and on a national and even worldwide scale, creates additional uncertainty and economic risk. An economic recession or depression might negatively affect the results produced by our Service.(ii) Your success or lack of it: Your success in using the information or strategies provided at elliottwavestreet.com depends on a variety of factors. We have no way of knowing how well you will do, as we do not know you, your background, your work ethic, your dedication, your motivation, your desire, or your business skills or practices. Therefore, we do not guarantee or imply that you will trade successfully.(iii) Forward-Looking Statements: Materials contained on this website or in materials purchased and/or downloaded from this website may contain information that includes or is based upon forward-looking statements within the meaning of the securities litigation reform act of 1995. Forward-looking statements give our expectations or forecasts of future events. You can identify these statements by the fact that they do not relate strictly to historical or current facts, they use words such as “anticipate,” “estimate,” “expect,” “project,” “intend,” “plan,” “believe,” and other words and terms of similar meaning in connection with a description of potential earnings or financial performance.Any and all forward looking statements here, in other materials contained on this website or in materials purchased and/or downloaded from this website are intended to express our opinion of earnings potential. Many factors will be important in determining your actual results and no guarantees are made that you will achieve results similar to ours or anybody else, in fact no guarantees are made that you will achieve any results from our ideas and techniques in our material.(iv) Due Diligence: You are advised to do your own due diligence when it comes to making trading decisions and should use caution and seek the advice of qualified professionals. You should check with your accountant, lawyer, or professional advisor, before acting on this or any information. You may not consider any examples, documents, or other content on the website or otherwise provided by us to be the equivalent of professional advice. Nothing contained on the website or in materials available for sale or download on the website provides professional advice in any way.We assume no responsibility for any losses or damages resulting from your use of any link, information, or opportunity contained within the website or within any information disclosed by the Company in any form whatsoever.Information provided in this website is intended entirely for informational and educational purposes and is gathered from sources considered to be safe. Information found on this website is not guaranteed. No guarantee of any kind is implied or possible when possible future price movements on the financial markets are published on this website.https://elliottwavestreet.com nor any of its directors, employees, employees, partners, agents or affiliates, collect money from the public or manage third-party accounts, we are not licensed for this purpose. All our services are focused solely for academic purposes that promote research. Reports, comments, opinions and any written or audiovisual expression do not represent a suggestion of trading or investment, past events do not guarantee future events, investments in stock markets, FOREX, derivatives among others are considered high risk and such risk may not be suitable for your investment capital, remember that handling your money is your responsibility, do not invest money that cannot bear to lose, we recommend you to seek advice before making any investment and verify with the authorities of your country the rules and laws on investment in financial markets.We have created alliances with third party brokers to reduce the cost of some products and services made available through https://elliottwavestreet.com; if you make the decision to deposit your money in one of the brokers that https://elliottwavestreet.com has alliance, remember that you are NOT depositing your money at https://elliottwavestreet.com or World Markets Academy LLC. Before depositing your money check the permits, regulations, disclosure of risk, terms and conditions of these brokers, this verification is your responsibility, do not forget to consult with the authorities of your country of residence all the requirements to make these investments.Remember that https://elliottwavestreet.com and World Markets Academy LLC do not have access to the management of your money, therefore the decisions that you take based on the technical analysis presented in the products, services, videos, courses and blog of https://elliottwavestreet.com and World Markets Academy LLC are your responsibility, when taking the products or services made available through https://elliottwavestreet.com you accept that the losses and / or profits are your responsibility, remember that https://elliottwavestreet.com is for the sole purpose to teach market analysis techniques, past situations do not guarantee future situations.Your use of https://elliottwavestreet.com is at your own risk. The products and services made available through https://elliottwavestreet.com are provided “as is” and “as available”, without warranties of any kind, expressed or implicit, including but not limited to, warranties of merchandising, suitability for a particular purpose, non-infringement or course of performance.World Markets Academy LLC, its affiliates and their licensor providers do not guarantee that a) https://elliottwavestreet.com will operate uninterrupted, secure or available at any time or place; b) errors or defects will be corrected; c) https://elliottwavestreet.com is free of viruses or other harmful components; or d) the results of the use of https://elliottwavestreet.com comply with your requirements or demands.CFTC RULE 4.41 – HYPOTHETICAL OR SIMULATED PERFORMANCE RESULTS HAVE CERTAIN LIMITATIONS. UNLIKE AN ACTUAL PERFORMANCE RECORD, SIMULATED RESULTS DO NOT REPRESENT ACTUAL TRADING. ALSO, SINCE THE TRADES HAVE NOT BEEN EXECUTED, THE RESULTS MAY HAVE UNDER-OR-OVER COMPENSATED FOR THE IMPACT, IF ANY, OF CERTAIN MARKET FACTORS, SUCH AS LACK OF LIQUIDITY. SIMULATED TRADING PROGRAMS IN GENERAL ARE ALSO SUBJECT TO THE FACT THAT THEY ARE DESIGNED WITH THE BENEFIT OF HINDSIGHT. NO REPRESENTATION IS BEING MADE THAT ANY ACCOUNT WILL OR IS LIKELY TO ACHIEVE PROFIT OR LOSSES SIMILAR TO THOSE SHOWN."
11,"Forex technical analysis and forecast: Majors, equities and commodities","After completing the descending wave at 1.1255, EURUSD is moving upwards to reach 1.1338. Possibly, the pair may reach it and then form a new descending structure towards 1.1300. After that, the instrument may start another growth to reach 1.1380 and then resume trading downwards with the target at 1.1225. GBP/USD is moving upwards. Possibly, today the pair may reach 1.2694 and then fall towards 1.2640. Later, the market may form one more ascending structure to reach 1.2712 and then start a new decline with the target at 1.2585. USD/RUB is still falling towards 70.20. Later, the market may form one more ascending structure to reach 70.90 and then start a new decline with the first target at 69.50. USD/JPY has finished the ascending wave at 106.93; right now, it is falling. Possibly, the pair may form a new descending structure towards 106.55 and then start another correction to the upside with the first target at 107.17. After finishing the descending wave at 0.9399, USDCHF is expected to continue falling towards 0.9377. After that, the instrument may grow to reach 0.9440 and then resume trading inside the downtrend to return to 0.9399. After breaking 0.6960 to the upside, AUDUSD is still growing and may form one more ascending structure to reach 0.6994. Later, the market may start a new decline towards 0.6965 and then resume trading upwards with the target at 0.7000. After finishing the correction at 41.41, Brent has completed another ascending impulse towards 43.50. Today, the asset may form a new descending structure towards 42.50 and then grow to break 43.50. After that, the instrument may continue moving upwards with the short-term target at 44.55. After falling and reaching 1794.00, Gold is correcting towards 1805.50. Later, the market may form a new descending structure with the first target at 1792.50 and then start another correction to return to 1805.50. BTC/USD is consolidating around 9260.00. Today, the pair may fall towards 9060.00 and then form one more ascending structure to reach 9190.00. After that, the instrument may start a new decline with the short-term target at 8700.00. After breaking 3180.1 to the upside, the Index may continue growing towards 3240.5. After that, the instrument may correct to return to 3180.1 and then form one more ascending structure to reach 3300.5. Later, the market may resume trading downwards with the first target at 3100.6."
12,EUR/USD analysis: Tests support,"On Friday, the EUR/USD currency pair reversed north from the monthly PP at 1.1253. During today's morning, the pair touched 1.1330.It is likely that the exchange rate could gain support from the 55– and 100-hour SMAs, as well the weekly PP near 1.3050 and trade upwards in the short run. In this case the rate could target the weekly R1 at 1.1366.Meanwhile, note that the currency pair could face resistance at the 1.1330 mark. If the given level holds, it is likely that the Euro could consolidate against the US Dollar in the short term."
13,FX: 10 key events to watch this week,"It’s a busy week in the foreign exchange market and investors are kicking it off with gains for currencies and equities. Even as US states report an alarming number of new cases and the death rates rise in almost every region, investors shrugged off all coronavirus worries. Their optimism is driven by reports that Pfizer and Germany’s BioNTech SE gained FDA fast track status for two of their four vaccines. By speeding up the go to market process, these companies could enroll up to 30,000 patients for trials by the end of the month and if those tests are successful, a vaccine could be developed by the end of the year. Nothing is more potent than a medical solution for the COVID-19 crisis which has affected all corners of society.  We hope that the results will be positive but in the meantime, the reality is that fresh stay at home orders may be needed in many states like Florida, who reported a record 15,300 cases on Sunday – exceeding the worst day ever in New York by more than 3,000.With that said, facts matter little when sentiment is skewed the other way. For the past month, investors have been nonchalant about the rise in US coronavirus cases and unless that changes, its been more fruitful to buy the dips than sell the rallies. This week’s US economic reports should foster more optimism as inflation and consumer spending tick higher in June. Oil and gas prices increased last month and the low forecast for pickup in retail sales should be easy to beat because further reopenings in June should trigger a pick in spending activity. The same is true for housing. Building permits and housing starts should rebound but sentiment could turn lower. While the other reports reflect June activity, the University of Michigan Consumer Sentiment index is a measure of confidence in July – a month when new cases started to rise and the nation was swept with fresh coronavirus concerns. Also, a number of US companies report earnings and weak guidance could shift the mood in the markets. USD/JPY rallied for the first time in 4 trading days and the sustainability of its gains hinges on good data and good earnings. Thursday’s US retail sales report is one of the most important pieces of data this week but its not the only market moving event to watch. Here are the 10 key events to watch in order of potential impact on currency flows with an inclusion of the Fed’s Beige Book as a bonus.1.    US Retail Sales2.    European Central Bank monetary policy announcement3.    Bank of Canada monetary policy announcement4.    Chinese Q2 GDP5.    German ZEW Survey6.    UK Employment7.    UK Retail Sales8.    Australian Employment9.    New Zealand PMI10.  New Zealand CPI11.  Fed’s Beige BookNo changes are expected from any of these central banks but euro is strong today and outpacing all other currencies because the ECB is expected to be less pessimistic. Germany’s economic ministry said this morning that their economic low point has passed and France feels consumption is just 5% below normal levels. We expect this outperformance to continue ahead of the rate decision. Sterling on the other hand was one of the few high beta currencies to trade lower against the dollar. Most of this week’s economic reports are for the month of May and the prospect of softer data could hold the currency back.  All three commodity currencies traded higher with the Australian dollar leading gains. We are surprised by A$ strength especially after China issued a travel advisory for Australia, a sign that tensions between the 2 countries are rising. Past performance is not indicative of future results.  Trading forex carries a high level of risk, and may not be suitable for all investors. The high degree of leverage can work against you as well as for you. Before deciding to trade any such leveraged products you should carefully consider your investment objectives, level of experience, and risk appetite. The possibility exists that you could sustain a loss of some or all of your initial investment and therefore you should not invest money that you cannot afford to lose. You should be aware of all the risks associated with trading on margin, and seek advice from an independent financial advisor if you have any doubts."
14,"Gold Price Analysis: XAU/USD wavers around $1,800 amid risk reset","Gold prices seesaw around $1,802, following its failure to extend the pullback from $1,800.62 beyond $1,804.26, amid the initial Asian session on Tuesday. While the bears are firming up the grip to defy Monday’s rejection of earlier declines since Thursday, bulls refrain from leaving unless $1,800 holds.The latest headlines portray risk recovery amid the receding coronavirus (COVID-19) numbers from the US and mixed news concerning the Sino-American tension. While the CNBC relied on the top US health official to convey the early arrival of the pandemic’s cure, Bloomberg cited American diplomats dropping the idea of undermining the Hong Kong dollar peg to punish Beijing. However, US Secretary of State Mike Pompeo’s comments defying China’s claim over the South China Sea and Reuters update signaling further hardships for the listings of the Asian major’s equities on the US floor question the risk-on mood.Other than the virus and the US-China tension, the UK’s ban on Huawei from British networks until 2027 and confrontations with new aircraft carriers also add worries into the global markets. On the contrary, increasing odds of further stimulus from the developed economies, including the US and the UK, underpin the risk-on moves.Against this backdrop, S&P 500 Futures part ways from the downbeat Wall Street performance to print 0.21% gains around 3,155 by the press time. However, the US 10-year Treasury yields remain depressed around 0.62% as we write.Moving on, China’s June month trade numbers will join the US Consumer Price Index (CPI) data for the previous month to decorate the economic calendar. However, major attention will be given to qualitative catalysts.FXStreet’s Rajan Dhall cites a short-term ascending trend channel formation to keep the bulls hopeful:There is a clear channel formation but it is very steep. The first support will be the USD 1800 per troy ounce level but beyond that, the channel low could be next up. Any break of the channel low could take the price to the next support near USD 1787.13 per ounce. The MACD indicator is mixed as the signal lines are still above the midpoint but the histogram is in the red. The Relative Strength Index is just hanging at the 50 line and a dip below could be a bearish signal. The 50 line could be breached if the price breaks the consolidation low of USD 1794.58 per ounce. Longer-term the price is in a very strong uptrend. This retracement could just be a small blip as the price makes its way toward USD 2000 per troy ounce or the all-time high at USD 1920.94 per ounce.Read: Gold Price Analysis: XAU/USD just dipped below $1800  "
15,Forex Today:  Dollar in trouble as pandemic-related concerns were set aside,"Here is what you need to know on Tuesday, July 14: Risk appetite dominated the financial world for most of this Monday, weighing on the American currency. The EUR/USD pair reached 1.1375, retreating ahead of the US close as Wall Street turned lower and closed in the red. There was no particular catalyst for equities slump, but profit-taking as the earnings season quick-starts this Tuesday.The Pound was among the weakest, losing the 1.2600 level against the dollar way ahead of the U-turn in the market’s mood. No progress in Brexit talks and chatter about negative rates weighed on the Sterling.The main theme is the ongoing pandemic. The number of global new coronavirus cases remains on the rise. Nevertheless, governments are trying to avoid new lockdowns, which somehow fueled the market’s positive sentiment throughout the day.Also,  the US FDA approved the Fast Track designation to the joint coronavirus vaccine efforts made by German BioNTech and US pharmaceutical Pfizer.  Several vaccines seem to be making progress, another risk-on factor that got erased by equities slump at the end of the day.China’s premier Li said that the economy is showing a steady recovery. The market took the headline with a pinch of salt.  Additionally, China issued a travel advisory for Australia, with the ministry of foreign affairs citing racism, violence, and anti-Chinese sentiment.The earnings season  is starting this Tuesday  with major banks Citigroup, JP Morgan, and Wells Fargo reports.Commodities feel the heat at the end of the day but held within familiar levels. Gold settled at $1,804 a troy ounce, while WTI finished the day around $39.60 a barrel.Cryptocurrency Market News: Vodafone and others are using Blockchain, Bitcoin is trying to hold $9,200"
16,Gold to stay above $1800 fueled by lower real rates – TDS,"Gold is trading above $1,800 per ounce and strategists at TD Securities expect the yellow metal to stay above the mentioned level or even higher fueled by lower real rates. “Gold remains torn between its safe-haven bona fides, which are prompting money managers to sell on risk-on behavior in markets, and its inflation-hedge characteristics, which are driving a swarm of capital to seek refuge in the yellow metal.” “Ultimately the regime change toward inflation protection has been the stronger force in recent weeks, seeing the shiny metal trade at higher ranges, most recently north of $1800/oz, as real rates continue to churn lower. This has renewed speculator appetite of late, seeing net length increase once again, although both longs and shorts have increased.” “Moving forward, given positioning is still not extremely stretched, we anticipate that real rates will continue to drive gold prices higher as normalizing inflation expectations and suppressed rates vol provide fuel for the trade.” "
17,Silver to become the new gold – Credit Suisse,"Strategists at Credit Suisse have noted a great silver performance lately and expect the white metal to look for the $26.22 resistance on a break above $21.14. What’s more, Gold/Silver ratio shows the latter is in line to extend its outperformance. “Silver continues to push its way higher and there are seen clear similarities between price action now and that of gold last year. However, only above 19.65/21.14 would see a multi-year base confirmed, with next resistance then seen at $26.22.”“The Gold/Silver ratio is also back pressuring price and retracement support, beneath which would suggest silver can extend its current outperformance. At present though, this is still a correction within the longer-term gold outperformance trend.” "
18,FX Positioning: EUR’s primacy solid ahead of key events,"The euro remains the biggest bullish bet in the G10, according to CFTC data, as speculative positioning on the other low-yielders, the Japanese yen and Swiss franc dropped in the week 1-7 July. US dollar positioning also flattened, while the two biggest shorts, the Canadian dollar and British pound, regained some ground. EUR/USD net positioning has flattened up in the week 1-7 July after a downward correction in the previous week, according to CFTC data. The EUR is therefore consolidating its role as the most overbought currency in the G10 ahead of a busy period in the eurozone, with the European Central Bank meeting and the EU summit on the Recovery Fund possibly revamping EUR volatility in the coming days.Incidentally, EUR is clearly showing a detachment from the other low-yielders as its positioning gauge did not follow the drop in JPY and CHF positioning in the week under review. This may be an indication that speculators are identifying some idiosyncratic EUR positives that are keeping EUR/USD attractive to formulate a USD-bearish view. Expectations around the EU Recovery Fund are quite likely among these positive factors, although it is worth noting that the resilience of EUR to some pessimistic comments on the Fund last week shows how markets are well aware that the path to an agreement is set to be bumpy.Source: CFTC, Macrobond, INGJPY positioning dropped again in the reference week, this time by -5% of open interest, and it is now at +12% of open interest. What is interesting to note is that the positioning gauge was not dampened by a long-trimming effect (longs actually increased in the week), but by a sharp increase in JPY short positions (figure below), which jumped from 14% to 20% of open interest.Source: CFTC, Macrobond, INGThis is a key difference from the fall in positioning displayed by the other safe havens: CHF saw a long-trimming and USD positioning was unchanged. This might be flagging how speculators are identifying some downside potential inherent to JPY as risk sentiment remains supported.As mentioned, USD positioning (aggregated positions vs G7 currencies reported by CFTC) flattened up around -7% of open interest, below its five-year/ one–standard deviation band. The lower-bound in five years is at -16% of open interest, recorded in March 2018.Net positioning on the Canadian dollar has continued to move higher at a fairly stable pace, but remains deeply into oversold territory (at -14% of open interest). The dislocation with the rest of the $-bloc therefore remains intact, with the Australian and New Zealand dollars hovering around neutral territory. As the loonie appears torn between conflicting drivers, the lingering net short positioning continues to be an argument for less pronounced downside potential than its pro-cyclical peers.Sterling’s positioning has also edged up in the week 1-7 July, mostly thanks to a jump in long positions (+3.5% of open interest). Still, there was no evidence of any short-squeeze as GBP shorts also inched up, although at a slower pace than longs. In the next CFTC report (which will cover the period 8-14 July), we may see the positive impact on GBP positioning of UK Chancellor Rishi Sunak’s fiscal announcement. We have highlighted in our latest G10 FX Week Ahead how the fiscal boost now looks fully priced into GBP and that more upside from now on may prove limited.   Read the original analysis: FX Positioning: EUR’s primacy solid ahead of key events"
19,ECB expected to keep rates unchanged – UOB,"Economist at UOB Group Lee Sue Ann does not see the ECB modifying its monetary policy at this week’s event.“At its June meeting, the ECB decided to add a further EUR600bn to its EUR750bn COVID-19 rescue plan, bringing the total stimulus package to an astonishing EUR1.5tn.”“Whilst we are not excluding the possibility of further monetary stimulus down the road, the latest measures announced by the ECB should dent any talks or concerns (for now) about whether or not the ECB is willing to play its role of lender of last resort for the Eurozone.”"
