,title,text
0,EUR/USD: Three reasons to favor the fall,"Coronavirus carnage has sent EUR/USD below 1.08, the lowest in two weeks. Yohay Elam, an analyst at FXStreet, gives three reasons for the fall and why it may continue.“Horrifying economic figures: The German Composite PMI fell to 17.1 points against 31 expected. The services sector is leading the collapse with numbers in the teens. The figures are set to continue echoing and weighing on the euro.” “False hopes for the EU Summit: Hopes for a robust ‘bazooka’ have been supporting the common currency but a potential ‘euro-fudge’, a diluted agreement may send it down.”“US data may dampen the mood: Weekly Unemployment Claims may show over 4 million jobs lost in the week ending April 17. Shortly after, Markit's US PMIs will likely paint a grim picture. The safe-haven dollar has been gaining ground in response to downbeat figures, even if they are for the American economy.”"
1,"Forex technical analysis and forecast:  EUR/USD, GBP/USD, USD/RUB, USD/JPY, USD/CHF, AUD/USD, Brent, Gold, BTC/USD, SP 500","After breaking 1.0844 and then reaching 1.0803, EURUSD is consolidating above this level. Possibly, the pair may expand this range down to 1.0795 and then form one more ascending structure to break 1.0825. Later, the market may start a new correction to return to 1.0844 and then resume trading inside the downtrend with the target at 1.0750. GBP/USD is still consolidating around 1.2323. Possibly, the pair may expand the range up to 1.2420 and then resume moving downwards with the first target at 1.2190. USDRUB is forming a new descending impulse towards 75.25 and may later grow to reach 76.40, thus forming a new consolidation range. If later the price breaks this range to the downside, the market may resume trading inside the downtrend with the target at 69.52; if to the upside – choose an alternative scenario to extend the wave up to 78.05 and then start a decline to reach the above-mentioned target. After finishing the ascending structure towards 107.90 along with the correction at 107.66, USDJPY is expected to start another growth to reach 108.07. After that, the instrument may resume falling with the target at 107.50. After breaking 0.9706 to the upside, USDCHF is expected to continue growing with the short-term target at 0.9745. Later, the market may correct towards 0.9660 and then form one more ascending structure to reach 0.9800. AUD/USD is still consolidating around 0.6280. Possibly, the pair may form one more ascending structure to reach 0.6363 and then resume trading inside the downtrend with the short-term target at 0.6214. Brent has completed the ascending impulse towards 25.40; right now, it is consolidating below this level. The mains scenario implies that the price may correct to reach 20.70 and then grow to break 25.40. Later, the market may resume growing towards 31.00 and then start a new correction to return to 25.40. Gold has completed the ascending wave at 1718.10, which may be considered as the third ascending structure. Today, the pair may correct towards 1693.15 and then start another growth to reach 1727.47. After finishing the ascending structure towards 7140.00, BTCUSD is expected to consolidate around this level. According to the main scenario, the price may break the range to the upside and then continue trading upwards with the short-term target at 7520.00. Later, the market may start a new correction to reach 6800.00 and then form one more ascending structure towards 7700.00. S&P 500 has finished the ascending impulse at 2816.0. Possibly, today the price may form a new consolidation range around this level. Later, the market may break it to the upside and continue growing towards 2927.6. After that, the instrument may start another correction to reach 2675.0 and then resume trading inside the uptrend with the target at 3160.2."
2,"EUR/USD Forecast: Three reasons for the 80-pip bounce, levels to watch","Deep depression due to millions of US jobless claims? Devasting Purchasing Managers' Indexes – that sent EUR/USD to the lowest in a month – have been forgotten and the currency pair is up some 80 pips from the lows.Here are three reasons for the recovery: Chancellor Angela Merkel has reportedly told EU leaders that the response to coronavirus must be ""huge,"" Her comments, alongside French President Emmanuel Macron desire for grants rather than loans, raises expectations for a massive European response. The leaders' summit was at risk of exposing disunity and weighing ont the euro, and the picture has changed. The danger is grave. Christine Lagarde, President of the European Central Bank, has said that the crisis may wipe out between 5% to 15% of the EU's economic output. See Eurozone: Yes, the future of the union is at risk, three scenarios for EUR/USD, including parity The Bank of Japan is no stranger to gargantuan bond-buying, but its intention to remove any limits to bond-buying, according to Nikkei, has added to the positive sentiment and weighs on the safe-haven dollar.The Federal Reserve has already ventured into buying junk bonds – or ""fallen angels"" – and is now considering buying state and local debt. The Wall Street Journal says it will likely expand and deepen its programs. States are struggling with rising costs of dealing with the crisis and falling revenues due to the economic fallout. That also boosts stocks, weighing on the greenback. Momentum on the four-hour chart is on the verge of turning positive, yet the currency pair continues trading below the 50, 100, and 200 Simple Moving Averages. Bears are still in the lead but losing some ground.Resistance awaits at 1.0845, the daily high. The round 1.09 level held EUR/USD down earlier this year and it is followed by 1.0930 and 1.0995.Support is at 1.0810, last week's low, followed by the recent monthly trough of 1.0755. The 2020 low of 1.0640 is next.   "
3,EURUSD rises after EU and US data,"The EURUSD pair was trading a bit higher during the afternoon session on Thursday. It was seen at around 1.0830 at the time of writing.Earlier in the day, the Eurozone composite purchasing manager's index fell to 13.5 in April, from 29.7 in the previous month, a record low in more than 22 years of the history of the survey, and below even the lowest estimate of 18.0. The manufacturing component tumbled from 44.5 in March to 33.6 in April, below the 39.2 expected, but it was the collapse in Services that was shocking, collapsing more than 50% from 26.4 to 11.7.The EURUSD pair fell below the 1.08 threshold after these miserable numbers.However, the US jobless claims showed that n the last week, 4.427 million Americans filed for unemployment benefits for the first time. That brings the total job losses to 26.5 million in a month. The greenback lost its ground after this news, and the EURUSD pair returned above the 1.08 level. US stocks rocketed higher after the jobless claims data, but we are now used to this. Today's daily candle looks like a bullish pin bar if the pair closes at these levels. That could mean a reversal in the short-term trend, possibly targeting the 1.09 barrier again.On the other hand, if the Euro continues to decline, the pair might retest today's lows of 1.0770. "
4,EUR/USD: Intraday rallies being used as a chance to sell [Video],"Coming into an important day for the Eurozone, we see a very slight negative bias just threatening to take hold on EUR/USD. The tight band of trading between $1.0810/$1.0890 which had contained the price action for much of the past week has just begun to see support creak.  Given the importance of the flash PMIs and the latest European officials’ meeting to discuss the Eurozone’s recovery fund, we could see this consolidation on EUR/USD finally breached. The technicals are just beginning to take on a slightly more corrective outlook once more with three negative closes in a row and yesterday’s decisive negative candle. We also see momentum indicators beginning to tail off. Although the market has ticked marginally back positive today, the technicals are suggesting a cautious market and the consistent pressure on $1.0810 is opening a potential test of the key reaction low at $1.0770. The hourly chart shows intraday resistance having been left around $1.0840 and a failure of this morning’s rally under there could again weigh on euro sentiment. We continue to prefer intraday rallies being used as a chance to sell and this will be the case until a move clear above resistance at $1.0925. Risk Warning for Financial PromotionsHantec Markets' various market reports and commentary are issued by Hantec Markets Limited, who is authorised and regulated by the Financial Conduct Authority (FCA) in the UK, No. 502635. The reports are prepared and distributed for information purposes only.Trading in Foreign Exchange (FX), Bullion and Contracts for Differences (CFDs) is not be suitable for all investors due to the high risk nature of these products. Forex, Bullion and CFDs are leveraged products that can result in losses greater than your initial deposit. The value of an FX, Bullion or CFD position may be affected by a variety of factors, including but not limited to, price volatility, market volume, foreign exchange rates and liquidity. You may lose your entire initial stake and you may be required to make additional payments. Please ensure you fully understand the risks involved, seeking independent advice if necessary prior to entering into such transactions. Before deciding to enter into FX, Bullion and/or CFD trading, you should carefully consider your investment objectives, level of experience, and risk appetite. You should only invest in FX, Bullion and/or CFD trading with funds you are prepared to lose entirely. Therefore, only your excess funds should be placed at risk and anyone who does not have such excess funds should completely refrain from engaging in FX and/or CFD trading. Do not rely on past performance figures. If you are in any doubt, please seek further independent advice.The reports do not constitute personal investment advice, nor do they take into account the individual financial circumstances or objectives of the clients who receive it. All information and research produced by Hantec Markets is intended to be general in nature; it does not constitute a recommendation or offer for the purchase or sale of any financial instrument, nor should it be construed as such. All of the views or suggestions within the reports are those solely and exclusively of the authors, and accurately reflect their personal views about any and all of the subject instruments and are presented to the best of the authors' knowledge. Any person relying on these reports to undertake trading does so entirely at his/her own risk and Hantec Markets does not accept any liability.© 2014 Hantec Markets Limited"
5,EUR/USD: The bear continues its domination,"EUR/USD has been bearish on the daily chart for the last few days. Yesterday’s daily candle came out as a bearish engulfing candle. Today’s price action in the intraday charts has been bearish as well. The price has been heading towards yesterday’s lowest low. If it makes a breakout, the sellers may go short in the pair and drive the price towards the South further. Let us have a look at the daily chart. The chart shows that the price had a rejection at 1.09835 and produced a bearish candle. The price has been bearish since then. It provided a bullish inside bar and then continued its bearish move. Yesterday's candle came out as a bearish engulfing candle. Thus, it has set a strong bearish tone in the intraday charts, such as the H4 and the H1 chart. The sellers on the daily chart are to wait for the price to consolidate and produce a bearish reversal candle to go short in the pair, though. The chart shows that it produced a long bearish candle and made a breakout at 1.08300. The price consolidated around the breakout level for a while. As of writing, the price in the last H4 candle has been very bearish. If the candle closes below consolidation support, the sellers may go short in the pair. The price may find its next support around 1.07550. If the price does not make a bearish breakout but heads towards the North and makes a bullish breakout at 1.08300, the price may get choppy and find its resistance around 1.08700. The chart shows that the price made a strong bearish move before having a bounce at 1.08030. It headed towards the North getting a rejection at 1.08300. The level produced a bearish Marubozu candle driving the price towards the South. If the price makes a breakout at 1.08030, the sellers may go short in the pair. The price may find its next support around 1.07500. This is a level, which is a potential level of support in the H4 chart as well. Thus, the price may make a long consolidation before making its next move.The daily chart is bearish biased, but traders are to wait to go short. The H4 and the H1 chart look excellent for the sellers. These two charts may make the pair produce another bearish candle on the daily chart.  Try Secure Leveraged Trading with EagleFX!"
6,EUR/USD: Three reasons for the bounce,"Devasting PMIs, that sent EUR/USD to the lowest in a month, have been forgotten and the currency pair is up some 80 pips from the lows. Yohay Elam, an analyst at FXStreet, explains three reasons for the recovery.“German backing: Angela Merkel has reportedly told EU leaders that the response to coronavirus must be ‘huge.’ The leaders' summit was at risk of exposing disunity and weighing ont the euro, and the picture has changed.” “BoJ bazooka: Intention to remove any limits to bond-buying, according to Nikkei, has added to the positive sentiment and weighs on the safe-haven dollar.”“Fearless Fed: The Fed is now considering buying state and local debt. The Wall Street Journal says it will likely expand and deepen its programs. That also boosts stocks, weighing on the greenback.”"
7,EUR/USD drops below 1.0800 as EU leaders struggle to agree on recovery package,"The EUR/USD pair took advantage of the upbeat market during the early trading hours of the American session and advanced to 1.0850 but failed to preserve its momentum. With headlines coming out of the EU summit suggesting that the EU leaders having disagreements on the coronavirus recovery package, the shared currency came under renewed selling pressure and dragged the pair below the 1.0800 mark. As of writing, the EUR/USD pair was trading at 1.0783, erasing 0.35% on a daily basis.Commenting on Thursday's talks on the EU recovery plan, French President Macron noted disagreements persist among the EU states. Moreover, European Commission President von der Leyen said there were huge differences in how much support member states were willing to give in state aid. Although Italian Prime Minister Conte said that the EU leaders have made great progress on Thursday, the euro struggled to find demand.On the other hand, the greenback gathered strength with risk-off flows starting to dominate the markets and caused the bearish pressure to remain intact. At the moment, the US Dollar Index, which fell below the 100 mark earlier in the day, is up 0.12% on the day at 100.47 and remains on track to close the fourth straight day in the positive territory.On Friday, IFO Business Climate and Current Assessment data from Germany will be looked upon for fresh impetus. Later in the day, Durable Goods Orders and the UoM Consumer Sentiment Index will be featured in the US economic docket.  "
8,EUR/USD: Remaining range-bound – Danske Bank,"Economists at Danske Bank believe EUR/USD will remain range-bound over the coming 12M despite US inflation risks as this is balanced by a weak Eurozone political and economic backdrop.“Despite extreme fiscal and monetary policy action across countries, we deem that it will be hard to find much confidence in the EUR. This is especially so as the recent turmoil again exposed the institutional set-up in Europe as the root cause of permanent and growing EUR weakness.”“We forecast EUR/USD at 1.09 on a 1-3M horizon in line with improving risk sentiment and corona numbers. However, we stick to our long-term forecast of 1.07 and thus that USD should remain ‘strong’ by historical standards.” "
9,"Talks between EU leaders' end with no agreement on recovery package, EUR/USD drops"," is With the bloc standing on the brink of an economic slump unparalleled since the Great Depression of the 1930s, talks between EU leaders' have ended with no agreement on recovery package.COVID-19 is a very fluid situation and the countries were discussing a Europe-wide recovery fund while, a the same time, there were urges of caution today from the German chancellor, Angela Merkel, who said the coronavirus pandemic is “still at the beginning” and parts of Germany may be rushing their exit from lockdown during a video conference to try to agree a desperately needed Europe-wide recovery fund.Merkel is worried that Germans were relaxing physical distancing efforts amid the reopening of smaller shops this week. The chancellor said some of Germany’s 16 states are too hasty and that the country remained “on the thinnest ice” despite its early achievements.""It is clear from EU talks that everyone says a recovery fund is needed, this is also in German interests.""EU leaders haggled over a rescue package today but failed to come to a consensus, and instead, it has reignited a bitter north-south divide between member states.  "
10,EUR/USD outlook: Euro breaks four-day range floor after downbeat PMI data,"The Euro extended weakness through 1.08 handle and hit two-week low (1.0784) on Thursday.
Near-term structure weakened after Wednesday’s eventual close below important Fibo support at 1.0831 (61.8% of 1.0635/1.1147 upleg) which generated initial signal of breaking out of sour-day range (1.0811/1.0896).
Downbeat PMI data from France, Germany and EU, which showed the depth of negative impact of coronavirus crisis on manufacturing and services sectors, added pressure to the single currency.
Markets now turn focus towards today’s meeting of EU leaders in attempts to agree the way of financing the economy of the bloc after pandemic.
Fresh bears pressure next pivotal levels at 1.0768 (6 Apr low) and 1.0756 (Fibo 76.4%), loss of which would open way for extension towards key support at 1.0635 (23 Mar new three-year low).
Broken Fibo 61.8% support at 1.0831 now reverted to strong resistance which is expected to cap and maintain bearish tone.Res: 1.0831; 1.0841; 1.0877; 1.0896
Sup: 1.0784; 1.0768; 1.0756; 1.0700  "
11,Forex Today: Economic contractions worse than anticipated,"What you need to know on  Friday, April 24th:"
12,"Gold Price News and Forecast: XAU/USD extends rally to reach resistance area at $1,740","Gold has rallied further on Thursday, as the evidence of the global economic impact of the COVID-19 lockdown starts to emerge. Bullion has extended its current rally from $1,661 lows on Tuesday, to reach resistance area at $1,740 and is on track to a 4% appreciation over the last two days.From a technical point of view, intra-day charts show the XAU/USD standing on an upward trending support line from Tuesday’s low at $1,661 which is offering support right now at $1,720.Read more...Today has been a day dominated by economic data. First up this morning the market received the latest flash PMI numbers from some of the major nations. Australia kicked off the proceedings with poor figures especially the services PMI number which printed at 19.6 vs the previous 38.5. The news didn't get much better in Europe as once again services were hit hard in the UK and the EU. The UK figure was the worst of the day down at 12.3 vs a consensus estimate of 29. Later in the day as the US session opened up the latest Initial jobless figures. The heavily anticipated number came in and 4.427 million. This was comfortably within the analyst estimates of between 3 and 5.5 million. Lastly, the US PMI numbers came in and once again printed below analyst forecasts but no way near as bad as the UK or EU earlier in the session. Read more..."
13,"Gold Price Analysis: Approaching key resistance area at $1,740","Gold has rallied further on Thursday, as the evidence of the global economic impact of the COVID-19 lockdown starts to emerge. Bullion has extended its current rally from $1,661 lows on Tuesday, to reach resistance area at $1,740 and is on track to a 4% appreciation over the last two days.From a technical point of view, intra-day charts show the XAU/USD standing on an upward trending support line from Tuesday’s low at $1,661 which is offering support right now at $1,720.On the upside, the yellow metal has reached a relevant resistance level at $1,740, which capped the pair on April 14 and 16. If XAU/USD manages to break above that level, the next targets would be $1,748 before aiming towards October 2012 high at $1,796.From a wider perspective, FX and commodities experts at TD Securities see XAU/USD appreciating well above the mentioned levels, boosted by the stimulus measures of the major central banks: “We buy gold at $1710/oz, targeting $1900/oz in anticipation of continued growth in investment demand amid massive and prolonged unconventional central bank stimulus.”   "
14,NZD/USD: Early signs of breaking lower – Westpac,"The kiwi is starting to respond to hard economic data, as economists at Westpac Institutional Bank note.“We expect the hard economic data released over the next few months to reflect NZ’s lockdown which is more severe than for most other countries.”“Commodity prices have started slipping again and will be influential, as will global risk sentiment.”“NZD/USD is showing early signs of breaking lower, a sustained break below 0.5920 then signalling 0.5700.” "
15,"USD/JPY slides to session lows, just below mid-107.00s","The safe-haven Japanese yen strengthened across the board and dragged the USD/JPY pair to daily lows, around the 107.50-45 region in the last hour.Following a brief consolidation through the early part of Thursday trading action, the pair came under some selling pressure since the early European session and has now dropped to the lower end of its weekly trading range.Despite the latest optimism over the passage of another $484 billion US economic package by the US Senate, investors remain concerned the global economy will remain weak for some time, even once the lockdowns are eased.The market worries were further fueled by Thursday's dismal PMI releases from the Eurozone and the UK, which eventually led to some nervousness in the market and provided a modest lift to the Japanese yen's safe-haven status.Meanwhile, the US dollar stood tall and continued benefitting from its status as the global reserve currency. This coupled with a goodish pickup in the US Treasury bond yields might lend additional support to the greenback and help limit deeper losses.Traders now look forward to the US economic docket, highlighting the release of flash Manufacturing PMI and Initial Weekly Jobless Claims. The data might act as a fresh catalyst that might help determine the pair's next leg of a directional move.  "
16,Gold to rally over 80% over the next 18 months – Bank of America,"Gold prices will rally more than 80% to $3,000 per ounce in the next 18 months, as trillions of dollars of monetary and fiscal stimulus launched by authorities across the globe are likely to put incredible pressure on the fiat currencies, Bank of America analysts said in a note on Monday, according to Business Insider. Gold is the ultimate store of value during the severe economic downturn.Beyond traditional gold supply and demand fundamentals, financial repression is back on an extraordinary scale.There's also plenty of room for investors to pile into the metal. The positioning has been surprisingly weak despite a rally through late March, and momentum investors are only slightly long gold.Gold is trading near $1,710 per ounce, representing a 0.20% drop on the day. The yellow metal has rallied nearly 10% so far this year. 
 "
17,GBP/USD: Range may slip to 1.20-1.25 – Westpac,"Extended COVID-19 lockdown and disputed reporting are increasing political and economic pressures as lockdowns extend. GBP/USD range may slip to 1.20-1.25, according to Westpac Institutional Bank.“Increased scrutiny of UK COVID-19 reporting may be creating political pressures, but the lockdown is set to continue and will weigh on activity, increase welfare provisions and public debt.”“Support within the recent GBP/USD 1.23-1.28 range is likely to be strained and might push the range down to 1.20-1.25 until some clarity appears over a potential end to the lockdown.” "
18,GBP/USD: Pointing to the downside,"The picture has improved but bears remain in the lead as GBP/USD Thursday's four-hour chart continues pointing to the downside, FXStreet’s analyst Yohay Elam informs.“GBP/USD is suffering from downside momentum on the four-hour chart but has recaptured the 200 Simple Moving Average.” “Support awaits at 1.23, a low point in recent days. It is followed by 1.2250, which is the weekly low.”“Resistance is at 1.2280, the high point on Wednesday, and then by 1.2445, which provided support in mid-April.”"
