,title,text
0,EUR/USD Price Analysis: The target is now at the 200-day SMA at 1.1080,"EUR/USD is seeing some correction after failing to extend the multi-session rally further north of the 1.1085/90 band earlier in the session.Against this backdrop, the next target remains at the 200-day SMA, today at 1.1081.A breakout of this area on a sustainable basis should reinforce the constructive outlook and pave the way for a move higher. That said, the next hurdle emerges at the Fibo retracement at 1.1186 ahead of December’s 2019 high at 1.1239.  "
1,EUR/USD: Coronavirus to keep any upside capped – ANZ,"The uncertainty unchained by Covid-19 is set to cap the EUR/USD recovery in the opinion of analysts at ANZ Bank.“Given the euro area’s high beta to global trade, we expect more global uncertainty around the virus to keep any upside capped.”“The economy remains weak, and the huge shock to supply chains will be felt for some time.”   “Spot: 1.10 ANZ Fair value: 1.07” "
2,"Forex technical analysis and forecast:  EUR/USD, GBP/USD, USD/CHF, USD/JPY, AUD/USD, USD/RUB, USD/CAD, Gold, Brent, BTC/USD","After completing the ascending structure at 1.0935 and forming a new consolidation range as an upside continuation pattern, EURUSD has broken it upwards; right now, it is still growing towards 1.1090. Possibly, today the pair may reach this level and then start a new decline towards 1.1015. Later, the market may form one more ascending structure with the target at 1.1125. After breaking 1.1981, GBPUSD is moving upwards to reach 1.2323. After that, the instrument may correct to the downside to return to 1.1981 and then form one more ascending structure with the target at 1.2505. USD/CHF is falling to reach 0.9600. Later, the market may correct towards 0.9680 and then resume trading downwards with the target at 0.9530. USD/JPY has finished the descending structure at 108.40. Today, the pair may consolidate near the lows. If later the price breaks this range to the upside, the market may start another correction towards 110.10 and then resume falling to break 108.00. After that, the instrument may continue trading inside the downtrend with the target at 105.80. AUD/USD continues forming the fifth ascending wave towards 0.6136. After that, the instrument may correct to the downside with the target at 0.5822 and then resume trading upwards to reach 0.6060. USD/RUB is still consolidating around 78.00; by now, it has reached 77.20. Possibly, the pair may grow to reach 78.50 and then resume trading downwards to break 77.00. Later, the market may continue falling with the target at 75.50. USD/CAD is still falling. Today, the pair may reach 1.4000. Later, the market may correct grow towards 1.4141 and then form a new descending structure with the target at 1.3780. Gold is consolidating above 1619.00. Possibly, the pair may grow towards 1645.00 and then start a new decline to break 1600.00. After that, the instrument may continue the correction with the target at 1551.00. Brent falling. Possibly, today the pair may reach 25.25 and then form one more ascending structure to break 27.00. Later, the market may continue trading upwards with the target at 30.33. BTC/USD is still consolidating around 6600.00 without any particular direction. The main scenario implies that the instrument may resume growing to reach 7500.00 and then correct towards 5700.00."
3,EUR/USD Forecast: Corrective rebound doesn’t change the doom picture,"The EUR/USD pair has staged a substantial recovery this past week, recovering toward the 1.1000 price zone after falling to 1.0635 at the beginning of the week, its lowest since April 2017. Fear kept the dollar fueled throughout the first half of the week, amid the exponential coronavirus expansion.  As days go by and the crisis extends, more countries enter lockdown further halting economic activity worldwide.The US may already be in recession, according to the US Federal Reserve’s Head, Jerome Powell. He quick-started the week by announcing the largest-ever easing package of the central bank’s history, unlimited Treasuries buying and mortgage-backed securities. In an interview on Thursday, Powell said that the central bank would expand easing if necessary. He also added that he expects economic activity to resume in the second half of the year, an optimistic view that not everyone shares.The ECB, while more conservative, also took some bold measures these last few days. It announced through a legal document released on Thursday that the limit to a third of each of its member states’ debit, should not apply when buying bonds within its relief program. The European Central Bank is also engaged in providing liquidity to keep economies afloat. Budget debt limits are being removed through the Union.Further, and after almost a week of discussions, US senators passed a massive $2T relief package, meant to cope with the effects of the coronavirus pandemic on the economy. The Senate approved the bill in a unanimous 96-0 vote, while the House is expected to approve it ahead of Monday.Demand for the American currency receded, equities bounced, but the world is not out of the woods yet. As said, the coronavirus outbreak continues to expand and taking its death toll. Uncertainty on when and in what shape the world will return to normal persists. With that in mind, a steeper dollar’s decline seems unlikely.According to Markit, the services sector is the one most hit with the ongoing crisis. The preliminary estimates of March PMI for most economies plummeted to record lows. Manufacturing output also contracted in most economies, although at a slower pace.Consumer confidence sinks globally, with the German IFO Business Climate down to 86.1 and the GFK Consumer Confidence in the country for April down to 2.7. In the US, the Michigan Consumer Sentiment Index was downwardly revised to 89.1 in March's final reading from 101 in February. Sub-components of the report show that the Current Economic Conditions Index dropped to 103.7 from 114.8 and the Index of Consumer Expectations fell to 79.7 from 92.1.The most outrageous figure, which anyway failed to impact markets, as unemployment claims in the US that jumped to 3.28 million in the week ended March 20. The limited reaction could be explained but the fact that many US states changed the rules on who is entitled to ask for it, amid the coronavirus crisis forcing workers to stay at home. Nevertheless, its clearly hinting more dark clouds ahead for the world’s largest economy.The next few days, post-crisis data will start appearing and could be a first indicator of the coronavirus’ economic damage.  The EU Consumer Confidence index for March will be out next Monday, while the Union and Germany will release March preliminary inflation estimates at the beginning of the week.  Markit will release the final version of its March Manufacturing and Services PMI next Wednesday, while the US will publish the official ISM index, much more relevant. This last is foreseen at 44 from 50.1 previously.US employment data will be among the hottest. The ADP survey on jobs’ creation in the private sector will be out next Wednesday and is expected to show 150,000 fewer jobs. It may also hint what the Nonfarm Payroll report could bring at the end of the week. At this point, the US economy is expected to have lost 293K jobs in March, while the unemployment rate is seen up to 4.0%.The EUR/USD pair has corrected higher, although the weekly rally stalled around the 50% retracement of its previous weekly slump. It’s finishing the week above the 38.2% retracement of such decline at 1.0960, an immediate support level.In the long run, the risk remains skewed to the downside, as, in the weekly chart, the pair remains below all of its moving averages. The 100 SMA has crossed below the 200 SMA, both far above the current level. Technical indicators have recovered from their lows, but remain within negative levels. Consistent buying interest is yet to be seen.The daily chart shows that the pair was unable to advance beyond its moving averages, which are now confined to a tight range. The Momentum indicator has resumed its decline near oversold readings, while the RSI lost directional strength within neutral levels, skewing the risk to the downside.Below 1.0960, the next support comes at 1.0900, en route to 1.0835. Further declines could see the pair re-testing the mentioned low at 1.0635. Resistances these next few days come at 1.1090, the weekly high, followed by 1.1165, where the pair has the 61.8% retracement of its latest plunge. Gains beyond this last seem unlikely in a risk-averse environment.The FXStreet Forecast Poll shows that the pair´s recovery may well be temporal. Bears are a majority in the three time-frame under study, although selling interest decreases in the quarterly view, rather suggesting hopes this is over than confirming it. The pair is seen on average holding above the 1.0900 level.The Overview chart shows that most targets accumulate below the current level in the one-week and one-month views, although a few exceptions distort the average to the upside. That said, it seems that there are more chances for the pair to be trading around 1.0800 than near 1.1000 next week.AUD/USD Forecast: After rising over 600 pips, the worsening corona-crisis points to fresh falls "
4,EUR/USD: Trading as a credit bond – Danske Bank,"EUR/USD has broken above 1.10 and in the short run it may trade in the 1.10-1.12 range, according to analysts at Danske Bank.“We continue to see coronavirus numbers peaking over the next few weeks, financial stress is coming down with the economic help from global fiscal policy.” “EUR/USD trades as a credit bond, so good news is good news for EUR and bad news, irrespective of the country origin, is bad news for EUR. “Looking ahead to H2, we stick to our call for 1.07.” "
5,"EUR/USD weaker, challenges 1.1000 ahead of US data","After hitting fresh 2-week tops in the area just below 1.1100 the figure during early trade, EUR/USD came under some selling pressure and it has now returned to the vicinity of the 1.10 mark at the time of writing.EUR/USD is halting five consecutive sessions with gains at the end of the week, as the greenback is now staging a mild recovery following the recent steep decline post-YTD tops recorded on Monday.In the meantime, the pair has managed to revisit the vicinity of the critical 200-day SMA in the 1.1080/85 band, while the constructive bias seems to have returned following the breakout of the key 55-day SMA, today at levels just above 1.10 the figure.It is worth recalling that the pair’s strong rebound was almost exclusively in response to the latest round of Fed’s easing, involving purchases of Treasuries and MBS, while the US House of Representatives will vote later today on the $2 trillion COVID-19 aid package.Later in the docket, Personal Income/Spending, the final March print of the Consumer Sentiment and inflation figures measured by the PCE will be in the limelight across the pond.The rally in EUR/USD appears to have met some interesting hurdle in the vicinity of the 1.1100 barrier so far, sparking some corrective downside in consequence. In the meantime, dynamics around the greenback plus developments from the COVID-19 are expected to keep ruling the price action in the pair. On the macro view, better-than-forecasted PMIs in both Germany and the broader Euroland opened the door to some respite in the prevailing downtrend in fundamentals in the region, although the underlying stance still remains well on the negative side.At the moment, the pair is losing 0.18% at 1.1010 and faces the next support at 1.0814 (78.6% Fibo of the 2017-2018 rally) followed by 1.0635 (2020 low Mar.23) and finally 1.0569 (monthly low Apr.10 2017). On the flip side, a break above 1.1086 (high Mar.27) would target 1.1186 (61.8% Fibo of the 2017-2018 rally) en route to 1.1239 (monthly high Dec.21 2019)."
6,"Murrey math lines: EUR/USD, GBP/USD","As we can see in the H4 chart, EURUSD is heading towards the resistance at 3/8. In this case, the pair may rebound from this level and then resume falling towards the support at 1/8. However, this scenario may no longer be valid if the price breaks 3/8 to the upside. After that, the instrument may continue growing to reach the resistance at 4/8.In the M15 chart, the pair may break the downside line of the VoltyChannel indicator and, as a result, continue moving downwards to reach 1/8 from the H4 chart. As we can see in the H4 chart, GBPUSD is moving below 3/8. The main scenario implies that the pair is expected to break 2/8 and then continue falling towards the support at 1/8. However, this scenario may no longer be valid if the price breaks 3/8 to the upside. After that, the instrument may continue growing to reach the resistance at 4/8.In the M15 chart, the pair may break the downside line of the VoltyChannel indicator and, as a result, continue the descending tendency towards 1/8."
7,FX Update – How wide the “U” will be in a U-shaped recovery?,"The Dollar declined and then recovered some of its losses, which saw the narrow trade-weighted USDIndex print a nine-day low at 99.15 before recouping levels back above 99.40. At the lows, the index was showing a correction of 3.2% from the 38-month high that was seen last week, which can be credited to the Fed’s ultra-aggressive dollar printing activity. There has also been a side theme of pronounced losses in USDJPY and Yen crosses, which look out of sync with the usual correlative pattern in light of a backdrop of mostly-higher stock and commodity markets in Asia today (which often times, especially in the prevailing crisis, would be associated with a softening in the Japanese currency). The demand for Yen was reportedly driven by repatriation of Japanese investment funds, according to several market reports and narratives, even though the timing — just a few days before Japan’s financial year end — seems a little strange. USDJPY, aided by broad Dollar weakness, dropped by about another 1% in printing a one-week low at 108.25. EURJPY, AUDJPY and most other Yen crosses declined, too, which amounted to a correction. Subsequently, the Yen gave back up to half of its gains as the European interbank market picked up the reins, and expectations, should risk appetite hold up, the Yen could soften from here. The USDJPY and the crossing EMA strategy (H1) closed out in the last hour as the 9-period EMA was broken at 108.89 from an entry at 111.14 on March 25, a 220 pip move.Elsewhere, EURUSD edged out a 10-day high at 1.1088, before ebbing back under 1.1050. Cable printed an eleven-day high, at 1.2306. As for the coronavirus, the exponential rate of new cases has continued. Cases in the US have surged, and it might be several weeks before the fruits of the global lockdown is seen. Few are now expecting a V-shaped economic recovery out of this, such as was seen following the SARS epidemic in Asia in 2003. The key question is how wide the “U” will be in a U-shaped recovery? An old market adage has always been to, never try to catch a falling knife."
8,"EUR/USD Price Analysis: Euro prints fresh 7-day’s highs, challenges 1.1100 figure and 200 DMA",  
9,EUR/USD: A chance to buy? [Video],"The progress of the euro rally has been remarkable in recent sessions. We have previously discussed the acceleration of the positive candles, and these continue to build. Yesterday’s huge bull candle added around +150 pips and the move has now retraced around 50% Fibonacci of the massive $1.1492/$1.0635 sell-off. Momentum indicators are obviously turning positive with this move and continue to recovery, with upside potential. We note that since February, EUR/USD has seen huge trending moves over two to three week periods, moving between oversold, overbought and back again. Given we are only a handful of sessions into this move, the upside bias remains strong. The hourly chart shows an acceleration away from the uptrend of the recovery and this may slightly weigh on the move today. There is also a mild negative divergence on hourly RSI (and MACD/Stochastics lines crossing lower). This could induce an intraday slip back at least. However, we would see this as a chance to buy. Initial support at $1.1020 this morning, before a good support band $1.0950/$1.0980. Today’s high at $1.1085 is initial resistance but closing well clear of the 50% Fib at $1.1065 is the next bullish step forward. Risk Warning for Financial PromotionsHantec Markets' various market reports and commentary are issued by Hantec Markets Limited, who is authorised and regulated by the Financial Conduct Authority (FCA) in the UK, No. 502635. The reports are prepared and distributed for information purposes only.Trading in Foreign Exchange (FX), Bullion and Contracts for Differences (CFDs) is not be suitable for all investors due to the high risk nature of these products. Forex, Bullion and CFDs are leveraged products that can result in losses greater than your initial deposit. The value of an FX, Bullion or CFD position may be affected by a variety of factors, including but not limited to, price volatility, market volume, foreign exchange rates and liquidity. You may lose your entire initial stake and you may be required to make additional payments. Please ensure you fully understand the risks involved, seeking independent advice if necessary prior to entering into such transactions. Before deciding to enter into FX, Bullion and/or CFD trading, you should carefully consider your investment objectives, level of experience, and risk appetite. You should only invest in FX, Bullion and/or CFD trading with funds you are prepared to lose entirely. Therefore, only your excess funds should be placed at risk and anyone who does not have such excess funds should completely refrain from engaging in FX and/or CFD trading. Do not rely on past performance figures. If you are in any doubt, please seek further independent advice.The reports do not constitute personal investment advice, nor do they take into account the individual financial circumstances or objectives of the clients who receive it. All information and research produced by Hantec Markets is intended to be general in nature; it does not constitute a recommendation or offer for the purchase or sale of any financial instrument, nor should it be construed as such. All of the views or suggestions within the reports are those solely and exclusively of the authors, and accurately reflect their personal views about any and all of the subject instruments and are presented to the best of the authors' knowledge. Any person relying on these reports to undertake trading does so entirely at his/her own risk and Hantec Markets does not accept any liability.© 2014 Hantec Markets Limited"
10,NY Fed's GDP Nowcast for Q2 2020 edges higher to 0.3%,"The US' economy is expected to expand by 1.7% in the first quarter of 2020, the Federal Reserve Bank of New York's latest Nowcasting Report showed on Friday. The forecast for the second quarter edged higher to 0.3%.""News from this week’s releases, covering data for February and 2019:Q4, increased the nowcast for 2020:Q1 by 0.2 percentage point and increased the nowcast for 2020:Q2 by 0.2 percentage point,"" the NY Fed noted in its publication. ""Positive surprises from February’s manufacturing data accounted for most of the increase.""Market participants largely ignored these figures. As of writing, the US Dollar Index was down 0.6% on the day at 98.85."
11,BoC Slashes Rates to 0.25%,"Yet another Central Bank holds an emergency meeting and cuts interest rates.  It seems like it was only a matter of time before the Bank of Canada (BoC) made another inter-meeting move and cut rates by 50bps from 0.75% to 0.25%, falling in line with other major central banks around the globe.  This decision followed a similar emergency rate cut of 50bps on March 13th from 1.25% to 0.75%.  In addition,  the Bank announced a Quantitative Program of its own, as well as the Commercial Paper Purchase Program (CPPP) to make sure there is liquidity in the short-term funding markets for companies to operate on a day-to-day basis.  BoC Governor Stephen Poloz said that there is room to move lower if needed, while BoC’s Wilkins added that “there are still tools in the toolkit, including easing and funding for financial instructions to lend to businesses.”  This follows along the lines of many other central banks that it will do whatever is necessary.The USD/CAD was had gone bid on the initial headline from 1.4118 to 1.4153, however an hour later the pair was trading back near the 1.4115 level.Source:  Tradingview, FOREX.comOn a daily timeframe, price had gapped higher on March 9th from 1.3420 to 1.3550 when Saudi Arabia announced they would begin to pump as much oil as possible after Russia said they would not join with OPEC on cutting production.  The price of crude oil began to move lower and the USD/CAD began its move higher.   The Canadian economy relies a great deal on its crude exports, therefore, the price of crude affects the value of the USD/CAD.   The pair peaked on March 19th near 1.4675 before pulling back to yesterday’s close at 1.4010, which is the 38.2% retracement from the December 31st, 2019 lows to the March 19th highs.  There is also horizontal support and big psychological support level at 1.4000.  Today, USD/CAD traded briefly below this level to 1.3988 before bulls came in and brought the pair higher.Source:  Tradingview, FOREX.comWhat’s different about today’s announcement compared to previous rate cut decisions?  Notice on a 240-minute timeframe that on the previous 2 dovish BoC announcements, price went higher on the announcement and continued higher.  Although there is time left in the current candle, it is currently putting in a bearish engulfing candlestick formation, indicating a continued move lower on a 240-minute timeframe.  This tells us that traders weren’t impressed with the rate cut and may have even been expecting it.  Immediate resistance comes in a today’s highs and a downward sloping trendline near 1.4150.  Above that is horizontal near 1.4180 and then horizontal resistance once again at 1.4300.  First support is the previous mentioned 1.3988/1.4000 (on the daily timeframe).  However, below that there isn’t much until the 50% retracement of the previous mentioned move near 1.3820 and then horizontal support near 1.3700.Source:  Tradingview, FOREX.comAlthough the BoC had an emergency meeting and cut rates again today, this didn’t seem to have much of effect on the market.  If anything,  the market seems to have taken it as “catching up” to other global central banks.Risk Warning Notice

Foreign Exchange and CFD trading are high risk and not suitable for everyone.  You should carefully consider your investment objectives, level of experience and risk appetite before making a decision to trade with us.  Most importantly, do not invest money you cannot afford to lose.

There is considerable exposure to risk in any off-exchange transaction, including, but not limited to, leverage, creditworthiness, limited regulatory protection and market volatility that may substantially affect the price, or liquidity of the markets that you are trading.

Margin and leverage

To open a leveraged CFD or forex trade you will need to deposit money with us as margin.  Margin is typically a relatively small proportion of the overall contract value.  For example a contract trading on leverage of 100:1 will require margin of just 1% of the contract value.  This means that a small price movement in the underlying will result in large movement in the value of your trade – this can work in your favour, or result in substantial losses.

Your may lose your initial deposit and be required to deposit additional margin in order to maintain your position.  If you fail to meet any margin requirement your position will be liquidated and you will be responsible for any resulting losses."
12,Gold: Central banks are fuelling the yellow metal – ANZ,"Gold opened on a softer note, while the approval of the US package gave a fresh boost to the market, strategists at ANZ Bank apprise.“Record high jobless claims favoured safe haven buying while lockdowns and flight cancellation are interrupting the physical availability of gold.”“Investors have exited their open positions in Comex, which has led the gold futures premium over the spot to level off.”“The ongoing unprecedented support measures from the various central banks are fuelling gold prices.” "
13,Gold Price Forecast: Hunger for physical gold on the rise,"Demand for the greenback finally receded this past week, leading to a nice recovery in gold prices. Spot traded as high as $1,643.90 a troy ounce, level reaching on Thursday. Things keep moving fast, although not faster than the coronavirus spread. The number of total global cases has largely surpassed 500,000, while the number of cases in the US is now above those in China. The death toll continues to increase, particularly in Italy and Spain, the countries most hit by the pandemic. The UK comes behind as even UK PM Boris Johnson and Prince Charles got infected.Beyond decreasing interest for the greenback, gold got backed by delivery issues tied to the operations shutdowns taking place all over the globe, leading to a shortage of physical gold supplies.Meanwhile, the US Federal Reserve shocked markets on Monday, announcing it would buy an unlimited amount of Treasuries and mortgage-backed securities. The US Central Bank previously slashed rates by 150bps and announced a $700B asset-purchase program. It also established swap-lines with fifteen other central banks, all measures set to grant liquidity through the crisis.Also, the US Senate passed this Wednesday a massive $2T relief package, meant to cope with the effects of the coronavirus pandemic on the economy. The Senate approved the bill in a unanimous 96-0 vote. The House is expected to approve it this Friday, although it could be delayed to the weekend.Back to the commodities’ sphere, crude oil prices edged lower towards multi-year lows, amid investors assessing the impact on the future demand of the current crisis. Oil prices’ decline puts a cap on gold’s bullish potential.Adding to dollar’s woes, unemployment claims in the US jumped to 3.28 million in the week ended March 20. Many US states changed the rules on who is entitled to ask for it, amid the coronavirus crisis forcing workers to stay at home. The outrageous number has a limited impact on markets, as Wall Street kept rallying afterwards. Despite losing some ground on Friday, equities are ending the week with substantial gains.Markit will release the final version of its March Manufacturing PMI next Wednesday, while the US will publish the official ISM index, much more relevant. At this point, it is expected at 44 from 50.1 previously. Next Friday, the country will release the March Nonfarm Payroll report. The US economy is expected to have lost 293K jobs, while the unemployment rate is seen up to 4.0%. The numbers seem too optimistic.Given the uncertainty, and despite demand for the greenback may return, speculative interest will likely conserve its bright metal’s longs. Hunger for physical gold would likely increase, keeping it underpinned.After plummeting in the last two weeks, the metal has recovered nicely, now above the 61.8% retracement os such decline at 1,606.60. In the weekly chart, spot gold has recovered above a bullish 20 SMA, while technical indicators have U-turned, the Momentum bouncing from its mid-line and the RSI recovering into positive ground.In the daily chart, the metal has also recovered above its 20 SMA which provided dynamic support throughout the second half of the week, located in the 1,590.00 area. Technical indicators in the mentioned chart have erased oversold conditions, but lost directional strength after reaching neutral readings.The weekly high at 1,643.90 is the immediate resistance ahead of 1,660. Beyond this last, spot has room to re-test the multi-year high at 1,703.18. The mentioned Fibonacci level provides support ahead of the daily 20 SMA. Below this last, the bearish case will be stronger, with the 1,500 level at sight.  The FXStreet Forecast Poll shows that spot’s recovery may have stalled, as it is seen bearish-to-neutral in the next few weeks, although recovering ground in the three-month perspective. In the worst case, gold is seen on average at 1,607and that’s for the upcoming week.As for the Overview chart, moving averages have suffered sharp U-turns, with the largest accumulations of possible targets above the current level, which somehow indicates that investors are still willing to buy gold.EUR/USD Forecast: Corrective rebound doesn’t change the doom pictureAUD/USD Forecast: After rising over 600 pips, the worsening corona-crisis points to fresh fallsGBP/USD Forecast: Roller coaster ready to dive? UK coronavirus data and first virus-infected NFP eyed"
14,EUR/GBP: Consolidation mode – Commerzbank,"EUR/GBP is in consolidation mode near term and has eased back to the 20 day ma at 0.8970, Karen Jones from Commerzbank informs.“Recovery from 0.8970 should retarget last weeks high at 0.9501. “We would allow for some further near term consolidation and currently are unable to rule out a corrective set back into the 0.8756/0.8638 band.” “Above 0.9501 all we have is the 0.9803 2008 high.” "
15,Breaking: UoM Consumer Sentiment Index slumped to 89.1 in March from 101 in February,"The Consumer Sentiment Index fell to 89.1 in March's final reading from 101 in February, the University of Michigan's latest Surveys of Consumers showed on Friday. This reading came in slightly worse than the market expectation of 90.Further details of the publication revealed that the Current Economic Conditions Index dropped to 103.7 from 114.8 and the Index of Consumer Expectations fell to 79.7 from 92.1""The steepest monthly decline was barely larger at -12.7 Index-points in response to the deepening recession in October 2008,"" noted Surveys of Consumers chief economist, Richard Curtin.Wall Street's main indexes remain under strong selling pressure after this data. As of writing, the Dow Jones Industrial Average was down 4.2% on the day while the S&P 500 and the Nasdaq Composite were erasing 3.5% and 3.25% respectively.""Stabilizing confidence at its month's end level will be difficult given surging unemployment and falling household incomes.""""The extent of additional declines in April will depend on the success in curtailing the spread of the virus and how quickly households receive funds to relieve their financial hardships.""Mitigating the negative impacts on health and finances may curb rising pessimism, but it will not produce optimism."""
16,,
