,title,text
0,EUR/USD Forecast: Risk on to kick-start the week,"The EUR/USD pair fell last Friday to 1.0980, its lowest for November, as the greenback was generally stronger in thinned holiday trading. The dollar’s rally stalled ahead of London’s close, with profit-taking amid month-end flows helping EUR/USD recover the 1.10 threshold, to close the week unchanged a few pips above the mentioned level. Volumes were extremely low throughout the week, not only because of the long US holiday but also because of the uncertainty surrounding US-China trade negotiations. Representatives from both sides have made encouraging statements, but the market sees no actual progress, and chances that a deal will be clinched before year-end are now quite limited.Data were scarce by the end of the week, although German figures fell short of expectations, as October Retail Sales were down by 1.9% in the month, and barely up by 0.8% when compared to a year earlier. The EU released the preliminary estimate of November inflation, with the core annual CPI beating expectations with 1.3%.Risk on should take over the market at the weekly opening, amid better-than-anticipated Chinese data released over the weekend. For the EUR, the focus will be on the final versions of the Markit November PMI, seen little changed from preliminary estimates. The US manufacturing index is also seen unchanged at 52.2.  The EUR/USD pair is technically bearish, although it managed to bounce from around the 61.8% retracement of the October rally, unable, however, to advance beyond the 50% retracement of the same advance. In the daily chart, the risk is skewed to the downside, as the pair keeps developing below all of its moving averages, with the 20 DMA heading firmly lower above the mentioned Fibonacci resistance. Technical indicators head nowhere, developing below their midlines.  In the 4-hour chart, the pair is technically neutral, as technical indicators lost directional strength after entering positive territory, while the pair settled above a flat 20 SMA, but below bearish larger ones.Support levels: 1.0985 1.0950 1.0920Resistance levels: 1.1030 1.1065 1.1110View Live Chart for the EUR/USD "
1,"NZD/USD: China’s official PMIs help chart a gap-up opening, Caixin data awaited","NZD/USD takes the bids to 0.6432 at the start of the week’s Asian trading session on Monday. That said, the pair marks an upside gap of 12 pips while responding to the latest recovery in China’s activity numbers.China’s November month Purchasing Manager Index (PMI) numbers for Manufacturing and Non-Manufacturing activities seem to please the kiwi buyers at the moment as the headlines Manufacturing PMI rose to the highest since April while Non-Manufacturing PMI also came in upbeat. The Manufacturing PMI crossed the 50.0 mark and posted an expansionary figure of 50.2, the highest since April, whereas Non-Manufacturing PMI printed at 54.4 was much better than the previous 52.8.On the other hand, China’s readiness to retaliate over the United States (US) passage of the Hong Kong Act couldn’t accompany the exact measures. Also, talks that the phase-one deal negotiations will not be affected by the political tension gives traders a state of intermediate peace. However, planned tariffs from the US, proposed for December 15, are yet not withdrawn by the Trump administration and hence keep the tension high.While US-China headlines are likely to remain in focus, China’s Caixin Manufacturing PMI for November, expected 51.4 versus 51.7, will also be observed closely after the official numbers’ upbeat performance. “The Reserve Bank of New Zealand (RBNZ) decision on capital will be the domestic focus for the kiwi this week, with offshore events still in the hot seat otherwise,” says the Australia and New Zealand Banking Group (ANZ).November top surrounding 0.6470 exerts the downside pressure on the quote to revisit the 50-day Exponential Moving Average (EMA) level around 0.6390. However, a fresh high beyond 0.6470 opens the gate for 200-day EMA near 0.6515.  "
2,"Week Ahead Commodity Report: Gold, Silver & Crude Oil Price Forecast (Video)","Gold prices edged higher last week as markets awaited further developments on U.S.-China trade talks after Beijing said it would retaliate against Washington for passing a law in support of Hong Kong protesters.Meanwhile Oil prices fell on Friday, dropping more than 4%, on fresh trade tensions and record high U.S. crude production ahead of the OPEC meeting.OPEC and its allies are expected to discuss output policy at a meeting on Dec. 5-6 in Vienna. Where are commodity prices heading next?  Watch Phil Carr at The Gold & Silver Club review Gold, Silver and Crude Oil with the latest price forecast and predictions:   "
3,Australian Dollar subdues ahead of Tuesday's RBA rate decision,"The Australian Dollar failed to break 68c last week and remained range bound between 67c and 68c vs its US counterpart. Having initially touched 0.6799 on Monday, the AUD/USD witnessed a gradual decline to touch an eventual low of 0.6754 Friday night. Not helping in its fight we had weak local data which saw a report released on Friday by the Housing Industry Association (HIA) said new home sales declined 0.5%, after posting back-to-back gains. Meanwhile, Private Sector Credit grew by 2.5 percent but missed expectations of a 2.8 percent rise, overall the financial aggregates data released by the Reserve Bank of Australia indicated overall credit rose 2.5 per cent in the 12 months to October being the lowest since April 2010.The local unit might be able to look past the US-China trade story for just minute as we see raft of economic data released this week. We start today with the release of AIG Manufacturing Index, MI Inflation Gauge and Building Approvals which are forecasted to drop by 1% in November. Tomorrow is the last RBA monetary policy decision of the year where we are expecting no change to the official cash rate and for it to remain at 0.75%. The AUD/USD opens this morning at 0.6760, we see initial support at 0.6730 followed by 0.6700. The market faces near term resistance at 0.6800 followed by 0.6830.The US Dollar Index which measures the Greenbacks strength against a basket of six major currencies was steady on Friday in holiday-thinned trade after Thursdays Thanksgiving, the DXY closed the week at 98.28. The GBP/USD inched up and closed the week at 1.2942, for most of November, the pair has been holding above the 23.6% retracement of the October rally at around 1.2820, although below the mentioned high, and needs to break one of those to find directional strength. With the UK election just 10 days away the Conservative Party's lead over Labour has dropped slightly. The Tories have experienced a drop of one point to 46%, while Labour has gained three points to 31%, the Liberal Democrats are up one point to 13%, while the Brexit Party is down one point to 2% according a local UK survey.AUD/USD: 0.6700 - 0.6800 ▼

GBP/AUD: 1.8900 - 1.9200 ▲

AUD/NZD: 1.0500 - 1.0600 ▼

AUD/EUR: 0.6100 - 0.6170 ▼

AUD/CAD: 0.8920 - 0.9000 ▼IMPORTANT: This information has been prepared for distribution over the internet
and without taking into account the investment objectives, financial situation and particular
needs of any particular person. Oz Forex Foreign Exchange makes no recommendations as to the merits of
any financial product referred to in this website, emails or its related websites. Please read our Product Disclosure Statement and our Financial Services Guide.Regulated in Australia by ASIC (AFS Licence number 226 484)
© 2010 Copyright Oz Forex Foreign Exchange Pty Ltd ABN 65 092-375-703
OzForex Foreign Exchange ServicesMember of FOS (Financial Ombudsman Service)
Full Member of AFMA (Australian Financial Markets Association)"
4,,
5,,
