,title,text
0,GBP/USD: Under pressure – Commerzbank,"According to Karen Jones, analyst at Commerzbank, GBP/USD is under pressure while capped by the near term downtrend at 1.3138 to head back to the 55 day ma at 1.3000.“Failure here will trigger a slide to the December low at 1.2908. Failure at the 1.2908 support would put the 4 month uptrend at 1.2801 and the 200 day moving average at 1.2689 back on the plate. The near term downtrend guards the Fibonacci resistance at 1.3285. This is considered to be the last defence for the December high at 1.3515.”“Failure at the 1.2908 support would target the 200 day moving average.”"
1,"EUR/USD Forecast: Short-term bullish, but upside potential limited","A mildly positive mood has dominated the financial scene on Monday, weighing on those considered safe-haven assets. The EUR/USD pair, however, was unable to catch a bid, spending the day in a well-limited range. It hit a daily high of 1.1146 during the American session, boosted by news indicating that the US would remove the tag of “currency manipulator” on China, before both countries sign phase one of the trade deal later this week.  The absence of macroeconomic releases limited further the intraday range for the pair. This Tuesday, the US will release the final version of December CPI, with the annual inflation seen at 2.3%. Despite the risk-on sentiment, the shared currency is having a hard time to extend gains against the greenback, somehow suggesting that the market is waiting for a reason to resume dollar’s buying.The EUR/USD pair is currently trading at around 1.1135, just above a strong Fibonacci level. It’s technically bullish in the short-term and according to the 4-hour chart, as technical indicators hold within positive levels, and at fresh 1-week highs, although losing upward strength. The price, in the meantime, is struggling with a flat 100 SMA, with all moving averages lacking directional strength. The bullish potential, however, seems limited, as sellers have been adding on approaches to the 1.1200 level. The pair would need to run past 1.1240 to become more attractive to bulls, yet the fundamental scenario doesn’t favor such advance.Support levels: 1.1090 1.1065 1.1020Resistance levels: 1.1135 1.1160 1.1200View Live Chart for the EUR/USD "
2,GBP Predicts GBP and EUR,"Each GBP pair lives and trades within its own separate universe yet all GBP pairs together are members of the same family. Wide range pairs GBP/NZD, GBP/AUD and GBP/CAD are counterbalanced by subordinate lower range pairs GBP/JPY, GBP/USD, GBP/CHF and GBP/EUR. The terms lower vs higher ranges for GBP pairs is a mis applied concept particularly as it relates to short term trades. Higher and lower ranges assumes automatically wider vs lower or bigger Vs smaller  movements. For GBP, not necessarily. Exchange rate numbers disparity to wide distances between each GBP pair were applied, speculatively, on purpose to allow each GBP pair its own separate trading range within its own universe. Exchange rates for GBP means 0 point reciprocals and the straight 1.0 numbers as seen and traded on broker platforms. All GBP pairs to apply the Plessey Vs Ferguson decision are separate but equal. Separate but equal means GBP pairs lack ability to violate each other's trading range although on rare occasions GBP/NZD and GBP/AUD may violate spaces but those are fleeting instances and never last as  market traders correct for imbalances. Understand GBP = GBP. All GBP pairs are members of the same family and not one GBP pair is contrary to the GBP universe such as EUR/GBP to EUR or AUD/NZD and sometimes AUD/CAD to AUD or CAD/CHF to USD/CAD. The anti aspect to  GBP's exchange rate line up allows GBP a free wheeling, high flying  currency. It doesn't often trade to its full potential but on paper, GBP encompasses the abilities. GBP is arranged as GBP/NZD at the top vs GBP/CHF at the bottom anchor or a 6900 pip disparity. Remainder GBP pairs are located between GBP/NZD and GBP/CHF. Why GBP/CHF serves as the true anchor currency pair is because GBP/EUR is just an average currency pair in the GBP universe and lacks importance to the overall GBP whole. GBP/CHF serves the anchor function because at current 1.2600's vs GBP/EUR at 1.1750's, GBP/CHF exchange rate numbers are more closely aligned to the GBP aggregate. The answer to GBP price drivers is it depends. Each GBP pair contains an equal chance to activate the GBP complex. Yet each GBP pair contains the same ability to render all GBP as neutrality. GBP/NZD, GBP/AUD and GBP/CAD serves an equal function to drive remainder GBP pairs as much as GBP/USD, GBP/JPY and GBP/CHF to GBP/NZD, GBP/AUD and GBP/CAD. Overbought or oversold may apply to one or more GBP pairs. Possibly one or two GBP pairs drives the total. Why?. GBP/NZD, GBP/AUD and GBP/CAD trade within 1500 and even 2000 pip ranges. Those ranges rarely break. AS GBP/NZD, GBP/AUD and GBP/CAD trade and move, ranges usually adjust rather than break. It takes an extraordinary move to break ranges such as a Brexit, 2009 EUR/CHF or 2008 crash scenario. Trading and movement in the big 3 is best described as wandering aimlessly subject to the impulses to other GBP pairs, oversold or overbought by themselves. Before GBP/USD, GBP/CHF and GBP/JPY achieved long term targets, all were price drivers to the total. The lower 3 now trade approximately within the context to their ranges. Until a deviation in GBP prices materialize, GBP lacks an overall directional trade strategy. However, all GBP pairs trade at the bottoms of a 20 year range. GBP/NZD and GBP/AUD share a close relationship as the top 2 currencies while GBP/USD and GBP/CHF are deeply aligned. GBP/CAD and GBP/JPY at the center serves as  neutral currencies although GBP/JPY chooses for the most part to align to GBP/USD. Why align to GBP/USD is explained by GBP/JPY's hiighly special ability as a key forecast currency to JPY cross pairs. And because its traditional for JPY cross pairs to align to main USD V Non USD pairs. Then comes the inability for 1.41 GBP/JPY to never trade above GBP/CAD at 1.70's or lower than GBP/USD at 1.3000's. GBP exchange rate alignments are permanent features and never to change. GBP/JPY and GBP/CAD represent not only the demarcation line between the GBP bottom and top but as neutral currencies, GBP/CAD and GBP/JPY provides abilities for the triangulation trade to emerge. As exchange rate forecast  exchange rate predictions were tested, GBP/CAD and GBP/JPY appeared in the neutral position more often than any GBP pair. A triangulation fairly defined is a neutral currency Vs 2 currencies allowed movements. GBP/EUR as least important currency pair means it also severely lacks forecast abilities to other GBP pairs. However, EUR/GBP as another highly special currency not only serves a vital function to forecast EUR pairs but EUR/GBP and GBP together predicts perfectly tops, bottoms, entries and targets for EUR/USD, EUR/GBP, EUR/CHF and EUR/CAD. EUR pairs then forecasts from EUR  and from GBP. To forecast EUR pairs from EUR requires nuances and changes to reciprocals and straight 1.0 exchange rates. GBP lacks the EUR complications to forecast exchange rates predict exchange rates. But minor steps are involved and those revelations won't publish here. The concept exchange rates predict exchange rates is a self fullfilling method as present currency pairs, speculatively, are chosen for a reason. Possibly to measure and contain exchange rate numbers within a special distance and to force constraints to currency prices by limit to wide price trading. Not one currency price will fall outside the current alignment because all currency prices align to each other in an interlocking, highly self contained market. Explains why exchange rates predict exchange rates is valid until the end of time.Only special Statistics forecast perfectly exchange rates predict exchange rates. Not sure how or why a trading system is necessary as a pen, paper and calculator are only requirements to either work Statistics or to use exchange rates predict exchange rates.While focus in this set of articles addresses each individual set of exchange rates, many, many ways exists to perfectly forecast currency prices by using other currency pairs outside of the sets. GBP/USD and USD/CAD is just one such example.GBP predicts GBP/AUD is most popular among the GBP line up while GBP fails to forecast GBP/JPY yet GBP/JPY forecasts GBP pairs. All exchange rates = GBP/CAD and GBP/JPY, GBP/AUD bottom, GBP/CHF target and reverseMinus GBP/JPY = GBP/AUD, GBP/USD and GBP/NZDMinus GBP/NZD = GBP/CHFMinus GBP/AUD = GBP/CHFMinus GBP/CAD = GBP/AUD, GBP/CAD and EUR/USDMinus GBP/USD = GBP/AUD and GBP/NZDMinus GBP/CHF = GBP/AUD = GBP/NZDMinus GBP/JPY = GBP/CHF, EUR/CADMinus GBP/NZD = GBP/CHF, GBP/AUD and EUR/USDMinus GBP/AUD = GBP/NZD and EUR/USDMinus GBP/USD = GBP/CHF, EUR/CAD and EUR/CHFMinus GBP/CHF = GBP/CHF and EUR/CADMinus GBP/AUD = GBP/NZD and EUR/USDMinus GBP/CAD = ? = EUR/GBP and GBP/USDMinus GBP/JPY = 0Minus GBP/USD = EUR/GBP and GBP/CHFMinus GBP/CHF = EUR/GBP, GBP/AUD, GBP/CHFGBP/EUR is a failure Total = GBP/EUR failureMinus GBP/NZD = GBP/CAD and EUR/GBPMinus GBP/AUD = EUR/GBPMinus GBP/CAD = EUR/GBPMinus GBP/JPY = NothingMinus GBP/USD = GBP/CHFMinus GBP/CHF = GBP/AUD and GBP/CHF Minus GBP/JPY = GBP/CAD, GBP/USD and GBP/AUDMinus GBP/USD = GBP/USD, GBP/CAD and EUR/USDMinus GBP/CHF = GBP/USD, GBP/CAD and EUR/CHFMinus GBP/NZD = GBP/AUD, GBP/NZD and EUR/USDMinus GBP/AUD = GBP/CHF and EUR/USDMinus GBP/CAD = GBP/CHF and EUR/USD"
3,Crude Oil Price News and Forecast: WTI is testing key support as bull's hopes balance on a US/Sino trade-deal signing,"The uptrend may be expected to continue, while pair is trading above support level 58.35, which will be followed by reaching resistance level 60.20.An downtrend will start as soon, as the pair drops below support level 57.90, which will be followed by moving down to support level 55.20. Read more...West Texas Intermediate crude oil is currently trading at $58.16 having travelled between a low of $57.97 and $59.26, -1.71% on the day so far and well below the $65.65s post Iranian missile strikes on Iraqi targets.We witnessed aggressive sell-side activity on the latest EIA release (+1.1 million vs. -3.5 million expected) to the 59.15s, into the Wednesday’s NY close and its been downhill ever since to channel support and the 200-day moving average. Key industry reports from the EIA, IEA and OPEC will be closely watched this week.Meanwhile, the de-escalation of US-Iranian tensions in the aftermath of the killing of Souleimani had kicked off a noteworthy round of CTA selling in energy markets, according to analysts at TD Securities who argued that it ""provides a significant headwind to further gains, largely concentrated in WTI crude."" Read more... Prices of the barrel of the American reference for the sweet light crude oil have managed to regain some poise after bottoming out in the $58.70 region earlier in the day.The barrel of WTI briefly tested the area of 2020 lows near $58.70 during early trade, managing to pick up traction soon afterwards. in the meantime, crude oil is attempting to consolidate at current levels following last week’s sharp sell-off.Diminishing tensions in the Middle East have been weighing on prices in past sessions, forcing the barrel of West Texas Intermediate to recede from tops near the $66.00 mark. However, renewed optimism on the imminent sign of the US-China’s ‘Phase One’ deal (January 15th) has given extra oxygen to the risk-associated complex and crude oil, somewhat limiting the downside. Read more... "
4,When is the Chinese trade balance and how might it affect AUD/USD?,"On the docket, for today, we have the Chinese trade balance. While there is no fixed time as per usual, it is expected to be released around 2pm Syd/11am local). Analysts at Westpac note that the consensus is for the trade surplus to bounce to about $46bn, with exports improving to +3%YoY and imports +10%YoY.The data has taken up more of the market's interest since the expected slow down in the Chinese economy at the same time the US commenced a blatant trade war, calling the Chinese out as a currency manipulator. The Chinese economy has been slowing down since the first round of tariffs was imposed by the US in February 2018. In 2020, a slowdown in both the US and China economy is expected as the so-called trade war enters the third year. However, markets are more upbeat as a phase one deal is set to be agreed and signed this week. Investors remain cautious as many see it more like a truce, unable to solve main trade issues. In any case, the Chinse trade data is a good indicator as to how the economy is likely faring up in the trade war and the Aussie can be traded as a proxy. It is worth noting that China's trade surplus narrowed to USD 37.93 billion in November 2019 from USD 41.86 billion in the same month a year earlier and below market expectations of USD 46.30 billion, revised data showed. This was the smallest trade surplus since August, as exports unexpectedly declined, while imports surprised forecasts by rising for the first time in seven months. AUD/USD has been susceptible to the data and will likely find demand should the balance get back on track with the prior outcomes before November's disappointment, reassuring markets that China's measures to stabilise the economy is filtering through. As for technical analysis, Valeria Bednarik, the Chief Analyst at FXStreet, explained that the AUD/USD pair is just below the 61.8% retracement of its latest bullish tun, unable to clear the Fibonacci resistance.In the short-term, and according to the 4-hour chart, the pair is neutral-to-bullish, as it’s confined between directionless moving averages while technical indicators eased from intraday highs, holding within positive levels but gaining downward traction. The pair would further lose its upward potential on a break below 0.6885, the immediate support.The Trade Balance released by the General Administration of Customs of the People’s Republic of China is a balance between exports and imports of total goods and services. A positive value shows trade surplus, while a negative value shows trade deficit. It is an event that generates some volatility for the CNY. As the Chinese economy has influence on the global economy, this economic indicator would have an impact on the Forex market. In general, a high reading is seen as positive (or bullish) CNY, while a low reading is seen as negative (or bearish) for the CNY."
5,FX Daily: Cruising speed,"The signing of a 'phase one' trade deal in Washington, plus perhaps some better Chinese activity data later in the week should keep the dollar bid against the low yielders and gently offered against the activity currencies. FX market volatility continues to soften after last week’s tension in the Middle East, allowing investors to focus on the positives. As we outline in our G10 FX Week Ahead, the highlight here should be Wednesday’s signing of the 'phase one' trade deal in Washington, plus perhaps some better Chinese activity data on Friday. This should serve to keep the dollar bid against the low yielders (Japanese yen and euro) and gently offered against the activity currencies. In the US today, the only event of note is a speech on the economic outlook at 16CET from Fed hawk Eric Rosengren. However, as our US economist James Knightley points out, Rosengren has rotated off the FOMC this year, as has Esther George (hawkish) and James Bullard (dovish). These members have been replaced by Thomas Barkin, Raphael Bostic and Mary Daly – generally seen in the middle of the hawk-dove spectrum. Not that it needed it after last year’s precautionary 75 basis points of easing, but the 2020 rotation may make the Fed even a little more neutral/dovish. DXY could edge to 97.80. Very subdued trading continues for EUR/USD. Benign conditions and the euro’s new-found status as a funding currency means the euro remains gently offered. Italian regional elections (26 Jan) have the potential to unsettle the Italian government – another reason why the euro doesn't look particularly attractive right now. We see a 1.1065-1.1180 range for EUR/USD this week. Dovish commentary from the Bank of England at the end of last week has weighed on sterling. As our team highlighted in its reaction piece, jobs data will be the key driver of whether the BoE pulls the trigger at the May policy meeting. In that piece, we highlighted that an independent BoE easing cycle of 50 basis points could knock anywhere between two and seven big figures off cable – depending on whether historical relationships re-assert themselves. Cable risks 1.2970 early week. A rebound in December employment data gave the Canadian dollar a modest lift on Friday and the focus today shifts to the Bank of Canada's Winter Business Outlook Survey. These surveys provide quarterly readings on sales, investment, employment and inflation prospects. This will be an important input ahead of the BoC’s 22 January policy meeting, where a Monetary Policy Report is also released. Currently the market prices just a 5% chance of the BoC cutting the 1.75% policy rate in January and does not fully price in even one full 25bp cut this year. The survey can, however, shape market expectations and any unexpected softness could push USD/CAD to the 1.3100 area. Read the original article"
6,US to remove 'currency manipulator' tag on China ahead of phase-one deal,"The United States, who formally labelled China a 'currency manipulator' back in August,  will remove this tag on China before sides sign the phase-one of the trade deal in Washington on Wednesday, CNBC's Carl Quintanilla reported, citing Bloomberg.The US Treasury is expected to publish a report before January 15th.These comments seem to be providing a small boost to the market sentiment with the USD/JPY pair inching higher above the 109.90 mark. Additionally, the 10-year US Treasury bond yield was up 1.65% on the day at 1.85%."
7,EUR/GBP advances to 2020 highs near 0.8570,"The selling pressure around the sterling is now picking up extra pace and is helping EUR/GBP to clinch fresh multi-week highs in the 0.8570 area.The European cross is posting gains for the third session in a row and trades in fresh 3-week highs in response to the continuation of the downside momentum around the British pound.Indeed, the quid is suffering the poor results from the UK calendar, where the monthly GDP showed the economy contracted 0.3% during November. Further data showed the Industrial Production and Manufacturing Production contracted 1.2% MoM and 1.7% MoM, respectively, during the same period. On the brighter side, the trade deficit shrunk sharply to £5.26 billion, also in November.Later in the day, the NIESR GDP Estimate is due ahead of key inflation figures and the Autun Budget on Wednesday, the BoE’s Credit Conditions Survey on Thursday and Friday’s Retail Sales.The sterling is expected to remain under pressure in the next months, as economic and political uncertainty are predicted to re-emerge after the Brexit deadline on January 31st. In fact, further effervescence between the EU and the UK is almost priced in, particularly on the trade front. In addition, speculations that the Bank of England could announce some kind of stimulus (lower interest rates) if the economic outlook deteriorates further later in the year are also seen weighing on the currency.The cross is gaining 0.58% at 0.8560 and faces the next hurdle at 0.8576 (2020 high Jan.13) seconded by 0.8591 (high Dec.23) and finally 0.8684 (100-day SMA). On the flip side, a breakdown of 0.8454 (2020 low Jan.8) would expose 0.8275 (2019 low Dec.13) and then 0.7598 (monthly low Jun.24 2016)."
8,GBP/USD: Longest run for GBP net longs since mid-2018 is unwinding,"The pound is under pressure at the start of 2020 as we head into the era of Brexit trade negotiations within a dovish Bank of England environment - a toxic cocktail for GBP bulls. A busy start to the week on the UK calendar has pressured sterling today. GBP/USD is currently trading at 1.2982 having travelled between a low of 1.2961 and 1.3045, -0.59% on the day so far following disappointing UK data releases.GBP fell in London today as UK Gross Domestic Product missed the mark for November, month on month, -0.3% vs 0% expected and below 0.1% prior. Manufacturing and Industrial Production were also disappointments, both coming in well below forecasts. In fact, we have heard recently from yet another Bank of England policymaker who has floated the idea of cutting the central bank's main interest rate. Gertjan Vlieghe told the Financial Times he will consider voting for a rate cut depending on how the economy has performed since the December election. Mr Vlieghe is the third Monetary Policy Committee (MPC) member this week to suggest they may be willing to cut rates at the end of this month. Mark Carney, the outgoing governor of the Bank of England, said in a speech last Thursday that it was prepared to take ""prompt"" action if economic weakness persists.""With the relatively limited space to cut Bank rate, if evidence builds that the weakness in activity could persist, risk management considerations would favour a relatively prompt response,""– Mark Carney said.GBP/USD peaked in the 1.35 handle last month following the Tory election victory but was quickly sold on prospects of a hard Brexit after UK PM Boris Johnson expressed an adamancy that the transition period would end before the turn of 2021. This is leaving little time, according to the sceptics, for a trade agreement between the EU and UK. European Commission chief Ursula Von der Leyen was also recently quoted in French and German press expressing doubt that any future relationship can be agreed with the UK before the end of 2020, nailing down the coffin for overcommitted GBP bulls at the turn of the year. Since its departure from the 1.35 handle, cable has seen as low as 1.29 the figure before a solid correction back towards the 1.33 handle which ensued during thin holiday trade. This is when the US dollar took a sudden trip to the downside. Since the return of full markets, however, cable has been deteriorating between a range of 1.3288 and 1.2962 as traders get set for fresh flows of Brexit headlines surrounding the transition period and a new trading agreement. Such uncertainty will likely weigh on GDP growth raising prospects for a diligent mix of fiscal and monetary stimulus later this year. It would be prudent to note that the Net GBP positions had held in the positive ground for three consecutive weeks according to the latest CFTC Commitment of Traders Report released last Friday for the prior week which is the longest run for GBP net longs since mid-2018.  ""The market has drawn support from PM Johnson’s claims that a new relationship between the UK and the EU can be negotiated by the end of the year,"" analysts at Rabobank explained, warning that the start of the talks could bring some disappointment – ""Additionally, an increase in dovish comments from MPC members could pressure the pound."" As for the US dollar, Chinese Vice Premier Liu He leads a delegation to Washington this week and is set to sign phase-one of the trade deal. Should there be a disappointment in a phase-one trade deal between the US and China, and/or escalation of tensions between the US and Iran, we could see a surge back into the greenback, propelling cable lower still. The risk is that markets will sell the fact and focus their attention on the thornier negotiations as part of a phase-two agreement which could stall positive flows in the money-markets, potentially supporting the US dollar in the interim, just as we have seen in previous uncertainty over the 18-months of the trade spat. The first key deal between China and the US amid their tensions is a trade deal, not an arms-control deal. If phase one deal is implemented well and there are follow-up agreements, the first half of the 21st century will be clearly different from the later half of 20th century,– Hu Xijin, Chief in Editor for The Global Times tweeted in recent trade. Meanwhile, upcoming CPI and retail sales figures this week will also be a key focus for the buck and we still have UK CPI to go as well. Yohay Elam, a Senior Analyst at FXStreet offer his analysis in the article, GBP/USD Price Forecast: At critical long-term uptrend support after the GDP downing: Break or bounce? That is the question for the long-term pound/dollar traders who are eying the daily chart. GBP/USD has hit the uptrend support line for the fourth time – making line it even more significant. It has accompanied the currency pair since mid-November.     "
9,"Gold Price News and Forecast: XAU/USD consolidates modest losses, holds around $1550","Gold rose to a near 7-year peak of $1,610 last week after a U.S. drone strike killed a top Iranian commander in Baghdad and Iran launched missiles against U.S. bases in Iraq in retaliation. Read more... Gold prices dropped on Monday, on a quiet day for global markets. Price tested levels above $1560 but failed to hold and dropped to as low at $1546 before stabilizing around $1550. The improvement in risk sentiment weakened the demand for gold. Among currencies the yen was also hit. Higher US yields also contributed to the decline in gold and JPY. The Swiss franc outperformed despite the environment. Trade headlines are behind the optimism. The Chinese delegation led by Vice Premier Liu He just arrived in the US to sign the Phase One trade deal probably on Wednesday. On the data front, the next relevant economic report is US CPI due on Tuesday. Read more...Gold maintained its offered tone through the mid-European session on Monday, albeit bulls showed some resilience below the $1550 region, or 100-hour SMA.The mentioned region coincides with 38.2% Fibonacci level of the $1470-$1611 positive move and should now act as a key pivotal point for short-term traders.Below the mentioned support, the metal might accelerate the slide towards testing 61.8% Fibonacci level of the $1470-$1611 positive move, around the $1527-26 region.Meanwhile, mixed technical indicators on hourly/daily charts haven't been supportive of any firm direction and warrant some caution before placing any aggressive bets. Read more..."
10,Gold Price News and Forecast: XAU/USD retreats within Ichimoku cloud; bears take control in near term,"How good was 2019 for the precious metals market? It definitely brought quite some excitement to the arena. In today's article, you'll learn more about the most important gold price drivers in 2019. This analysis will help you better understand the gold market, and draw the right investment conclusions for 2020.Another year has passed! And we gave another accurate prediction. In the January 2019 edition of the Market Overview, we wrote:All these factors make us to believe that 2019 fundamental outlook for the gold market is better than one year ago (...) Hence, we should see better price performance next year.Fast forward to January 2020 – we line now in the twenties! – it turned out that we were right again. Just look at the chart below, which paints the gold prices over the last year. The yellow metal entered 2019 quoted at $1279, and finished the year at $1474 (as of December 18). Read more... Gold has declined considerably over the last couple of trading days after the touch on the almost seven-year peak of 1,611 on January 8. The price entered the Ichimoku cloud and is capped by the bearish crossover within the short-term 20- and 40-period simple moving averages (SMAs), assuming a negative correction.The technical indicators in the 4-hour chart seem to be neutral to bearish. The RSI indicator has just dropped beneath the 50 level with nearly flat momentum, while the MACD oscillator is moving sideways around the zero level. However, the stochastic bounced off the 80 territory and created a negative cross between the %K and %D lines.  Read more... Gold edged lower on the first day of a new trading week and is currently placed near the lower end of its daily trading range, around $1550 level.The precious metal failed to capitalize on Friday's post-NFP positive move and met with some fresh supply on Monday. The prevailing risk-on mood was seen as one of the key factors weighing on the precious metal's safe-haven status and exerting pressure.The global risk sentiment remained well supported by the de-escalation of geopolitical tensions in the Middle East and was further boosted by optimism over the signing of the long-awaited phase-one trade deal between the world's two largest economies. Read more...  "
11,USD/CAD drops below 1.3040 ahead of BoC's Business Outlook Survey,"The USD/CAD pair closed the previous week 70 pips higher as the falling crude oil prices weighed on the commodity-sensitive loonie. After fluctuating near the 1.3050 mark for the majority of the day on Monday, the pair edged lower in the last hour and was last seen trading at 1.3038, erasing 0.09% on a daily basis. Although the barrel of West Texas Intermediate is trading near $58.70 and posting losses for the sixth straight day, the bearish pressure on crude oil seems to have eased following last week's 6% drop.Moreover, investors may be booking their profits ahead of the Bank of Canada's (BoC) Business Outlook Survey, which could provide fresh insights regarding the BoC's policy outlook. Last week, BoC Governor Poloz said that investment could be stronger than they have believed earlier in the year and noted that a combination of healthy employment and wage growth was driving the fundamental demand.On the other hand, the US Dollar Index is registering small daily gains after suffering small losses on Friday amid the disappointing Nonfarm Payrolls (NFP) report. At the moment, the index is up 0.1% on the day at 97.45.  "
12,Chinese delegation has arrived in Washington to sign phase-one deal - Hu Xijin,"Hu Xijin, The Chief in Editor, at The Global times, has just tweeted, informing us that Chinese delegation has arrived in Washington to sign the phase-one deal.The Chinese delegation led by Vice Premier Liu He just arrived in the US. Wish the two countries sign the deal smoothly.As per, US/Sino phase-one deal: If phase one deal is implemented well, Hu Xijin holds optimism for later half of 20th century, markets are committed to the optimism in markets of late, but when it all boils down, there is still a long road ahead for negotiations and there are plenty of risks for investors down the line.At the time of writing, US benchmarks are higher and the yen is on the backfoot, with USD/JPY taking on fresh highs of 109.94 through the hard Nov-YTD resistance in the 109.70's. This was solid support back in March and traders are now risking longs in an area of technical confluence. Exporters will be looking to lock in yen in the 110 handle which could make for a hazardous journey towards 110.80 for the committed bulls. If the 110 breakout occurs, there is an ABC and the confluence of a 76.4% Fibonacci target at 110.50/53 resppectively. "
13,"USD/JPY Forecast: Mounting bullish pressure, 110.00 at risk","The financial markets are on risk-on this Monday, and the USD/JPY pair is at its highest since last May. The pair finally broke above the 109.70 area and approached the critical 110.00 figure, although the lack of demand for the greenback keeps the upside limited.Japan didn’t release relevant data at the beginning of the day amid a local holiday, while the US macroeconomic calendar will be quite light, as it will only include the auction of short-term government bonds.Speculative interest is watching developments around the trade war, as the US and China are scheduled to sign phase one of the trade deal, seen as a risk-positive factor, and the Middle-East situation, which can trigger a risk-off mood.The USD/JPY is trading around 109.85 at the time being, maintaining its bullish stance. In the 4-hour chart, the pair is above a bullish 20 SMA, which advances beyond the larger ones, providing dynamic support at around 109.30. The Momentum indicator is trying to resume its advance after correcting extreme overbought conditions, while the RSI advances at around 74. The pair is set to test the 110.00 psychological figure, with a break above it anticipating further gains in the upcoming sessions.Support levels: 109.35 108.90 108.50  Resistance levels: 110.00 110.40 110.75View Live Chart for the USD/JPY"
14,US Consumer Price Index December Preview: The inflation sideshow,"The Bureau of Labor Statistics will issue the consumer price index (CPI) for December on Tuesday January 14th at 13:30 GMT, 8:30 EST.The consumer price index (CPI) is predicted to rise 0.3% in December as it did in prior month. Annual inflation is expected to rise 2.3% in December after a 2.1% gain in November. Core inflation is projected to be unchanged at 0.2% monthly and 2.3% annually in December.Price changes in the main US inflation gauges have been quiescent over the past year. In 2019 the headline CPI measure varied 0.6% from 1.5% to 2.1%. The personal consumption expenditure price index (PCE) has been even narrower shifting from 1.3% to 1.6%.CPIFXStreeetThe core versions of each have shown the same limited range: core CPI moving from 2.0% to 2.4% and core PCE from 1.3% to 1.6%.Core CPIFXStreetNeither gauge has exhibited a distinctive trend.  The Fed’s main concern has been that inflation is below its 2% target and to note that the governors expect their policies will return inflation to its symmetric goal in the future.  Wages in the US show no sign of incipient upward pressure. Despite the five decade low in the unemployment rate at 3.5% annual hourly earnings have hovered around 3% for more than a year and fell to 2.9% in December.  The direct implication is that there is yet considerable slack in the labor market. Payroll growth has slowed about 20% this year.  If employers are not offering higher wages because they do not have to. Average Annual EarningsFXStreetThe historically low labor force participation rate of 63.2% with its picture of underutilized workers may be more telling for wage inflation than the unemployment rate. Workers generally demand higher wages when consumer inflation becomes an issue for household expenditures.  A feedback loop is created where in order to fund higher wages employers raise prices, which in turn spurs workers to ask for yet more money.  This cycle is not evident in the current US economy.The consumer price index and the personal consumption expenditure price index (PCE) are different measures of the variation in consumer prices over time.Information for CPI is collected and tabulated by the Bureau of Labor Statistics, a division of the Labor Department. It is the older measure with figures back to 1914. The PCE index is calculated by the Bureau of Economic Analysis, a part of the Commerce Department with charts back to 1959.The CPI is more commonly cited in the press and its rates are used to adjust social security payments and some financial contracts, but core PCE is the gauge used by the Fed in setting rate policy.The measures are similar though not identical. Both indexes use a comparison of the prices of a basket of goods over time. If the cost of the goods rise from one month to the price index goes up. The main difference is the composition of each basket and the weight given to each the item. The CPI basket is based on household consumption; the PCE is taken from what business are selling. The PCE index also attempts to account for substitution between goods when one rises in price and consumers replace it with a cheaper item.Consumer price indexes have produced a higher inflation rate. According to the Cleveland Federal Reserve CPI has run about 0.5% higher this century.  From a market aspect the chief interest of CPI, which is released first each month, is as an early indication for the core PCE gauge and its impact on Fed policy. PCE for December will be released on January 31stThe central difference in the two versions of each inflation index is the inclusion or not of items whose prices have been subject to recurring temporary and sometimes violent price changes from external non-economic factors.  In most core price indexes food and energy cost are excluded,Crude oil is the classic example.  In 1973 under the first OPEC embargo the price of a barrel of West Texas doubled in a matter of months. In the year before the financial crash crude again more than doubledNeither oil shock had a long term effect on prices. From 1980 to 2000 crude prices remained in a $15 to $35 range and it was not until the rise in usage in the 2000s, largely from China that prices moved permanently higher.  It remains to be seen if the advent of North American fracking will force prices lower for a substantial time.  Food availability and prices are subject to drought, storms and other natural occurrences hence their exclusion.The Federal Reserve uses the core PCE index for its inflation measure because it helps to isolate the long-term trends in prices from their daily static. The European Central Bank utilizes an overall measure noting that the impact of inflation on consumers and on economic performance in general is governed by the actual prices paid and received, and energy and food are large components of consumption.  For the US Federal Reserve it is the long term inflation trends that matter to the economy. Inflations expectations are key to those price movements.  The Fed official adopted a 2% symmetric target for inflation under Chairman Ben Bernanke in 2012, though it had an unofficial goal since 1996 and Alan Grenspan.Fed representatives from the Chairman on down have devoted considerable rhetoric to their inflation goals and the studied underperformance since the financial crisis.  One of the purposes of quantitative easing under Ben Bernanke was to prevent the inflation expectations in the economy from slipping into permanent dis-inflation, that is, ever lower rates of inflation.   Inflation remains quiet in the American economy. Neither prices nor wages are moving beyond their ranges of the past several years.  The Feds effort under Ben Bernanke to use liquidity to drive the inflation rate higher was largely ineffective.Under Jerome Powell the emphasis has switched to supporting the economic expansion and the labor market.  Inflation is a sidelight, often mentioned but never the direct policy objective.  There is a sense in current Fed analysis that economic growth is the most effective way to push inflation back to its 2% target. Demand for workers and goods will naturally raise prices more than liquidity applications whether from rate cuts or quantitative easing.Inflation's impact on rate policy has, at least temporarily, ceased to be a driver of the dollar.   The Fed will be no more likely to raise the fed funds rate if inflation rises above 2.5% than it will be to cut rates if it slips below 1.5%.   "
15,Indian Rupee Price News and Forecast: USD/INR finds some support ahead of mid-70.00s (200-DMA),"According to the India Economists at Bank of America Merrill Lynch (BAML), the Reserve Bank of India (RBI) is seen cutting the benchmark policy rates by 25 basis points in February, despite inflation seen at 6.70% in December.“After all, the 'busy' industrial season will end by March. The MoF should also try to support demand in the February 1 Budget by running a higher fiscal deficit of 3.8%.We continue to highlight that rising real lending rates are hurting growth. While nominal MCLR has fallen 43bp, on RBI easing, real MCLR has gone up 120bp on falling core WPI inflation.” Read more...  The USD/INR cross extended its sharp retracement slide from four-month tops, levels just above mid-72.00s, and remained under some selling pressure for the fourth straight session on Monday.The downward momentum dragged the cross farther below the 71.00 handle to its lowest level since December 16, albeit the bearish pressure eased ahead of the 70.50-45 strong horizontal support.The mentioned region coincides with the very important 200-day SMA and should now act as a key pivotal point for short-term and help determine the pair’s next leg of a directional move.Given the pair’s recent rejection from the 72.50-60 supply zone, the said support would further mark the neckline support of a bearish double-top chart pattern formation on the daily chart. Read more...   "
16,China: Trade war is not over yet – SCMP,"Taoran Notes, a social media account affiliated with the Chinese government's Economic Daily newspaper, argued that the signing of the phase-one of the US-China trade deal was just the ""first round of a game"" and added that the trade was not over yet, the South China Morning Post (SCMP) reported on Monday.""We must bear in mind that the trade war is not over yet – the US hasn’t revoked all its tariffs on China and China is still implementing its retaliatory measures. There are still many uncertainties down the road,” Taoron Notes noted.This headline doesn't seem to be having a negative impact on the market sentiment. As of writing, the 10-year US Treasury bond yield was up 1.5% on the day at 1.847%."
17,GBP/USD Price Forecast: At critical long-term uptrend support after the GDP downing,"Break or bounce? That is the question for the long-term pound/dollar traders who are eying the daily chart. GBP/USD has hit the uptrend support line for the fourth time – making line it even more significant. It has accompanied the currency pair since mid-November. Weak Gross Domestic Product hit sterling for November, which showed a contraction of 0.3% against 0% expected. The Bank of England's fresh openness to cutting interest rates – coming before the data – also weighs.Back to the chart, the bearish case relies on the loss of the 50-day Simple Moving Average. Moreover, downside momentum has deepened. Support awaits at 1.29, a round number that cushioned the pair in December, and 1.2820, which provided support in November.The most significant support line is at 1.2775, which is the November low and also where the 200-day SMA meets the price. The bullish case rests with the fact that GBP/USD is holding onto this uptrend support line – at least for now – and that it is trading well above the 100 and 200-day SMAs.Resistance awaits at 1.3105, which is where the downtrend resistance line hits the price. Next, we find 1.3205 and 1.3285, both recent peaks that form the trending cap: higher above, the election peaks of 1.3420 and 1.3510 tower above. The next significant release is UK Consumer Price Index, due out on Wednesday at 9:30 GMT. See UK inflation Preview: Cementing the rate cut or triggering a GBP/USD correction? Three scenarios"
18,EUR/SEK: Buy on dips – Nordea,"In view of analysts at Nordea Markets, while the Riksbank's 2nd hike was not the formal start of a hiking cycle, it arguably felt as one and the pattern suggested a bottom in EURSEK between 10.40 and 10.50 after the hike in December, and that the cross would bounce after the hike - as it has indeed started doing.“Now the pattern suggests a move to the 10.60-10.70 area. In related news, the Riksbank's krona-killing machine is still running (Riks' balance sheet expansion), SE growth expectations are still falling relative to the EA's, and the SE surprise index (CESISEK) is back in negative territory. Good times. Well, not for the SEK. Nordea's forecast for December's inflation figures is in line with the Riksbank's view, but weaker inflation in Norway could fuel some speculation of a disappointment also in Sweden.”"
19,USD/JPY breakout spells trouble for gold,"The USD/JPY looks very interesting as the new week begins. It has hit a new high for 2020 despite Friday’s disappointing US jobs report, with the yen also weakening amid ongoing risk-on sentiment as investors anticipate the signing of the much-touted phase one trade deal between the US and China on Wednesday.If the price action on this pair is anything to go by then gold could head in the opposite direction as demand for safe-haven assets drop back with the US-Iran tensions easing. Indeed, gold and the USD/JPY tend to have a strong negative correlation with one another. Gold bugs better hope then that either the negative correlation breaks down or the breakout in the USD/JPY turns out to be a fake one.Source: Trading View and FOREX.com.But for now, price action on the USD/JPY appears rather bullish. On the weekly (inset), it formed a large bullish engulfing candle last week, with the reversal price action causing rates to peak above a bearish trend line and key short-term resistance at 109.70. Price now needs to hold above this level if the bulls want to take full control of near-term price action. However, a daily close back below 109.70, if seen, would complicate the outlook.Risk Warning Notice

Foreign Exchange and CFD trading are high risk and not suitable for everyone.  You should carefully consider your investment objectives, level of experience and risk appetite before making a decision to trade with us.  Most importantly, do not invest money you cannot afford to lose.

There is considerable exposure to risk in any off-exchange transaction, including, but not limited to, leverage, creditworthiness, limited regulatory protection and market volatility that may substantially affect the price, or liquidity of the markets that you are trading.

Margin and leverage

To open a leveraged CFD or forex trade you will need to deposit money with us as margin.  Margin is typically a relatively small proportion of the overall contract value.  For example a contract trading on leverage of 100:1 will require margin of just 1% of the contract value.  This means that a small price movement in the underlying will result in large movement in the value of your trade – this can work in your favour, or result in substantial losses.

Your may lose your initial deposit and be required to deposit additional margin in order to maintain your position.  If you fail to meet any margin requirement your position will be liquidated and you will be responsible for any resulting losses."
