,title,text
0,"EUR/USD ending on Wall Street better-bid, close to the highs of the day in the 1.11 handle","EUR/USD remained elevated on Monday in a positive risk environment as traders picked up on the solid performances in global equities. It has been an otherwise relatively quiet start to what indeed should be an eventful week ahead.EUR/USD was ending on Wall Street around its highs for the day having travelled from a low of 1.1076 to a high of 1.1106, ending some 0.20% higher on the day. Corporate earnings are a focal point this week with 162 S&P 500 companies due to release quarterly financial results - The S&P 500 index surpassed its previous intraday all-time high which lent support to the euro while the EU granting the UK a Brexit extension until 31 January also helped to bring about some risk appetite. As for the data for the day, there was little to go on at the start of the week, with just a 0.3% month-on-month fall in September wholesale inventories undershooting expectations of a 0.2% gain, while from the euro area, we had some mixed messages in money supply coming in slightly below expectations with a5.5% year-on-year rise in M3. Meanwhile, looking head and besides Brexit politics and central banks, this week brings a handful of data releases, including US and euro area Q3 GDP, euro area inflation, various ISM/PMIs, and US non-farm payrolls sure to shake things up for the single currency.Commenting on the Federal Open Market Committee, (FOMC), for this week, analysts at TD Securities explained that they are expecting the Fed to lower rates by 25bp, delivering the third consecutive rate cut since July. ""The FOMC is likely to communicate patience in deciding future policy moves after next week's cut as they assess the impact of the three cuts they have already delivered. We look for the Fed to temporarily pause before resuming rate cuts in Q1 2020.""From a technical standpoint, the single unit is struggling to get over a 23.6% retracement of its latest bullish run. Valeria Bednarik, the Chief Analyst at FXStreet notes that the 38.2% retracement of the same advance has been providing immediate support at 1.1065, adding:""In the 4-hour chart, a bearish 20 SMA converges with the mentioned Fibonacci resistance, while technical indicators remain within negative levels, although lacking directional strength. The overall stance is negative, although little should be expected on this first day of the week."""
1,EU's Tusk confirms Brexit extension until 31 January 2020,"The European Council President Donald Tusk, via his verified Twitter handle, confirmed a Brexit extension until 31 January 2020.""The EU27 has agreed that it will accept the UK's request for a #Brexit flextension until 31 January 2020. The decision is expected to be formalised through a written procedure.""That is very much anticipated by the market and hence, did little to provide any meaningful impetus to the British Pound. The GBP/USD pair extended its sideways consolidative price action, below mid-1.2800s, as the key focus remains on Monday's key UK election vote."
2,Japanese Tokyo Consumer Price Index (CPI): In line with expectations,"Japanese Tokyo Consumer Price Index (CPI) has been released with the data arriving as follows:USD/JPY has not been impacted and sits at 108.97 ahead of the Tokyo open. Overnight, USD/JPY stuck to a tight range of between 108.70/75 until early NY trade when it began a squeeze to as high as 109.04 – a three-month high, backed by the bounce in US yields and a risk-on session on Wall Street. Trade deal traction has been supportive to the cross.The Tokyo Consumer Price Index released by the Statistics Bureau is a measure of price movements obtained by comparison of the retail prices of a representative shopping basket of goods and services, excluding fresh food. The index captures inflation in Tokyo. The purchasing power of JPY is dragged down by inflation. Generally, a high reading is seen as positive for the JPY."
3,AUD/USD technical analysis: Bears await a sustained break below 0.6800 neckline support,"The AUD/USD pair struggled for a firm directional bias and seesawed between tepid gains/minor losses on the first day of a new trading week, shrugging off growing US-China trade optimism.
 
From a technical perspective, the pair’s recent pullback from the 0.6880-90 supply zone seemed to have constituted towards the formation of a bearish double-top pattern on the daily chart.
 
The pullback, however, stalled just ahead of the 0.6800 neckline support, which if broken will confirm the bearish formation and set the stage for a further near-term depreciating move.
 
Meanwhile, technical indicators on hourly charts have been gaining negative traction but maintained their bullish bias on the daily chart, which seemed to be the only factor lending some support.
 
Hence, it will be prudent to wait for a sustained breakthrough the mentioned support before placing any aggressive bearish bets and positioning for a slide towards mid-0.6700s support area.
 
On the flip side, the 0.6855 region – marking 100-day SMA – now becomes immediate strong resistance and is followed by the 0.6880-90 hurdle, which if cleared might negate the bearish set-up.
 
Sustained strength beyond the 0.6900 handle might prompt some additional short-covering move towards the key 0.70 psychological mark with some intermediate resistance near the 0.6930 region.  "
4,"Important Economic News Calendar: October 28 – November 1, 2019","Brace for a very busy week on the financial markets! The Fed will decide about the U.S. monetary policy and the Bureau of Labor Statistics will release its usually important monthly figures. Will quarterly corporate earnings push stock prices to new record highs? Let’s take a look at this week’s schedule.In our last week’s news calendar we pointed out that Thursday’s ECB’s Monetary Policy Statement and their Main Refinancing Rate followed by the Press Conference will be the most important news releases for the coming week. And they were indeed: Gold, Silver and Mining Stocks rallied, Euro tumbled following its initial advance. But stock markets were relatively calm. It might have been caused by an ongoing quarterly earnings season. On Thursday we also had a series of sentiment data releases from Europe and the U.S. and the markets were volatile ahead of the mentioned ECB’s Statement.What about the coming week? All eyes will be on the FOMC’s Rate Decision release on Wednesday. Then we will get Non-farm Payrolls number on Friday. But there’s much more. We will get a lot of important economic data releases this week, along with some big quarterly corporate earnings announcements. Let’s take a look at key highlights:You will find this week’s the key news releases below (EST time zone). For your convenience, we broken them down per market to which they are particularly important, so that you know what to pay extra attention to, if you have or plan to have positions in one of them. Moreover, we put the particularly important news in bold. This kind of news is what is more likely to trigger volatile movements. The news that are not in bold usually don’t result in bigger intraday moves, so unless one is engaging in a particularly active form of day trading, it might be best to focus on the news that we put in bold. Of course, you are free to use the below indications as you see fit. As far as we are concerned, we are usually not engaging in any day trading during days with “bold” events on a given market. However, in case of more medium-term trades, we usually choose to be aware of the increased intraday volatility, but not change the currently opened positionTuesday, October 29 Wednesday, October 30 Thursday, October 31 Friday, November 1Tuesday, October 29Wednesday, October 30Thursday, October 31Friday, November 1Monday, October 28Tuesday, October 29Wednesday, October 30Thursday, October 31Friday, November 1Monday, October 28Tuesday, October 29Wednesday, October 30Thursday, October 31Friday, November 1Monday, October 28Tuesday, October 29Wednesday, October 30Thursday, October 31Friday, November 1Tuesday, October 29Wednesday, October 30Thursday, October 31Friday, November 1Tuesday, October 29Wednesday, October 30Thursday, October 31Friday, November 1Tuesday, October 29Wednesday, October 30Thursday, October 31Friday, November 110:00 a.m. U.S. - ISM Manufacturing PMI, ISM Manufacturing Prices, Construction Spending m/m  Want free follow-ups to the above article and details not available to 99%+ investors? Sign up to our free newsletter today! "
5,Sterling | USD Quarterly Forecast Q4 October - December 2019,"In the last quarterly report, we asked if a US rate cut is likely coming – but when? Well, actually there was not just one, but two cuts in Quarter Three, 2019 – the first since way back in 2008. A cut of 25 basis points was made in July and September due to worries about slowing growth and the effects of the US-China trade wars. The Pound had made gains against the US Dollar in the last couple of months, moving from an interbank rate low of around 1.196 to a quarterly high of 1.257, before falling back to around 1.23 towards the end of September, as no-deal Brexit fears took their toll on Sterling. In the last three months of the year, the big issues of Brexit and the US-China Trade Wars are still likely to have a significant effect on the performance of this currency pair. If you are exchanging GBP or USD, keep in regular contact with your Halo Financial Currency Consultant.Federal Reserve Chairman, Jerome Powell, admits the US economy is doing well, but it is concerned about future risks from trade disruption, particularly with the global economy slowing. “Weak manufacturing, weak global growth now particularly in the European Union and China. In addition, we see trade policy developments, which at times have been disruptive and then have been less so. And also, inflation running below targets.” Dampening expectations of further immediate cuts – particularly from President Trump, who wants rates at zero and Tweeted in response to the Fed’s latest reduction, ""No 'guts,' no sense, no vision!” – Mr Powell says the adjustment is a “mid-cycle adjustment” to boost the economy and not the “beginning of a lengthy cutting cycle.” The Federal Reserve reduced the target range of its key rate to 1.75%-2%.The Federal Reserve says the labor market remains strong and that economic activity has been rising at a moderate rate. Job gains have been solid, on average, in recent months, and the unemployment rate has remained low. But business fixed investment and exports have weakened, it says. The decision to cut rates at the previous meeting was not unanimous. Two of the 10 member Federal Reserve Open Markets Committee (FOMC) wanted to maintain the previous rate and one wanted a bigger reduction. However, the markets widely predicted the move and the US Dollar even improved on the day against the Pound as Brexit worries proved more influential.There are now signs that the Fed could cut interest rates at their next meeting on Wednesday 30th October, but no guarantees. Investors are predicting a potential rate drop to 1.75%, so the US Dollar is volatile in the run up to the decision and will be immediately after the committee’s announcement on Wednesday.October brings the next opportunity for the United States and China to thrash out the trade talks – but it remains to be seen if any progress can be made. Ahead of the meetings in Washington, both sides showed signs that they were willing to compromise. First, China took agricultural products from the latest list of tariffs. The US responded by delaying a planned $250 billion of tariffs for two weeks into October. But the two sides still have a long way to go before an agreement on the substantive part of the talks can be reached. There is another issue arising from the trade wars that concerns the Americans – currency levels. With China’s Renminbi falling earlier in the year to below the significant 7RMB to the Dollar – currently it is just above at 7.06 in typical mid-market rates – President Trump accused China of currency “manipulation”. He says China was deliberately lowering the value of its currency against the Dollar to offset the impact of the tariffs, even though, in reality, the decline has little effect against the magnitude of the 25% duty on nearly half of Chinese imports to the United States.The Brexit situation seems to be changing – or not, as the case may be – every day, and the uncertainty about how the UK economy will be affected is putting the Pound under pressure against the US Dollar. The Pound is caught in the middle as various political parties debate what a deal should look like and whether they are happy to approve what has been offered by the EU.The latest development is that the EU has approved a Brexit extension to 31st January, 2020, so the currency markets are anticipating the next steps eagerly. Whether this delay will continue to add to the uncertainty and weigh on the Pound, or provide reassurance to the markets and support Sterling, all remains to be seen at this stage, although the Pound appears to be treading water until policymakers make the next move.
What next for GBPUSD? Update from Head of Corporate Dealing, Ricky Nelson The two major events for the Pound and the Dollar looking ahead to the end of the 2019 are Brexit and the US-China trade war, plus any effects these political issues have on business and the economy. If trade war talks improve, the US Dollar could benefit, souring signs could sink US Dollar strength. In a similar vein, Brexit developments will make or break Sterling’s fortunes against its major currency pairs and the US Dollar is no exception. If you are exchanging GBP or USD over the coming weeks and months, keep a close watch on market movements and consult your Halo Financial Currency Consultant for guidance on how to protect international payments and benefit from any volatility.The Pound has appreciated by over 6% from the October low and is understandably correcting from overbought levels. Buyers have finally found some relief and the next level of resistance would be 1.270 and then a more important 50% retracement level at 1.260. As long as the market stays above there, then we can expect a retest of the psychologically important 1.300 level.If US Dollar sellers have not already reduced their exposure, I would suggest targeting no lower than 1.270 in the short term, which is the 38.2% Fibonacci retracement level. Protection should be left above 1.300, as a break above here could open up a quick test of the 12 month high of 1.338.
 "
6,How to Avoid the Next 50% Market Crash,"This ageing bull market may soon face the third market collapse since the year 2000. Nobody can predict the exact starting date of its decline—but either a recession or stagflation will surely be its catalyst. During the next debacle, the typical balanced portfolio designed by Wall Street, which consists of approximately 60% stocks and 40% bonds, will no longer provide much protection at all. In fact, that type of portfolio construct has become downright dangerous.The simple reason for this is that for the first time ever both stocks and bonds are in a massive and unprecedented bubble; and are therefore both vulnerable to significant selloffs. Bonds will no longer provide a ballast or offset to your stock portfolio once reality hits both of those asset classes. If a bond has a 5% yield and has 30 years left to maturity; that holder would lose 25% of his principal if interest rates rise by just 2%. Given the fact that bond yields are the lowest in history, an increase of 2% is certainly not out of the question; and is in fact most likely inevitable.What happens with the equity portion depends on the reason why rates are rising. If rates increase because of a surge in economic growth, then equities should do well for a while longer. However, if rates rise because of inflation or credit risks; then stocks would likely get hurt very badly indeed. In that case, there is a high probability of losing money in both your equity and fixed income buckets.Therefore, a smarter way to invest--rather than just blindly buy and hold a closet Index fund and hope for the best—is to map the economic cycle. Given that Wall Street's version of diversification will most likely no longer work, it is now imperative to understand where the economy lies along the spectrum between Inflation/Deflation and Growth/Recession.An alternative investment strategy is now necessary because the Fed decided around 20 years ago that recessions could be abrogated and it had the tools to repeal the business cycle. It kept pushing interest rates lower every time there was either a downturn in the economy or a sharp selloff in stocks. This is exactly what happened in the wake of the NASDAQ bubble of 2000 and the Housing Crash of 2008. Indeed, Greenspan started this practice in 1987; but its roots were planted in 1971 when the US left the gold standard completely.Each iteration of this cycle served to push asset prices higher than what the underlying economy could support. This also caused even more debt to be accumulated. Now, we have a triumvirate of asset bubbles (stocks, real estate and bonds) that exist globally. Speaking of the real estate bubble--although it is no longer the nucleus of the current bubble--it should be noted that National Home prices have increased for 91 months in a row and have advanced 5.9% y/y—far above the pace of income growth. The sad truth is that the Fed, in full cooperation with Wall Street, has once again made home prices unaffordable for many first- time buyers.The fact is that debt levels have exploded worldwide and yet at the same time interest rates have never been lower than they are today.Here's some data points that we all should and need to be aware of:- Total market cap of equities as a share of GDP is now 145%. That ratio was 100% in 2007, and has averaged just 80% since 1971.- $15 trillion worth of sovereign debt with a negative yield- 500 billion euros of junk bonds in Europe with a negative yield- $5.4 trillion of BBB, Junk and Leveraged Loans in the US, there was only $1.5 trillion of sub-prime mortgage debt in 2007- The US Treasury yields 1.7% but its average is above 6%- US deficits breached above $1 trillion in fiscal 2019 and the CBO projects deficits will be $1.2 trillion each year for the next decade but that assumes interest rates never normalize and the economy never has a recession. If rates rise and/or we have a recession, the annual deficit could approach 15% of GDP. Adding to our already-huge national debt of $22.6 trillion.- Total global debt has soared to $250 trillion up over $70 trillion from 2008 and is now a record 330% of GDP- US Non-financial debt has soared from $33 trillion in 2007 to $53 trillion in 2019- US National Debt was $9 trillion in 2007 and has skyrocketed to $23 trillion today- Business debt has jumped by nearly 60% since12 years agoThe point here is not to scare you; but to help you make good investment decisions.The gravitational forces of deflation are immense and trying to bring about a healthy recession. This would cause a significant paring down of debt along with an even greater correction in equity, junk bond and property values. That is, if the economy was left alone and market forces were allowed to rectify the imbalances. However, global central banks are fighting these market forces and trying to keep asset bubbles afloat by pushing interest rates even lower and returning to QE.The problem is, central banks are simply running out of room to reduce borrowing costs. And speaking of central bankers, if any of you still believe in the Fed's omnipotence and omniscience then please remember that it was in Quantitative Tightening only a few months ago and now has returned to QE--just don't call it that--even though Chair Powell is monetizing debt exactly like Bernanke and Yellen were doing. Therefore, buying $60 billion of short-term Treasuries is QE in every sense of the word. The only difference between QE 4 and QE's 1,2 &3 is the Fed is now trying to steepen the yield curve, while the other iterations of QE were about pushing down long-term interest rates. In either case, it is debt monetization just like any other banana republic would do. Only this round of QE is worse than all others before it because investors know for sure it is permanent. The Fed can no longer pretend QE was temporary.The truth is that central banks have destroyed free markets and the global economy has become massively unstable. We have artificial interest rates that are in the basement of history as a direct result of global central banks printing the equivalent of $22 trillion since 2008. This has in turn caused a humongous distortion in most asset prices that are now perched at dangerously high levels.So, what should we do as investors?What we should not do is just take a 50% stake in gold and go 50% short stocks and then claim that someday we will be right because of what ought to be happening right now. Instead, investors need to intelligently model the economy to determine what sectors and style factors of stocks to own. And, what asset classes should they be most exposed to; equities, bonds or commodities depending on the rate of growth and inflation.Pento Portfolio Strategies uses the Inflation/Deflation and Economic Cycle Model SM and its 20- components to determine the macroeconomic condition of the economy.Both public and private debt levels have grown so large that it must be defaulted on; either through inflation or deflation. How governments choose to default on the debt will make a world of difference in how you invest your money. Think back to 2018. It was a year where we were on a path towards interest rate normalization and QT. But that led to a crash in stocks by the end of the year. Now, most central banks have turned dovish and the Fed has redefined stable prices by making 2% inflation a floor rather than a ceiling. The major issue is that there is very little room at all to reduce borrowing costs in order to re-inflate asset prices and the economy.So, the question now is do central banks have enough ammo to avert a recession? The recession of 2001 saw the NASAQ lose 80% of its value and the Great Recession of 2007-2009 saw the S&P lose half its value and home prices drop by 33%. The sad truth is the distortions evident in the prior two recessions are dwarfed by the record triumvirate of asset bubbles that exist today on a worldwide basis.The whole idea is to make money slowly and carefully in the current environment but then also make sure we try to protect and profit from the inevitable recession and/or inflation with its mean reversion of interest rates.This dynamic strategy gives us an opportunity to vastly outperform the major indexes during cycles of stagflation and recession/depression, in which equities undergo a bear market. Holding a static portfolio did not work during the Great Recession and it probably won't work during the next crisis either.Given this exceptional time in history--one where the main stream financial news has never been more incompetent and corrupt; and where the global economy has never been more unstable—a source like PPS is mandatory to obtain the correct market guidance."
7,"EOS Holds Top Spot, Bitcoin 11th in China’s Latest Crypto Rankings","China’s state-backed tech workgroup has released its fourteenth crypto rankings report, with Bitcoin (BTC) ranked 11th and EOS (EOS) retaining the top spot as of the end of September 2019.The listings rank 35 assets in total, as reported on Sep. 29 by the Center for Information and Industry Development (CCID)’s online information portal.  Compared with the last instalment of the rankings this July, Bitcoin has held its position while altcoin Tron has dislodged Ether (ETH) from the second spot. XRP is up from 30th to 20th-ranked asset.CCID cryptocurrency rankings, Sep. 2019. Source: CCIDnetQutum (QTUM) has risen from 18th to 8th, Lisk (LSK) from 14th to 7th and Dash (DASH) from 21st to 17th. Under the aegis of China’s Ministry of Industry and Information Technology, CCID first launched its monthly crypto ratings report back in May 2018, and awarded Ether the top position out of the original 28 coins. The assets are evaluated according to three parameters: basic technology, application and innovation.Tron — first included in CCID’s rankings this February — has today reported gains of as high as 25% against the U.S. dollar, perhaps following CEO Justin Sun’s announcement of a major, as yet undisclosed, partnership with an alleged “mega corporation.” That same day, China’s President Xi Jinping called for the accelerated national adoption of blockchain technology in an official speech.President Xi’s intervention and positive signs from the People’s Bank of China have this week sparked a major uptick in the domestic blockchain sector — spurring the stock markets and fervent interest among the public."
8,Bitcoin Cash technical analysis: BCH/USD at a huge crossroads," The bulls have smashed out from a narrowing range-block formation, leaving the door open to further potential upside pressure. Price action is narrowing within somewhat of a bullish pennant structure, subject to a potential breakout north. Spot rate:                 267.48Relative change:      +2.30%High:                         276.32Low:                          258.51 ."
9,,
10,,
