,title,text
0,EUR/USD: Love is in the bearish air,"EUR/USD has been extending its losses, trading at the lowest since April 2017. Yohay Elam, an analyst at  FXStreet analyzes the technical perspective of the EUR/USD pair. “The Relative Strength Index on the four-hour chart is below 30 – implying oversold conditions and a potential bounce. However, that may be insufficient to stop euro/dollar's fall. Also, previous recoveries have been shortlived and limited – dead-cat bounces.” “EUR/USD has hit a low of 1.0827, just above the `Macron Gap` level of 1.0820, which was seen after the now President of France, Emmanuel Macron, won the first round of the elections in April 2017.”“We find 1.0770 and 1.0720 as potential support lines.” "
1,"Forex Technical Analysis and Forecast:  EUR/USD, GBP/USD, USD/CHF, USD/JPY, AUD/USD, USD/RUB, USD/CAD, Gold, Brent, BTC/USD","After finishing the correction towards 1.0888 and then breaking 1.0858 to the downside, EURUSD has formed a downside continuation pattern. Possibly, pair may continue falling to reach 1.0828. After that, the instrument may start another correction to test 1.0858 from below and then resume trading inside the downtrend with the target at 1.0799. GBP/USD has completed the ascending structure; right now, it is consolidating around 1.3034. If later the price breaks this range to the downside, the instrument may start a new correction to break 1.3000 and then continue trading downwards with the target at 1.2944. After breaking 0.9784 upwards, USDCHF has tested it from above. The main scenario implies that the pair may continue trading upwards to reach 0.9809. After that, the instrument may start a new correction towards 0.9794 and then form one more ascending structure with the target at 0.9828. USD/JPY has finished the descending impulse towards 109.61; right now, it is growing to reach 109.90. Later, the market may form a new descending structure towards 109.75, thus forming a new consolidation range between these two levels. If later the price breaks this range to the downside, the instrument may start another decline towards 109.25; if to the upside – form one more ascending structure with the target at 110.22. After completing the correction at 0.6742, AUDUSD has broken the correctional channel downwards. Possibly, the pair may trade downwards to break 0.6703 and then continue falling with the short-term target at 0.6680. USD/RUB has finished the descending impulse at 62.91 along with the correction towards 63.77. Today, the pair may form a new descending impulse to break 62.81 and then continue trading inside the downtrend with the short-term target at 61.88. After completing the descending impulse towards 1.3235, USD/CAD has broken this impulse’s channel upwards. Possibly, the pair may grow towards 1.3292 and then fall to return to 1.3264, thus forming a new consolidation range between these two levels. If later the price breaks this range to the downside, the instrument may start a new decline towards 1.3188; if to the upside – form one more ascending structure to reach 1.3344. Gold is moving upwards. Today, the pair may reach 1581.54 and then start a new correction towards 1573.21. After that, the instrument may resume trading upwards with the target at 1584.58. Brent has reached its short-term target at 56.30; right now, it is consolidating below it. If later the price breaks this range to the downside, the instrument may start a new correction towards 55.05; if to the upside – resume trading inside the uptrend with the target at 57.12. After finishing the descending impulse towards 10052.00, BTC/USD has completed the correction at 10300.00, thus forming a new consolidation range. According to the main scenario, the pair may break the range to the downside and resume falling with the short-term target at 9800.00."
2,China's securities regulator to ease refinancing rules to help companies fight coronavirus,"China Securities Regulatory Commission (CSRC) has announced that it will be easing refinancing conditions to help listed companies fight the coronavirus epidemic.CSRC has said that it will halve the lock-up period for privately placed shares, as reported by Reuters.This development doesn't seem to be having a significant impact on the market's risk perception. As of writing, the 10-year US Treasury bond yield was at 1.6% losing 1.55% on a daily basis while the USD/JPY pair was trading sideways below the 110 mark."
3,FX Update – EUR Pressure continues,"Germany’s economy stagnated in Q4 last year, in line with a number of forecasts and a tad below consensus expectations, which had predicted a slight expansion of 0.1% q/q. Compared to negative quarterly prints in France and Italy, Germany is already the outperformer among the three big Eurozone countries and Q3 numbers for Germany were revised up to 0.2% from 0.1% reported initially. This left the working day adjusted annual rate 0.4% y/y a tad higher than anticipated, but down from 1.1% y/y in Q3. There is no full breakdown yet, but the stats office reported that private as well as public consumption slowed in the last quarter of 2019, while investment was mixed with construction investment, expanding again. Exports contracted, while imports picked up according to first estimate. Looking ahead, exports are likely to continue to suffer and orders numbers are predicting another weak quarter for manufacturing, which leaves the risk that the labour market will start to suffer. The balance of risks clearly is tilted to the downside not just for Germany’s economy.The Euro posted fresh lows against the Dollar and other currencies, while both the safe haven Yen and Swiss franc lost yesterday’s bid as the daily increment of new coronavirus cases in China fell back alongside narratives that are downplaying yesterday’s jump in total reported cases in Hubei province as being just a reclassification. EURUSD posted a fresh 34-month low at 1.08265, and is set for its biggest two-week loss since July 2019. Today, the German GDP helped lift it to 1.0840 with the broader GDP data for the wider Eurozone yet to come. EURJPY printed a four-month low, at 118.86, and EURCHF a near-five-year-low, at 1.0609. EURGBP yesterday saw a two-month low below at 0.8295.Elsewhere, USDJPY settled in the upper 109.00s, above the four-day low seen yesterday at 109.61. Cable consolidated gains seen yesterday, holding just shy of the nine-day high at 1.3069.The EURUSD low earlier tested the S2 and 161.8 Fibonacci extension low of the December rally at 1.0820, below there is the daily lower channel at 1.0750.  In the the longer term the 161.8 Fibonacci extension level from the Q419 rally is at 1.0650 and then the psychological 1.0500. The Q419, against the trend, re-trace rally came from this over extension from the 200-day moving average which is where we are now, so some retrace to possibly the 1.1050-75 zone could be expected."
4,EUR/USD depressed near 1.0830 ahead of EMU data,"After bottoming out (and printing fresh 2020 lows) in the 1.0830/25 band, EUR/USD has managed to regain some poise, trim part of the daily losses and retake the 1.0840 region.The pair is now alternating gains with losses after a briefly testing fresh yearly lows in the 1.0830/25 band.The euro depreciated further vs. the greenback after German advanced GDP figures showed the economy is expected to come in flat during the October-December 2019 period, surprising markets to the downside (once again).In the meantime, the spot remains well under pressure on the back of the solid pace in the buck and the resurgence of fears around the COVID-19, which has motivated investors to run away from riskier assets and funding currencies.Later in the session, Q4 GDP figures in the broader Euroland are due along with Employment Change figures during the same period and December’s Trade Balance results.Across the pond, the focus of attention will be on the advanced Retail Sales for the month of January and the preliminary gauge of the Consumer Sentiment for the current month.The pair has so far managed to bounce off YTD lows around 1.0830 at the end of the week, although the bearish mood surrounding the European currency remains far from abated. In the meantime, USD-dynamics are expected to dictate the pair’s price action for the time being along with the broad risk trends, where the COVID-19 is still in the centre of the debate. On another front, the ECB is expected to finish its “strategic review” (announced at its January meeting) by year-end, leaving speculations of any change in the monetary policy before that time pretty flat. Further out, latest results from the German and EMU dockets continue to support the view that any attempt of recovery in the region remains elusive for the time being and is expected to keep weighing on the currency. At the moment, the pair is advancing 0.03% at 1.0842 and faces the initial hurdle at 1.0957 (weekly high Feb.10) seconded by 1.1001 (21-day SMA) and finally 1.1072 (55-day SMA). On the downside, a breach of 1.0827 (weekly/2020 low Feb.14) would target 1.0814 (78.6% Fibo of the 2017-2018 rally) en route to 1.0569 (monthly low Apr.10 2017)."
5,"Should forex traders watch governments and ignore central banks? Examining USD, EUR, GBP","More debt, more value? Currencies are moving not on higher interest rates but rather in response to growing government liabilities. Investors are buying up currencies of governments that spend while disregarding debt. While piling obligations may come home to roost – that is unlikely to happen anytime soon.The latest ""reshuffle rally"" in the pound proves the point but is only the latest case. Prime Minister Boris Johnson forced out his fiscally-prudent Chancellor of the Exchequer Sajid Javid with lesser-known Rishi Sunak in what is seen as a power grab. The new team is on course to loosen the purse strings – abandoning deficit and debt rules set by Javid and pushing infrastructure spending. How did markets respond? After several minutes of shock from the resignation of a reputable minister, sterling rallied on prospects of more spending. The has a dual positive effect on the currency. GBP/USD reshuffle rallyFirst, it is set to boost the economy through both the potential public splurge and by creating confidence that may encourage private-sector spending. The underlying currency has room to rise alongside stronger growth. Secondly, it alleviates pressure from the Bank of England to provide additional monetary accommodation. Even if inflation fails to rise, the BOE will be under no pressure an in no rush to cut interest rates or expand its bond-buying scheme. Higher rates also underpin the pound. Austerity – enacted by former PM David Cameron and his Chancellor George Osborne – seems to belong to a different era. The previous pair at Downing Street aimed to ""fix the roof while the sun is shining"" while Johnson wants to get things done – Brexit, trains, anything – regardless of costs.In the US, concerns about the deficit and the debt seem to belong to the past. Republicans – who blasted then-President Barrack Obama for growing America's liabilities after the debt crisis – are now overseeing a ballooning national debt. The mix of spending increases – supported by Democrats – and President Donald Trump's massive tax cuts, are taking their toll.The US budget deficit has jumped by $389.2 billion in the first four months of fiscal 2020 – October 2019 through January 2020. That is an increase of 25% from the first third of fiscal 2019. On a 12-month basis, the gap between income and expenses topped $1 trillion with total American debt topping $23 billion.The debt-to-GDP ratio has topped 100% and continues rising while the economy is nearing full employment – contrary to the perceived wisdom of saving money when the economy is high. And similar to the pound, the US dollar is on the rise. The greenback is hit multi-month highs against the yen, multi-year lows against the euro, and decade peaks against the Australian dollar. USD/JPY since September 2019 – rising with US debtThe opposite case is in the old continent. As mentioned earlier, the euro has fallen to 34-month lows against the dollar and is struggling across the board.Germany, the eurozone's locomotive, has ground to an economic halt and refuses to change its constitutional brake on deficit spending. Berlin's reluctance comes despite crumbling roads – its famous autobahns are not up to speed – and low borrowing costs. Years of austerity and the European Central Bank's bond-buying schemes have pushed German yields to the negative territory – investors are paying the country to take their money.Why? The ghosts of the past are weighing on policymakers. Back in 1923, the young Weimar Republic suffered from hyperinflation due to war reparations and the consequent French occupation of its industrial Ruhr valley. Scenes of people carrying wheelbarrows of worthless cash are seen as contributing to the rise of the Nazi regime. Moreover, the German word Schuld means both debt and guilt. Citizens of this wealthy nation are used to save, not borrow, to spend. Chancellor Angela Merkel's current grand coalition has stuck with the Schwarze Null – black zero – surplus policy despite installing a center-left finance minister.As the largest and most prominent member in the EU, Berlin's way of thinking has shaped Brussels' policy as well. The fall in the exchange rate of the euro has failed to boost exports enough to compensate for the absence of inward investment. Will Germany change and lift the euro? At the time of writing, the lack of an heir to Merkel means political change may take longer, but new forces inside and outside the country may make a change at some point. See The optimist's guide to the old continent – Why Germany will change and how EUR/USD may surgeIn the meantime, EUR/USD is at near three-year lows:The importance of fiscal spending is rising as central banks' ammunition is running low. The ECB's deposit rate is at -0.50% – deep in negative territory. The BOE's interest rate is at 0.75%, and the Federal Reserve stands out with 1.75% – still well below pre-crisis levels. Should traders write off central banks? Not so fast. As the examples above show, public spending has a growing impact, but central banks may still move markets. First and foremost, fiscal spending is amplified by reduced stimulus from rate-setters – and that is what eventually moves currencies. Moreover, central bankers still have some tools in the shed. All three institutions mentioned above can restart or expand their bond-buying, or Quantitative Easing schemes. Corporate bonds and even stocks may come into play.Finally, if government spending goes into overdrive, elusive inflation might show up – triggering rate hikes and a greater role for monetary policy down the road. Central banks have gone from being puzzled with the dearth of inflation to being resigned to ""lowflation"" as a fact of life. However, nothing lasts forever.Fiscal policy will probably have a growing impact on currencies in the medium term, and indebted governments' currencies are likely to be rewarded with higher valuations. Central banks' impact is diminishing amid low rates, but they still have influence and may return to battling inflation in the longer term. "
6,Week Ahead: More Downside for the Euro?,"This past week, markets seemingly have pushed past the number of new “adjusted” number Coronavirus cases.  Although the number increased dramatically, these were cases that were under suspicion already, but could not be verified due to lack of testing equipment.  Once the WHO arrived, they were able to verify these cases.  Now that most of the suspected cases have been verified, China began pumping stimulus into the economy to try and get things back to “normal”.  US stock indices traded to new highs this week; they don’t seem worried about contagion of the Coronavirus. Fed’s Powell stayed the course during his Humphrey Hawkins testimony this week.  Lower for longer, which made his testimony relatively uneventful.The Euro, on the other hand, had quite and eventful week.  Whether you blame it on poor data out of Europe, the unwind of the carry trade, or the Coronavirus, the Euro was under serious pressure this week.  EUR/USD is down over 2% over the last 2 weeks, while EUR/JPY and EUR/GBP played catchup this week, both down .8% and 1.83%, respectively. There looks to be more downside in the Euro ahead for this week.As far as the primary elections in the US are concerned, there are no primaries or caucuses until next Saturday, February 22nd, when the Nevada caucuses will be held.  However, candidates are gearing up for Super Tuesday on March 3rd, when 15 primaries will be held.  The race for the Democratic nomination is currently neck and neck between Bernie Sanders and Pete Buttigeg, however Michael Bloomberg will first appear on ballots on Super Tuesday.  His entrance into the race is expected to disrupt the current leaderboard.  There are already heated exchanges between Bloomberg and President Trump, and Bloomberg hasn’t even been on a ballot yet!Earnings reports next week include WMT, DE, HSBC and LLOYExpected economic highlights include:MondayTuesdayWednesdayThursdayFridaySource: Tradingview, FOREX.comEUR/USD has been in a falling wedge since the summer of 2018.  In December 2019, price tried to breakout to the upside, only to fail to move higher during the last week of 2019.  In 2020, price reversed course and began trading lower back inside the wedge.  Often, we see that when price fails to breakout of one side of the wedge, it tries to retest the other side of the wedge.  EUR/USD has currently taken out prior lows at 1.0879.  First support is a gap from 2017, between 1.0775 and 1.0820.   Below there is a strong cluster of support between 1.0700 and 1.0750, which includes:Risk Warning Notice

Foreign Exchange and CFD trading are high risk and not suitable for everyone.  You should carefully consider your investment objectives, level of experience and risk appetite before making a decision to trade with us.  Most importantly, do not invest money you cannot afford to lose.

There is considerable exposure to risk in any off-exchange transaction, including, but not limited to, leverage, creditworthiness, limited regulatory protection and market volatility that may substantially affect the price, or liquidity of the markets that you are trading.

Margin and leverage

To open a leveraged CFD or forex trade you will need to deposit money with us as margin.  Margin is typically a relatively small proportion of the overall contract value.  For example a contract trading on leverage of 100:1 will require margin of just 1% of the contract value.  This means that a small price movement in the underlying will result in large movement in the value of your trade – this can work in your favour, or result in substantial losses.

Your may lose your initial deposit and be required to deposit additional margin in order to maintain your position.  If you fail to meet any margin requirement your position will be liquidated and you will be responsible for any resulting losses."
7,EUR/USD Outlook: bears may extend towards 1.07 zone after limited consolidation,"The Euro is consolidating under new nearly 34-month low at 1.0827 on Friday but maintains strong bearish tone and on track for the second straight massive weekly loss (the pair fell 1.32% last week and is so far down 0.84% this week).
Fresh negative signal was generated on Thursday’s close below Fibo support at 1.0863 (76.4% of 1.0340.1.2555), as bearish extension to 1.0827 pressured next target at 1.0820 (24 Apr 2017 low).
Bears look to fill the gap from mid-Apr 2017 (1.0723/1.0916) that would spark further weakness.
Oversold daily indicators are in sideways mode and so far do not produce more significant signal for bounce, however some end-of-week profit-taking would add to recovery attempts, which are so far expected to be limited.
Broken Fibo support (1.0863) and falling 5DMA / former low (1.0876/78) mark initial resistances which should ideally cap and guard pivotal barriers at 1.0929 (Fibo 38.2% of 1.1095/1.0827) and 1.0941 (falling 10DMA).Res: 1.0863; 1.0878; 1.0890; 1.0925
Sup: 1.0827; 1.0820; 1.0800; 1.0777  "
8,EUR/GBP FX Pair Longer Term Cycles and Elliott Wave,"Firstly as seen on the monthly chart below there is data back to January 1975 in the pair. The EUR part being derived from the German Deutsche Mark up until the point EURUSD currency existed.Secondly as seen on the monthly chart below I will describe how I think the pair has risen thus far & what can be seen in the future. You can see the bounce from the February 1981 lows appears to be 3 swings to the November 1995 highs. There are usually a few counts that can be valid. This move appears to be a double three. I prefer to use momentum indicators to show when a cycle ends from any point in time. Whenever a proposed wave two, B, X or wave four of any degree has been taken by the momentum indicator it is likely it has ended that cycle whether it is up or down.From the November 1995 highs the pair declined hard enough to the May 2000 lows to suggest it was correcting the cycle from the February 1981 lows. The pair has not made another low since then. From the May 2000 lows it made another high in December 2008. From there it declined until July 2015 hard enough to suggest it was correcting the cycle up from the February 1981 low. That suggests the move from the February 1981 low to the December 2008 high was of three swings. The aforementioned December 2008 to July 2015 lows move appears to have been another typical three swings. Thirdly and in conclusion. From the July 2015 lows it made a relatively clean five waves impulse higher to the August 2017 highs. The pullback from there thus far is in three waves however it has another high in August 2019. The momentum indicators suggest this pullback is correcting the cycle from the July 2015 lows as a flat before it turns back higher. This is a wave ((C)) which is an impulse. Unfortunately due to the nature of an impulse wave they can extend in any degree. This makes the area expected to reach difficult to forecast. As of right now I would assume it can reach the .7850-.7500 area before the pair turns back higher above the August 2017 highs firstly then later the December 2008 highs."
9,GBP/USD: Spending will not alleviate Brexit pressure – Rabobank,"The cable gained some traction yesterday following the resignation of the Chancellor Sajid Javid, but analysts at Rabobank are still seeing hurdles in the path for the pound. “The pound has held on to most of the gains that it made yesterday on the news that Chancellor Javid had resigned. The market’s collective conclusion is that will likely result in a greater amount of government spending.”  “The implication is that there may be less need for the BoE to cut rates to keep the economy supported – which is clearly GBP positive.”   “GBP will remain vulnerable to any signs of friction stemming from the talks between the EU and the UK on their future post Brexit arrangement.  Consequently we continue to see GBP/USD as likely trading below the 1.30 level on a 1 and 3-month view.”    “A common rule of thumb is that a 1% shortfall in UK GDP growth could increase the government’s budget deficit by around 0.7% of GDP.  This would imply that the downward revision to the BoE’s growth forecasts would give rise to a step up in gilt issuance in the coming years.”  "
10,Russian oil firms favor extending than deepening output cuts - S&P Global Platts,"Citing the Chiefs of Russia’s oil giants, S&P Global Platts reports that a majority of the Russian oil companies back the case for oil output cut extension instead of deepening the supply cuts.“Given the current situation on the market, it makes sense to extend the agreement through the second quarter and then monitor,” Gazprom Neft’s CEO Alexander Dyukov noted.Ravil Maganov, First Executive Vice President of Lukoil said:  Russian oil companies are on board with extending the agreement to cut oil production through the end of Q2, but most did not support deepening those cuts.On Thursday, Kremlin announced that Russia was yet to decide on the oil production cut, in coordination with the Organization of the Petroleum Exporting Countries (OPEC). Sources in Moscow added that they will announce their position in due course. Both crude benchmarks trade flat, with WTI around $51.50 while Brent steadying below $56.50."
11,Mexico: Banxico changes style as cut rates – TDS,"Banxico has substantially changed the style of its monetary policy decision statements. February’s rate cut has introduced somewhat more hawkish elements, though with a downgraded growth outlook that continues to argue for further easing in the near term in the opinion of analysts at TD Securities. The USD/MXN pair is sitting at 18.578 after falling with the news.“The summary of the growth scenario was certainly dovish, acknowledging the inability of Mexico to gain a positive growth trajectory, and stating that slack conditions have continued to widen. 2020 GDP forecasts are thus to be further written down with the balance of risks tilted to the downside.”“Also interesting was that the decision was taken in a unanimous manner, which is a hawkish development and comes as some surprise given the unconstructive growth developments. This certainly removes any risk of a 50bp cut from the picture for the time being.” “Our takeaway is that this is a fairly mixed statement, and difficult to interpret given the substantial change in style from Banxico's previous modus operandi. We feel that the hawkish elements are coming through wage adjustments, and prudent concern with negative shocks to the currency, which we see most likely triggered by fiscal and/or ratings events.”“We continue to see growth conditions arguing for 25bp cuts at each meeting this year, but suspect that the rates market may net-interpret this hawkishly given the unanimity of the decision and the concern with stickiness in core inflation. For the peso, it is additional positive news given the lack of dovishness, as relatively high yields should continue to help sustain inflows despite the weak domestic and global growth environment.” "
12,Gold Price Forecast: Investors comfortably holding ground,"The bright metal is ending the week with modest gains around $1,575.00 a troy ounce, recovering some of the ground it lost in the previous one. Such gains were triggered by coronavirus-related headlines fueling demand for safety. On Thursday, China announced roughly 15,000 new cases and 242 people died in the previous 24 hours, indicating the outbreak remains out of control. Furthermore, the country changed the way it diagnoses the illness, adding TC scans to it, with the number of cases now above 64,000.The dollar was strong too. The greenback not only benefited from its safe-haven status, but also from another batch of encouraging data and comments from US Federal Reserve Chair, Jerome Powell.Powell testified before a special congressional commission and noted that the US economy remains resilient, with steady growth and unemployment near a five-decade low. About future monetary policy movements, Powell sound comfortable with the current stance and hinted rates will remain unchanged unless a significant change in economic conditions. As other policymakers, Powell mentioned the coronavirus outbreak as a risk factor, although he said that it’s too early to quantify the effects on the US economy.As for US data, there were no fireworks throughout the week, although January core annual inflation came in better than anticipated at 2.3%. Retail Sales met the market’s expectation by printing 0.3% in January, although the core reading, Retail Sales Control Group came in at 0.0%, below the expected 0.3%. Finally, the Michigan Consumer Sentiment Index jumped to 110.9 in February, according to preliminary estimates.The next days the US macroeconomic calendar will bring the Minutes of the latest FOMC meeting. The document is not expected to surprise as ever since Chief Powell decided to make a brief press conference after each meeting, the market is quite aware of what and why policymakers decided. On Friday, Markit will unveil the preliminary estimates of its February PMI.Gold has spent the week confined to a tight range and within the previous week levels. The weekly high was set well below a critical Fibonacci level, the 61.8% retracement of its long-term decline measured between 1,920.70 and 1,046.37, at 1,585.98.Spot retains its bullish stance in the long-term and according to the weekly chart, although confirmation will come with a clear break above the mentioned Fibonacci resistance. In the mentioned time-frame it continues to develop above bullish moving averages, with the 20 SMA at around 1,512 and the larger ones some $200 below the shorter. The Momentum indicator heads higher well into positive levels, while the RSI consolidates in overbought levels, indicating no selling interest.Daily basis, however, spot gold offers a neutral stance. It has spent the week hovering around a flat 20 DMA, and while the larger ones stand far below the current level, the Momentum indicator is entering negative levels. The RSI, on the contrary, holds flat around 58. Overall, it seems that speculative interest feels comfortable holding on to its gold positions, but reluctant to add longs.The mentioned Fibonacci retracement at 1,586 is the immediate resistance. Beyond this last, this year high at 1,611.33 is the next bullish target. Supports come at 1,560.00 and 1,547.40. The metal could turn bearish on a break below this last.According to the FXStreet Forecast Poll the metal has little chances of breaking higher, seen neutral in the upcoming quarter. In fact, bears lead the weekly sentiment, although the metal is seen on average within familiar levels at 1,573.11. The average target in the monthly and quarterly perspective is above the weekly one, but not far from the current levels. Bulls are a majority in both cases but for little.The Overview chart, however, shows that bulls remain in control. The moving averages head higher in all the time-frame under study, with uneven strength, but still suggesting higher highs ahead.EUR/USD Forecast: Corrective advances likely, but intrinsically bearishBitcoin Weekly Forecast: Bitcoin bulls brace for jump to $11,000GBP/USD Forecast: Boris-bounce faces top tests, double-top, after the reshuffle rally"
13,USD/TRY: CBRT rate cut will not impact the lira – TDS,"The Central Bank of the Republic of Turkey (CBRT) will announce on Wednesday, 19 February its policy rate. A rate cut is expected for economists at TD Securities who do not see the Turkish lira suffering. “We forecast the CBRT to cut interest rates by 50bps on Wednesday, 19 February. This is in line with the consensus and our previously held view.”“We think that the market is not positioned for easing. Therefore, rate cuts should have some negative sway on the lira, but we think the currency will remain essentially unchanged with strong activity from state-owned lenders to keep USD/TRY in check. As usual, the announcement will be more a matter of defining the quantum of the cut rather than the direction.”“We expect no major USD/TRY move due to CBRT action, provided the MPC cuts rates no more than 50-75bps. A decision to hold would see the lira rally somewhat, while deeper cuts than 100bps could add more significant negative pressure than the underlying adverse dynamic is already producing.”"
14,Netherlands: GDP grew 0.4% in all quarters of 2019 – ABN Amro,"Gross domestic product (GDP) increased in the fourth quarter in the same numbers as did in the previous quarters of 2019. Senior economist at ABN Amro, Nico  Klene, shares the Dutch data. “Gross domestic product (GDP) advanced in the fourth quarter – according to provisional figures – by 0.4% compared to the previous quarter (qoq). That was the same increase as in the preceding three quarters of 2019. Fourth-quarter growth was virtually entirely attributable to domestic spending. Average growth for full-year 2019 came to 1.7% (2.6% in 2018).”“We expect growth to be lower in the first quarter of this year. Investment will probably fall back at the start of this year after the strong increase at the end of 2019.”“Due to the catch-up effect in the subsequent quarters, the coronavirus is only expected to have a very limited impact on average GDP growth in 2020.” "
15,Rouble rate is important factor in Russia's position on OPEC+ deal – Reuters,"Russian oil companies are worried about the risk of a higher rouble rate due to the planned sales of Sberbank, Reuters reported on Friday, citing a source familiar with the matter.Companies also believe the rouble rate is an important factor in Russia's position regarding the OPEC+ output cut agreement.""A lot of dollars will come to the market, boosting the rouble, so 'a rouble barrel' will become cheaper,"" one of the sources explained Reuters.The market reaction to this headline was muted. As of writing, the barrel of West Texas Intermediate was trading at $51.88, adding 0.75% on the day and the USD/RUB pair was down 0.09% on the day at 63.5838."
16,"USD/CHF retakes 0.9800 mark, 1-1/2-month tops","The USD/CHF pair climbed to 1-1/2-month tops during the early European session on Friday and was seen extending the momentum further beyond the 0.9800 round-figure mark.The pair extended its recent strong bullish momentum and continued gaining some follow-through traction for the third consecutive session on Friday – also marking its ninth day of a positive move in the previous ten.Despite growing concerns over the economic impact of the deadly coronavirus, some stability in the global financial markets weighed on the Swiss franc's safe-haven status and continued driving the pair higher.This coupled with the fact that the US dollar index remained well supported near multi-month tops, around the 99.00 mark, provided an additional boost and remained supportive of the ongoing upward trajectory.Meanwhile, bulls seemed rather unaffected by sliding US Treasury bond yields, which might cap any further USD gains and eventually keep a lid on any subsequent positive move, at least for the time being.Moving ahead, market participants now look forward to the US macro data – monthly retail sales figures and the Michigan Consumer Sentiment Index – for some short-term impetus on the last trading day of the week.  "
17,"US Dollar Index Price Analysis: DXY grinds to fresh 2020 highs, challenges 99.20 resistance",  
18,"GBP/USD Forecast: Boris-bounce faces top tests, double-top, after the reshuffle rally","Keep calm and carry on – the famous saying is relevant to pound/dollar's trading. The currency pair hit the lowest since November only to recover amid calm from all sides about the coronavirus outbreak and a favorable change in the UK government. The focus now shifts to fresh economic figures. ""Bloodbath,"" ""Thrown under the bus,"" Knifing"" – read some of the headlines following the cabinet reshuffle. Prime Minister Boris Johnson forced Sajid Javid out of his position as Chancellor of the Exchequer, replacing him with the less known Rishi Sunak. The change at 11 Downing Street – which shocked observers – aligns the Treasury with the PM and opens the door to infrastructure spending. Dominic Cummings, the PM's powerful aide, saw Javid and his advisers as roadblocks to implementing investment plans. The deficit limits that had been in place toward the March 11 budget are now out. In regular times, fiscal imprudence would have been punished by markets – but these are abnormal times. Investors see the budgetary spending is boosting the economy – and pound traders speculate that the Bank of England is now relieved of further stimulating the economy with rate cuts. GBP/USD jumped in response to the political developments that turned into the defining moment of the week for sterling. The coronavirus outbreak has been topping the list as the death toll in China continued rising, and the disease spread around the world, including to Brighton. However, the economic impact seems contained as most Chinese factories returned to work, and the pace of new infections has decelerated. Stock markets advanced, and the better market mood helped sterling advance. Mark Carney, the outgoing Governor of the Bank of England, compared the current scare to previous ones and noted that bounces followed disease-related economic downturns. On the other side of the pond, Jerome Powell, Chairman of the Federal Reserve, said that he is closely monitoring developments, but there is no reason to doubt the expansion will last. The words of both central bankers, and those from Chinese policymakers, helped soothe markets. While a vaccine to the coronavirus may take many months, the pound seems to be immune to Brexit headlines. Both the UK and the EU continued digging into their positions. Sajid Javid, the UK Chancellor of the Exchequer, said that Britain aims to maintain equivalence with the EU – essential for the financial services sector – while making its own rules.The response from Michel Barnier, the EU's Chief Negotiator, was swift and blunt – ""Don't kid yourself."" Investors fear that the UK may revert to World Trade Organization rules once the post-Brexit transition period expires at year-end.The UK's exit and the uncertain elections took their toll on the UK during the fourth quarter as growth screeched to a halt. However, there was a silver lining for sterling bulls, as yearly growth exceeded expectations with 1.1%. Overall, investors are focusing on more recent data from after the elections than from the bitter end to 2019.US data has been mixed. The Core Consumer Price Index hit 2.3% in January and the University of Michigan's Consumer Sentiment stands at 100.9 in February, both above expectations. On the other hand, the Control Group on Retail Sales remained flat – below expectations – and on top fo downward revisions. Industrial output also fell short of estimates.A follow up to the cabinet reshuffle may move markets. The government may brief – or leak – the extent of its potential fiscal stimulus. Sterling may respond positively to a more massive splash, while it may slide if Sunak's plans remain close to Javid's ones.Brexit-related headlines are likely to continue moving the pound, and they may become harsher. Both sides are unlikely to compromise until official talks begin. Markets' recent shrugging off of such briefs and leaks may end. The economic calendar will undoubtedly keep sterling traders busy as well. Business sentiment has leaped in January after the mid-December elections, and now several pieces of hard data shed some light on economic performance last month.Did the economy receive a ""Boris bounce""?The jobs report is mostly focused on figures for December, but the Claimant Count Change for January serves as a snapshot for recent labor market developments. An increase in claims is on the cards. Economists expect the Unemployment Rate to remain around historic lows of 3.8% in December, and wage growth will likely dominate the reaction – even though it is for December.After relatively robust figures in November, Average Earnings are set to decline by 0.1% – both when including and when excluding bonuses. The BOE is closely following development in salaries to assess potential inflation.The CPI data is due out on Wednesday and carries mixed expectations. Headline inflation is forecast to remain at 1.3% in January, and Core CPI is predicted to edge up to 1.5%. Thursday's retail sales figures for January may prove to be the most significant gauge of post-election sentiment. Shopping volume squeezed in both November and December. The slide of 0.6% in the last month of 2019 is forecast to make way for an increase of the same percentage in the first month of 2020. A third consecutive fall would be worrying. And after three ""hard data"" reports, the week concludes with fresh, forward-looking figures from Markit. The preliminary Purchasing Managers' Indexes for February will likely continue showing cautious optimism – statistics marginally above 50, reflecting modest growth. PMIs have been below that threshold – pointing to contraction – during long months last year. Here is the list of UK events from the FXStreet calendar:The coronavirus outbreak continues central to market movement. The pace of infections and the number of cases outside China will likely be watched closely. Any halt of economic activity in the world's second-largest economy or any spread in major economies may dampen markets. On the other hand, without alarming news, investors may focus on different topics.The dollar's reaction has been inconsistent. While the greenback attracts safe-haven flows, investors flock into US treasuries, pushing yields lower and making the dollar less attractive. How will the currency react moving forward? That remains an open question.The economic calendar features several noteworthy publications. The Federal Reserve's meeting minutes from the January meeting may provide insights on the bank's openness to cutting rates – despite its current ""wait-and-see"" stance. Traders will examine the level of willingness among doves and others to reduce borrowing costs if the economic outlook deteriorates. The statement on January 31 included subtle downgrades and the document – revised until the last moment to convey a message to investors – may put more emphasis on the coronavirus outbreak. Housing figures for January will likely show an ongoing expansion in the sector, which is enjoying robust growth. The Philly Fed Manufacturing Index for February may provide insights into the industrial area after the signing of the Sino-American trade deal. Markit's PMIs are also of interest, and economists expect them to show moderate growth in both the manufacturing and services sectors. Here the upcoming top US events this week:Pound/dollar has made significant strides in February, but the 300-pip run is now facing a double-top at 1.3070 – which was hit twice in February. Moreover, it converges with the 50-day Simple Moving Average. The bias remains in favor of the bulls as momentum turned positive, and the pair trades above the 100 and 200-day SMAs.Above 1.3070, resistance awaits at 1.3120, a high point in mid-January. It is followed by 1.3210, another double-top from both January and February. Next, the 2020 peak of 1.3285 looms, and it is followed by 1.3420 and 1.3510. Support awaits at 1.2950, which provided support in January and also beforehand. The round 1.29 level held cable up in December and also had a role recently. It is closely followed by 1.2875, 2020 low, and then by 1.2820 and 1.2775. The upcoming week may be a return to reality – the economy is going nowhere fast. After the optimism about fiscal stimulus, sterling may correct lower, also amid Brexit fears and the coronavirus scare – which has yet to peak. The FX Poll is showing a bullish bias on all timeframes. However, it is essential to note that experts have been upbeat on cable before the recent rise and that average targets have been mostly unchanged in the past week."
19,AUD/USD: A bearish breakout to drive the price downside,"AUD/USD produced a bearish reversal candle on the daily chart yesterday. The price was bullish to start its trading day today. It then had a rejection. Since then it has been bearish on the H1 chart. The sellers may go short on the pair below the last swing low to grab some green pips. The price had a rejection twice at the level of 0.67295. At the last rejection, after producing a bearish inside bar, the chart has produced consecutively three more candles that are bearish. Thus, if the price makes a breakout at the level of 0.67100, the sellers may trigger a short entry. Entry: Sell below 0.67100Stop Loss: Above 0.67295Take Profit 1: 0.67038Take Profit 2: 0.66965Take Profit 3: 0.66875Please Note: Its Friday market today. Since it's a trade setup based on the H1 chart, the sellers may consider closing the trade manually just before the London Session closes.  Try Secure Leveraged Trading with EagleFX!"
