,title,text
0,Forex Today:  All eyes on the US Federal Reserve,"Here is what you need to know on Wednesday, July 29:  The USD got to recover some ground at the beginning of the day, after  late on Monday, US Senate Republicans unveiled the new coronavirus aid package proposal, that will now need Democrats’ support. The plan would include another round of $1,200 in direct payments to individuals, more money for the Paycheck Protection Program, a reduction in federal unemployment benefits from $600 to $200, liability protection, and more than $100 billion for reopening schools. Later in the day, US Senate majority leader McConnell says no bill will be put on floor without liability protection.Dollar’s gains were limited and temporal, indicating that the American currency remains out of investors’ radar ahead of the Federal Reserve decision and the preliminary estimate of Q2 GDP. The EUR/USD pair finished the day with modest losses around 1.1720 confined to a tight range on a daily basis.  GBP/USD soared to the 1.2950 region, holding nearby at the end of the day, backed by an upward surprise in a local retail sales report.UK PM Johnson warned of a second wave of coronavirus hitting Europe, adding that he won’t hesitate to take decisive action to prevent the UK from suffering from another outbreak. His comments came after the UK imposed a two-week quarantine to all those travelers arriving from Spain.Wall Street closed in the red after Asian and European indexes posted tepid gains. Earnings reports missed expectations amid coronavirus lockdowns.Commodities eased from their recent highs, with gold flirting with 1,900 but settling at around $1,960 a troy ounce.Oil prices eased ahead of US stockpiles reports, but WTI settled at around $41.00 a barrel.Cryptocurrency Market News: Bitcoin remains around $11,000 while bullish sentiment continues increasing"
1,"Forex technical analysis and forecast: Majors, equities and commodities","After forming the ascending wave at 1.1780, EURUSD is correcting. Possibly, the pair may fall to reach 1.1678 and then form one more ascending structure with the target at 1.1816. Later, the market may resume trading downwards as a correction towards 1.1580. After finishing the ascending wave at 1.2904, GBPUSD is expected to correct with the target at 1.2787. After that, the instrument may start a new growth towards 1.2930 and then resume falling as a correction to reach 1.2666. USD/RUB continues growing towards 72.04 and may later correct to break 71.66. After that, the instrument may continue trading downwards with the target at 71.28 and then form a wide consolidation range around this level. USD/JPY has completed the descending wave at 105.10; right now, it is correcting to reach 105.79, at least. Later, the market may resume trading downwards towards 105.04 and then start another correction with the target at 106.16. USD/CHF is consolidating around 0.9220. Today, the pair may start another growth to break 0.9242 and then continue trading upwards with the short-term target at 0.9296. After finishing the ascending wave at 0.7176, AUDUSD is expected to fall and break 0.7100. After that, the instrument may continue trading downwards with the short-term target at 0.7000. After completing the descending structure at 43.33, Brent has finished the ascending impulse towards 44.10. Possibly, the pair may start another decline towards 43.55 and then grow to break 44.44. Later, the market may continue trading upwards with the short-term target at 45.80. After completing the ascending wave at 1980.66, Gold is correcting towards 1929.50. After that, the instrument may form one more ascending structure with the target at 1993.10 or even 2000.00. Later, the market may correct to reach 1955.50. After reaching 10750.00 and forming an upside continuation pattern, BTCUSD has extended the wave two-fold to reach 11400.00; right now, it is correcting to return to 10750.00. Later, the market may start a new growth towards 11000.00 and then resume trading downwards to break 10700.00. After that, the instrument may form a new descending structure with the target at 10150.00. After completing the correction at 3250.5, the S&P 500 Index is expected to fall and break 3222.2. After that, the instrument may form a new descending structure to break 3200.0 and then continue trading downwards with the short-term target at 3150.4."
2,EUR/USD Forecast: Bulls paused but retain control,"The EUR/USD pair eased from a 22-month high of 1.1781, as speculative interest took some profits out of the table, helping the greenback to correct extreme oversold conditions. The pair bottomed for the day at 1.1698, from where it slowly recovered as the American currency remains the weakest across the FX board.The macroeconomic calendar has been quite scarce so far this Tuesday, with no data coming from the Union.  The US session will bring the CB Consumer Confidence, foreseen at 94 from 98.1 in the previous month.  Meanwhile, the US Senate Republicans presented their coronavirus relief proposal. It includes another round of $1,200 in direct payments to individuals, more money for the Paycheck Protection Program, a reduction in federal unemployment benefits from $600 to $200, and more than $100 billion for reopening schools. That said, it’s just a proposal that has yet to get the approval of Democrats.The EUR/USD pair is holding above the mentioned daily low ahead of Wall Street’s opening but lacks bullish momentum. The technical stance is bullish despite the ongoing bearish correction, as, in the 4-hour chart, the pair continues to develop above a sharply bullish 20 SMA, which currently stands at 1.1660 providing dynamic support. The larger moving averages gain strength upwards below it, while technical indicators are regaining the upside after correcting extreme overbought conditions.Support levels: 1.1700 1.1660 1.1625Resistance levels: 1.1740 1.1785 1.1820View Live Chart for the EUR/USD"
3,FX daily: Temporary pause in US dollar decline,"The dollar decline stalled overnight but we see this as a temporary pause in a structural bear trend, as the Federal Reserve is likely to remain dovish and Senate Republicans have presented plans to reduce jobless benefits by two thirds, underscoring the downside risks to the US recovery. The dollar decline stalled overnight, yet there is little to suggest this is more than just a temporary pause in the currency’s slide as the FOMC is likely to retain its dovish, non-supportive bias for the dollar tomorrow. In terms of US fiscal stimulus, Senate Republicans presented a $1 trillion bill which reduces jobless benefits by two thirds (from $600 to $200). It remains unclear as to when and in what form the stimulus will be passed, with a possible delay underscoring the downside risks to the US economic recovery (already hit by rising Covid-19 cases). Consequently, the prospects for more a pronounced and longer lasting US dollar rebound appear to be limited, with the dollar remaining in a structural bear trend, in our view. We look for EUR/USD to stay in the 1.17-1.18 trading range today, with the prospects of a possible dovish FOMC bias tomorrow keeping the cross supported. In Sweden, June retail sales should have a limited impact on the currency, with the krona being primarily driven by global factors. The soft USD environment and the recent positive news from the eurozone (both on the political and economic data fronts) make the krona one of the stand-out performers in the G10 FX space. Latest media reports that the UK government remains determined to support a light touch state aid regime at odds with EU requirements on a level playing field (and in turn hampering prospects of a trade deal being agreed any time soon) continue to underline the lack of near-term attractiveness for sterling and suggest the currency will underperform vs most of its European FX peers. We retain a negative GBP bias, with EUR/GBP set to grind higher in coming weeks and GBP/USD to underperform EUR/USD. AUD/NZD has been forming a downward trend after peaking at 1.0750 last week and we see reasons for more weakening in the pair in the short term. The Aussie dollar continues to present a larger amount of idiosyncratic risks compared to its New Zealand counterpart: the pandemic crisis in Australia continues to be quite concerning as the lockdown in Victoria still has to successfully flatten the contagion curve, AUD is relatively more exposed to tensions with China (Australia is having a diplomatic spat with China itself) and more correlated to CNY than NZD. We continue to see scope for a break below 1.0600 in AUD/NZD in the short term. Read the original report: FX Daily: Temporary pause in US dollar decline"
4,"Cool video: TD ameritrade - overview of currencies, rates, and gold","I had the privilege of joining TD Ameritrade's Ben Lichtenstein, who I enjoy talking with. People who trade futures often look across the capital markets. By contrast, banks are so regimented and fragmented that often it seems that few follow developments in other markets that do not impact theirs in obvious or direct ways.In this 9.5-min clip, we talk about gold, the dollar, and interest rates. If I am right, and the third major dollar rally since the end of Bretton Woods has ended, then we are still in the early days of what could be a multi-year move.I sometimes tease that there is a correlation between the number of churches and the number of mortuaries in a city. They are correlated to population size. Similarly, I suggest here that gold, equities, and the dollar being driven by the same force. Low-interest rates now and for as far as the eye can see. The US interest rate advantage has been diminished, and its growth outperformance over Europe appears to have ended."
5,Chart of the Day: NZD/JPY,"The NZDJPY is sitting on support which is the confluence of the 50% retracement of the June lows to July highs, and also the 24% retracement of the May lows to May/July highs. The risk is if we break the 69.75 level the market may see a double top forming and looks to target the 200dma at 68.75 or lower in the weeks ahead. Any reviews, news, research, analysis, prices or other information contained on this website is provided as general market commentary, does not constitute investment advice and may undergo changes from time to time. Trading the Financial and Currency Markets on margin carries a high level of risk and may not be suitable for all investors. The high degree of leverage can work against you as well as to your favor. Before entering trading Financial and Currency Markets, you should carefully consider your investment objectives, level of experience and risk appetite. There is a possibility that you could sustain a loss of some or more of your initial investment and therefore you should not invest money which you cannot afford to lose. You should be aware of all the risks associated with Financial and Currency Markets trading, and in case you have any doubt, rather seek advice from an independent financial advisor. FOREXANALYTIX LLC, its owners, employees, agents or affiliates do not give investment advice, therefore FOREXANALYTIX LLC assumes no liability for any loss or damage, including without limitation to, any loss of profit, which may be suffered directly or indirectly from use of or reliance on such information. We strongly encourage consultation with a licensed representative or financial advisor regarding any particular investment or use of any investment strategy.
As part of our service we provide “Patterns in Play” (abbreviated as “P.I.P.’s”). These PiPs are derived from certain clearly defined patterns that the team members identify from their analysis. Each PiP is indicated with its corresponding theoretical entry, target and invalidation levels. Please note that these are not trade recommendations; they are simply our team’s interpretation of these patterns and their theoretical levels.
Any information or material contained on this website including, but not limited to, its design, layout, look, appearance and graphics is owned by or licensed to FOREXANALYTIX LLC. Reproduction is prohibited without FOREX ANALYTIX LLC prior license in writing."
6,EUR/JPY: Bearish bias on the charts as we head into the Fed,"EUR/JPY is currently trading with a bearish bias at 123.16 between a session's range of 123.02 and 123.19 so far. The themes in play are supporting a bid on the yen while investors move to the sidelines ahead of today's Federal Reserve meeting and while there are slimming expectations of a US rescue deal which weighs on risk sentiment and the greenback.However, there was a technical bid on the DXY and consequently, EUR/USD chopped down 30 pips overnight while the USD/JPY fell from 105.65 to 104.96 – a fresh low since March on falling equities.Looking ahead, analysts at Westpac explain that yhe FOMC is expected to hold fire after today’s meeting, but markets will be watching the post-meeting press conference closely for comment on risks and options for further easing.Many forecasters expect a change in forward guidance on rates at the September meeting.Meanwhile, the US Federal Reserve announced an extension of most of its emergency lending measures, which were due to expire around 30 September, until year-end, with the exception of their Commercial Paper Funding Facility extended to March 2021, the analysts explained.“The three-month extension will facilitate planning by potential facility participants and provide certainty that the facilities will continue to be available to help the economy recover from the Covid-19 pandemic,” the Fed statement said. Since mid-March, the Fed has started nine emergency programs aimed at pumping liquidity into short-term credit markets and extending credit to businesses and local governments affected by the economic fallout from COVID.EUR/JPY is sitting just below the June high at 124.43 and the 200-week ma at 124.80. On a nearer-term analysis, we see the price entering a symmetrical triangle on the 15 min charts as an hourly bearish impulse corrects to a 38.2% Fibonacci retracement level.This equates to a bearish bias on a break of the triangle and bears will look towards a 3-month uptrend at 121.80. "
7,US futures turn positive as republicans unveil $1 trillion stimulus,"The US dollar dropped to the lowest level in two years as fears of uneven recovery of the US economy remained. The greenback dropped against all currencies in the developed world and most currencies in the emerging market. Attention now shifts to the Federal Reserve, which will start its monthly meeting today and deliver its decision tomorrow. Analysts believe that the bank will leave interest rates and the quantitative easing program unchanged. They also expect Jerome Powell to talk about more easing measures to support the embattled economy.US futures rose as investors continued to focus on stimulus from Washington. In a statement yesterday, Republicans in the senate unveiled a $1 trillion package that they hope will support the economy. Their package will cut the weekly unemployment benefits from $600 to $200 per week. The goal is to incentivise people to go back to work. Democrats want to extend the $600 benefits to January next year. Also, their package includes $1,200 payouts to individuals and liability protection for companies that are following guidelines. It also includes $16 billion for testing and $25 billion for hospitals. Gold price continued to rally in overnight trading as the talk of stimulus continued. It is now trading just $30 below the important $2,000 milestone. Other metals, too, have risen sharply, including silver, copper, and palladium, that are trading at multi-year highs. Today, with no major economic release in the calendar, the metals will likely continue to rise. Meanwhile, investors will refocus on corporate earnings, with companies like Michelin, Live Nation, Dolby Labs, and Johnson Matthey expected to release their quarterly earnings. The EUR/USD pair is trading at 1.1757, which is a few pips below yesterday’s high of 1.1780. On the daily chart, the price is above the 50-day and 100-day exponential moving averages while the RSI has moved to the highest level in years. The same is true with the signal and main line of the MACD indicator. Therefore, while the pair is likely to continue moving higher, a pullback is also possible as bulls take profit. The GBP/USD pair rose to an intraday high of 1.2885, which is the highest it has been in months. On the four-hour chart, the price is above the 50-day and 100-day exponential moving averages. The RSI has moved to the overbought level of 70 while the accumulation and distribution line has continued to rise. The upward trend is likely to continue as bulls aim for the 1.2900 resistance level.  The XAU/USD pair rose to an intraday high of 1978, which is a new record price. On the daily chart, the price is above all the short, medium, and long-term moving averages. Also, the RSI has moved to the overbought level of 70 while the two lines of the Relative Vigour Index are at the highest level in months. Therefore, it seems that there is momentum on gold’s side, which means that the price is likely to continue rising. Still, it is possible that a pullback will happen as the Fed starts its meeting.General Risk Warning for FX & CFD Trading. FX & CFDs are leveraged products. Trading in FX & CFDs related to foreign exchange, commodities, financial indices and other underlying variables, carry a high level of risk and can result in the loss of all of your investment. As such, FX & CFDs may not be appropriate for all investors. You should not invest money that you cannot afford to lose. Before deciding to trade, you should become aware of all the risks associated with FX & CFD trading, and seek advice from an independent and suitably licensed financial advisor. Under no circumstances shall we have any liability to any person or entity for (a) any loss or damage in whole or part caused by, resulting from, or relating to any transactions related to FX or CFDs or (b) any direct, indirect, special, consequential or incidental damages whatsoever."
8,USD/JPY to stay heavy below the previous support at 106.00 – OCBC,"USD/JPY is currently trading at 105.55, up 0.18% on the day, recovering from multi-month lows of 105.12 reached on Monday. Terence Wu, an FX strategists at OCBC Bank, expects the pair to experience some consolidation with the target set at the 105.00 mark.  “A clean break of the 106.00 support suggests that the USD/JPY is likely to remain depressed if it cannot reclaim that level. However, the pair is at the lower end of the tolerance range of the short-term implied valuation. This suggests some consolidation may be at hand.” “For now, the near-term target remains at 105.00/20, while the cap comes in at 106.00/20.” "
9,Hints of a respite to dollar selling as gold threatens to pullback [Video],"Selling pressure on the dollar has been a huge factor across major markets in recent sessions. However, with month-end, a Fed meeting and subtle shifts in the COVID outlook, is this move about to see a retracement and a near term dollar rally? There are signs that perhaps the increase in US COVID infections may be flattening off, we are beginning to see rates pick up across the Eurozone once more. Could this subtle shift be enough to take focus away from the perception of US economic underperformance? The FOMC begins its two day meeting today and the July meeting contains no projections and traders will be wondering where the dovish surprise could come from that would drive renewed selling pressure. Furthermore, can Congress come to an agreement on the latest round of US fiscal stimulus? The paycheque support from the CARES Act expires this week and Congress will be eager to see a replacement agreed. As this all comes together, it is interesting to see some of these extremely overbought markets threatening to pull back this morning. Gold is -$40 off its overnight high of $1980, whilst EUR/USD, USD/JPY and Cable are all back from their extremes too. Is this a moment where profits are taken? Month-end positioning also becomes a factor too as the week develops.Wall Street closed solidly higher last night with the S&P 500 +0.7% at 3239, whilst futures (E-mini S&Ps) are all but flat this morning. Asian markets have again been stable overnight, with the Nikkei -0.3% and Shanghai Composite +0.2%. European indices follow a similar path, with FTSE futures +0.3% and DAX futures +0.4%. In forex, there is an early hint of a USD rebound, albeit only slight, with EUR and NZD the main underperformers initially. In commodities, the hint of dollar rebound is also reflected through gold trading -$4 lower (-0.2%) but also around -2% off its earlier highs), whilst silver is around -1% lower today. Oil is around the flat line.There is a US focus to data on the economic calendar today. The S&P Case Shiller House Price Index for May is at 1400BST and is forecast to remain at +4.0% once more (+4.0% in April). The main data for the day will be the Conference Board’s US Consumer Confidence which is at 1500BST and is expected to deteriorate in July to 94.5 (down from 98.1 in June). Also keep an eye out for the Richmond Fed Composite Index at 1500BST which is expected to improve to +5 in July (from 0 in June). We have been following the development of a potential recovery on Euro/Aussie for a while. With the euro taking off in the past week, this recovery potential is growing. It is taking several weeks, but a rebound from the June low at 1.6030 has found a second low around 1.6100, which means that a move above a prospective neckline at 1.6585 would complete a base pattern. This pattern is still some way from completion, but the market has now broken the last of any downtrends that remained and has moved above initial resistance at 1.6445 which has been holding back the bulls in the past five weeks. The way is now open for a test of 1.6585 key near term resistance which is a neckline of the base and also a pivot resistance. The momentum indicators give real encouragement, with the RSI above 50 for the first time since April, whilst Stochastics are also increasingly positive and MACD lines improving. This looks to be a market ready to make the next key step in the recovery. A close above 1.6585 would imply c. +580 pips towards a test of the April rebound high of 1.7195. Increasingly we see near term weakness within the base being a chance to buy for the recovery. Initial support band 1.6280/1.6400 holding would be something for the bulls to now build from. The bull control on oil is being tested, but so far is holding. Throughout the rebound since the April low of $16.00, the recovery uptrends have been constantly broken and subsequently been re-drawn with an ever-shallower trajectory. So it has been the support of the rising 21 day moving average (today around $43.10) that has become a mainstay in flanking the move higher. There has not been a closing breach of this moving average since the May rally really kicked in, and although there was another significant test yesterday, once more the indicator held as a basis of support. However, as the market has again failed to decisively push on in the past week, the recovery (and moving average) is flattening. We are becoming sceptical over the positive configuration of momentum being able to sustain the drive higher too. The overhead barrier of $45.20 (the old key March bear gap resistance) is sizable. The tendency too for small-bodied candles now also suggests a lack of conviction (either way) in the market. It is becoming a market in need of a catalyst again. Given the recovery, and continued run of higher lows, we still see a mild positive bias in the market for a test of $45.20, but it really is a tough trade to back with conviction. Support initially at $42.35 above the $41.30 first real higher low. A close above $45.20 would open $48/$50. A day of mild gains has just eased the selling pressure which has been threatening to build over recent sessions. Ticking higher by just over +100 points, the Dow has sustained its uptrend since the April low and helped to bolster the support band 26,300/26,610. It is interesting that the bulls could not see the market close above 26,610 and if the market just slips back from here again today it would introduce the prospect that 26,610 is becoming a basis of a new pivot. Around the support of the near 4 month uptrend and the 26,610 potential pivot, this suggests the market still looks to be trading around a crossroads. The importance of resistance at 27,070 will be growing all the time it remains intact. Momentum has notable tailed off in the past week and unless the bulls look to re-assert themselves soon, this phase of trading will suggest that the recovery is waning and this could be turning into a bigger range play. Read More Analysis Here: EUR/USD, GBP/USD, USD/JPY, GoldRisk Warning for Financial PromotionsHantec Markets' various market reports and commentary are issued by Hantec Markets Limited, who is authorised and regulated by the Financial Conduct Authority (FCA) in the UK, No. 502635. The reports are prepared and distributed for information purposes only.Trading in Foreign Exchange (FX), Bullion and Contracts for Differences (CFDs) is not be suitable for all investors due to the high risk nature of these products. Forex, Bullion and CFDs are leveraged products that can result in losses greater than your initial deposit. The value of an FX, Bullion or CFD position may be affected by a variety of factors, including but not limited to, price volatility, market volume, foreign exchange rates and liquidity. You may lose your entire initial stake and you may be required to make additional payments. Please ensure you fully understand the risks involved, seeking independent advice if necessary prior to entering into such transactions. Before deciding to enter into FX, Bullion and/or CFD trading, you should carefully consider your investment objectives, level of experience, and risk appetite. You should only invest in FX, Bullion and/or CFD trading with funds you are prepared to lose entirely. Therefore, only your excess funds should be placed at risk and anyone who does not have such excess funds should completely refrain from engaging in FX and/or CFD trading. Do not rely on past performance figures. If you are in any doubt, please seek further independent advice.The reports do not constitute personal investment advice, nor do they take into account the individual financial circumstances or objectives of the clients who receive it. All information and research produced by Hantec Markets is intended to be general in nature; it does not constitute a recommendation or offer for the purchase or sale of any financial instrument, nor should it be construed as such. All of the views or suggestions within the reports are those solely and exclusively of the authors, and accurately reflect their personal views about any and all of the subject instruments and are presented to the best of the authors' knowledge. Any person relying on these reports to undertake trading does so entirely at his/her own risk and Hantec Markets does not accept any liability.© 2014 Hantec Markets Limited"
10,ECB extends dividend moratorium into 2021,"- ECB extends dividend moratorium into 2021- Corporate earning seasons shifting into a higher gear: US companies expected to reporting during the NY morning include Cummins, DR Horton, Corning, Harley Davidson, JetBlue, Labcorp, McDonalds, 3M, Altria Group, Pfizer, Sherwin-Williams, S&P Global, Xerox- FOMC is widely expected to leave policy unchanged on Wed- Fitch affirmed China Sovereign bonds at A+; Outlook stable- Total global cases 16,426,919 (+1.4% d/d); total deaths: 653.4K (+0.8% d/d)- UK May Lloyds Business Barometer: -22 v -30 prior- UK PM Johnson said to warn businesses the coronavirus pandemic could worsen again after the summer- UK said to be finalizing a plan by ministers would shorten the quarantine for people returning from Spain to 10 days if they test negative for Covid-19- Senate Republicans unveiled portions of new COVID relief proposal which confirmed to reduce week unemployment benefit supplement to $200 from current $600/wk. Plan would raise the threshold for suing businesses or schools for exposure to coronavirus; also provides liability limitations for health care providers. Hardest hit companies could get access to a second PPP loan; will also allow businesses to use forgivable PPP funds for personal protective equipment for worker - Senator McConnell: Stimulus bill was a starting place and noted that ot could not pass without Democrats.- Senate Minority Leader Schumer (D-NY): Republican plan needed much more money for schools- House Speaker of the House Pelosi (D-CA): Still hoped to come to a compromise on a stimulus bill EquitiesIndices [Stoxx600 +0.49% at 367.92, FTSE +0.51% at 6,136.10, DAX +0.42% at 12,893.15, CAC-40 +0.02% at 4,940.52, IBEX-35 +0.97% at 7,240.00, FTSE MIB -0.16% at 19,987.50, SMI +0.39% at 10,312.89, S&P 500 Futures +0.07%]Market Focal Points/Key Themes: European indices open modestly higher and continued into the green as the session progressed; among better performing sectors are materials and energy; underperforming sectors include consumer discretionary and financials; ECB extended recommendations to banks to not pay dividends, and BOE to study extending as well; IAG unit Iberia reportedly near agreement to buy Air Europa; upcoming earnings expected in US session indlude 3M, Pfizer, Raytheon and McDonald's - Consumer discretionary: Delivery Hero [DHER.DE] +3.5% (trading update), Greencore [GNC.UK] +5% (trading update), Mitie Group [MTO.UK] +3% (trading update), LVMH [MC.FR] -4% (earnings)- Industrials: PSA [UG.FR} +3.5% (earnings), Faurecia [EO.FR] +4% (analyst actions)- Technology: BE Semiconductor [BESI.NL] +6% (earnings), STMicroelectronics [STM.FR] -3% (offering)- Materials: Fresnillo [FRES.UK] -5% (earnings) - ECB supervisory board extended its recommendation for banking sector not to pay dividends until Jan 2021. Would not require banks to begin replenishing capital buffers before the peak in capital depletion was reached. The exact timeline to be decided after 2021 EU-wide stress tests- ECB SSM chief Enria: banks could pay dividends in shares- BOE statement announced that it would assess the banking sector dividend plan in Q4- Germany Public Health RKI Institute: latest infection trend is very worrying- China Foreign Ministry spokesperson Wang Wenbib: Hong Kong to stop extradition agreements with Australia, Canada and UK - USD retraced some of its steep losses in a very quiet EU session. Little data to motivate any fresh position taking. Focus turning to Wed's FOMC meeting where analysts expect the Fed to keep its policy unchanged. The greenback racked up losses over the past week on perceived growth differentials around the globe. Germany's economic recovery seemed well advanced via recent data releases.- EUR/USD lower by 0.3% to probe the lower end of the 1.17 handle- USD/JPY pair little changed at 105.35 area- Gold gold was choppy in Asia trading after approaching the $2K/oz level. Metal back under $1,930/oz by mid-session on profit-taking ahead of the psychological level - (NO) Norway Jun Retail Sales M/M: 5.7% v 2.8% prior- (ES) Spain Q2 Unemployment Rate: 15.3% v 16.1%e- (SE) Sweden Jun Trade Balance (SEK): 4.9B v 1.9B prior- (SE) Sweden Jun Retail Sales M/M: 1.0% v 0.8% prior; Y/Y: 3.5% v 2.7% prior- (ID) Indonesia sold total IDR22T vs. IDR20T target in bills and bonds- (UK) DMO sold £2.75B in 1.25% July 2027 Gilts; Avg Yield: -0.046% v +0.025% prior; bid-to-cover: 2.08x v 2.21x prior; Tails: 0.7bps v 0.3bps prior- (IT) Italy Debt Agency (Tesoro) sold €3.25B vs. €2.75-3.25B indicated range in 0.0% May 2022 CTZ bonds; Avg Yield: -0.031% v +0.102% prior; bid-to-cover: 1.66x v 1.32x prior (- (IT) Italy Debt Agency (Tesoro) sold €1.0B vs. €0.5-1.0B indicated range in 0.40% May 2030 Inflation-linked Bonds (BTPei); Real Yield: 0.46% v 1.29% prior; Bid-to-cover: 1.48x v 1.55x prior - 05:30 (ZA) South Africa Q1 Non-Farm Payrolls Q/Q: No est v 0.2% prior; Y/Y: No est v 0.2% prior- 05:30 (HU) Hungary Debt Agency (AKK) to sell 3-Month Bills- 05:30 (EU) ECB allotment in 7-Day Main Refinancing Tender (MRO)- 05:30 (DE) Germany to sell €4.0B in 0.00% Nov 2027 bunds - 05:30 (ZA) South Africa to sell combined ZAR6.6B in 2026, 2030 and 2032 bonds- 06:00 (UK) July CBI Retailing Reported Sales: -23e v -37 prior; Total Distribution: No est v -55 prior- 06:00 (IE) Ireland Jun Retail Sales Volume M/M: No est v -29.5% prior; Y/Y: No est v -26.7% prior (revised from -26.6%)- 06:00 (IL) Israel Jun Chain Store Sales M/M:- 06:00 (IL) Israel May Manufacturing Production M/M: - 06:30 (UK) DMO to sell £1.5B in 1.625% Oct 2054 Gilt- 06:45 (US) Daily Libor Fixing- 07:00 (RU) Russia announcement on upcoming OFZ bond issuance (held on Wed)- 07:00 (BR) Brazil July FGV Construction Costs M/M: 0.8%e v 0.3% prior- 07:45 (US) Goldman Economist Chain Store Sales- 07:45 (UK) BOE to buy £1.15B in APF Gilt purchase operation (3-7 years)- 08:00 (UK) Daily Baltic Dry Bulk Index- 08:45 (UK) BOE to buy £1.15B in APF Gilt purchase operation (7-20 years)- 08:55 (US) Weekly Redbook LFL Sales data- 09:00 (US) May Case-Shiller Home Price Index (20- City) M/M: 0.30%e v 0.33% prior; Y/Y: 4.05%e v 3.98% prior; House Price Index (HPI): No est v 224.08 prior- 09:00 (US) May S&P Case-Shiller (overall) Y/Y: No est v 4.73% prior; House Price Index (HPI): No est v 217.72 prior- 09:00 (EU) Weekly ECB Forex Reserves- 09:30 (BR) Brazil Jun Current Account Balance: $3.8Be v $1.3B prior; Foreign Direct Investment (FDI): $3.5Be v $2.6B prior- 09:30 (BR) Brazil Jun Total Formal Job Creation: -220.0Ke v -331.9K prior- 09:45 (UK) BOE to buy £1.15B in APF Gilt purchase operation (20+ years)- 10:00 (US) July Consumer Confidence Index: 95.0e v 98.1 prior- 10:00 (US) July Richmond Fed Manufacturing Index: 5e v 0 (flat) prior - 10:00 (MX) Mexico Weekly International Reserve data- 11:30 (US) Treasury to sell 2-Year FRN Notes- 13:00 (US) Treasury to sell 7-Year Notes- 15:00 (AR) Argentina Jun Trade Balance: No est v $1.9B prior- 16:30 (US) Weekly API Oil Inventories- 17:00 (KR) South Korea July Consumer Confidence: No est v 81.8 prior- 19:01 (UK) July BRC Shop Price Index Y/Y: No est v -1.6% prior- 21:10 (JP) BOJ Outright Bond Purchase operation for1~3 Years; 3~5 Years maturities - 21:30 (AU) Australia Q2 CPI Q/Q: -2.0%e v +0.3% prior; Y/Y: -0.5%e v +2.2% prior "
11,,
12,,
13,,
14,,
15,,
16,,
17,,
18,,
19,,
