,title,text
0,EUR/USD breaks out of the descending wedge formation on the 4-hour chart,"The US dollar has been trading well today but it has been more of a function of USD weakness. EUR/USD has been a great performing pair over the last month or so rising 3.31%. On a technical note, the main feature on the chart is the descending wedge pattern. The pattern has now been broken to the upside but only just. The price also broke through the 4-hour 55 period Exponential Moving Average. The market has been making some lower highs and lower lows but the previous wave high has now been broken. So back to bullish mode for the pair. The MACD indicator is now mixed, the histogram has moved into the green but the signal lines are still below the mid-point. The Relative Strength Index has pushed above the 50 line and now positive territory and there is still room to move to the upside.Over the coming sessions, the main support level will be the wave low of 1.1168 and the resistance zone on the upside is 1.1285. Beyond that 1.1350 also looks like it could be sticky but if the bulls can break through there then the bull run is certainly back on.  "
1,Traders watching EUR/USD as it nears hft selling zone!,"Analysis of high-frequency trading algorithms in the Forex market this morning reveals that the EURUSD currency pair may provide attractive opportunities from the sell side later in the session.EURUSD has been on the rise since the early morning and soon is going to reach the light HFT selling pressure zone, which is located at 1.1231 and above. Channel resistance is near the HFT area, providing an additional incentive for sellers to enter the market.The price is already reacting to the channel resistance, while today's bullish leg has reached overbought levels on the hourly timeframe. A reversal signal around current levels will confirm the bearish scenario for today, which may drive EURUSD down toward the light HFT buying pressure zone that is noted at 1.1145 and below.  FX Trading Revolution - Your Revolutionary Forex SourceHigh Risk Warning: Please note that foreign exchange and other leveraged trading involves significant risk of loss. It is not suitable for all investors and you should make sure you understand the risks involved, seeking independent advice if necessary.ADVISORY WARNING: Any news, opinions, research, data, or other information is provided as general market commentary and does not constitute investment or trading advice. FXTradingRevolution.com expressly disclaims any liability for any lost principal or profits without limitation which may arise directly or indirectly from the use of or reliance on such information."
2,USD/JPY bulls now eyeing a sustained move beyond 107.00 mark,"The USD/JPY pair was last seen trading near session tops, with bulls now awaiting a sustained move beyond the 107.00 round-figure mark.Investors initially turned to the safe-haven Japanese yen amid concerns over a surge in new coronavirus infections. In fact, the World Health Organization (WHO) reported a record increase in global coronavirus cases on Sunday and led to some risk-aversion trade during the early part of trading activity on the first day of a new week.However, a turnaround in the risk-sentiment drove flows away from traditional safe-haven assets and assisted the USD/JPY pair to quickly reverse an early dip to the 106.70-75 region. The pair bounced around 20-25 pips from daily lows, albeit some intraday US dollar weakness held investors from placing any aggressive bullish bets and capped the upside.Even from a technical perspective, the pair remains well within a broader trading range held over the past three sessions. This makes it prudent to wait for some strong follow-through buying before traders start positioning for any further near-term appreciating move for the USD/JPY pair.Moving ahead, market participants now look forward to a relatively thin US economic docket, which features the only release of Existing Home Sales. The data might influence the USD price dynamics and provide some short-term trading impetus later during the early North American session.  "
3,EUR/USD jumps to five-days highs above 1.1250 as US dollar drops further,"The EUR/USD pair rose further after the beginning of the American session and climbed to 1.1269, reaching the highest level since June 17. The move higher gained speed after breaking the 1.1225 resistance boosted by a weaker US dollar.The US Dollar Index (DXY) is correcting lower after rising during four consecutive days and is falling 0.55%, the worst performance in more than a week. The DXY dropped toward the 97.00, retreating further from the 20-day high it reached on Friday at 97.72.Lower US yields weighed on the US dollar. The 10-year yield fell to 0.676%, the lowest level since June 15. In Wall Street, the Dow Jones is rising 0.45% and the Nasdaq 0.80%. Risk appetite is also weakening the greenback, that with the Japanese yen are the worst performers.Economic data from the US came in mixed, with the Chicago Activity Index rising above expectation and Existing Home Sales falling much more than expected. In Europe, the Consumer Sentiment Index recovered from -18.8 to -14.7, probably boosted by the reopening of the economies and monetary and fiscal stimulus. The European recovery fund for countries hit by the coronavirus is not ready yet as negotiations continue to take place.“Since the good news on the EU recovery fund, Euro denominated risk assets have traded much more robustly, and although the size of the package isn’t ‘blockbuster’, it’s certainly a step in the right direction for European policy and growth. In essence, EA ‘break-up’ risk premia has now markedly been reduced and may support EUR over the medium term”, explained analysts at Citibank.   "
4,ECB's De Guindos: A pan-European fiscal reaction to the pandemic is necessary,"European Central Bank (ECB) Vice President Luis de Guindos told Der Spiegel – a German-language news website – that banks have a profitability problem and the pandemic will worsen this situation.Meanwhile, the headlines did little to influence the shared currency or provide any meaningful impetus to the EUR/USD pair, which was last seen trading with modest gains near the 1.1200 mark."
5,EUR/USD capped by 20-day SMA; lacks clear direction in medium term [Video],"EURUSD has been in a declining move over the last two weeks after the pullback off the 1.1420 resistance level. Currently, the pair is lacking direction in the medium-term, however, the 40-day simple moving average (SMA) posted a bullish cross with the 200-day SMA. The RSI is marginally sloping up near the neutral threshold of 50, while the MACD is still losing ground below its trigger line.The price is capped by the 20-day SMA and looks ready to find support at the 1.1145 barrier. Clearing this key region, it would hit the 1.1020 support, which overlaps with the aforementioned bullish cross of the SMAs and the 1.0985 obstacle. A fall below the latter level could open the door for the 1.0870 line, which stands near the lower surface of the Ichimoku cloud and the 1.0720 – 1.0770 area, remaining in a consolidation zone. Only a drop under the three-year low of 1.0635 would shift the outlook from neutral to bearish.On the other side, if the price runs higher, it could meet resistance at 1.1420 and the 13-month peak of 1.1495. Above that, the 1.1570 hurdle could be a crucial level for more increases changing the bias to bullish.  Summarizing, EURUSD is failing to improve the positive move from the three-year trough of 1.0635, but the RSI and the bullish cross of the SMAs are signs of optimism for more gains. "
6,EUR/USD: Support at 1.1122 to hold the setback – Credit Suisse,"Although EUR/USD is now attempting to extend the rebound further north of the 1.1200 level there is scope for further weakness yet to the 38.2% retracement of the entire rally from March at 1.1122, which is set to hold, according to analysts at Credit Suisse.“EUR/USD weakness has extended to just shy of next flagged support at 1.1160/54 – the 38.2% retracement of the rally from late April. Although this is holding for now, our ‘ideal’ roadmap remains for weakness to extend a touch further below here to test the 38.2% retracement of the entire rally from March at 1.1122. We would then look for a more important low to be found here for a fresh attempt to resume what we believe remains a more significant uptrend. Should weakness directly extend we would see the next meaningful support at the 50% retracement and rising 200-day average at 1.1035/28.” “Near-term resistance remains at the 13-day average at 1.1225. Above 1.1255/65 would increase the risk a low may already be in place to reassert a bullish bias for strength back to 1.1339 then a retest of key resistance from the medium-term downtrend and 38.2% retracement of the 2018/2020 fall at 1.1348/69.” "
7,EUR/USD: Ahead of the EU PMI,"EUR/USD has started the week with the right leg after falling down for almost two weeks. Most analysts link this risk appetite with eased restrictions all over the world. Also, the US data turned out better than analysts expected, what improved the market sentiment. In addition, last week several central banks gave more optimistic prospects for the economy which kept risk assets well bid. The US President Donald Trump claimed that he ""can't shut down the economy again"". Even if the second wave comes again, its impact will be less devastating and more localized. Nevertheless, there are factors that weigh on the European single currency. First of all, fears of a second COVID-19 wave are competing with the encouraging economic data. The World Health Organization reported 183,000 new cases on Sunday which is the largest daily increase on record. Also, Friday's European Council meeting left a lot of uncertainty as EU members couldn't make any agreement on the coronavirus recovery fund. Investors will wait for the July meeting for some hints. It will be the big day for EUR on June 23 as traders will get French, German and EU Manufacturing PMI starting at 10:15 MT time. These indicators will help to understand the real state of the EU economy these days. If the data comes better than forecasts, EUR will rise. Also, take a look at the US Manufacturing PMI, that will be released later the same day at 16:45 MT time. It will add some volatility to EUR/USD, as well. According to Goldman Sachs, ""Recent developments are a good reminder that ""bad news"" from the US can paradoxically lift the Dollar if it affects investor risk appetite or raises questions about the global economic outlook."" Based on that, we can assume that the positive US data will push EUR up. On the weekly EUR/USD chart you can easily notice that the 200-week moving average is the barrier that EUR/USD has failed to break twice during the crisis. It will continue to play this role for the week ahead. The 200-weak MA is currently seen at 1.1330. However, on the daily chart the closest resistance is at 1.125. From the bearish perspective, if it breaks down the support at 61.8% Fibonacci level at 1.1165, it will fall even lower to 50% Fibo at 1.1065. Follow the EU PMI tomorrow!"
8,EUR/USD probes session tops above 1.1200,"EUR/USD seems to have met some decent support in the vicinity of 1.1180 so far this month, managing to regain some composure and advance above 1.1200 the figure on Monday.Following four consecutive daily pullbacks, including monthly lows in the 1.1180/75 band on Friday, EUR/USD has started the week on a positive fashion and is looking to regain the 1.1200 mark and above on a more sustainable fashion.In the meantime, the key Fibo level (of the 2017-2018 drop) in the 1.1190 zone continues to hold the downside for the time being, always looking to the broader risk appetite trends as key drivers of the pair’s price action. On the latter, the progress of the re-opening of economies in Europe plus the probability of another coronavirus outbreak remain on top of the debate.Later in the session, the European Commission will publish its preliminary gauge of the Consumer Confidence in the euro area for the current month ahead of the speech by ECB’s VP Luis De Guindos.EUR/USD has started the week on an optimistic mood after bottoming out in the proximity of 1.1170. In the meantime, investors continue to look to the gradual return to some sort of normality in the Old Continent as well as rising concerns over the probability of a second wave of coronavirus contagion.  The constructive view in the euro, however, remains well sustained by the gradual and relentless re-opening of economies in Europe and by the ongoing monetary stimulus announced by the ECB, Germany and the European Commission. On top, the solid performance of the region’s current account is also adding to the attractiveness of the shared currency.At the moment, the pair is gaining 0.43% at 1.1221 and a break above 1.1422 (weekly/monthly high Jun.10) would target 1.1448 (50% Fibo of the 2017-2018 rally) en route to 1.1495 (2020 high Mar.9). On the other and, immediate contention emerges at 1.1168 (monthly low Jun.19) seconded by 1.1147 (high Mar.27) and finally 1.1027 (200-day SMA)."
9,Spain weighs major boost to EUR100 billion loan guarantee plan – Bloomberg,"Citing people familiar with the matter, Bloomberg reports in Tuesday’s early Asian trading that the Spanish government officials are considering pledging as much as EUR50 billion in additional loan guarantee.The ultimate size depends on how the negotiations unfold; the sources added.Late Monday, it was reported that Europe’s fourth-largest economy is mulling over expanding its state-backed loan guarantee plans further to stimulate the economic recovery, as the country tries hard to soften the economic fallout from the coronavirus pandemic.EUR/USD hit a fresh five-day high of 1.1277 in the last hour, as the US dollar lost further ground in the Asian opening trades, as the risk-on market profile extended.At the time of writing, the spot adds 0.12% to trade at 1.1271. The shared currency also benefits from the potential additional stimulus measures announced by Spain."
10,Weekly trading plans: EUR/USD - NZD/USD - SPX500 and bond [Video],"This week markets could start getting back on track, with a high probability S&P 500 bullish move causing a weak USD and buying opportunities on EUR, NZD, or AUD. In this video, you will find our Elliott Wave point of view for the markets during this week.DISCLAIMER: No Earnings Projections, Promises or RepresentationsTrading currencies, stocks, futures, and options implicate significant risk of loss and is not suitable for every investor. The quotes of financial markets may fluctuate, and, as a result, clients could lose more than their investment. The highly leveraged of futures trading means that modest market movements will have a greater shock on your trading account, and this can go against your trading capital, that can result in considerable losses or can benefit your trading capital, resulting in significant gains.If the price of any financial instrument moves against you, you may result in more massive loss than the original money deposited into your account. You are entirely responsible for all the risks from your trading decisions and resources you use and for a trading system that you are using. You should not make any trading decisions unless you understand entirely the nature of the trades (transactions) you are entering into and your exposure to loss.

If you do not fully understand these risks, you must find independent advice from your financial advisor.All the trading reports, videos, webinars, and strategies are used at your own risk.All the content on elliottwavestreet.com should not be used as advice or recommendation of any type. It is your responsibility to confirm and decide which trades to make based on your analysis. Trade only with risk capital; that you can afford to lose, and that will not negatively impact your lifestyle and your financial obligations needs. Past results are no indication of future performance. The information found on this website should not be interpreted as an implied promise or guarantee.ElliottWaveStreet.com is not responsible for any losses incurred as a result of using any of our trading reports, courses, webinars, video, strategies and any information posted by us.There is no assurance that any prior successes or past results as to earnings or income (whether monetary, whether convertible to cash or not) will apply, nor can any prior successes be used, as an indication of your future success or results from any of the information, content, or strategies. Any and all claims or representations as to income or earnings (whether monetary or advertising credits, whether convertible to cash or not) are not to be considered as “average earnings”.(i) The Economy: The economy, both where you do business, and on a national and even worldwide scale, creates additional uncertainty and economic risk. An economic recession or depression might negatively affect the results produced by our Service.(ii) Your success or lack of it: Your success in using the information or strategies provided at elliottwavestreet.com depends on a variety of factors. We have no way of knowing how well you will do, as we do not know you, your background, your work ethic, your dedication, your motivation, your desire, or your business skills or practices. Therefore, we do not guarantee or imply that you will trade successfully.(iii) Forward-Looking Statements: Materials contained on this website or in materials purchased and/or downloaded from this website may contain information that includes or is based upon forward-looking statements within the meaning of the securities litigation reform act of 1995. Forward-looking statements give our expectations or forecasts of future events. You can identify these statements by the fact that they do not relate strictly to historical or current facts, they use words such as “anticipate,” “estimate,” “expect,” “project,” “intend,” “plan,” “believe,” and other words and terms of similar meaning in connection with a description of potential earnings or financial performance.Any and all forward looking statements here, in other materials contained on this website or in materials purchased and/or downloaded from this website are intended to express our opinion of earnings potential. Many factors will be important in determining your actual results and no guarantees are made that you will achieve results similar to ours or anybody else, in fact no guarantees are made that you will achieve any results from our ideas and techniques in our material.(iv) Due Diligence: You are advised to do your own due diligence when it comes to making trading decisions and should use caution and seek the advice of qualified professionals. You should check with your accountant, lawyer, or professional advisor, before acting on this or any information. You may not consider any examples, documents, or other content on the website or otherwise provided by us to be the equivalent of professional advice. Nothing contained on the website or in materials available for sale or download on the website provides professional advice in any way.We assume no responsibility for any losses or damages resulting from your use of any link, information, or opportunity contained within the website or within any information disclosed by the Company in any form whatsoever.Information provided in this website is intended entirely for informational and educational purposes and is gathered from sources considered to be safe. Information found on this website is not guaranteed. No guarantee of any kind is implied or possible when possible future price movements on the financial markets are published on this website.https://elliottwavestreet.com nor any of its directors, employees, employees, partners, agents or affiliates, collect money from the public or manage third-party accounts, we are not licensed for this purpose. All our services are focused solely for academic purposes that promote research. Reports, comments, opinions and any written or audiovisual expression do not represent a suggestion of trading or investment, past events do not guarantee future events, investments in stock markets, FOREX, derivatives among others are considered high risk and such risk may not be suitable for your investment capital, remember that handling your money is your responsibility, do not invest money that cannot bear to lose, we recommend you to seek advice before making any investment and verify with the authorities of your country the rules and laws on investment in financial markets.We have created alliances with third party brokers to reduce the cost of some products and services made available through https://elliottwavestreet.com; if you make the decision to deposit your money in one of the brokers that https://elliottwavestreet.com has alliance, remember that you are NOT depositing your money at https://elliottwavestreet.com or World Markets Academy LLC. Before depositing your money check the permits, regulations, disclosure of risk, terms and conditions of these brokers, this verification is your responsibility, do not forget to consult with the authorities of your country of residence all the requirements to make these investments.Remember that https://elliottwavestreet.com and World Markets Academy LLC do not have access to the management of your money, therefore the decisions that you take based on the technical analysis presented in the products, services, videos, courses and blog of https://elliottwavestreet.com and World Markets Academy LLC are your responsibility, when taking the products or services made available through https://elliottwavestreet.com you accept that the losses and / or profits are your responsibility, remember that https://elliottwavestreet.com is for the sole purpose to teach market analysis techniques, past situations do not guarantee future situations.Your use of https://elliottwavestreet.com is at your own risk. The products and services made available through https://elliottwavestreet.com are provided “as is” and “as available”, without warranties of any kind, expressed or implicit, including but not limited to, warranties of merchandising, suitability for a particular purpose, non-infringement or course of performance.World Markets Academy LLC, its affiliates and their licensor providers do not guarantee that a) https://elliottwavestreet.com will operate uninterrupted, secure or available at any time or place; b) errors or defects will be corrected; c) https://elliottwavestreet.com is free of viruses or other harmful components; or d) the results of the use of https://elliottwavestreet.com comply with your requirements or demands.CFTC RULE 4.41 – HYPOTHETICAL OR SIMULATED PERFORMANCE RESULTS HAVE CERTAIN LIMITATIONS. UNLIKE AN ACTUAL PERFORMANCE RECORD, SIMULATED RESULTS DO NOT REPRESENT ACTUAL TRADING. ALSO, SINCE THE TRADES HAVE NOT BEEN EXECUTED, THE RESULTS MAY HAVE UNDER-OR-OVER COMPENSATED FOR THE IMPACT, IF ANY, OF CERTAIN MARKET FACTORS, SUCH AS LACK OF LIQUIDITY. SIMULATED TRADING PROGRAMS IN GENERAL ARE ALSO SUBJECT TO THE FACT THAT THEY ARE DESIGNED WITH THE BENEFIT OF HINDSIGHT. NO REPRESENTATION IS BEING MADE THAT ANY ACCOUNT WILL OR IS LIKELY TO ACHIEVE PROFIT OR LOSSES SIMILAR TO THOSE SHOWN."
11,EUR/USD Forecast: Bulls pressuring ahead of growth-related data,"The greenback edged lower this Monday, with the EUR/USD pair hitting a daily high of 1.1269 during the American afternoon. The American dollar found some favor at the beginning of the day amid the dismal mood that kept Asian equities trading in the red throughout the session. European ones followed the lead, but the focus shifted to a continued increase in coronavirus cases in the US across the South, West, and Midwest. Wall Street, however, managed to grind higher, adding to the dollar’s weakness.The shared currency found support in the preliminary estimate of June Consumer Confidence as it improved to -14.7 from -18.8. US data, on the other hand, was mixed, as the Chicago Fed National Activity Index for May improved to 2.61 from -17.89 in the previous month, but New Home sales plunged 9.7% in the same month.This Tuesday, Markit will release the preliminary estimates of its June PMIs for the EU and the US. Manufacturing activity and services output is expected to have continued to recover over the month, although in all cases, the numbers are expected within contraction levels. Nevertheless, recoveries in-line with the market’s expectations will be seen as good news. The US will also publish the June Richmond Fed Manufacturing Index and May New Home Sales.The EUR/USD pair has been trading between Fibonacci levels, finding support at around the 38.2% retracement of its latest daily advance, but unable to move beyond the 23.6% retracement of the same rally at 1.1270. The short-term picture skews the risk to the upside, as, in the 4-hour chart, the pair has managed to recover beyond its 20 SMA, although moving averages continue to lack directional strength. Technical indicators, in the meantime, re-entered positive ground with a limited bullish momentum. The bullish case will be firmer on a clear break above the immediate Fibonacci resistance level.Support levels: 1.1225 1.1170 1.1120Resistance levels: 1.1270 1.1310 1.1350View Live Chart for the EUR/USD "
12,EUR/USD Forecast: Downside limited by a Fibonacci support at 1.1170,"The EUR/USD pair is trading a handful of pips above the 1.1200 level, slightly up for the day. Currencies are in a wait-and-see stance, amid a scarce macroeconomic calendar and little action in stocks’ markets. European indexes are slightly down for the day, although the movements are also limited there. Reopening hopes in Europe oppose to rising coronavirus’ cases in the US and the third world. The WHO reported the most global cases in one day mostly focused in the Americas.Ahead of Wall Street’s opening, the US just published the Chicago Fed National Activity Index for May, which improved to 2.61 from -17.89 in the previous month. Later today, the US will publish May Existing Home Sales, seen down by 3.0% when compared to the previous month, while the EU will unveil the preliminary estimate of June Consumer Confidence, expected at -15 from -18.8 in the previous month.The EUR/USD pair has briefly pierced the 38.2% retracement of its latest daily slump at 1.1170, now recovering from the level, a sign of limited selling interest. In the 4-hour chart, the pair is unable to advance beyond a mild-bearish 20 SMA, which has crossed below the 100 SMA. Technical indicators, in the meantime, have retreated within negative levels, also indicating absent buying interest at the time being. To recover its bullish potential, the pair would need to advance beyond the 1.1270 level, the 23.6% retracement of the mentioned rally.Support levels: 1.1170 1.1125 11080Resistance levels: 1.1225 1.1270 1.1310View Live Chart for the EUR/USD"
13,"Forex technical analysis and forecast: Majors, equities and commodities","EUR/USD continues forming the third descending wave towards 1.1100; right now, it is consolidating above 1.1170. Possibly, the pair may correct to reach 1.1220 and then fall towards 1.1155. Later, the market may test 1.1170 from below and then resume trading downwards with the short-term target at 1.1100. GBP/USD continues forming the third wave within the downtrend towards 1.2250. right now, it is consolidating above 1.2340. Today, the pair may correct to test 1.2470 from below and then resume trading downwards with the short-term target at 1.2250. USD/RUB is falling towards 69.00. After that, the instrument may correct to reach 69.50 and then resume falling with the short-term target at 68.40. USD/JPY continues falling towards 106.60; right now, it is consolidating above 106.80. Possibly, the pair may correct to test 107.00 and then resume trading downwards with the target at 106.60. USD/CHF is still consolidating around 0.9500 without any particular direction. There are two equally possibly scenarios: growth towards 0.9540 and decline to reach 0.9450. After reaching 0.9450, the instrument may form one more ascending structure to break 0.9550 and then continue trading upwards with the short-term target at 0.9650. After completing the descending wave at 0.6808, AUDUSD is correcting towards 0.6900. Later, the market may form a new descending wave to break 0.6800 and then continue trading downwards with the short-term target at 0.6720. After finishing the ascending wave at 42.77 and the correction towards 41.00, Brent has completed the ascending impulse to reach 42.40; right now, it is consolidating below this level. If later the price breaks this range to the upside, the market may resume growing to reach 43.43; if to the downside – start a new correction towards with the target at 41.66. Gold is moving upwards; it has broken 1736.60 to the upside and may continue growing to reach 1760.10. Later, the market may correct towards 1737.22 and then form one more ascending structure with the target at 1768.45. After finishing the correction at 9150.0, BTCUSD is growing to break 9450.00. After that, the instrument may continue trading upwards to reach 9700.00. Later, the market may form a new descending structure to break 9150.00 and then continue falling inside the downtrend with the short-term target at 8800.00. After completing the descending wave at 3060.1, the Index is expected to grow towards 3114.9, thus forming a new consolidation range. If later the price breaks this range to the downside, the market may resume trading downwards to reach 2958.5; if to the upside – form one more ascending structure with the target at 3222.2."
14,EUR/USD analysis: Bounces off trend line,"During early Monday's GMT trading hours, the EUR/USD currency exchange rate bounced off the support of the lower trend line of a descending pattern. It resulted in a surge, which by the middle of the day's trading had reached above 1.1220.  

In the near term future, the rate was expected to test the resistance cluster located from 1.1234 up to 1.1246. It consists of two pivot points and the 100-hour simple moving average. If this resistance cluster fails to keep the pair down, the rate would test a combination of the 200-hour SMA and the upper trend line of the descending pattern.  

On the other hand, the rate could trade sideways between the mentioned resistance cluster and the support of the 55-hour SMA and a 38.20% Fibonacci retracement level at 1.1200."
15,Calm before the storm? Five Bitcoin price factors to watch this week,"Bitcoin (BTC) begins a new week trading in a familiar corridor below $10,000 — will it stay there or is volatility actually incoming?Cointelegraph Markets’ weekly newsletter gives you five factors influencing Bitcoin’s price performance in the coming days. The start of this week marks a clear contrast from last Monday. Concerns over coronavirus have faded and with it stock market volatility. Overall conditions on stocks futures remain uncertain, yet more stable compared to seven days ago. With that, Bitcoin managed to avoid sudden moves over the weekend and continued ranging within a limited corridor between $9,200 and $9,500.$9,500 has formed a focal point for BTC/USD for multiple weeks, and resistance above has proven difficult to beat. Cointelegraph noted in our previous Newsletter that despite signs of Bitcoin “decoupling” from macro markets since March, broad correlations remain in place. Research has further found that, historically, BTC/USD has been very highly correlated with the S&P 500.Bitcoin vs. S&P 500 3-month chart. Source: Skew Another contrast comes in the form of Bitcoin’s network fundamentals. Last week, miners were gearing up for the biggest upward difficulty adjustment in two-and-a-half years. This time, conditions are much calmer, with the next adjustment in nine days’ time currently set at a modest 5.6%.Bitcoin 7-day average difficulty 2-month chart. Source: BlockchainLikewise, Bitcoin’s mining hash rate has leveled off in recent days, sticking to an average 105 EH/s after seeing 111 EH/s after the adjustment.The relaxing comes after data showed that since May’s block subsidy halving, more hashing power has joined the Bitcoin network than at any time since the start of the bull run in 2017. This Friday is crunch time once more for Bitcoin derivatives. As Cointelegraph reported, June 26 will see almost $1 billion of options expire.  Such events have tended to sway Bitcoin price sentiment immediately beforehand. This time, the prevailing mood appears bullish, with the majority of options being “call” options focused on the $10,000 mark.Meanwhile, volume on Bitcoin futures markets has shown little signs of an uptrend in recent days, while open interest has likewise stagnated.Futures avoided a “gap” over the weekend due to the lack of Bitcoin price volatility — if markets open in a different place to that in which they closed the previous Friday, BTC/USD tends to rise or fall to “fill” the vacuum.Bitcoin futures 3-day chart showing gap absence. Source: TradingView The amount of Bitcoin on exchanges has returned to its downtrend after spiking following the halving.According to data from on-chain monitoring resource CryptoQuant, exchange reserves are now back at almost two-year lows. Traders moving funds off exchanges suggests a desire to hold for the short term, rather than have coins ready to sell in the event of volatility.As of June 21, exchange wallets held 2.35 million BTC. By contrast, on March 13 — as BTC/USD crashed to $3,600 — reserves hit highs of 2.73 million BTC.Bitcoin exchange reserves 1-year chart. Source: CQ.Live On the topic of traders, it would seem that even their sentiment is showing signs of a slow U-turn — from bearish to neutral or better.According to the latest readings from the Crypto Fear & Greed Index, traders’ mood is showing signs of rebounding after flashing “fear” for the past week. A chart from 0 to 100, the Index takes into account multiple factors in order to gauge whether traders are too bullish or bearish. Monday’s reading of 38/100 is one point higher than the weekend. Since the halving, the most bullish score for the Index has been 56, while 37 marked the low.Worldwide search interest for “Bitcoin” 3-month chart. Source: Google TrendsAt the same time, Google Trends data shows that overall interest in Bitcoin is now at its lowest since the March crash. The phenomenon was already visible late last month as the halving faded from the spotlight."
16,EUR/USD Price Forecast: Further downside stays in the pipeline,"EUR/USD appears to have met some contention in the 1.1180/65 band at the end of last week, extending the leg lower following the rejection from monthly tops beyond 1.14 the figure recorded on June 10.The immediate driver fo the pair’s price action comes from the risk appetite complex and its impact on the greenback, where the progress of the return to the economic normality (sort of) in the Old Continent and the potential resurgence of a second wave of the coronavirus outbreak remain in the centre of the debate.Moving forward, preliminary PMIs and the German IFO survey should shed further details regarding the strength of the recovery in the euro area, while weekly Claims, another revision of the GDP figures and inflation tracked by the PCE will take centre stage across the pond.EUR/USD is holding on to the key Fibo level (of the 2017-2018 drop) at 1.1187 for the time being. A breach of this area on a sustainable basis should open the door to a probable visit to the critical 200-day SMA, today at 1.1027. On the other hand, while above this area, the outlook on the pair is expected to be on the constructive side and therefore another move to monthly tops in the 1.1420 region should not be ruled out in the short-term horizon."
17,EUR/USD: The selling pressure could be dissipating,"A corrective drift has weighed on EUR/USD for the past week and a half, dragging the pair back towards a five week uptrend and the previous key breakout $1.1145. However, we see this as a fairly orderly retracement and near term correction within what we believe to be a still developing medium term positive picture on EUR/USD. It will be the source of the next opportunity to buy. For now, though the path remains lower as momentum indicators continue to pull back. There has been an interesting tick higher in the early moves this morning but looking on the hourly chart, this seems to be a similar move to that which has been seen on several sessions recently. The hourly momentum indicators are again ticking into areas where the selling pressure has typically re-emerged over the past few sessions. Hourly RSI has consistently failed between 50/60 and hourly MACD lines under neutral. If this begins to consistently change, then the potential would be that the selling pressure could be dissipating. For now though with resistance $1.1210/$1.1260, these intraday bounces are being sold into. We are positioning for the next important higher low between $1.1015/$1.1145 but are mindful that if this is a bull market pullback, the correction could undershoot and the bulls could move sooner.Risk Warning for Financial PromotionsHantec Markets' various market reports and commentary are issued by Hantec Markets Limited, who is authorised and regulated by the Financial Conduct Authority (FCA) in the UK, No. 502635. The reports are prepared and distributed for information purposes only.Trading in Foreign Exchange (FX), Bullion and Contracts for Differences (CFDs) is not be suitable for all investors due to the high risk nature of these products. Forex, Bullion and CFDs are leveraged products that can result in losses greater than your initial deposit. The value of an FX, Bullion or CFD position may be affected by a variety of factors, including but not limited to, price volatility, market volume, foreign exchange rates and liquidity. You may lose your entire initial stake and you may be required to make additional payments. Please ensure you fully understand the risks involved, seeking independent advice if necessary prior to entering into such transactions. Before deciding to enter into FX, Bullion and/or CFD trading, you should carefully consider your investment objectives, level of experience, and risk appetite. You should only invest in FX, Bullion and/or CFD trading with funds you are prepared to lose entirely. Therefore, only your excess funds should be placed at risk and anyone who does not have such excess funds should completely refrain from engaging in FX and/or CFD trading. Do not rely on past performance figures. If you are in any doubt, please seek further independent advice.The reports do not constitute personal investment advice, nor do they take into account the individual financial circumstances or objectives of the clients who receive it. All information and research produced by Hantec Markets is intended to be general in nature; it does not constitute a recommendation or offer for the purchase or sale of any financial instrument, nor should it be construed as such. All of the views or suggestions within the reports are those solely and exclusively of the authors, and accurately reflect their personal views about any and all of the subject instruments and are presented to the best of the authors' knowledge. Any person relying on these reports to undertake trading does so entirely at his/her own risk and Hantec Markets does not accept any liability.© 2014 Hantec Markets Limited"
18,"Elliott wave EUR/USD: Target 1,1420!","Trading is fantastic and very exciting. The more we advance as traders, the more we know ourselves. Trading can bring out the best or the worst of us. It depends on how you handle your trading to bring out the best in you. Have you noticed that trading starts up again every day with new opportunities? Every day is a new beginning, and by learning from the day before, we accumulate knowledge until we reach the level we want.When we start looking for trades in our charts, it is difficult to choose between a bullish or bearish position to start trading. Elliott waves are the closest to a map that forecasts the session's route with a high level of effectiveness. I have been using the wave tool on my charts for years, and every day I discover something new. For me, it would be impossible to trade without using Elliott waves.I want to share one of my favorite trades this week. It's the EUR/USD, which is starting a new bullish swing. While last week I had a hard time identifying the correction this week, the picture is more explicit. In the 4-hour timeframe, the fourth wave denoted in red is over, and the price is ready to shoot up to 1.1420 (conservative target). We are now in the long term and looking for new highs during the week.The fourth wave turned out to be super complicated and ended in the 38.2% Fibonacci retracement zone (1.1187), now let's look ahead, this week I expect the EUR/USD to continue its upward path and pass the 1.1420 resistance, we can even see the pair in the 1.1450/1.1500 zone. For the time being (one day at a time), we are going to target the high. During the pandemic, the market has not ceased to surprise all of us professionals, both fundamental experts and technicians have had several surprises. Therefore, I prefer not to project the next swing so far in advance. I will be waiting for the price action on this swing to confirm a continuation of the upside or downside, and I will be informing you.Look for your trades with patience, never get discouraged, keep your mind positive and open to find the best opportunities, if the strategy you use doesn't work look for something new until you reach success.DISCLAIMER: No Earnings Projections, Promises or RepresentationsTrading currencies, stocks, futures, and options implicate significant risk of loss and is not suitable for every investor. The quotes of financial markets may fluctuate, and, as a result, clients could lose more than their investment. The highly leveraged of futures trading means that modest market movements will have a greater shock on your trading account, and this can go against your trading capital, that can result in considerable losses or can benefit your trading capital, resulting in significant gains.If the price of any financial instrument moves against you, you may result in more massive loss than the original money deposited into your account. You are entirely responsible for all the risks from your trading decisions and resources you use and for a trading system that you are using. You should not make any trading decisions unless you understand entirely the nature of the trades (transactions) you are entering into and your exposure to loss.

If you do not fully understand these risks, you must find independent advice from your financial advisor.All the trading reports, videos, webinars, and strategies are used at your own risk.All the content on elliottwavestreet.com should not be used as advice or recommendation of any type. It is your responsibility to confirm and decide which trades to make based on your analysis. Trade only with risk capital; that you can afford to lose, and that will not negatively impact your lifestyle and your financial obligations needs. Past results are no indication of future performance. The information found on this website should not be interpreted as an implied promise or guarantee.ElliottWaveStreet.com is not responsible for any losses incurred as a result of using any of our trading reports, courses, webinars, video, strategies and any information posted by us.There is no assurance that any prior successes or past results as to earnings or income (whether monetary, whether convertible to cash or not) will apply, nor can any prior successes be used, as an indication of your future success or results from any of the information, content, or strategies. Any and all claims or representations as to income or earnings (whether monetary or advertising credits, whether convertible to cash or not) are not to be considered as “average earnings”.(i) The Economy: The economy, both where you do business, and on a national and even worldwide scale, creates additional uncertainty and economic risk. An economic recession or depression might negatively affect the results produced by our Service.(ii) Your success or lack of it: Your success in using the information or strategies provided at elliottwavestreet.com depends on a variety of factors. We have no way of knowing how well you will do, as we do not know you, your background, your work ethic, your dedication, your motivation, your desire, or your business skills or practices. Therefore, we do not guarantee or imply that you will trade successfully.(iii) Forward-Looking Statements: Materials contained on this website or in materials purchased and/or downloaded from this website may contain information that includes or is based upon forward-looking statements within the meaning of the securities litigation reform act of 1995. Forward-looking statements give our expectations or forecasts of future events. You can identify these statements by the fact that they do not relate strictly to historical or current facts, they use words such as “anticipate,” “estimate,” “expect,” “project,” “intend,” “plan,” “believe,” and other words and terms of similar meaning in connection with a description of potential earnings or financial performance.Any and all forward looking statements here, in other materials contained on this website or in materials purchased and/or downloaded from this website are intended to express our opinion of earnings potential. Many factors will be important in determining your actual results and no guarantees are made that you will achieve results similar to ours or anybody else, in fact no guarantees are made that you will achieve any results from our ideas and techniques in our material.(iv) Due Diligence: You are advised to do your own due diligence when it comes to making trading decisions and should use caution and seek the advice of qualified professionals. You should check with your accountant, lawyer, or professional advisor, before acting on this or any information. You may not consider any examples, documents, or other content on the website or otherwise provided by us to be the equivalent of professional advice. Nothing contained on the website or in materials available for sale or download on the website provides professional advice in any way.We assume no responsibility for any losses or damages resulting from your use of any link, information, or opportunity contained within the website or within any information disclosed by the Company in any form whatsoever.Information provided in this website is intended entirely for informational and educational purposes and is gathered from sources considered to be safe. Information found on this website is not guaranteed. No guarantee of any kind is implied or possible when possible future price movements on the financial markets are published on this website.https://elliottwavestreet.com nor any of its directors, employees, employees, partners, agents or affiliates, collect money from the public or manage third-party accounts, we are not licensed for this purpose. All our services are focused solely for academic purposes that promote research. Reports, comments, opinions and any written or audiovisual expression do not represent a suggestion of trading or investment, past events do not guarantee future events, investments in stock markets, FOREX, derivatives among others are considered high risk and such risk may not be suitable for your investment capital, remember that handling your money is your responsibility, do not invest money that cannot bear to lose, we recommend you to seek advice before making any investment and verify with the authorities of your country the rules and laws on investment in financial markets.We have created alliances with third party brokers to reduce the cost of some products and services made available through https://elliottwavestreet.com; if you make the decision to deposit your money in one of the brokers that https://elliottwavestreet.com has alliance, remember that you are NOT depositing your money at https://elliottwavestreet.com or World Markets Academy LLC. Before depositing your money check the permits, regulations, disclosure of risk, terms and conditions of these brokers, this verification is your responsibility, do not forget to consult with the authorities of your country of residence all the requirements to make these investments.Remember that https://elliottwavestreet.com and World Markets Academy LLC do not have access to the management of your money, therefore the decisions that you take based on the technical analysis presented in the products, services, videos, courses and blog of https://elliottwavestreet.com and World Markets Academy LLC are your responsibility, when taking the products or services made available through https://elliottwavestreet.com you accept that the losses and / or profits are your responsibility, remember that https://elliottwavestreet.com is for the sole purpose to teach market analysis techniques, past situations do not guarantee future situations.Your use of https://elliottwavestreet.com is at your own risk. The products and services made available through https://elliottwavestreet.com are provided “as is” and “as available”, without warranties of any kind, expressed or implicit, including but not limited to, warranties of merchandising, suitability for a particular purpose, non-infringement or course of performance.World Markets Academy LLC, its affiliates and their licensor providers do not guarantee that a) https://elliottwavestreet.com will operate uninterrupted, secure or available at any time or place; b) errors or defects will be corrected; c) https://elliottwavestreet.com is free of viruses or other harmful components; or d) the results of the use of https://elliottwavestreet.com comply with your requirements or demands.CFTC RULE 4.41 – HYPOTHETICAL OR SIMULATED PERFORMANCE RESULTS HAVE CERTAIN LIMITATIONS. UNLIKE AN ACTUAL PERFORMANCE RECORD, SIMULATED RESULTS DO NOT REPRESENT ACTUAL TRADING. ALSO, SINCE THE TRADES HAVE NOT BEEN EXECUTED, THE RESULTS MAY HAVE UNDER-OR-OVER COMPENSATED FOR THE IMPACT, IF ANY, OF CERTAIN MARKET FACTORS, SUCH AS LACK OF LIQUIDITY. SIMULATED TRADING PROGRAMS IN GENERAL ARE ALSO SUBJECT TO THE FACT THAT THEY ARE DESIGNED WITH THE BENEFIT OF HINDSIGHT. NO REPRESENTATION IS BEING MADE THAT ANY ACCOUNT WILL OR IS LIKELY TO ACHIEVE PROFIT OR LOSSES SIMILAR TO THOSE SHOWN."
19,EUR/USD outlook: Bears take a breather after strong fall previous week,"The Euro moves higher on Monday, as traders book some profits from last week’s fall, with corrective action also being signaled by daily stochastics’ reversal in oversold territory.
Strong bearish signals were generated  on Friday’s close below 1.1211/1.1199 pivots (Fibo 38.2% of 1.0870/1.1422 / 20DMA) and second consecutive weekly close in red after bull were trapped above 200WMA.
Momentum on daily chart is weak and suggests limited upside action, with upticks to be ideally capped by falling 10DMA (1.1270) before bears regain control.
Repeated close below 1.1211 Fibo level is needed to signal bearish continuation and expose support at 1.1105 (30DMA), followed by more significant 1.1081 (Fibo 61.8% of 1.0870/1.1422) and 1.1065 (daily cloud top).
Only close above 10DMA (also near Fibo 38.2% of 1.1422/1.1168 pullback) would sideline bears and generate initial reversal signal.

Res: 1.1254; 1.1270; 1.1295; 1.1325
Sup: 1.1199; 1.1168; 1.1146; 1.1105  "
