,title,text
0,EUR/USD Price Analysis: EUR/USD spikes as traders react to rate cut from the Fed,"EUR/USD has spiked around 50 pips or so after the Fed announced a 50 bps rate cut in response to the coronavirus outbreak.Currently, the pair is struggling at the previous wave high of 1.1185. If this level breaks, the bulls could look to target the next resistance zone at1.1239.It seems that the market has been right in pricing in the rate cut since Jerome Powell gave an interview last Friday.On the daily chart, the pair has now clearly broken through the trendline and could be headed for higher levels.The rate cuts could have been priced in, so there may not be a frantic push higher.If the price does hold above the trendline, the next resistance higher past the one mentioned above could be nearer to 1.1347."
1,"Fed cuts rates in emergency move, EURUSD, GBPUSD, gold spike","EUR/USD trades 0.35% higher on the session as traders react to fundamental developments.There is another resistance level close by that the bulls could look to target.EUR/USD has spike around 50 pips or so after the Fed announced a 0.50 bps rate cut in response to the coronavirus. Currently, the pair is struggling at the previous wave high of 1.1185. If this level breaks the bulls could look to target the next resistance zone of 1.1239. It seems that the market has been correct in pricing in the rate cut over the past week or so since Jerome Powell gave an interview last Friday. Read more...The GBP/USD pair shot higher in the last minutes and gained more than 50 pips after the US Federal Reserve announced a 50 basis points cut to its policy rate in a surprise move. As of writing, the pair was trading at 1.2825, adding 0.6% on a daily basis.Citing risks posed by the coronavirus outbreak on the economic activity, the Fed said it lowered the federal fund rates to 1%-1.25% range. ""The FOMC is closely monitoring developments and will use its tools and act as appropriate to support the economy,"" the Fed said and noted that the vote was unanimous in favour of the cut. Read more...Gold prices have leaped after the Federal Reserve has cut interest rates by a double-dose of 50 basis points in a shock move to tackle the evolving risk of coronavirus. The disease has taken the lives of some 3,000 people, six of them in the US. It has already infected some 90,000 worldwide. The illness has caused massive disruptions to supply chains.  Read more..."
2,USD/JPY Price Analysis: Dollar drops to fresh 2020 lows vs yen in response to the Fed shock cut,  
3,"Forex Technical Analysis and Forecast: EUR/USD, GBP/USD, USD/CHF, USD/JPY, AUD/USD, USD/RUB, USD/CAD, Gold, Brent, BTC/USD","After finishing the ascending wave at 1.1181, EURUSD has formed the descending impulse towards 1.1119; right now, it is correcting to reach 1.1155. Today, the pair may form a new consolidation range between the above-mentioned levels. If later the price breaks this range to the downside, the market may resume trading downwards with the short-term target at 1.1069. GBPUSD is still consolidating around 1.2787. According to the main scenario, the price may break the range to the upside and start another correction towards 1.2856. After that, the instrument may form a new descending structure to reach 1.2802 and then resume moving upwards to complete the correction at 1.2902. Later, the market may continue trading inside the downtrend with the target at 1.2587. USDCHF has completed another descending structure towards 0.9550; right now, it is consolidating around 0.9585. The main scenario implies that the pair may start another growth with the short-term target at 0.9656. USDJPY has reached 107.97; right now, it is consolidating around it. Possibly, the pair may expand the range down to 106.95 and then start another correction to reach 108.88. After that, the instrument may resume trading inside the downtrend with the target at 105.85. After finishing another ascending impulse at 0.6519, AUDUSD is consolidating around this level. Today, the pair may break this range to the upside and reach 0.6603. Later, the market may start a new correction to return to 0.6519. After finishing the second descending impulse towards 66.25, USDRUB has completed the correction at 67.00. According to the main scenario, the price is expected to reach 66.00 and start another correction to return to 67.00. After that, the instrument may resume its decline with the target at 65.82. After returning to 1.3384, USDCAD is forming another descending impulse towards 1.3303. Later, the market may start a new correction with the target at 1.3384. After completing the ascending wave at 1609.90, Gold has formed the correction towards 1587.00. Possibly, today the pair may form the second ascending impulse towards 1621.28 and then start a new correction to reach 1602.08. Later, the market may form one more ascending structure with the target at 1641.65. Brent has finished the second ascending impulse at 53.80. Today, the pair may fall to reach 51.79 and then start another growth with the target at 55.00. After that, the instrument may form a new descending structure towards 48.50. BTCUSD has reached its upside target at 8900.00. Possibly, today the pair may correct towards consolidate 8600.00 and then grow to reach 9450.00. Later, the market may form a new descending structure to return to 8900.00."
4,EUR/USD now looks to 1.1239 – UOB,"FX Strategists at UOB Group expect EUR/USD to attempt some consolidation ahead of a probable move to 1.1239.24-hour view: “While our view for a higher EUR was correct, we underestimated the pace and extent of its rally as it surged to a high of 1.1185. The rapid and strong rise over the past few days is severely overbought and further sustained EUR strength is unlikely for today. EUR is more likely to consolidate and trade sideways at these elevated levels. Expected range for today, 1.1100/1.1190.”Next 1-3 weeks: “We indicated yesterday (02 Mar, spot at 1.1040) that that ‘the rapid improvement in momentum suggests a move above 1.1096 would not be surprising and if EUR can register a NY closing above this level, it could continue to advance towards 1.1170’. The scenario was supposed to take a few days to evolve but EUR blast past 1.1096 and cracked 1.1170 with a few hours (overnight high of 1.1185). Now that 1.1170 is breached, the focus has shifted to the late December high of 1.1239. The prospect for a move to this level is not low but EUR is likely to take a breather and consolidate for a couple of days first before making a move towards 1.1239. On the downside, the ‘strong support’ level has moved higher to 1.1000 from yesterday’s level of 1.0940.”"
5,EUR/USD Price Analysis: Upside could extend to 1.1200 and beyond,"EUR/USD moved beyond 1.11 the figure for the first time since late January, and met a tough barrier around 1.1180 on Monday, are coincident with a Fibo retracement (of the 2020 drop) and late December tops.There is room for the continuation of the rally as long as the pair trades above the key 55-day SMA, today at 1.1036.That said, the next target of relevance should emerge at the 1.1200 neighbourhood ahead of the December top at 1.1239.  "
6,BOE to make emergency rate cut this week – Nomura,"Nomura economists George Buckley and Chiara Zangarelli wrote in their latest client note, the Bank of England (BOE) will make an emergency cut to its main interest rate this week, following the US Federal Reserve’s surprise rate cut by 50 bps to cushion the blow of the coronavirus crisis on the economy.They said: “We have, therefore, adjusted our view to ... an emergency 25bp rate cut this week allowing the Bank time to formulate a plan for more targeted easing at the end of the month.”"
7,EUR/USD Price Analysis: Now the dust has settled following the Fed emergency rate cut EUR/USD has stabilised,"EUR/USD moved higher following the announcement from the Federal Reserve.The central bank announced a 0.50bps rate cut as a measure to protect the economy against the coronavirus.There has been a mixed reaction to this in general as stocks have moved lower and gold has moved up.Either way, EUR/USD reacted in a positive manner and moved higher. It must be said the rate cuts had been priced in but few would have guessed that Jerome Powell would have moved this quickly and at this rapid rate.Looking at the technicals now you can see that the price printed above the red trendline on the chart below.Now it will be interesting to see if the market tests the 1.1250 resistance zone and it seems likely if there is a positive close.If the market does move lower 1.11 has been used as a good support zone a number of times.The red internal trendline that comes from below could also be an important support zone. As this move was priced in there could be a pullback and the moved in EUR/USD was very fast so the pair is still in overbought areas.  "
8,"EUR/USD, may continue uptrend above resistance 1.1170 to ressistance 1.1238","Uptrend
The uptrend may be expected to continue in case the market rises above resistance level 1.1183, which will be followed by reaching resistance level 1.1250.
Downtrend
An downtrend will start as soon, as the pair drops below support level 1.1101, which will be followed by moving down to support level 1.1045. Uptrend
The uptrend may be expected to continue in case the market rises above resistance level 1.1170, which will be followed by reaching resistance level 1.1238.
Downtrend
An downtrend will start as soon, as the pair drops below support level 1.1187, which will be followed by moving down to support level 1.1022. Uptrend
The uptrend may be expected to continue, while pair is trading above support level 1.0940, which will be followed by reaching resistance level 1.1087 and 1.1170
Downtrend
An downtrend will start as soon, as the pair drops below support level 1.0940, which will be followed by moving down to support level 1.0829. Uptrend
The uptrend may be expected to continue, while pair is trading above support level 1.0940, which will be followed by reaching resistance level 1.1087 and 1.1170
Downtrend
An downtrend will start as soon, as the pair drops below support level 1.0940, which will be followed by moving down to support level 1.0829."
9,EUR/USD Analysis: Tested monthly R1,"On Monday, the EUR/USD currency pair tested the resistance level—the monthly R1 at 1.1157. During today's morning, the pair was testing the weekly R1 at 1.1120.It is likely that the exchange rate could gain support from the 55-hour SMA near 1.1080 and trade upwards in the short term. In this case the rate would have to surpass the Fibo 38.20%, as well the weekly R2 at 1.1210.However, if the monthly R1 holds, it is likely that the Euro could trade sideways against the US Dollar in the short run. Also, it is unlikely that bears could prevail, and the pair could decline below the 100-hour SMA near 1.1000."
10,EUR/USD stays supported by the 200-day SMA around 1.1100,"The selling bias around the single currency remains well and sound on Tuesday, prompting EUR/USD to ease further ground after hitting multi-week highs beyond 1.1180 at the beginning of the week.EUR/USD has faded the initial uptick to the 1.1150/55 band on Tuesday, as the greenback has managed to regain some poise and reverse the recent sharp decline somewhat.In the meantime, the pair stays cautious and appears so far well supported by the 1.1100 neighbourhood, where is located the critical 200-day SMA. Speculations that the G7 central banks could attempt a coordinated action (mainly via the reduction of key interest rates) to counteract the impact of the Chinese coronavirus on the economy have been losing momentum since this morning in Europe, allowing for some recovery in the buck.In this regard, the ECB said it keeps monitoring the situation and stands ready to act, although there is no need to step in at the moment.In the docket, final inflation figures in the euro area showed headline consumer prices rose 0.2% inter-month and 1.2% from a year earlier, while core prices gained 0.4% on a monthly basis and 1.2% over the last twelve months.EUR/USD keeps the bid bias unchanged for yet another week in response to the increasing selling pressure around the buck. As usual, USD-dynamics are seen dictating the pair’s price action for the time being along with the broader risk appetite trends, where the coronavirus fears remain in centre stage. On another front, the ECB is expected to finish its “strategic review” (announced at its January meeting) by year-end, leaving speculations of any change in the monetary policy before that time pretty flat. Further out, recent better-than-expected results in both Germany and the broader Euroland appear to have re-ignited some optimism among investors regarding the possibility of some recovery in the region and the currency. This view is also supported by rumours of fiscal stimulus in Germany.At the moment, the pair is losing 0.11% at 1.1121 and a breakdown of 1.1036 (55-day SM) would target 1.0992 (monthly low Jan.29) en route to 1.0919 (21-day SMA). On the flip side, the next hurdle lines up at 1.1185 (weekly/monthly high Mar.2) seconded by 1.1199 (high Dec.13 2019) and finally 1.1239 (monthly high Dec.31 2019)."
11,ECB: The rate cut virus spreads – TDS,"Analysts at TD Securities now expect the ECB to announce limited stimulus measures targeting liquidity and tightened financial conditions next week, followed by a 10bps cut to the deposit rate in Q2 2020.“Micro EUR liquidity measures which are fundamentally more effective tools to address the virus concern, could come as a disappointment for markets. This is already visible in today's rate price action. Nonetheless, the enhanced liquidity measures should come as a support for the credits spreads and vulnerable sectors. From a tactical perspective, we enter 5y swap spread tighteners at 38bps targeting 30bps and stop of 42bps.”“The EUR has rallied sharply in recent days, but we think this mostly reflects short-covering driven by risk aversion rather than a positive reassessment of the region's fundamentals. Looking forward, we expect EURUSD to remain highly reactive to how policymakers eventually respond from here. The near-term outlook remains highly uncertain as there are many moving parts in the mix. Our base case argues for a bit more upside potential, but much depends on the precise policy mix and its sequencing. Further gains will depend, however, on a significant upward repricing of global growth prospects. In the absence of that, intensified risk aversion could see spot to fresh lows for the cycle.”"
12,"Breaking: Fed cuts policy rate by 50 basis points to 1%-1.25% in emergency move, stocks surge","The US Federal Reserve has announced that it cut its policy rate by 50 basis points to the range of 1%-1.25% in an emergency move to help the economy stay resilient against the negative impact of the coronavirus outbreak.""The fundamentals of the US economy remain strong. However, the coronavirus poses evolving risks to economic activity,"" the Fed explained in a statement. ""In light of these risks and in support of achieving its maximum employment and price stability goals, the Federal Open Market Committee decided today to lower the target range for the federal funds rate.""Fed double rate cut - Powell's speech live coverageWith the initial market reaction, the USD came under strong selling pressure and dragged the US Dollar Index to 97.20 area. As of writing, the EUR/USD pair was up 0.4% on the day at 1.1175, the GBP/USD pair was adding 0.5% on the day at 1.2817 while the USD/JPY was erasing 0.6% at 107.70.Additionally, Wall Street's main indexes gained traction and were last up between 0.7% and 0.9%."
13,"Forex Today: Federal Reserve cuts 50 bps in emergency meeting, FX volatility spikes","Wha you need to know on Wednesday 4th:Responding to the stock market route as a consequence of the coronavirus fear which has sent US benchmarks into official correction territories, the Federal Reserve, despite their dual mandate which does not include Wall Street's stocks, responded in kind with an emergency 50 basis point rate cut and left the door open for more. The inter-meeting cut was the first since 2008.As a result, there was a spike of volatility in commodity and financial markets. The VIX rallied between 24.90-41.1 and the S&P 500 ranged between 2976.63-3136.72 before shedding gains for a low of 87 points or -2.81% on the day. We had been given the heads up by a top economist for the US bank lobby - a former Fed insider - who had issued a remarkably specific prediction on Sunday that the rescue was nigh. In a blog titled ""Don't keep your powder dry"" here, Bill Nelson, chief economist at the Bank Policy Institute who worked on the Fed's responses to the 2007-2008 financial crisis, predicted, ""a coordinated global interest rate cut by the top central banks, such as the one executed at the height of the crisis in October 2008 by the Fed and five other central banks. They will possibly include in this action the People's Bank of China and the Hong Kong Monetary Authority, the two banks whose economies have so far suffered most from the outbreak.FXStreet reported on this, preparing traders for such an eventuality, here: US bank lobby economist predicts global rate cut coming ... this Wednesday – ReutersHowever, what was surprising was that the G7 communique, basically was an all-talk affair, no walk. It would appear central banks will work on their own and decide what is best for their domestic economic needs, in accordance with the populist policies of recent years. So, a coordinated effort has not played out as according to the prediction although we will expect to see more from central bankers in due course - Bank of Canada is up next. However, the days of bazookers are long gone and that is a concern in the markets – central banks have little ammunition left and are calling on debt ladened governments to add fiscal stimulus. The CRB index rallied on dollar weakness, with the DXY falling below the 97 handle and signs of reflation on the way. However, the uncertainties and drastic emergency measures spooked the base metals, with both copper and nickel down. The Fed’s move is likely to reinvigorate demand for gold. Oil prices rose to fresh intraday highs as the OPEC+ monitoring committee gather to discuss production cuts although gave back the gains to finish -0.8% in the red, WTI. Meanwhile, the US 2-year treasury yields fell from 0.90% to 0.62% then 0.70%, the 10-year yield from 1.17% to 0.90% - a fresh record low – before steadying around 1.00%. ""Despite the inter-meeting rate cut, markets are pricing a 50% chance of 25bp cut at the next FOMC meeting on 18 March, and a terminal rate of 0.50% (vs Fed’s mid-rate at 1.13% currently),"" analysts at Westpac explained. Following the Reserve Bank of Australia's rate cut yesterday, Australia’s quarterly national accounts which are due at 11:30am Syd/8:30am Sing/HK will be of particular interest, as will hina’s February Caixin Services PMI 12:45pm Syd/9:45am local.      "
14,World Bank announces $12 billion immediate support for COVID-19 country response,"Following the central bankers’ response to the deadly coronavirus (COVID-19) on Tuesday, the World Bank announced an initial package of up to $12 billion to help member countries take effective action against the pandemic during early Wednesday.As COVID-19 reaches more than 60 countries, the World Bank Group is making available an initial package of up to $12 billion in immediate support to assist countries in coping with the health and economic impacts of the global outbreak.Through this new fast track package, the World Bank Group will help developing countries strengthen health systems, including better access to health services to safeguard people from the epidemic, strengthen disease surveillance, bolster public health interventions, and work with the private sector to reduce the impact on economies. ‘We are working to provide a fast, flexible response based on developing country needs in dealing with the spread of COVID-19,’ said World Bank Group President David Malpass. ‘This includes emergency financing, policy advice, and technical assistance, building on the World Bank Group's existing instruments and expertise to help countries respond to the crisis.’Following the news, the market’s risk-off gained additional strength, which in turn propelled gold prices to one week high near $1,653, currently around $1,646."
15,Look for the BoC to cut rates by 25 bps tomorrow – TDS,"Andrew Kelvin, Chief Canada Strategist at TD Securities (TDS) offered a brief preview of the upcoming Bank of Canada monetary policy decision on Wednesday, wherein the central bank is expected to cut interest rates by 25 bps.“With other G7 central banks making unspecified promises of support, financial markets are now fully primed for widespread monetary stimulus. In Canada's case, markets have now fully priced in a rate cut for March, and with recent developments we believe that the cost of disappointing the market would be unpalatably high for the BoC. Although their preference may be to wait until they have a full forecast in hand to act, we now believe that the BoC will cut rates by 25 bps at tomorrow's meeting.”“We don't expect to see much in the way of forward guidance given the volatile backdrop. Data dependence will remain the bank's lodestar going forward, as they will tie the March rate cut to expected reductions in global growth. We also expect they will cut by 25 bps in April, but the Bank won't want to signal anything until they have a better sense of COVID-19's growth implications and potential fiscal measures.”"
16,"SNB’s Maechler: Policy rests on negative interest rates, readiness to intervene","Swiss National Bank (SNB) governing board member Andrea Maechler said on Tuesday, the central bank is ready to intervene when necessary.SNB is never under pressure, plans to discuss potentially revised current prognosis for moderate global economic growth in 2 weeks.SNB policy rests on negative interest rates, readiness to intervene.The world is flooded with significant savings, but little readiness to invest those savings.Intervention in forex markets helps keep the lid on the Swiss franc.Despite a solid comeback from the lowest levels since April 2018 at 0.9519, the recovery attempts in USD/CHF remain capped below the 0.9600, as risk-aversion persists at full steam following a surprise 50 bps Fed rate cut."
17,Oil Price Analysis: WTI has some wild swings after the Fed emergency rate cut,"Spot WTI rose around 2.23% in an initial reaction to the Fed rate cut announcement.Now the commodity has pulled back somewhat to trade near $48/bbl.Interestingly, the price could not take out the previous wave high of $48.74/bbl.The market must remember that the OPEC+ meeting will be taking place on Thursday and Friday this week.OPEC+ delegates may also be looking to take some kind of emergency measures due to the outbreak of the coronavirus.If the level does break to the upside the next resistance could be at the $50/bbl psychological level and above that $51.22/bbl where the price found some support in the past.  "
18,"G7 Coronavirus Call Quick Preview: Three scenarios and reactions in stocks, gold, EUR/USD","Overpromise and underdeliver? – That is the risk that finance ministers and central bankers of the Group of Seven (G7) face as they hold an extraordinary call to discuss the coronavirus crisis. Markets surged and soared on Monday when the teleconference was announced – and after officials said that central bankers will also participate. Early on Tuesday, Reuters reported disagreements among the group that includes the US, the UK, Germany, France, Italy, Japan, and Australia. The upside movement in equities has stalled ahead of the all-important discussion due at 12:00 GMT. The respiratory disease has already infected some 90,000 people and taken the lives of over 3,000. The economic damage seems immense. China's Purchasing Managers' Indexes fell below levels seen in 2008.Here are three scenarios for the coronavirus call:Policymakers from all over the world may conclude that the danger is grave and requires a bold coordinated response, providing support and staying ahead of the curve. That would require both lower rates and QE from central banks, alongside substantial investment from governments to keep growth going.Stocks would be encouraged and they may resume their rally on support from both policy sides. Another winner would be EUR/USD. Germany has been reluctant to use deficits to stimulate its own economy and has been leading austerity policies in all the eurozone. Other winners would be commodities such as oil and commodity currencies such as the Australian and Canadian dollars. GBP/USD may also move higher, reversing its losses. Safe-haven assets such as gold and the Japanese yen would drop in this scenario.The probability is medium as the distrust means such a level of coordination is unlikely.Markets were encouraged by the Federal Reserve´s pledge late on Friday to support the economy and its hint to cut rates. The US dollar fell sharply, especially against the euro. While the Fed Funds Rate is 1.75%, the European Central Bank's deposit rate is -0.50%. Investors assumed that as the Fed has more room to loosen policy, the dollar would be a loser. However, if the G7 agrees that all members will provide monetary stimulus, the ECB would join in and EUR/USD would have room to fall, reversing its gains. GBP/USD – which has suffered from the Bank of England's pledge to cut rates – has room to recover as its potential cut would be part of a broader trend.Among commodity currencies, we may see a split between an advancing Australian dollar – as the Reserve Bank of Australia already reduced borrowing costs early on Tuesday – and the Canadian dollar. Like the Fed, the Bank of Canada's interest rate is 1.75%. As the BOC has room to cut, the loonie may struggle.In this scenario, stocks would likely remain bid as central banks provide support, but the move is mostly priced in. After an initial cheer, we may see equities reacting to coronavirus news once again. The first scary headline may send markets back down.Gold prices may serve as the mirror image for stocks – reacting with a drop at first, but then gaining if the mood worsens.The probability is high as this would be a reasonable middle ground.If policymakers fail to join forces to tackle the growing health and economic threat – or release a soft communique with only vague commitments, stocks may reverse their gains and plunge. In this scenario, gold prices have room to shoot higher. The safe-haven yen would likely follow suit. The dollar could remain under pressure if the Fed follows through with cuts while its peers only pledge to consider it. Nevertheless, without fiscal stimulus, the economic divergence between the eurozone and the US may eventually push EUR/USD down. GBP/USD may also under pressure, due to potential BOE cuts while commodity currencies could plunge across the board. The probability is low due to the severity of the situation.The coronavirus conference is critical for currencies, gold, and stocks. A heroic effort to tackle the economic fallout could inspire markets, a limited monetary reaction would have a mixed reaction, while disagreements could trigger a massive sell-off.As the dust settles from the teleconference, focus is set to shift to US politics, where centrist Joe Biden battles left-leaning Bernie Sanders for the Democratic Party's nomination to challenge President Donald Trump.See Super Tuesday preview: It’s all about the delegates"
19,China Securities Journal: PBOC may cut OMO rates this month,"China’s Securities Journal announced on early Wednesday that the People’s Bank of China (PBOC) may cut open market operations (OMO) rates this month.With this, the PBOC will use its tool to infuse liquidity to ward off the economic implications of coronavirus (COVID-19).Following the news, the risk-tone witnessed additional burden with Gold prices rising to a one-week high surrounding $1,653."
