,title,text
0,"EUR/USD Forecast: Overbought? So what, Brexit lifts the euro, and more may be in store","With a hard exit from the EU ruled out and hopes for a second referendum – euro bulls are unstoppable – even though Brexit is mostly a British development. Once again, events in London affect the continent. UK Prime Minister Boris Johnson has been forced to ask for a delay to Brexit. That is the backstop in case he is unable to pass muster for his deal in parliament – and support continuing piling up. Moreover, the opposition is set to introduce an amendment calling for a confirmatory vote – or another referendum – even better news for markets. Why is it positive for the euro? Several euro-zone countries will be adversely affected by an abrupt exit of the UK. Ireland, Belgium, the Netherlands, and France are set to suffer. Germany may lose some 100,000 positions in case of a no-deal exit. Moreover, the global economy is at a delicate point. Trade wars have hit the Chinese economy, and this slowdown has depressed German exports. The world's second-largest economy reported a 6% annual growth rate in the third quarter, the lowest since the 1990s. Christine Lagarde, the incoming President of the European Central Bank, has repeated her concerns about the global economy. A hard Brexit would add to the global deceleration. For more about Brexit, see Three positive Brexit developmentsThe US Dollar's slide has also contributed to the EUR/USD's advance. Weak Retail Sales numbers for September – published on Thursday – continue weighing on the greenback.Moreover, Richard Clarida, Vice-Chair of the Federal Reserve, has not ruled out a rate cut later this month. With markets pricing the odds of another reduction at above 80%, investors see Clarida's silence as an implicit nod to cutting rates. The economic calendar is light today, leaving room for Brexit developments, and perhaps events related to the US-Sino trade talks.The Relative Strength Index on the four-hour chart is above 70 – indicating overbought conditions. This situation has been going on for several days and may eventually trigger a downward correction. Nevertheless, the general trend is upbeat. The currency pair broke above uptrend resistance, enjoys upside momentum, and trades above the 50, 100, and 200 Simple Moving Averages. The next resistance line is 1.1190, which capped EUR/USD in mid-August. It is followed by 1.1225, which was a stubborn cap earlier that month. Further above, 1.1245 was that month's high point. Support awaits at 1.1140, which worked as resistance in mid-October. It is followed by 1.1115, which held it down in mid-September. Further down, 1.1075 was a high point around the same time, and 1.1060, a cap from mid-October closely follows it. "
1,"EUR/USD Analysis: Traders take a breather, remain away from the greenback","The EUR/USD pair has started the week gapping modestly lower, but the market quickly digested weekend news, with most major pairs trading dully throughout the day amid a scarce macroeconomic calendar and the persistent uncertainty. The greenback managed to recover some ground in US trading hours, yet the pair is finishing the day barely lower at around 1.1150. Brexit is on pause ahead of the next round of MPs’ votes, exacerbating the wait-and-see stance.Germany released the September Producer Price Index, which resulted slightly better-than-expected, up in the month by 0.1% and down yearly basis by 0.1%, while there were no macroeconomic data published by the US. This Tuesday, the calendar will remain light, as there is no data scheduled to release in the EU, while the US will publish minor figures, including September Existing Home Sales and the October Richmond Fed Manufacturing Index.The EUR/USD pair has reached a fresh October high of 1.1179 before giving up some ground, retaining the bullish potential in the short-term. In the 4-hour chart, the pair has spent the day developing well above all of its moving averages, with the 20 SMA maintaining its firmly bullish slope far above the larger ones. Technical indicators have eased from extreme overbought levels, the Momentum heading south within positive levels and the RSI currently flat at around 66, far from suggesting an upcoming decline. A bearish corrective movement could happen on a break below 1.1140, while the pair would likely run well into the 1.12 area once above 1.1180.Support levels: 1.1140 1.1100 1.1065  Resistance levels: 1.1180 1.1210 1.1250View Live Chart for the EUR/USD "
2,Breaking: GBP/USD breaks above 1.30 as DUP rejects customs union amendment to the Brexit deal,"GBP/USD has topped 1.30 and is trading at the highest levels since mid-May – a five-month high. The pound has extended its gains as the chances for parliament to approve the Brexit deal have improved. The latest development has come from the Northern Irish Democratic Unionist Party. The small party has stated it will object an amendment to add a customs union to the agreement. Forcing such a change would practically void the accord. Jim Shannon told Sky News the party would not support such an amendment. While the DUP is vehemently opposed to having a customs border at the Irish Sea, they are more concerned about the change in the consent mechanism. Prime Minister Boris Johnson's Brexit deal strips NI unionists from their veto on changes in the province. The next targets are 1.3045, 1.3080, and 1.3135. Support awaits at 1.2985 and 1.2900.More GBP/USD Forecast: Seeing the uptrend through the Brexit chaos, rally looks likelyGBP/USD has been rising in a sharp uptrend since October 10, when Johnson and his Irish counterpart Leo Varadkar reached a breakthrough. Cable now completes a surge of over 800 pips in 11 days.For more detail, see Three positive Brexit developments"
3,GBP/USD may target 1.32-1.34 if Brexit deal passes – CitiBank,"Analysts at Citibank, consider that the Pound could rise further against the US Dollar if the UK Parliament votes for Prime Minister Johnson Brexit plan. They also see GBP/USD falling to 1.25-1.26 amid prospects of a general election and/or another referendum. “UK and EU approved the new Brexit deal at EU Summit. The odds of nodeal Brexit reduced significantly and once supported the GBP.”“We are not convinced that a Withdrawal Agreement between the EU and UK Government will be ratified in the UK Parliament, and hence we are reluctant to forecast GBP much higher from here. However, the Benn Act means that 19th October is the de-facto deadline on a deal before the 31 October A50 deadline, and thus acts as a floor under GBP in the short term. A50 extension to January 2020 closely followed by a General Election are the most probable outcomes.”“Cable’s rally may come too far and too fast and would pull back in the short term before heading to higher level, with resistance at 1.3045-1.3185 and support at 1.2670-1.2784.”“If UK Parliament passes PM Johnson’s Withdrawal Bill (50% probability), GBP/USD may target 1.32-1.34. If Labour ally with Liberal Democrats in general election, the coalition may push forward the second referendum polling and favor GBP.”“If the UK House speaker turns down Boris Johnson’s demand for a meaningful vote on the deal, the prospect of a UK general election/ 2nd referendum may raise and GBP/USD may pull back to 1.25-1.26 area.”
 "
4,"Important Economic News Calendar: October 21 – October 25, 2019","The markets remained surprisingly calm last week, despite worse than expected U.S. economic data releases. The third-quarter earnings season along with Brexit play may have overweighed the data pessimism. This week, we will have some potentially moving news releases along with more big names corporate earnings. So let’s take a look at those events. The U.S. Retail Sales and the Philly Fed Manufacturing Index were the most important market moving releases last week. They came worse than expected, but investors generally neglected them as only the price of gold and the Euro spiked at the time of Retail Sales number release on Wednesday. Stocks were gaining as the third quarter earnings season accelerated. And we pointed it out in our last week’s news calendar release. The economic data releases from Australia, Canada and the U.K. greatly influenced their exchange rates. Of course, the British Pound was also gaining because of the ongoing Brexit play. What about the coming week? Thursday’s economic data releases from Eurozone will likely get the most attention as investors will wait for the ECB’s Monetary Policy update. In addition, there will be a lot of sentiment data from Europe and the U.S. that day. And the earnings season will further accelerate this week, as we will see some important releases starting Tuesday. Thursday’s ECB’s Monetary Policy Statement and their Main Refinancing Rate followed by the Press Conference will be the most important news releases this week.The third-quarter earnings season is accelerating! We will see Biogen, P&G, 3M, Twitter, Amazon, Intel, Visa, Verizon releasing this week, among others.On Thursday, we will also await series of sentiment data from Eurozone and the U.S. They will likely affect markets.The other noteworthy releases will include Tuesday’s and Wednesday’s economic data from Australia, Canada and Japan followed by Friday’s German Ifo Business Climate number. You will find this week’s the key news releases below (EST time zone). For your convenience, we broken them down per market to which they are particularly important, so that you know what to pay extra attention to, if you have or plan to have positions in one of them. Moreover, we put the particularly important news in bold. This kind of news is what is more likely to trigger volatile movements. The news that are not in bold usually don’t result in bigger intraday moves, so unless one is engaging in a particularly active form of day trading, it might be best to focus on the news that we put in bold. Of course, you are free to use the below indications as you see fit. As far as we are concerned, we are usually not engaging in any day trading during days with “bold” events on a given market. However, in case of more medium-term trades, we usually choose to be aware of the increased intraday volatility, but not change the currently opened position. Tuesday, October 228:30 a.m. Canada - Retail Sales m/m, Core Retail Sales m/m10:30 a.m. Canada - BOC Business Outlook Survey Wednesday, October 236:00 p.m. Australia - Flash Manufacturing PMI, Flash Services PMI Thursday, October 247:45 a.m. Eurozone - Monetary Policy Statement, Main Refinancing Rate8:30 a.m. Eurozone - ECB Press Conference9:45 a.m. U.S. - Flash Manufacturing PMI, Flash Services PMI Tuesday, October 228:30 a.m. Canada - Retail Sales m/m, Core Retail Sales m/m4:30 p.m. U.S. - API Weekly Crude Oil Stock Wednesday, October 2310:30 a.m. U.S. - Crude Oil Inventories6:00 p.m. Australia - Flash Manufacturing PMI, Flash Services PMI Thursday, October 247:45 a.m. Eurozone - Monetary Policy Statement, Main Refinancing Rate8:30 a.m. Eurozone - ECB Press Conference9:45 a.m. U.S. - Flash Manufacturing PMI, Flash Services PMI Tuesday, October 22Before Open U.S. – BIIB, LMT, MCD, PG, UPS, UTX Quarterly Earnings10:00 a.m. U.S. - Existing Home Sales, Richmond Manufacturing Index Wednesday, October 2310:00 a.m. Eurozone - Consumer Confidence Thursday, October 243:15 a.m. Eurozone - French Flash Manufacturing PMI, French Flash Services PMI3:30 a.m. Eurozone - German Flash Manufacturing PMI, German Flash Services PMIBefore Open U.S. – CMCSA, DOW, MMM, NOC, RTN, TWTR Quarterly Earnings7:45 a.m. Eurozone - Monetary Policy Statement, Main Refinancing Rate8:30 a.m. Eurozone - ECB Press Conference8:30 a.m. U.S. - Durable Goods Orders m/m, Core Durable Goods Orders m/m, Unemployment Claims9:00 a.m. China - CB Leading Index m/m9:45 a.m. U.S. - Flash Manufacturing PMI, Flash Services PMI10:00 a.m. U.S. - New Home SalesAfter Close U.S. – AMZN, GILD, INTC, V Quarterly Earnings Friday, October 254:00 a.m. Eurozone - German Ifo Business ClimateBefore Open U.S. – GT, PSX, VZ Quarterly Earnings10:00 a.m. U.S. - Revised UoM Consumer Sentiment Tuesday, October 2210:00 a.m. U.S. - Existing Home Sales, Richmond Manufacturing Index Wednesday, October 2310:00 a.m. Eurozone - Consumer Confidence Thursday, October 243:00 a.m. Eurozone - Spanish Unemployment Rate3:15 a.m. Eurozone - French Flash Manufacturing PMI, French Flash Services PMI3:30 a.m. Eurozone - German Flash Manufacturing PMI, German Flash Services PMI4:00 a.m. Eurozone - Flash Manufacturing PMI, Flash Services PMI7:45 a.m. Eurozone - Monetary Policy Statement, Main Refinancing Rate8:30 a.m. Eurozone - ECB Press Conference8:30 a.m. U.S. - Durable Goods Orders m/m, Core Durable Goods Orders m/m, Unemployment Claims9:45 a.m. U.S. - Flash Manufacturing PMI, Flash Services PMI10:00 a.m. U.S. - New Home Sales Friday, October 254:00 a.m. Eurozone - German Ifo Business Climate10:00 a.m. U.S. - Revised UoM Consumer Sentiment Tuesday, October 22All Day, Japan - Holiday Wednesday, October 238:30 p.m. Japan - Flash Manufacturing PMI Thursday, October 247:45 a.m. Eurozone - Monetary Policy Statement, Main Refinancing Rate8:30 a.m. Eurozone - ECB Press Conference9:45 a.m. U.S. - Flash Manufacturing PMI, Flash Services PMI Thursday, October 247:45 a.m. Eurozone - Monetary Policy Statement, Main Refinancing Rate8:30 a.m. Eurozone - ECB Press Conference9:45 a.m. U.S. - Flash Manufacturing PMI, Flash Services PMI Monday, October 21All Day, Canada - Federal Election Tuesday, October 228:30 a.m. Canada - Retail Sales m/m, Core Retail Sales m/m10:30 a.m. Canada - BOC Business Outlook Survey Wednesday, October 238:30 a.m. Canada - Wholesale Sales m/m10:30 a.m. U.S. - Crude Oil Inventories Thursday, October 247:45 a.m. Eurozone - Monetary Policy Statement, Main Refinancing Rate8:30 a.m. Eurozone - ECB Press Conference9:45 a.m. U.S. - Flash Manufacturing PMI, Flash Services PMI Tuesday, October 226:20 p.m. Australia - RBA Assistant Governor Kent Speech Wednesday, October 2310:30 a.m. U.S. - Crude Oil Inventories6:00 p.m. Australia - Flash Manufacturing PMI, Flash Services PMI Thursday, October 247:45 a.m. Eurozone - Monetary Policy Statement, Main Refinancing Rate8:30 a.m. Eurozone - ECB Press Conference9:45 a.m. U.S. - Flash Manufacturing PMI, Flash Services PMI  Want free follow-ups to the above article and details not available to 99%+ investors? Sign up to our free newsletter today! "
5,USD/CHF Analysis: Has breakout the bottom level of the Uptrend line,"USD/CHF has breakout the bottom level of the Uptrend line.
We can expect sellers pressure now. 
Sell Forexgdp signal :
Sell Limit USD/CHF at 0.9870
Target 1 : 0.9800
Target 2 : 0.9730
Stop Loss : 0.9925
Thank you.
 Forexgdp.com Provides High Quality Forex Signals, Analysis and Educational Services. Trading foreign exchange on margin carries high potential rewards but also high potential risks that may not be suitable for all investors. Before deciding to trade foreign exchange, you should carefully consider your investment objectives, level of experience and risk appetite. Past performance is not indicative of future results, which can vary due to market volatility. The possibility exists that you could sustain a loss of some or all of your initial investment and therefore you should not invest money that you cannot afford to lose. You should be aware of all the risks associated with foreign exchange trading and seek advice from an independent financial advisor if you have any doubts. Any opinions, news, research, analyses, prices or other information contained on this website or linked to from this website are provided as general market commentary and do not constitute investment advice. Forexgdp does not accept liability for any loss or damage, including without limitation to, any loss of profit, which may arise directly or indirectly from use of or reliance on such information."
6,USD/CLP Approaching Highs after Protests,"The Chilean Peso took a hit today after a violent weekend of protests, in which 11 people died according to the Karla Rubilar, the mayor of Santiago.  Cost and living and inequality sent people to the streets last week after the government said they were going to increase the price of public transportation.  The President of Chile, Sebastian Pinera, declared a State of Emergency and noted that the price increase was due to currency exchange fluctuations.USD/CLP gapped higher today to 720.63 after closing Friday at 710.19.  The pair is up 2.2% today, closing near 725.73 The Emerging Market pair has been trading in a sideways trading range since August, however the pair appears likely to test the highs at 731.24 from not only October 1st, 2019, but also December 2015.   Resistance above that isn’t until 761.00, the all-time highs from 2002.  First support is at the broken trendline near 717.75, and then the gap fill at 710.29.  A rising trendline comes in below that on the weekly timeframe near 700 (see weekly chart below).However, this move is really part of a longer-term structural issue for Emerging Markets (EMs) in general, rather than just the violence over the last week.  As the Fed began its tightening policy in 2012, the USD has been strengthening and EMs are the ones who have taken the brunt of it.  On the weekly chart,  USD/CLP  was at 455.25 in July 2011 and rose to a high 731.74 in January 2016.  After retracing 50% of that move, price is testing the 2016 highs and threaten to break out.  Bulls may want to consider waiting for a break above 731.74, and buying a retest of that level, as price is currently in an ascending wedge and is diverging with RSI, an indication price may pull back in the short-term. The Brazilian Real is another currency that has been hit by the strengthening US Dollar since 2012.  USD/BRL was at 1.5322 in August 2011 when the pair began its ascent to 4.2589 in September 2015.  The pair pulled back, just as USD/CLP had, however not as deep, and formed a rounding bottom formation.  After testing the highs in mid-2018, USD/BRL pulled back slightly and now appears ready to break out above 4.2589, as it is testing that level for the third time.  The price action appears to be  putting in a long-term cup and handle formation.  However, as with USD/CLP, bulls may want to wait for a break above 4.25 and a retest to enter the market, as the RSI is diverging with price as well.Patience is key for those who wish to get involved with these EM pairs, as market participants may wait to see how the shorter-term patterns play out if the pairs do not immediately break higher.  Its usually not a good thing when everyone jumps in the pool all at once! "
7,"EUR/GBP is flirting with 0.8600, near 5-month lows","The continuation of the bid note around the quid is keeping EUR/GBP well under pressure in the area of (just above) 5-month lows on Monday.The European cross remains under heavy pressure after the Sterling has quickly left behind the events from last Saturday, when the UK Parliament voted against PM B.Johnson’s Brexit deal, forcing him at the same time to write a letter (unsigned) to the EU leaders asking for a delay of the October deadline.In the meantime, J.Bercow, the Speaker of the House of Commons, is expected to announce later today whether MPs should have another ‘meaningful vote’ on Johnson’s Brexit bill.Meanwhile, in Brussels, the European Commission said it is assessing another extension of the Brexit deadline (likely to end of January 2020).The cross is up 0.07% at 0.8603 and faces the next resistance at 0.8667 (78.6% Fibo of the May-August rally) followed by 0.8817 (200-day SMA) and finally 0.8906 (50% Fibo of the May-August rally). On the other hand, a drop below 0.8574 (monthly low Oct.17) would expose 0.8488 (monthly low May 6) and then 0.8474 (2019 low Mar.12)."
8,Precious Metals Update: Silver Breaking Out,"While gold continues to frustrate the bulls and the bears alike, with its ongoing consolidation and false break out and break down attempts, silver is taking its lead from copper and palladium as it tries to break higher today.Gold has been held back by the recent rally in the equity markets and sell-off in bonds, reducing the appeal of the safe-haven metal – even if its longer-term bullish price structure points to potentially higher prices eventually.Silver, on the other, has benefited more from the positive sentiment towards risk. The white metal tends to be less prone to a sell-off when stocks rise than gold is, given that as well as a precious metal it has many industrial uses. At the same time, the fact that it is still viewed as a safe-haven metal means it could go up along with gold in the event of a risk-off period in the stock markets.But more to the point, there are at least four reasons why we are turning bullish on silver. Let's go through each in turn:With the Dollar Index falling for three consecutive weeks, thanks mainly to the euro and pound rallying on Brexit optimism, the dollar-denominated precious metal could rise further – especially if the dollar's weakness is accompanied by a sell-off in stock markets.Meanwhile, judging by the rally in equity markets and the recent rebound in commodity dollars and copper, investors are apparently becoming more confident that the US and China will soon be able to strike a trade deal after agreeing to a partial arrangement the week before. If so, demand for silver in its physical form should, in theory, rise as manufacturing activity rebounds.The gold/silver ratio has continued to trend lower after topping out last year near historic highs around 93.35. At 84.10ish, the ratio is now back below the high from last year (at 86.54), thus suggesting this year's earlier breakout attempt was a false move. In other words, silver is outperforming gold at the moment which makes it a better long candidate or a worse short candidate over gold.In addition, and more significantly, this morning saw silver poke above its consolidative trend line plotted from connecting the recent lower highs. If the breakout is sustained and we close above resistance and last year's high at $17.70, then this could lead to further technical buying in the days ahead.So, the potential is there for silver to rally over the coming days. But first thing is first, it needs to hold today's breakout attempt above its trend.Figure 1:Source: Trading View and FOREX.com. Risk Warning Notice

Foreign Exchange and CFD trading are high risk and not suitable for everyone.  You should carefully consider your investment objectives, level of experience and risk appetite before making a decision to trade with us.  Most importantly, do not invest money you cannot afford to lose.

There is considerable exposure to risk in any off-exchange transaction, including, but not limited to, leverage, creditworthiness, limited regulatory protection and market volatility that may substantially affect the price, or liquidity of the markets that you are trading.

Margin and leverage

To open a leveraged CFD or forex trade you will need to deposit money with us as margin.  Margin is typically a relatively small proportion of the overall contract value.  For example a contract trading on leverage of 100:1 will require margin of just 1% of the contract value.  This means that a small price movement in the underlying will result in large movement in the value of your trade – this can work in your favour, or result in substantial losses.

Your may lose your initial deposit and be required to deposit additional margin in order to maintain your position.  If you fail to meet any margin requirement your position will be liquidated and you will be responsible for any resulting losses."
9,Regulatory uncertainty forced Bittrex to leave 31 countries,"The cryptocurrency exchange Bittrex has announced the decision to stop servicing customers in 31 countries, including Venezuela, Bosnia and Herzegovina, Egypt and Iraq, as well as a number of other Asian and African countries.According to the official statement published on the Bittrex International website, the company is leaving due to regulatory uncertainty in these jurisdictions.The trading and transaction processing in these countries will stop at 19:00 UTC on October 29. Customers are advised to withdraw their money here that above-said deadline. To do so, they should have an amount of at least three times bigger than the minimum transaction fee.Notably, earlier this week, the US-focused Bittrex platform obtained a money transfer operator license in North Carolina. This license will allow the residents and the companies of the state to deposit and withdraw money in the USD.""Bittrex has been approved as a Money Transmitter in the state of North Carolina! NMLS ID 1544336. We're excited to welcome North Carolina customers to join our USD Markets,"" the company wrote in its Twitter accountThe option is now available in 43 states. Residents of several states, including New York, New Jersey and Nevada, are still unable to do so.""If you are living inside the United States in a state not listed (e.g. Nevada), you can still participate in our USDT (Tether), BTC, and ETH markets. We will be adding more states eligible for USD soon,"" the company said.Earlier in October, it was reported that Bittrex would launch a new Bittrex Global platform with headquarters in Liechtenstein before the end of the month."
10,Craig Wright alleges Satoshi Nakamoto of plagiarizing him,"The infamous Craig Wright has alleged Satoshi Nakamoto, the author of the Bitcoin (BTC) whitepaper, of plagiarizing him. In the CC London Investment in Blockchain and AI Forum 2019, Wright stated that he would provide the ultimate proof of his authorship of the original Bitcoin code. According to Wright, this will come out in the form of a thesis he wrote back in 2008. Wright stated that Nakamoto drafted the entire thesis into the Bitcoin white paper. After realizing that he referred to Satoshi in the third-person, Wright said:“Either I am Satoshi or Satoshi plagiarized me. You can make the choice, I don't really care because he actually took whole paragraphs from my LOM. So it’s either me or… I don’t really care if you like it.”Wright has declared that Satoshi Nakamoto is a pseudonym for the partnership between him and his late business partner Dave Kleiman, who was responsible for inventing Bitcoin. Wright has continuously claimed himself as Satoshi Nakamoto after Kleiman’s death. Due to this, the crypto space has severely criticized the Australian programmer, calling him “Faketoshi.”Since 2017, Wright has filed 114 blockchain patents and listed two PhDs on his LinkedIn page, including one from Charles Sturt University. Forbes contacted the university only to find out that it had not granted Wright any PhDs. Wright was, however, awarded with a doctorate degree by Charles Sturt University later in 2017 and was given three master's degrees in networking and systems administration.
 "
11,VeChain (VET) launches a new block explorer and ledger wallet interface," VeChain (VET) recently announced the launching of its new official VeChain Block Explorer and VeChain Sync Ledger Wallet Interface. The development comes following the sudden discontinuation of the existing VeForge services by Totient Labs, a member of the VeChain development community. In terms of the new VeChain blockchain explorer it is scheduled to go live by the end of November, according to the blog post.Totient Labs, a blockchain startup and member of the VeChain community developed the VeForge Explorer and VeForge Vault for Ledger Wallet made the decision to discontinue its services to VeChain, leaving the latter with no choice but to launch its new official block explorer and user interface for Ledger wallet. "
12,,
13,,
14,,
15,,
16,,
17,,
