,title,text
0,EUR/USD Forecast: Expected to trade in the 1.15/1.16 area on a 1- and 3-month view – Rabobank,"The European Union’s recovery fund marks a strengthening in the fundamentals of the euro notes Rabobank analysts. They forecast EUR/USD trading in the 1.15/1.16 area on a one and three month view from a previous forecast of 1.13.“We have revised our EUR/USD forecasts higher and now see EUR/USD trading in the 1.15/1.16 area on a 1 and 3-month view. On the anticipation that risk appetite will be reeled in in the coming months and that the USD will remain a primary safe haven, we see a dip lower towards the 1.12 area on a 6 month view.”“EUR/USD faces a critical technical barrier – the long-term downside trendline at 1.1648. A break higher (ideally a weekly or even a monthly close above this level) would be a major bullish signal that would support the view that EUR/USD is at the beginning of reversing the downside trend from the 2008 high. The Fibonacci 38.2% retracement at 1.2510 would be the next target for the bulls.”"
1,FX markets end the week with some dollar weakness across the board,"The EUR/USD weekly chart is coming up to a massive resistance zone. This is not the only FX pair moving to a major level as the other charts in the article point out. Some analysts are pointing out that the dollar sell-off may be overdone. Even since some of these calls have come to market the dollar has still continued to capitulate. The EUR is the best of a bad bunch at the moment. The 27 member group is over the worst of the COVID-19 pandemic for the moment. The Eurogroup also passed the recovery deal which sees some of the worst-hit nations receive some relief money in the form of grants. Next week there is the Fed meeting, US government stimulus decisions and more US-China shenanigans to look forward too. GBP/USD  has now broken the trendline to the upside. This is a technically valid trendline as it has more than two touches and a break could mean higher levels are to come. GBP would not be the best currency to chose out of the G6 as Brexit issues are still hanging over the UK like a dark cloud. The economy is still very much in its infancy in terms of the recovery from the coronavirus pandemic too. USD/CHF is heading to a massive level. We are now very close to the consolidation low after the SNB chose to remove the CHF - EUR peg back in January 2015. The price bounced of the 0.92 level at least four times after the CHF strength following the SNB peg incident. The CHF is a safe haven in nature but the SNB will not look to CHF strength very kindly. In previous occasions, the SNB has been known to intervene in the FX market if the domestic currency gets too firm. This is due to the fact that it will make their exports more expensive.  "
2,"Forex technical analysis and forecast: Majors, equities and commodities","EUR/USD is consolidating around 1.1580; it has already expanded the range up to 1.1625. Possibly, today the pair may fall to test 1.1580 from above and then form one more ascending structure to complete this wave at 1.1654. Later, the market may correct with the target at 1.1400. GBP/USD is consolidating around 1.2725. Today, the pair may test this level from above and then grow to complete this wave at 1.2800. After that, the instrument may start a new correction with the first downside target at 1.2640. After finishing the ascending structure at 71.55, USDRUB is expected to continue growing towards 72.00, thus forming a Triangle pattern within this consolidation range. If the price breaks the channel to the downside, the market may form a new descending structure to break 70.70 and then continue trading downwards to reach 70.30 or even 69.00. However, if the asset grows and breaks 72.00, the instrument may resume growing with the target at 72.80. USD/JPY has completed the descending wave at 106.50. Possibly, today the pair may test 106.72 from below and then resume trading downwards with the first target at 106.30. USD/CHF continues falling. Possibly, the pair may start another decline to reach 0.9230 and then resume trading upwards as a correction with the target at 0.9320, at least. AUD/USD is falling towards 0.7042. After that, the instrument may correct to reach 0.7108 and then resume trading downwards with the first target at 0.6980. After completing the ascending structure at 45.00, Brent is falling towards 43.00 and may later grow to reach 44.00, thus forming a new consolidation range between these two levels. If the price breaks this range to the upside, the market may form one more ascending structure with the target at 46.60; if to the downside – start another correction towards 40.00. After completing the descending impulse at 1880.00 along with the correction towards 1890.00, Gold is expected to start a new decline to break 1870.00. After that, the instrument may continue trading downwards with the target at 1846.00. BTC/USD is consolidating around 9544.00. If later the price breaks this range to the upside at 9600.00, the market may resume trading upwards with the target at 10000.00; if to the downside at 9500.00 – form a new descending structure to reach 9260.00. After completing the ascending wave at 3293.3, the S&P 500 Index is forming a new descending structure to reach 3200.0. After that, the instrument may start another growth with the target at 3245.8."
3,FX update – USD remains heavy,"The Yen has outperformed today as risk aversion took a firm grip on global markets. The Dollar has so far failed to pick up safe haven demand, and has remained on a softening path. The narrow trade-weighted USDIndex carved out a fresh 22-month low at 94.49. The Dollar has lost appeal partly on the advent of the EU’s recovery fund, seen as a milestone by many analysts that has served to tip the balance out of the dollar’s favour, and partly amid expectations for dovish guidance from the Fed at next week’s FOMC, with some speculating that the US central bank is considering yield curve targeting. A Reuters survey highlighted increasing pessimism about the nearer-term US outlook given the extent of localized lockdown measures in response to the spike in coronavirus cases across many southern and western states. Intel also underwhelmed markets in its guidance for Q3 earnings.    Against this backdrop,EURUSD remained firm, although off from the 21-month peak that was seen yesterday at 1.1628. USDJPY dropped by 0.5% to a one-month low at 106.17. Yen crosses were concurrently weak, driven by safe haven demand for the Yen. EURJPY fell to a two-day low at 123.36, extending a correction from Wednesday’s seven-week peak at 124.30. AUDJPY has been the biggest mover of the day so far, dropping 0.6% to a three-day low at 75.32. AUDUSD fell by a lesser magnitude, but still managed to peg a three-day low, at 0.7074. USDCAD lifted to within a pip of its peak from yesterday, at 1.3428. Oil prices have remained heavy after yesterday sinking to three-day lows. Cable edged out a fresh six-week high at 1.2773. The pair has been trending higher for about three weeks, though recent daily price action has been jagged and upside momentum has been waning, with the Pound having been weakening against other currencies on signs, and confirmation at a press conference yesterday, that the UK and EU remain deadlocked on key issues in trade talks.The first reading of July PMIs from the Eurozone and the UK both beat expectations earlier. The Markit Composite EZ number came in at 54.8, significantly above expectations of 51.1 and back in expansion territory over 50.0. The preliminary UK July PMI surveys smashed expectations, with the composite headline surging to a five-year high of 57.1, up from 47.7 in the final reading for June and well up on the median forecast for a 50.8 reading. This extends the strong rebound for a third consecutive month from April’s series-record low at 13.8. The services PMI rose to 56.6 from 47.1 and the manufacturing PMI lifted to 53.6 from 50.1. However, a note of caution accompanied the data, with Markit noting – “July’s PMI represents a step in the right direction, but there is a mountain still to climb before a sustainable recovery is in sight.”"
4,The week ahead: US-China tensions to rise?,"Large gains in silver and gold were a key highlight this week. In our Telegram channel, at the start of the week, we highlighted the strong technical and fundamental picture for silver. The fundamental picture is recognised by Goldman Sachs seeing a ‘near-perfect environment for silver’ and Citi being ‘very positive’ on silver noting the steady investment demand. Gold is also now within touching distance of the all-time highs at $1921 and both precious metals are showing heavy ETF demand with silver seeing inflows of over 1000 tons a month. The gains in silver and gold have not been a surprise, but the speed of these gains have. EUR: European Recovery Fund, July 17-20. The second-longest ever Europe-an policymakers meeting saw the €750 billion Euro Recovery Fund agreed. This show of European solidarity saw the EURUSD push above the 1.1500 handle.Silver soars: Recession buster, July 20/21. The longer-term bullish picture for gold and silver remains in place as central banks around the world cut interest rates and the world’s in a grip of a recession. Metals like gold and silver have historically done well in this environment and strong bids were noted this week.USD: Stimulus delay drags on the USD. The USD risks weakening further in the near term if US stimulus negotiations drag into August when a senate recess is scheduled. Key elements of the $2 trillion Cares Act expire this month and investors are anxious for a rescue package to succeed it. USD: US Interest Rate Meeting, July 29. The FOMC meet next week and the OIS Fed Fund Futures contract prices point towards a 75% chance of no change to the interest rates. The future guidance from the Fed will be key with interest rates expecting to be unchanged at 0.125%.CNY: Manufacturing PMI, July 31. Investors are betting on a china driven global recovery cycle and the key to that narrative is strong manufacturing data from China. A strong reading PMI here will reassure markets that the recovery is continuing.US-China tensions to rise? This week saw tensions rise as China could consider shutting the US consulate in Wuhan in response to the US order for China to shut its Houston consulate.  Learn more about HYCM "
5,USD/JPY: Negative pressure is mounting [Video],"The outlook for Dollar/Yen has been steeped in uncertainty recently, but this morning there seems to be a negative bias developing. For the past seven sessions, there have been alternating positive and negative candles, with the market consolidating above support at 106.60. However, a decisive early breach of 106.60 support is a four week low and now opens a test of the key medium term range floor at 106.00. Momentum indicators are making notable deteriorations too. If the RSI closes below 40 it would be a signal for the bears to increasingly take control. We continue to note how support between 106/107 has been a consistent feature of the trading range over the past four months, but with this latest development, negative pressure is mounting. A decisive close below 106.00 would be a big outlook changing move and open initially 105.00 but potentially the March spike low of 101.20 comes into play. Resistance is mounting between 106.60/106.90 and is a near term Sell zone now. Risk Warning for Financial PromotionsHantec Markets' various market reports and commentary are issued by Hantec Markets Limited, who is authorised and regulated by the Financial Conduct Authority (FCA) in the UK, No. 502635. The reports are prepared and distributed for information purposes only.Trading in Foreign Exchange (FX), Bullion and Contracts for Differences (CFDs) is not be suitable for all investors due to the high risk nature of these products. Forex, Bullion and CFDs are leveraged products that can result in losses greater than your initial deposit. The value of an FX, Bullion or CFD position may be affected by a variety of factors, including but not limited to, price volatility, market volume, foreign exchange rates and liquidity. You may lose your entire initial stake and you may be required to make additional payments. Please ensure you fully understand the risks involved, seeking independent advice if necessary prior to entering into such transactions. Before deciding to enter into FX, Bullion and/or CFD trading, you should carefully consider your investment objectives, level of experience, and risk appetite. You should only invest in FX, Bullion and/or CFD trading with funds you are prepared to lose entirely. Therefore, only your excess funds should be placed at risk and anyone who does not have such excess funds should completely refrain from engaging in FX and/or CFD trading. Do not rely on past performance figures. If you are in any doubt, please seek further independent advice.The reports do not constitute personal investment advice, nor do they take into account the individual financial circumstances or objectives of the clients who receive it. All information and research produced by Hantec Markets is intended to be general in nature; it does not constitute a recommendation or offer for the purchase or sale of any financial instrument, nor should it be construed as such. All of the views or suggestions within the reports are those solely and exclusively of the authors, and accurately reflect their personal views about any and all of the subject instruments and are presented to the best of the authors' knowledge. Any person relying on these reports to undertake trading does so entirely at his/her own risk and Hantec Markets does not accept any liability.© 2014 Hantec Markets Limited"
6,EUR/GBP stopped at HFT selling zone,"The analysis of EURGBP today shows that HFT algorithms have started selling this pair, which may result in continuation to the downside in the session ahead.EURGBP reached the light HFT selling pressure zone that is noted at 0.9125 and above. The bullish move was stopped there with a Doji candle on the hourly chart. The rejection also confirms resistance from recent highs in this same area.The trend is directionless here, however, as EURGBP has been consolidating after the push higher earlier this week. The light HFT buying pressure zone is noted today at 0.9076 and below.  FX Trading Revolution - Your Revolutionary Forex SourceHigh Risk Warning: Please note that foreign exchange and other leveraged trading involves significant risk of loss. It is not suitable for all investors and you should make sure you understand the risks involved, seeking independent advice if necessary.ADVISORY WARNING: Any news, opinions, research, data, or other information is provided as general market commentary and does not constitute investment or trading advice. FXTradingRevolution.com expressly disclaims any liability for any lost principal or profits without limitation which may arise directly or indirectly from the use of or reliance on such information."
7,"EU: Airbus, France and Spain agree to modify subsidy scheme in full compliance with WTO rulings","The European Union (EU) Competition Watchdog said in a statement on Friday, Airbus, France and Spain agreed to modify subsidy scheme, which will put them in full compliance with the World Trade Organization (WTO) rulings.The move ""removes any grounds for the US to maintain its countermeasures on EU exports.If dispute not settled, the EU will be ready to fully avail itself of its own sanction rights.“Should the US maintain duties on EU exports, it would decide on retaliatory sanctions as soon as countermeasures in parallel Boeing case decided.”This comes after Airbus said it had agreed to pay higher interest rates on government loans it received from France and Spain to help develop its A350 jet, which entered service in 2015.The shared currency is little changed on the above headlines, with EUR/USD keeping its range around 1.1600"
8,"Sentiment hit on US and China diplomatic tensions, USD still struggling [Video]","The drivers of the key breakouts on major markets in the past few days have been a surge of positive risk appetite from progress on COVID vaccination trials and the market taking a view on dollar weakness. However, the risk positive outlook is turning a little sour in the last 24 hours as diplomatic tensions between the US and China continue to escalate. Tit-for-tat consulate closures have been announced, whilst the rhetoric of US Secretary of State Mike Pompeo referring to China as being a threat to the world order, sees relations becoming ever less cordial. The strengthening of the Chinese yuan below 7 to the US dollar is beginning to reverse. Equity markets are seeing some profit-taking on their breakouts, whilst risk currencies (AUD and NZD) are slipping back. However, the dollar remains under pressure. Despite a surprise deterioration in Eurozone Consumer Confidence, EUR/USD continues to climb. The breakout on gold is also holding as US Treasury yields continue to fall and the US yield curve “bull flattens” (something which tends to be dollar negative and we see the strains of this through a sharp decline on Dollar/Yen today). These moves do though look increasingly stretched and the potential for a near term snap back is growing. Sterling could fine a basis of support with UK Retail Sales for June coming in way ahead of expectations.Wall Street closed strongly lower last night with the S&P 500 -1.2% at 3235, whilst US futures are falling further today (E-mini S&Ps -0.4%). This has weighed on Asian markets, with the Nikkei -0.6% and Shanghai Composite -3.1%. European indices are also looking under pressure early today, with FTSE futures -1.2% and DAX futures -1.2%. In forex, there is risk negative bias with JPY performing strongly, but USD also continues  to be pressured as EUR holds up well and GBP feels the benefit from the retail sales data. In commodities, the sharp run higher on silver is beginning to drop back, whilst gold is beginning to also stall slightly. Oil is stable after its fall back yesterday.The Flash PMIs for July dominate the economic calendar today. Eurozone flash Manufacturing PMI is at 0900BST and is expected to improve to 50.0 (from a final 47.2 in June). Eurozone flash Services PMI is expected to improve to 51.0 (from a final 48.3 in June), meaning the Eurozone flash Composite PMI is expected to improve to 51.1 (from 48.5 final June). The UK flash Manufacturing PMI is at 0930BST and is expected to improve to 52.0 (from 50.1 final June), whilst UK flash Services PMI is expected to pick up to 51.5 (from a final 47.1 in June). This would leave the UK Flash Composite PMI improving to 51.1 (from 47.7 final June). Into the afternoon, the US flash Manufacturing PMI is at 1445BST and is expected to improve to 51.5 in July (from the final reading of 49.8 in June), whilst US flash Services PMI is expected to pick up to 51.0 (from a final reading of 47.9 in June). US New Home Sales for June are at 1500BST with consensus expecting an improvement of 4% to 700,000 (up from 676,000 in May). The period following a key breakout can often be an uncertain one for traders. Do you chase a breakout, or wait for a pullback? In the case of the Kiwi, after two days of breakout, the bulls are stuttering somewhat and the pullback is taking shape. A bearish outside day session formed yesterday and the market is ticking lower today. However, we see this will likely be the source of the next opportunity to buy. The upside break above 0.6585/0.6600 was a key breakout from a consolidation rectangle that implies 0.6830 in due course. However, with this stalling occurring as the RSI hit 70 and the MACD lines have been a little underwhelming, there is room for a near term pullback. The 0.6585/0.6600 old resistance is now a basis of initial support and a prime zone for a pullback. Given the mid-July congestion area between 0.6500/0.6600, this is a key area of support now and we would be looking for another higher low to find support above 0.6525. The bulls would still be in control whilst support of a higher low at 0.6500 is intact. If breached, it neutralises the outlook until 0.6370. Looking forward, given the breakout and strong medium term indicators, we expect the December high of 0.6755 to be tested at least in the coming weeks. Breaking through the resistance at $43.95 has not managed to release the shackles for the bulls as the resistance of the key gap at $45.20 remains intact. It does seem to be a case of two steps forward and one step back right now. Yesterday’s negative candle has dragged the bulls back once more and it does seem as though the (gradually) rising 21 day moving average which is today around $42.95 remains an important gauge. Given that this moving average is a basis of support, there is still a run of higher lows which has been intact since the March low. Support at $42.35 being broken would begin to question bull control, whilst below $41.30 would turn the market corrective. Until then, little negative candles such as yesterday will still represent an opportunity to buy again. Resistance of this week’s high at $44.90 adds to the big gap resistance of $45.20 which the bulls need to take out to really open the next leg higher. The bulls have just been reined back in the past 24 hours as the move to break higher has just been reversed slightly. Despite finally “closing” the gap at 26,940, yesterday’s negative candle is something of a fly in the ointment of the bull run. As yet it is nothing too bearish and we are still looking to use near term weakness as a chance to buy. We continue to note the importance of the support band 26,300/26,610 whilst also noting the well-defined near four month uptrend (a shallower trend than the original recovery from the March low) which comes in as support today at 26,270. So we see this move lower as an opportunity once more. A failure of this trend and support band would suggest that this is turning into a bigger medium term consolidation range between 24,845/27,580. The support at 25,525 then becomes the key near term gauge. For now, momentum indicators remain positively configured although they have tailed off slightly. The RSI holding above 50 would sustain the positive bias. Resistance at 27,070 needs to be broken for the bulls to feel in control once more. Read More Analysis Here: EUR/USD, GBP/USD, USD/JPY, GoldRisk Warning for Financial PromotionsHantec Markets' various market reports and commentary are issued by Hantec Markets Limited, who is authorised and regulated by the Financial Conduct Authority (FCA) in the UK, No. 502635. The reports are prepared and distributed for information purposes only.Trading in Foreign Exchange (FX), Bullion and Contracts for Differences (CFDs) is not be suitable for all investors due to the high risk nature of these products. Forex, Bullion and CFDs are leveraged products that can result in losses greater than your initial deposit. The value of an FX, Bullion or CFD position may be affected by a variety of factors, including but not limited to, price volatility, market volume, foreign exchange rates and liquidity. You may lose your entire initial stake and you may be required to make additional payments. Please ensure you fully understand the risks involved, seeking independent advice if necessary prior to entering into such transactions. Before deciding to enter into FX, Bullion and/or CFD trading, you should carefully consider your investment objectives, level of experience, and risk appetite. You should only invest in FX, Bullion and/or CFD trading with funds you are prepared to lose entirely. Therefore, only your excess funds should be placed at risk and anyone who does not have such excess funds should completely refrain from engaging in FX and/or CFD trading. Do not rely on past performance figures. If you are in any doubt, please seek further independent advice.The reports do not constitute personal investment advice, nor do they take into account the individual financial circumstances or objectives of the clients who receive it. All information and research produced by Hantec Markets is intended to be general in nature; it does not constitute a recommendation or offer for the purchase or sale of any financial instrument, nor should it be construed as such. All of the views or suggestions within the reports are those solely and exclusively of the authors, and accurately reflect their personal views about any and all of the subject instruments and are presented to the best of the authors' knowledge. Any person relying on these reports to undertake trading does so entirely at his/her own risk and Hantec Markets does not accept any liability.© 2014 Hantec Markets Limited"
9,"Could Europe and the UK be handling the reopening phase better, and does this suggest economic outperformance?","European exceptionalism? Led by a rebound in France and Germany, business activity in the Eurozone picked up sharply in July, whilst the dogged British shopper has lifted UK retail sales back to pre-Covid levels. At the same time, US jobless claims unexpectedly rose amid a surge in cases which is being replicated in many other large economies, but not so much in Europe. Could Europe and the UK be handling the reopening phase of the pandemic better, and does this suggest economic outperformance? The obvious answer is that it's not that simple - more on this below.Stocks and other risk assets slid sharply as rising US-China tensions and a concerning US jobs report conspired to take the shine off the equity market gloss, with a decline in US big tech names weighing heavily on the broader market. The DAX fell 2% in early European trade and the FTSE 100 fell back under the 6,100 level after Chinese shares led Asian markets lower in a brutal session.The S&P 500 declined over 1% yesterday fell as big tech shares slid. When big tech falls so does the whole market. The S&P big five – Amazon, Apple, Alphabet, Facebook and Microsoft - which now make up almost a quarter of the index by market capitalization – were all down more than 3%, with Apple off 4.5% after a note from Goldman Sachs called the rally in the stock ‘unsustainable'. Intel share plunged 10% after it warned on delays to the next generation of microchips which is having a clear read across to European technology sector this morning.US-China tensions are a concern as the latter retaliated for the closure of its consulate in Houston by telling its American friends in Chengdu to shut their consulate. I would reiterate that this kind of tit-for-tat is not new; a trade war has been raging for years – what's new is the coronavirus and a presidential election in a few months.The weekly US jobs report was very disappointing and indicated that the progress made as lockdown ended has not just stalled but gone into reverse as various states rolled back their reopening. Against expectations for a flat reading of 1.3m, initial claims in the week to July 18th actually rose 100k from the week before to 1.4m. Continuing claims were better than expected at 16.2m vs the 17m anticipated. It looks like the surge in coronavirus cases across the ‘Sun Belt' and other areas of the country, which caused many states to pause or roll back reopening of the economy, resulted in an increase in layoffs. The question we will continue to ask is how much is temporary and how much is permanent?Futures indicate the S&P 500 to open lower and down marginally for the week, which has been quite a volatile one. Monday's aggressive rally at the close was countered by a sharp reversal in the last hour of trade on Tuesday before the uptrend resumed to take the broad market to its best level since February. What we are seeing is a slow grind and lots of indecision, which could be the hallmark of the next 6 months with a largely sideways but volatile market.Watching the data remains a tough ask – PMIs will show rebounding sentiment, but these are full of flaws and may not be entirely relied upon. Harder data like the unemployment claims report is not as sensitive to mood swings and will continue to indicate a long hard slog before we get back to pre-Covid levels.Nevertheless, we are seeing some better data here in Europe. Germany's manufacturing PMI rebounded into positive territory for the first time in 19 months, whilst France's services PMI accelerated at a healthy clip. Combined, the Eurozone composite PMI moved up to 54.8 from 48.5 in June and was ahead of the 51.1 expected. I would issue the usual caveats about the nature of these diffusion indices, which only ask survey participants if things were better, worse or the same as the previous month. But at least they are positive – things are clearly looking up, albeit from a very low base level during lockdown. Can it last is the big question, and with backlogs of work declining and costs rising the picture for employment is not good. On the face of the headline numbers are encouraging, but these mask some real trouble ahead and a long, hard slog to get back to pre-Covid activity levels.And today's UK retail sales print is encouraging in some ways. Sales rebounded 13.9% in June, which easily beat expectations and came after May's 12.3% jump. Taken together, the increases in the volume of retail sales in May and June have brought total sales back to a level similar to as before the pandemic. Ex-fuel, total retail sales are better than they were a year before. But on-food and fuel sales, while up sharply, are still not back to where they were before the lockdown took hold. High streets are being stripped bare, but at least you can now stick a four-storey block of flats without any planning permission where the grocer used to have his shop.UK consumers: V is for vacant premisesGold continued to push up as US real rates edged even lower with the rally only encountering resistance close at the $1,900 round number and a retest of this level looks likely. US 10yr TIPS declined again to –0.90% as benchmark 10yr Treasury yields slipped under 0.6%. The record at $1,921 is well within sight and the bulls are not about to let go of this opportunity to set an all-time high.In FX, the euro continues to make ground against a faltering dollar as DXY slips to its weakest in almost two years. EURUSD has notched 5 straight positive sessions and momentum to the upside appears strong. The pair has broken free from the Jan 2019 resistance around 1.1570 and is trying to make 1.16 stick. Decent German PMI data helped sentiment towards the euro this morning, with the composite reading up to 55.5, ahead of expectation. However, the broad risk off tone to the market on Friday is underpinning some bid for the dollar which could see the rally falter, at least in the near-term.GBPUSD held gains above 1.27 and moved clear of the 200-day SMA in a bid to clear out the descending trend resistance, even as the tone from the Brexit negotiators yesterday did not bode well for the chances of securing a deal. If cable can make this move stick it opens the path back to 1.30 despite the Brexit worries, chiefly as the long dollar trade unwinds.Chief negotiator for the EU, Michel Barnier, said a deal was unlikely by the end of the year. We should also remember that the pound faces multiple downside risks in terms running large twin deficits, a protracted economic recession from Covid that is forecast to be greater in magnitude than Europe and the RoW, and talk of negative rates still holding water. However, we can also look are record low and negative gilt yields as a sign that the UK is not seen in any real danger of exploding debt loads. Britain still has some friendly strangers to count on, or perhaps just a sign that central bank intervention is working well."
10,,
11,,
12,,
13,,
14,,
15,,
16,,
17,,
18,,
19,,
