,title,text
0,EUR/USD: Room to rise but dollar demand may steal the show,"Low expectations from the EU Summit open door to gains but while the common currency may find it easy to rise, EUR/USD may struggle with dollar strength due to ugly coronavirus and US economic data, Yohay Elam, an analyst at FXStreet, informs.“I'm not a bad guy, I just want to see reforms – the words of Mark Rutte, PM of the Netherlands, as he entered the EU Summit. The Dutch PM also added that he sees a less than 50% chance of a deal this weekend, lowering already depressed expectations.” “Christine Lagarde, President of the ECB, urged leaders to agree on a much-needed fiscal package to compound her institution's efforts. The ECB left its policy measures unchanged and reiterated its commitment to do what is necessary. Lagarde previously cast doubts that leaders will shake hands – or press elbows – on a deal.”“A lower bar is easier to cross – the euro has potential to rise if the first face-to-face talks will result in any kind of agreement. While the devil may be in the details, it seems that investors will buy any agreement which consists of a substantial boost.” “The safe-haven greenback has seen some demand as markets seem to see the glass half empty. US retail sales leaped by 7.5% in June – smashing expectations for a 5% increase. However, this V-shaped recovery in consumption was somewhat overshadowed by stubbornly high jobless claims, which stood at 1.3 million in the week ending July 10. Moreover, US coronavirus cases broke the daily record. Again. They hit 75,000 and the mortalities neared 1,000.” "
1,"EUR/USD Weekly Forecast: Sentiment gives it, sentiment takes it away","The EUR/USD pair is up for the fourth consecutive week, although having topped for the week at 1.1451, barely surpassing the June high at 1.1422, now trading just above this last.As it been happening since March, relevant market movements have been triggered by coronavirus-related headlines. The pair posted its largest intraday advance this week on Tuesday, when the biotech Moderna announced progress in its coronavirus vaccine, saying that it provided immunity to the 45 subjects tested in phase one. The company is starting phase three in a couple of weeks and hopes to have the vaccine ready for year-end.  The optimism faded throughout the week, as outbreaks have been reported worldwide, while the situation in the US continues to worsen, with a record of roughly 75,000 new cases in a day on Thursday. Concerns are of a further delay in the economic recovery.After launching massive stimulus programs, central banks have adopted a wait-and-see stance this month. The Bank of Canada, the Bank of Japan, and the European Central Bank all had monetary policy meetings these days, keeping rates on hold and, in general, pledging to do what’s necessary to support financial markets.The ECB decided to keep its base interest rate at 0.00%, with the marginal lending rate at 0.25% and the deposit rate remaining at -0.50%. The PEPP was maintained at 1,350 billion euros. Policymakers acknowledged that “economic indicators remain well below the levels recorded before the pandemic,” and declared they “stand ready to adjust all of its instruments, as appropriate, to ensure that inflation moves towards its aim in a sustained manner."" For financial markets, it was a no-event.Meanwhile, the EU continues to discuss the €750 billion rescue package approved by the European Commission. Some countries, such as Sweden, Denmark, Austria, and the Netherlands, say that the proposed EU fund is too large and insisted any money given out must eventually be repaid. German Chancellor Angela Merkel noted that the differences are still too big but hopes they can find a compromise in this Friday summit. Macroeconomic data released these days had no impact on price action. Most figures were encouraging, but have become old history on the back of the latest coronavirus outbreaks that could result in worsening economic results in the upcoming months. Governments are doing their best not to impose new lockdowns, but the chances of that happening continue to increase alongside the number of cases.Worth noting, however, that the July German ZEW survey was a major disappointment, as the country’s Economic Sentiment deteriorated to 59.3, while for assessment of the current situation, plunged to -80.9. For the whole EU, Economic Sentiment printed at 59.6. In the US, unemployment levels remained stubbornly high, as Initial Jobless Claims for the week ended July 10 came in at 1.3 million. Also, the preliminary estimate of the July Michigan Consumer Sentiment Index came in at 73.2, much worse than the 79 expected and falling from 78.1 in the previous month.In terms of data, investors have little to worry about next week. Some relevant figures will be released by the end of it, starting with German Consumer Confidence for August, and the EU Consumer Confidence for July to be out next Thursday. On Friday, Markit will publish the preliminary estimates of its July PMIs for the Union and the US. Manufacturing output and services activity are seen contracting from their June levels.The EUR/USD pair is above its 200 SMA in the weekly chart, and it would be the first time the indicator manages to close above it since June 2019, an encouraging sign for bulls. The 20 SMA in the mentioned time-frame continues to advance far below the current level, while buying interest is aligned around a directionless 100 SMA. Technical indicators, in the meantime, stand at recent highs, the Momentum directionless and the RSI advancing. Overall, the risk is skewed to the upside, although the pair’s direction will continue to depend on sentiment.Technical readings in the daily chart favor a new leg higher, as the pair has managed to advance beyond a firmly bullish 20 DMA, while the 100 DMA is crossing above the 200 DMA, both around 1.1050. Technical indicators hover around their weekly highs but had no directional strength.The pair has a strong static resistance level at 1.1460, followed by the yearly high at 1.1496. A break above this last would confirm a sustainable advance in the days to come. The immediate support is the 1.1370 price zone, where buyers are aligned these days. Below it, 1.1300 and 1.1240 are the next possible bearish targets. The FXStreet Forecast Poll shows that investors are seeing the pair extending its advance towards the 1.15 region next week, with whopping 80% of the polled experts backing gains in the shared currency. Such sentiment, however, suffers a U-turn in the monthly and quarterly views, as bears take over the pair, seen then retreating towards the 1.13 handle.In the Overview chart, however, the moving averages maintain their bullish strength, advancing to fresh multi-month highs, and somehow suggesting that any future decline could be short-lived, with buyers waiting for pullbacks. The spread of possible targets in the longer-view is spread between 1.10 and 1.17 quite evenly, another factor that undermines a possible U-turn to the downside.  AUD/USD Weekly Forecast: Definitions won’t come this weekBitcoin Weekly Forecast: BTC/USD in coma, we need a miracle to bring it back to lifeGBP/USD Weekly Forecast: Exposed? Failure to rise on robust data, strong resistance, point to fallsUSD/JPY Weekly Forecast: Will gloom guide it lower? Geopolitics, jobless claims, coronavirus all eyed"
2,EUR/USD ends the week on a high and holds above 1.14 despite issues at the EU summit,"EUR/USD is heading into the weekend on a high. There has been a mixed spate of headlines in the last couple of hours with WH Economic Advisor Kudlow saying an early target for more fiscal stimulus is the end of July. On the negative side, the San Francisco Mayor said the sated re-opening has been halted. The EU Commission meeting was set to be the biggest event of the session but not too much news has come out of the meeting. The Dutch are said to have asked for a veto on their vote over the EUR 750 bln package. The Dutch believe all 27 member states need to agree on how the grants are distributed in the EU. The EU Summit is set to continue over the weekend and maybe more details will emerge tomorrow. Looking at the chart below, the main level is the red horizontal line at 1.1452. If the price breaks out of this level it would be the highest the pair has traded since 10th March 2020. On the downside, the blue trendline could be a support zone but if it does break the next support is at 1.1390. Lastly, the MACD is looking very positive, the histogram is very large and the signal lines are still firmly above the zero level. Into next week it will be interesting to see if the resistance zone can be broken.   "
3,"Merkel’s cautious comments at EU Summit, oil anchored, almost time for gold to shine","US equities fluctuated after German Chancellor Merkel’s cautious comments suggested EU leaders might not be able to reach a compromise at the EU summit.  Her comments may have been posturing, but they did sink stocks to their session lows.  Negotiations are expected to be tough from the frugal four, but optimism is high that a breakthrough will be made at the two-day summit. On the virus front, the spread of the coronavirus rose in some hot spots, with the highest daily jump in cases so far.  At least 39 states reported increases from the week before, with Florida remaining the current epicenter.  Virus deaths appear to be showing signs of stabilizing and hospitalizations are slowing.     Blackrock, the world’s largest asset manager delivered promising results with strong earnings and a 7% rise with assets under management.  The firm’s long-term inflows rebounded to $62.2 billion but was short of the $78.6 billion consensus estimate.  Investors are piling back into ETFs and mutual funds and that it seems that there is still more cash on the sidelines waiting to get into this market. Netflix’s disappointing outlook will likely keep the rotation trade going strong.  The technology stock rally seems like it is ready to come slowly back to reality, possibly boosting cyclical stocks.  US stocks are looking for a positive open but that could quickly change if EU leaders show signs an agreement won't be reached this week.   Oil prices dropped as investors assess whether a steady string of downbeat crude demand headlines will persist over the coming weeks.  Asia was expected to lead the crude demand recovery trade, but fuel consumption is not rebounding strongly.  The virus situation is still bad in the US, but it doesn't seem like a return of harsh coronavirus lockdowns will happen.  WTI crude seems like it will continue to consolidate until a clearer picture of the demand outlook emerges.  Gold prices are steadily rising as investors start to raise their stimulus expectations on coronavirus second wave fears.  Gold is also starting to benefit from election risk, as Wall Street can’t ignore the polls anymore and start to price in the risk of a Biden Presidency. The fundamentals for gold have not changed at all this week, so the current consolidation phase seems very constructive for prices to make that run to record high territory.This article is for general information purposes only. It is not investment advice or a solution to buy or sell securities.Opinions are the authors — not necessarily OANDA’s, its officers or directors. OANDA’s Terms of Use and Privacy Policy apply. Leveraged trading is high risk and not suitable for all. You could lose all of your deposited funds."
4,"USD/JPY Weekly Forecast: Will gloom guide it lower? Geopolitics, jobless claims, coronavirus all eyed","Coronavirus vaccine hopes and mostly upbeat data were countered by rising US COVID-19 cases and rising Sino-American tensions as the Bank of Japan stayed pat. The same themes remain prominent for another week as USD/JPY is nearing decision time.Vaccine hopes: Both Moderna and AstraZeneca reported significant progress in developing immunization for coronavirus testing. While larger experiments are needed, Anthony Fauci, the go-to person on the virus in the US expressed hopes that a solution will come by year-end. That helped markets move up and somewhat weighed on the safe-haven yen. Fauci also said that some states opened too early – unsurprisingly given the acceleration in US COVID-19 cases. America hit a daily high of around 75,000 infections and the deaths are near 1,000 per day once again. The positive test rate and hospitalizations are also on the rise. The focus remains on larger states such as California – which announced a sweeping shutdown – Texas, and Florida, but most of the US is struggling.The data also showed the double-edged sword nature of reopenings. US retail sales leaped by 7.5% in June, exceeding the previous year's level and also expectations. On the other hand, that data may already be stale. Jobless claims and other high-frequency figures are painting a gloomier picture, keeping the yen bid. The Bank of Japan left its interest rate unchanged at -0.10% and vowed to do whatever is needed. Governor Haruhiko Kuroda and his colleagues said the economic situation in Japan is worse than previously estimated. His comments came as Tokyo and Osaka continue experiencing an increase in coronavirus cases. The government rejected the need to announce a new state of emergency. Sino-American tensions remain elevated, especially around Hong Kong. The White House is reportedly considering preventing all 90 million members of the Chinese Communist Party from entering the US in retaliation to Beijing's tighter grip of the city-state. Chinese authorities announced sanctions against several outspoken Senators that have criticized it.Moreover, the UK's decision to phase out the usage of Huawei's equipment – due to American pressure – did not help to defuse the situation. So far, President Donald Trump prefers sticking to the trade deal, signed earlier this year, and markets remain calm. Overall, the news was more bad than good, but USD/JPY movements were limited. Investors' focus remains on coronavirus statistics, kicking off in Florida and ending in California. If statistics begin flattening, markets may cheers, while an ongoing rise – especially in mortalities – may trigger a risk-off sentiment. Recent opinion polls have not moved away from a clear lead for challenger Joe Biden over Trump, yet markets have been shrugging off political developments. Perhaps if the Senate begins clearly shifting toward the Democrats – allowing them to enact business-unfriendly policies – stocks may notice and the yen may rise.The upcoming week features a sparser economic calendar. Housing figures and Markit's preliminary Purchasing Managers' Indexes are of interest but the focus will likely be on jobless claims. Initial applications are for the week ending July 17 – in which Non-Farm Payrolls surveys are held.Any increase in claims would weigh on markets while a fresh drop would provide optimism. Continuing claims are also of interest and investors will want to see them continuing the downtrend. Here are the top US events as they appear on the forex calendar: Will Washington and Beijing end the trade deal? That remains a remote option but as rhetoric and sanctions ramp up, the risk is growing. If either side hints that could happen, the yen would have room to rally. The yen is also turned to other conflicts such as around North Korea and Iran, both dormant for now. Nevertheless, a string of mysterious explosions in the Middle East may escalate. Tensions between the US and Iran dominated the news early in the year, before vanishing. Japan's economic calendar consists of the BOJ's meeting minutes – from the June meeting – and it is unlikely to stir markets. The Tokyo-based institution has not made substantial changes to its policy and probably has few tools in its shed. Inflation figures are of interest and they may show a growing risk of persistent deflation. Despite rising demand for food – amid lockdown fears – price pressures are subdued. Here are the events lined up in Japan:Dollar/yen is trading in a narrow range, with two clear battle lines. The currency pair is capped by 107.50, where the 50-day and 100-day Simple Moving Averages converge and just above the recent highs. The bottom line is 106.60, which has supported USD/JPY several times in both June and July. Momentum has all but disappeared, but bears have a minor advantage as long as dollar/yen trades below the 200-day SMA, currently at 108.40. 108.20, a late June high, is another resistance line. High above, 109.60 was the peak early in June and may come into play upon a significant break to the upside. Support below 106.60 is at 106, a round number that was May's trough. It is followed by 105, an even rounder level which was also a gap line in the turbulent days of March. Dollar/yen has room to the downside as the disease spread and demand for the safe-haven yen intensifies. However, the big breakout may wait for another week, with only a minor retreat in the nearer future. The FX Poll is showing a bearish bias in the short term and a bullish one afterward – but targets are tight just above 107. The longer-term already provides a broader range of views and a tendency for a downfall.GBP/USD Weekly Forecast: Exposed? Failure to rise on robust data, strong resistance, point to fallsAUD/USD Weekly Forecast: Definitions won’t came this week"
5,"EUR/GBP Price Analysis: Jumps to 2-1/2-week tops, around 0.9125 region","The EUR/GBP cross caught some fresh bids on the last day of the week and broke out of its two-day-old trading range. The momentum lifted the cross to 2-1/2-week tops, around the 0.9120-25 region in the last hour.A sustained move beyond the 61.8% Fibonacci level of the 0.9176-0.8939 downfall might be seen as a fresh trigger for bullish traders and supports prospects for additional gains. The positive outlook is further reinforced by the fact that technical indicators on the daily chart maintained their bullish bias.However, oscillators on hourly charts are already flashing overbought conditions and warrant some caution before positioning for any further appreciating move. Bulls might now take some breather and wait for a strong signal on the prospects for the breakthrough on the EU's proposed €750 billion coronavirus recovery fund.That said, any meaningful dip might still be seen as a buying opportunity near the 0.9100 mark. The cross now seems poised to aim back towards the recent daily closing high, around the 0.9140 region. The momentum could further get extended towards June monthly swing highs, near the 0.9175 area, en-route the 0.9200 mark.  "
6,Gold can face resistance near-term – Elliott wave analysis,"GOLD is looking bullish, however on the daily chart we see price in final stages of a bigger Elliott wave ending diagonal. An Elliott wave ending diagonal is a reversal pattern, and can once completed, push price into a sharp reversal. In our case we expect to see a three-wave A-B-C move, once wave V fully develops.The Elliott wave ending diaognal will be completed, once we see a sharp drop below the lower Elliott wave ending diagonal line, and below the 1667 level.Also, for further indication that the price can turn lower in days or weeks ahead can be a divergence on the Relative strength index below the chart. An ending diagonal is a special type of pattern that occurs at times when the preceding move has gone too far too fast, as Elliott put it. A very small percentage of ending diagonals appear in the C wave position of A-B-C formations. In double or triple threes, they appear only as the final “C” wave. In all cases, they are found at the termination points of larger patterns, indicating exhaustion of the larger movement.structure is 3-3-3-3-3.a wedge shape within two converging lines.wave 4 must trade into a territory of a wave 1.appears primarily in the fifth wave position, in the C wave position of A-B-C and in double or triple threes as the final “C” wave.   Interested in our services? Visit us at www.ew-forecast.comand try our 7-day Trial service, and get actionable Elliott Wave charts today.By using www.ew-forecast.com website, any services, products, and content contained here, you agree that use of our service is entirely at your own risk. You understand that there is a very high degree of risk involved in trading on the markets. We assume no responsibility or liability for your trading and investment results. The charts, and all articles published on www.ew-forecast.com are provided for informational and educational purposes only!

By using the information and services of www.ew-forecast.com you assume full responsibility for any and all gains and losses, financial, emotional or otherwise, experienced, suffered or incurred by you."
7,EUR/USD outlook: The Euro stands at the front foot ahead of key EU summit decision,"The Euro regained traction and probes again above former high at 1.1422 on Friday, following strong upside rejections and failures to close above 1.1422 barrier.
The action in past two days left daily candles with long upper shadows that could be seen as initial negative signal.
On the other side, limited dips and today’s fresh advance signal that bias remains with bulls.
The notion is supported by bullish daily techs, but overbought stochastic warns that bulls may run out of steam again.
The pair is on track for strong weekly advance and eventual close above 200WMA (1.1335) after six consecutive failure to do so, but weekly close above 1.1422 is need to confirm bullish stance.
The EU summit is the key event for the single currency today, as bloc’s leaders are going to try again to reach an agreement on a 750 billion euro recovery fund.
The deal is expected to inflate the Euro for extension towards targets at 1.1500/1.1600 zone, with stronger acceleration towards key Fibo barrier at 1.1822, not ruled out, as positive impact on agreement of EU leaders would last.
If bloc’s leaders fail to reach agreement, which according to many market observers, is very likely, then new meeting will be required and the euro would be deflated, with risk of dip towards supports at 1.1300 zone.Res: 1.1441; 1.1452; 1.1495; 1.1519
Sup: 1.1385; 1.1370; 1.1345; 1.1310  "
8,"Forex technical analysis and forecast: Majors, equities and commodities","After completing the first descending impulse along with the correction, EURUSD has updated its low while forming the second one; right now, it is consolidating around 1.1380. Possibly, today the pair may break the range to the downside and form a new descending structure with the short-term target at 1.1340. GBP/USD is consolidating around 1.2550. Today, the pair may trade downwards to reach 1.2477 and then resume growing to return to 1.2550. Later, the market may start a new decline with the target at 1.2454. USD/RUB is moving close to the upside border of the range. Possibly, the pair may fall towards the downside one. Later, the market may break 70.50 and then continue trading downwards with the target at 69.96. After forming another consolidation range around 107.12, USDJPY has broken it to the upside, Possibly, the pair may choose an alternative scenario and form one more ascending structure towards 107.50. After that, the instrument may resume trading inside the downtrend with the target at 106.82. USD/CHF is consolidating around 0.9444. Possibly, the pair may break the range to the upside and resume growing towards 0.9525. Later, the market may correct to return to 0.9444 and then form one more ascending structure with the target at 0.9550. AUD/USD is falling towards 0.6944 and may later start a new correction to reach 0.6990. Later, the market may resume trading downwards with the target at 0.6922. Brent is consolidating around 43.50 without any particular direction. The main scenario suggests that the price may break the range upwards and grow with the target at 45.00. After that, the instrument may start a new decline towards 44.00 and then form one more ascending structure to reach 45.55. After breaking 1803.80, Gold is expected to correct towards 1793.40. Later, the market may grow to test 1803.80 from below and then start another decline with the target at 1777.17. After finishing the descending wave at 9014.00, BTCUSD is trading to rebound from the downside border of the range; it has already completed the ascending impulse towards 9134.00 and may fall to reach 9055.00, thus forming a new consolidation range between these two levels. If later the price breaks this range to the upside, the market may resume trading upwards with the target at 9260.00; if to the downside – form a new descending structure to reach 8700.00. After completing the descending wave at 3200.0, the S&P 500 Index has finished another growth towards 3220.2; right now, it is consolidating. If later the price breaks this range to the upside at 0.9415, the market may resume trading upwards to reach 3300.3; if to the downside – start a new decline with the target at 3180.8."
9,EUR/USD: The euro bulls still seem happy to support into weakness now [Video],"The euro bulls have been testing higher in recent days but certainly have one eye on the EU Recovery Fund discussions that take place over this weekend. Despite a minor slip back yesterday (driven primarily by a rebound on the dollar), the technical set up suggests that traders are taking a view that the EU talks will yield some positive news. The ECB meeting may have been entirely forgettable, but the euro bulls still seem happy to support into weakness now. Yesterday’s unwind towards $1.1350/$1.1375 breakout support looks to be a chance to buy. An uptrend channel of the past few weeks is still playing out as the market has been testing the waters above $1.1420. No conclusive breakout yet, but the medium term configuration of momentum indicators suggests that a move higher is building. Daily RSI is pulling into the high 60s (with upside potential), whilst MACD lines are rising off a bull cross. Stochastics have just crossed to reflect yesterday drop back, but nothing yet would suggest this is a significant negative signal. We position to buy into weakness to pull above $1.1420 in the coming days and to test $1.1490. A close below $1.1350 would be a disappointment, but the channel support is just above $1.1300 now and support at $1.1255 is a key higher low. Risk Warning for Financial PromotionsHantec Markets' various market reports and commentary are issued by Hantec Markets Limited, who is authorised and regulated by the Financial Conduct Authority (FCA) in the UK, No. 502635. The reports are prepared and distributed for information purposes only.Trading in Foreign Exchange (FX), Bullion and Contracts for Differences (CFDs) is not be suitable for all investors due to the high risk nature of these products. Forex, Bullion and CFDs are leveraged products that can result in losses greater than your initial deposit. The value of an FX, Bullion or CFD position may be affected by a variety of factors, including but not limited to, price volatility, market volume, foreign exchange rates and liquidity. You may lose your entire initial stake and you may be required to make additional payments. Please ensure you fully understand the risks involved, seeking independent advice if necessary prior to entering into such transactions. Before deciding to enter into FX, Bullion and/or CFD trading, you should carefully consider your investment objectives, level of experience, and risk appetite. You should only invest in FX, Bullion and/or CFD trading with funds you are prepared to lose entirely. Therefore, only your excess funds should be placed at risk and anyone who does not have such excess funds should completely refrain from engaging in FX and/or CFD trading. Do not rely on past performance figures. If you are in any doubt, please seek further independent advice.The reports do not constitute personal investment advice, nor do they take into account the individual financial circumstances or objectives of the clients who receive it. All information and research produced by Hantec Markets is intended to be general in nature; it does not constitute a recommendation or offer for the purchase or sale of any financial instrument, nor should it be construed as such. All of the views or suggestions within the reports are those solely and exclusively of the authors, and accurately reflect their personal views about any and all of the subject instruments and are presented to the best of the authors' knowledge. Any person relying on these reports to undertake trading does so entirely at his/her own risk and Hantec Markets does not accept any liability.© 2014 Hantec Markets Limited"
10,GBP/USD Price Analysis: Yet another 200 SMA rejection kicks in as risk sentiment improves,"GBP/USD has been trading mixed over the week and could well close down. Today however the price bounced off the 200-period Simple Moving Average for the fifth time in the last month to push up once again. One of the other key features on the chart is the red triangle-shaped chart pattern. A break in either direction could give us clues about the future trajectory of the pair. But the downside has been breached but the bears were not able to sustain the move. If the wave low of 1.2511 gets broken it would make a lower high lower low wave pattern and the pair could then start to break lower. On the upside, the key resistance zone is at 1.2668. The level has been used six times as either a support or resistance zone on the chart. At the moment it does seem more likely the lower zones will be tested but moving into next week the bulls could break out. The indicators are in a bearish position but are turning higher at the time of writing. The Relative Strength Index is under the 50 line but tilting up and the MACD histogram is red but the bars are getting smaller. Lastly, the MACD signal lines are under the zero level but look like they are just about ready to cross over. It seems we are nicely poised leading into next week then.  "
11,2020 US Elections: Potential market implications across four possible outcomes – TDS,"Not only does the outcome of the Presidency matter for the market, but also who controls the House and Senate. Economists at TD Securities analyze four scenarios and its implications for financial markets.“Status Quo – President Trump, Republican Senate, Democrat House: This may be a small positive for risk assets since the election uncertainty will be over and there may not be big policy changes ahead. We can see an infrastructure plan taking form under this scenario and a bear steepening reaction in rates due to supply pressures on the long end. We believe that the Fed will prevent long end rates from rising too much beyond that with their recent pivot of asset purchases from market functioning to term premium. For FX, we think the USD would lack leadership. We would expect to see a continuation of friction with global international trade (China in particular) and that might be a source of greater uncertainty with Trump no longer up for re-election.” “Split Government – President Biden, Republican Senate, Democrat House: The Senate remaining Republican suggests that significant policy action is unlikely. We believe that the risk market reaction might be marginally positive with the election uncertainty over and a blue sweep avoided. For FX, we think markets might take a shine to President Biden and revive or inspire confidence in a global recovery. We think the pro-cyclical nature of EUR/USD might be the bigger beneficiary here and affirm confidence in global equity outperformance that leaves the USD vulnerable to closing its longstanding valuation gap.”“Blue Wave – President Biden and Democrat Senate and House: This should be a significant negative for risk assets since the Democrats will have a clear mandate, prompting fears of unfriendly business policies, higher corporate taxes, and higher personal taxes. We can see a risk-off move driving a bull flattening in the Treasury curve. With front-end yields pricing in no hikes until the end of 2024, long end yields could decline to historical lows of 30bp. However, we don't see 10s declining below 30bp since the Fed is highly unlikely to take policy rates negative. For FX, we would look for the USD to reassert itself with risk dynamics.”“Red Wave – President Trump and Republican Senate and House: This scenario could actually prove modestly negative for risk despite the perception that Republicans are more business friendly. Trade tensions may escalate further and the focus on Tax Cuts 2.0 may take the focus away from an infrastructure plan. We can see a small bull flattening reaction in rates. For FX, we think more trade disruption could be particularly problematic for global trade order. If anything, we think we could see more destabilization on this front. That could be more disruptive over time and accelerate diversification efforts away from the USD as a reserve currency as US exceptionalism could be confronted in a material way. That is more of a long-term prognostication however. Before then, the USD might be more linked with the performance of US risk assets.” "
12,FX update – Preparing for the weekend,"Currencies have hunkered down in narrow ranges, with the Dollar and Yen consolidating after rising against most other units yesterday. Global stock markets are lacking direction, too. The persisting pandemic remains a concern for investors, even though the lack of fresh cases in many reopened countries now looks like nothing more than a bad respiratory illness season. Offsetting pandemic concerns are expectations for the US and other countries to extend “first wave” fiscal support packages before they expire, while EU leaders will meet later today to move the proposed EUR 750 bln recovery fund toward fruition.Among currencies, EURUSD settled just above the three-day low that was seen yesterday at 1.1370. USDJPY plied a sub-20 pip range in the lower 107.00s, and EURJPY and other yen crosses were similarly directionally challenged. AUDUSD held in a narrow range above yesterday’s three-day low at 0.6963. AUDJPY did likewise. USDCAD edged out a two-day high at 1.3589, extending a rebound from Thursday’s eight-day low at 1.3500. Front-month USOil prices remained in a narrow-range consolidation below the three-week high seen earlier in the week at $41.26. Highlights on the calendar today include eurozone June inflation and US consumer confidence data, neither of which are likely to impact markets much. Market participants will also be watching the White House for a decision on whether President Trump will follow through on his threat to ban Chinese Communist Party members from travelling to the US."
13,"EUR/GBP bulls eyeing a move beyond 0.9100 mark, focus remains on EU Summit","The EUR/GBP cross continued scaling higher through the first half of the trading action on Friday and was last seen trading near session tops, just below the 0.9100 mark.Following the previous day's modest intraday pullback, the cross managed to regain some positive traction on the last trading day of the week. The positive momentum was fueled by the shared currency's relative outperformance against its British counterpart amid the optimism over a deal on the EU recovery fund.Investors remain convinced that the European leaders will make progress in agreeing on the proposed €750 billion coronavirus recovery fund, aimed at aiding the region’s worst-hit economies. The European Council president, Charles Michel also showed confidence and said that an agreement is possible if there is a political will.Adding to this, the Greek Prime Minister (PM) Kyriakos Mitsotakis said that there was absolutely no reason why the deal shouldn’t get done. Separately, French PM Emmanuel Macron was cautious on reaching a deal, while Dutch PM Mark Rutte said that there are less than 50% chances of reaching a deal at the upcoming EU summit.Meanwhile, the final Eurozone CPI figures for June matched preliminary estimates and remained supportive of the strong bid tone surrounding the euro. On the other hand, the sterling struggled for a firm intraday direction and did little to influence the EUR/GBP cross.It will now be interesting to see if bulls are able to maintain their dominant position or the EUR/GBP cross once again meets with some fresh supply at higher levels. The key focus will remain on headlines coming out from the EU summit, which will continue to play a key role in determining the pair's near-term trajectory.  "
14,"Focus: EZ PMI data, EU Summit and market sentiment","From May onwards, the Eurozone economy was able to recover more quickly than expected in some areas, thus confirming the surprisingly positive development of many leading indicators. Looking ahead to next week, a first flash estimate of the Eurozone PMI for the manufacturing and service sectors in June will be released. The service providers' sentiment already returned in June almost to pre-crisis levels. In comparison, the recovery in the manufacturing sector is developing at a slower pace. Manufacturing is negatively affected by the fact that the pandemic is not under control globally.Now that the incidence of infections within the EU is under control, we expect a further improvement in the business climate in July. However, we expect the recovery of industry to be modest in view of the rising number of infections on the global level. In general, we expect the momentum of the recovery in the Eurozone to slow steadily in the coming months. The crisis related negative turnaround on the labor market will have a dampening effect on the propensity to consume in the medium term and thus also have a negative impact on the economic momentum of the Eurozone. The adjustment of the economic structure to the post-Corona world will take some time. A large number of jobs will probably be lost for good. An active labor market policy will therefore play a key role in the coming years in order to support the existing potential workforce in its reorientation towards a digital working world. Against this background, the targeted use of public funds is essential to minimize the long-term economic damage of the crisis. In recent days, sentiment has changed almost daily between ""risk-on"" and ""risk-off"" and the S&P 500 has alternately closed one day in positive territory and the other day in negative territory. Those investments considered safe, such as gold or the Swiss franc, weakened slightly, and stock indices that are more representative of the ""old"" cyclical industry (e.g. the Dow Jones) rose. This could be an indication of growing hope with regard to the 2021 outlook.The reporting season for 2Q is in full swing and has so far brought no negative surprises – also with regard to the outlook. The rising number of new COVID-19 infections in some countries is not currently being viewed with great concern by the financial markets. Successful reports on the testing of vaccines are stabilizing market sentiment. In all its scenarios for further economic development (according to the minutes of the meeting of June 4), the ECB has also assumed that effective medical treatment will be available by June 2021 at the latest. However, positive effects from the EU Recovery Fund are not included in the ECB's staff projections. At yesterday's press conference, ECB President Lagarde expressed her hope for the rapid and full implementation of the EU reconstruction fund. Well-designed structural policy measures would be important to revive economies that have been hit. Investments in environmental and digital change should be pursued as a priority. The structural collapse of the euro area economy is dampening inflation expectations. A survey of ""professional forecasters"" shows that long-term (around 3-5 years) inflation expectations for the Eurozone are now at 1.6% (previously 1.7%), with a simultaneous downward revision of the forecast for core inflation to 1.5% (from 1.6%). The ECB plans to fully utilize the currently agreed level of PEPP (EUR 1.35tn), unless there are positive surprises to bring inflation back to its pre-crisis path in the medium term.A special (physical) European Council meeting will be held this weekend to discuss the reconstruction plan to cope with the COVID-19 crisis and the long-term EU budget. The Reconstruction Fund will comprise EUR 750bn (loans, grants) and will be allocated to those countries and sectors most affected by the crisis. Criticism has been voiced by the four net contributors (Netherlands, Denmark, Sweden, Austria) which are, in return, together with Germany, to be granted flat-rate rebates. The criticism concerns above all the conditionality for the use of the funds. About 30% of the money is to be used for climate-related projects. Italy and Spain are calling for a quick conclusion of the negotiations, and Germany and France also hope that agreement on the package will be reached in July. Depending on the outcome of the talks, volatility in the markets will remain high next week and we expect the sideways trend to continue in the coming days. Download The Full Week ahead"
15,AUD/USD Price Analysis: There has been a textbook break and retest of the triangle pattern,"AUD/USD is trading pretty positively on the last trading day of the week. This is due to a strong amount of USD selling as the risk sentiment once again shifted to the upside. Looking at the chart below, the main feature is the break of the red triangle pattern to the upside. Not only has there been a break there has been a decent retest of the pattern and another move to the upside. The price has also moved above the 0.70 psychological level, although, it has not been a resistance zone it is still noteworthy. The MACD indicator is also moving higher but the histogram is still red. The signal lines continue to remain above the mid-point. Next week the market will get the latest meeting minutes from the RBA. There must be some concern about the strength of the AUD but there is not expected to be much in the way of change. It would be interesting to see if there is much talk about additional stimulus and negative interest rates. The state of Victoria is still in full lockdown more after virus cases increased across the region.   "
16,BoE's Bailey: Financial markets indicate interest rates will stay very low,"""Financial markets indicate interest rates will stay very low,"" Bank of England (BoE) Governor Andrew Bailey said on Friday.""People can see that we are committed to keeping markets stable via quantitative easing,"" Bailey added. ""There is a legitimate question about what we do with qe when things get back to normal.""The GBP/USD pair edged slightly lower in the last minutes and was last seen trading at 1.2542, losing 0.06% on a daily basis. Moreover, the EUR/GBP pair was up 0.34% on the day at 0.9100 to reflect a broad-based GBP weakness. In the meantime, the UK's FTSE 100 Index is up 0.48% at 6,280."
17,GBP/USD: Darkening clouds opens room to the downside,"Leicester's loosening is the only positive for the GBP/USD pair while the UK's relations with Russia and China and US developments among other things are set to weigh on the cable, Yohay Elam, analyst at FXStreet, informs.“Lifting Leicester's lockdown – that may be the only piece of positive news supporting the pound. England's midsized Midlands city was excluded from the UK's gradual reopening amid a resurgence of coronavirus cases, but the situation has improved – and easing is on the cards.”“The safe-haven US dollar is on the rise amid concerns about rising coronavirus cases in the US. Daily infections hit yet another new daily high of 75,000 and mortalities are rising as well. Texas denied it will impose a full shutdown, following California's steps.” “An updated view is due out from the University of Michigan's preliminary Consumer Sentiment gauge for July. It is set to show a minor advance to 79 points, stalling its bounce from the lows and well below the pre-pandemic highs of around 100 points.” “Back in the UK, authorities revealed that Russia has been trying to steal coronavirus vaccine research and that Putin's country also attempted to intervene in Britain's 2019 elections, which is dominating the press. The news comes on top of PM Boris Johnson's decision to phase out the usage of Huawei's 5G equipment. The Chinese telecoms giant is suspected of close ties to the military.”“Worsening relations with large countries as the UK leaves the EU may weigh on the economy and sterling. EU leaders are busy negotiating the recovery fund and do not have Brexit on their minds.” “Sterling is also softer amid comments from Andrew Bailey, Governor of the BoE, who told MPs earlier in the week that interest rates will remain low for at least two years. Bailey speaks later in the day and may comments on negative borrowing costs – a topic that previously pounded the pound.” "
18,"Gold Price Analysis: First hurdle crossed, next bullish levels in sight  – Confluence Detector","Gold has recaptured the round $1,800 level and also topped a critical hurdle mentioned earlier in the day. The road is now open for XAU.USD to continue to higher ground. The Technical Confluences Indicator is showing that the next target is at $1,807, which is the convergence of the Fibonacci 61.8% one-day, the Bollinger Band 1h-Upper, the Fibonacci 23.6% one-week, and more. Further above, the upside target is $1,821, which is the meeting point of the Pivot Point one-month Resistance 1, the BB one-day Upper, and the PP one-week R1.Support awaits around $1,800, an area which includes the Simple Moving Average 5-15m, the Fibonacci 38.2% one-day, the BB 15min-Upper, the Fibonacci 38.2% one-week, the BB 15min-Middle, and more.Further down, the next cushion is $1,786, which is the confluence of the SMA 100-4h, the Fibonacci 61.8% one-week, and the previous monthly high.Here is how it looks on the tool:The Confluence Detector finds exciting opportunities using Technical Confluences. The TC is a tool to locate and point out those price levels where there is a congestion of indicators, moving averages, Fibonacci levels, Pivot Points, etc. Knowing where these congestion points are located is very useful for the trader, and can be used as a basis for different strategies.This tool assigns a certain amount of “weight” to each indicator, and this “weight” can influence adjacents price levels. These weightings mean that one price level without any indicator or moving average but under the influence of two “strongly weighted” levels accumulate more resistance than their neighbors. In these cases, the tool signals resistance in apparently empty areas.Learn more about Technical Confluence"
19,GBP/USD: Outlook for pound worsening – MUFG,"Analysts at MUFG Bank point out the pound is set to be more influenced by domestic factors. They see rising prospects of negative interest rates from the Bank of England, as the central bank appears reluctant to continue with QE.“We continue to see the pound as vulnerable to the ongoing gradual building of expectations of negative interest rates being adopted in the UK. The 5-year Gilt yield record low of -0.094% was threatened yesterday with the economic data this week failing to shift these building expectations. The GBP was the 2nd worst performing G10 currency in Q2 (JPY worst) and if NOK continues to rally, GBP will soon be the worst on a year-to-date basis. We don’t see this reversing. Incoherent government policy on COVID, the 2nd worst COVID death rate by population in the world, high frequency data that indicates a more subdued recovery, a budget deficit profile that is worse than most other major economies and rising Brexit uncertainties all point to GBP being singled out as higher risk than most other G10 currencies.”“GBP remains strongly correlated to risk (with S&P 500; +0.54 – 3rd strongest in G10) which points to global influences supporting GBP – we would expect a more domestic influence ahead, which points to the potential for renewed depreciation.”
 "
