,title,text
0,EUR/USD hits new four-month highs amid end-of-year flows,"EUR/USD has been having an active New Year's Eve – hitting a new cycle high at 1.1223, at the time of writing. It last traded at these levels in mid-August. The US dollar has been on the back foot in the last days of 2019, amid end-of-year flows.The greenback is also suffering a diminishing demand for safe-haven assets. Optimism about a US-Sino trade deal prevails with Chinese Vice Premier Liu He is set to travel to Washington on Saturday for a signing ceremony of the Phase One accord. However, officials in Beijing have yet to confirm the trip.The US calendar consists of the official House Price Index and the S&P / Case Shiller HPI. The most significant figure due out on Tuesday is the Consumer Confidence gauge by the Conference Board, due out at 15:00 GMT. Markets are set to quiet down afterward and resume their action early on January 2, 2020, in Asia.Euro/dollar faces resistance at the August peaks of 1.1230 and 1.1250, followed by previous peaks of 1.1325 and 1.1390. Support lines are aplenty and they include the recent highs of 1.12, 1.1175, 1.1150, 1.1130, 1.1110, and 1.1065.The Relative Strength Index on the four-hour chart is above 70 – indicating overbought conditions. "
1,Top Trade Setups in Forex - Good-Bye 2020!,"On the forex front, the U.S. Dollar Index extended its decline on Monday, dropping 0.2% on the day to 96.74. Peter Navarro, a topmost trade counsel to President Trump, said a preliminary trade deal with China is completed.Regarding the U.S. economic data, wholesale inventories were flat on month in November (+0.2% expected). The Market News International Chicago PMI rose to 48.9 in December (47.9 estimated) from 46.3 in November. Later today, economists expect the Conference Board Consumer Confidence Index to rise to 128.5 in December from 125.5 in November.
 The USD/JPY was closed at 108.873 after placing a high of 109.484 and a low of 108.765. Overall the trend for USD/JPY remained strongly bearish that day.At 6:30 GMT, the Goods Trade Balance from the United States was released for the month of December, which came in as -63.2B against the expectations of -69.2B and supported the US dollar. The Prelim Wholesale Inventories for November also helped the US dollar when it came in as 0.0% from expected 0.2%. At 7:45 GMT, the closely watched Chicago Purchasing Managers Index (PMI) showed an increase to 48.9 in the month of December from forecasted 48.2 and further supported the US dollar on Monday. However, the Pending Home Sales for November from the United States came in ad 1.2% less than expected 1.5% and weighed on the US dollar.The macroeconomic data from the United States was in favor of its currency dollar, but it failed to raise USD/JPY prices on Monday. The pair dropped with a massive pressure amid the US airstrikes in Iraq & Syria on Sunday.The US attacked Iran-backed Iraqi militia on Sunday in response to attacks on US civilian contractors. The defense department said that five sites associated with Kataib Hezbollah were attacked by the US military.The US secretary of State stated that the US would not stand by and put American lives in danger by Iran. However, the leader of Kataib Hezbollah, named Jamal Jafaar Ibrahim, has warned in reply to US airstrikes that the blood of the martyrs will not be in vain and that their response will be callous of American forces in Iraq.The Prime Minister of Iraq denounced the violation of the sovereignty of Iraq by the US military. The foreign ministry of Iran stated that the US airstrikes were an act of terrorism.This raised the tensions between the US & Middle East and decreased the demand for riskier assets like USD/JPY, which caused a sudden fall in the prices of USD/JPY to the level of 108.7 on Monday.
Support Resistance 108.60 109.29108.33 109.71107.90 109.98Pivot point: 109.02
 The USD/JPY slipped dramatically in the wake of a weaker dollar and stronger Japanese yen. The pair is heading towards the triple bottom level of 108.400. Closing of 4-hour candle above this level may drive bullish reversal in the USD/JPY. Above 108.400, the USD/JPY can drive bullish retracement until 108.750. The RSI and MACD are still trading in a bearish zone, holding below 50 and 0, respectively. Consider trading bearish below 108.700 to target 108.400.  
 The EUR/USD pair was closed at 1.11985 after placing a high of 1.2206 and a low of 1.11713. Overall the movement of the EUR/USD pair remained bullish that day. The EUR/USD hits fresh 4-months high above 1.120 level on Monday amid weak US dollar. The US dollar has remained under pressure on Monday on the back of raised optimism of global growth. The US-Sino trade deal developments have weighed the safe-haven US dollar. Investors are awaiting the signing ceremony between the world’s two largest economies in early January.Between Christmas and New Year, the trading conditions are thin, and this has given a boost to the action from the market. The upcoming American elections have also started to provide its move in the market, and the US dollar is facing pressure.Besides the weakness of the US dollar in the market against a basket of six currencies, the Euro has also found support from Germany as many economists have predicted the rising inflation for the German economy. Germany is the largest economy of the European Union, and the success of the Euro highly depends on better German economic conditions.Next week, on Friday, there will be the release of the German consumer price index for the month of December. According to the forecast, there will be a substantial uptick in the price pressures, which will support the Euro against its rival currencies.However, analysts stated that the improvement in the inflation rate would not be enough to increase the interest rates by the European Central Bank. But this will help the Euro exchange rate to rise. On the other hand, if the actual value will come in short of expectations, then it will reverse the direction of the Euro.Furthermore, at 1:00 GMT, the Spanish Flash Consumer Price Index for the year was dropped to 0.8% from the expectations of 0.9% and weighed on single currency Euro. Although the data released from Spain was not in favor of the Euro, it could not reverse the movement of EUR/USD due to high pressure on the US dollar.Support Resistance1.1183 1.12261.1160 1.12461.1140 1.1268Pivot Point: 1.1203The EUR/USD hasn't shifted much as it extends to trade around 1.120, just below the horizontal resistance level of 1.1215. The bullish impulse in the EUR/USD has driven the currency pair into the overbought territory as we can notice the leading indicators RSI and MACD. The formation of candles below 1.1215 is likely to accelerate bearish correction in the EUR/USD until 1.1160. Alternatively, the bullish crossover of the EUR/USD pair above 1.1215 can point to its prices towards 1.1256.The GBP/USD pair was closed at 1.3117 after placing a high of 1.31500 and a low of 1.30656. Overall the movement of GBP/USD pair remained bullish throughout the day.At 2:30 GMT, the UK Finance released the report of High Street Lending for the month of November, which showed a rise to 43.7K from the expected 41.3K and supported Sterling. Stronger than expected number of new mortgages approved for home purchases by High Street banks of Britain for the month of November gave strength to Pound against US dollar and helped GBP/USD pair to surgeon Monday.This month has been up & down for British Pound. Prime Minister Boris Johnson won the UK election for the second time and provided political stability, which has been lacking after the announcement of Brexit 3 years back.After the result of elections, Pound jumped to1.35 level, but the gains proved to be of short-term. The pound came back to 1.30 level because of the announcement by Johnson of making his Brexit deal as a law. He gave the EU the deadline for next year's end to reach a trade deal with the UK. This raised the no-deal Brexit concerns and caused the drop-in prices of Pound.However, the US dollar has remained weakened on the back of progress in US-Sino trade relations in December. On Monday, US airstrikes on Iraq & Syria also weighed on US dollar and helped GBP/USD to rise above 1.315 and end its trading day with a bullish candle for the 4th consecutive day.Support Resistance1.3082 1.31461.3052 1.31801.3018 1.3210Pivot Point: 1.3116The GBP/USD pair is trading at 1.3115, just below 1.3150 resistance level. Overall, it's a double top level, which is keeping the GBP/USD under bearish pressure. Today, we should keep an eye on the 1.3150 resistance area as the violation of this level can extend buying until 1.3235. While on the lower side, the GBP/USD is likely to find support around 1.3060.All the best for the New York session!"
2,USD: Fed’s balance sheet expansion is creating a less favorable environment for the dollar – MUFG,"Analysts at MUFG Bank, argue the Federal Reserve has signaled that it plans to continue expanding its balance sheet at least through the first half of next year, thereby extending less favorable conditions for the US dollar. They point out the options market is expecting more US dollar weakness over the next six months.“The dollar index has traded below its’ 200-day moving average at around 97.700 for most of this month which is the longest sustained period since early in 2018. A bearish technical development for the US dollar that signals an increasing risk of further weakness ahead.”“Weakness in the US dollar towards the end of this year has coincided with the renewed expansion of the Fed’s balance and the paring back of pessimism over the outlook for global growth. Total assets on the Fed’s balance sheet climbed to USD4.166 trillion as of the 25th December compared to a low of USD3.760 trillion at the end of August. The fast pace of balance sheet expansion has been running at an annualized rate of around 37%.”“At the same time the incoming US data flow has not been strong enough to encourage market participants to shift their expectations for the Fed’s next policy move in favour of tightening. The Atlanta Fed is currently estimating GDP growth of just over 2% in Q4. The US rate market is still pricing in a cut later next year. The  Fed set a high hurdle for a rate hike when Chair Powell reiterated a significant andpersistent move higher in inflation is required. In contrast, the bar for another rate cut appears lower in light of developments over the last six months. In these circumstances, it is currently difficult to justify an even stronger US dollar.”"
3,FX Update – USD Index 5-month low,"The Yen, other Asian currencies, and Dollar block units have rallied following above-forecast manufacturing PMI data out of China. USDJPY fell to an 18-day low at 108.59. AUDUSD posted a fresh one-month peak at 0.7012, in what is now the pair’s fifth consecutive up week, and NZDUSD also made a new five-month peak, with the pair amid its sixth straight up week. USDCAD fell to a fresh five-month low, at 1.3025, in what is now sixth consecutive down week the pairing has seen. The USDIndex closed yesterday (December 30) at its lowest level (96.42) since July 18 and currently trades down again at 96.31. It has been a weak month for the USDIndex with the initial move lower triggering December 2 and the break of the 20-day moving average, followed by the key 200-day moving average breach on December 11 and then the gap lower December 13. The 200-day moving average proved strong resistance to any recovery before the December 13 low was breached again yesterday. Is this simply end of year balancing on low volumes or a move to a new lower paradigm fro the USD? Only time will tell we move into 2020.Overnight, China’s official manufacturing PMI for December came in at 50.2, a tad up on the median forecast for 50.1, and unchanged from the month prior. This offset a slight miss in the services PMI (and with the Chinese service-sector performance being off lesser interest to markets than the performances of the dominant manufacturing sector). Of note was the first above-50.0 reading in manufacturing new export orders for the first time in 18 months (the duration of the trade war with the US). With the US and China expected to sign-off on their phase-1 trade deal in the coming weeks, the data was a tonic, at least for currencies, with stock markets sputtering after recent strong gains.Elsewhere, EURUSD has been trading on either side of 1.1200 since making a four-month high yesterday at 1.1220, but remains biased to the upside. Cable also remained below the high seen yesterday. The UK’s Telegraph newspaper cited Phil Hogan, the new EU trade commissioner, predicting that Prime Minister Johnson will renege on his self-imposed legal commitment to exit the Brexit transition period by the end of 2020. Hogan drew attention to Johnson’s high profile pledge to “die in a ditch” rather than let Brexit be extended beyond October. The Classics Oxford alumni PM is renowned for his flowery language, however with 11 only months to go I tend to concur with Mr Hogan.The key data point of note today is the US Consumer Board’s Consumer Confidence Index (15:00 GMT) report which is expected to rise to 128.5 in December, after falling -0.6 ticks to a 5-month low of 125.5 in November. All of the weakness last month was in the present situation index, which is expected to rebound to 168.0 from 166.9 in November. The expectations index should rise to 103.0 in December from 97.9 previously. Despite various headwinds, the confidence measures remain historically high, and there has been an updraft in the various consumer confidence measures this month thanks to reduced uncertainties over trade and the end of the UAW strike. The lift may gain steam with late-month responses given the positive news flow on trade, as well as the rally in the equity markets."
4,"Loonie Closes 2019 at a New High, More to Come in 2020?","As we noted yesterday, this time of year is notorious for low-liquidity trading, and more often than not, lackluster markets as traders plan their New Year’s celebrations.One currency that’s bucking that trend is the Canadian dollar, which is ringing 2020 in style. Shrugging off today’s weakness in oil prices, the loonie just hit a 14-month high against its rival to the south (this is shown as a 14-month low in the USD/CAD exchange rate).Source: TradingView, GAIN CapitalWhile a bit of month- and quarter-end selling in the greenback is playing a role, the Canadian dollar is nonetheless the second strongest major currency on the day behind the pound sterling. From a fundamental perspective, the Canadian economy is poised to benefit from a potential reacceleration in global growth in 2020 driven by a truce in the US-China trade war, as well as the Bank of Canada’s relatively “high” interest rate of 1.75% (although the central bank may be considering a cut at some point next year).Technically speaking, USD/CAD is in the midst of breakdown below previous support in the 1.3020-40 band. Beyond the potentially minor 78.6% Fibonacci retracement of the Q4 2018 rally at 1.2970, there’s little in the way of logical support levels until the October 2018 low near 1.2800. In other words, today’s breakdown, if sustained, could have much further to run as traders flip their calendars to 2020. This research is for informational purposes and should not be construed as personal advice. Trading any financial market involves risk. Trading on leverage involves risk of losses greater than deposits."
5,Fed dots converge closer to the median – Westpac,"According to Richard Franulovich, head of FX strategy at Westpac, the last Fed meeting of the year was mostly notable for Powell’s ongoing attempts to recast the Fed’s reaction function.“The chair repeated the very high bar for hikes - a “significant” and “persistent” move up in inflation - and downplayed the analogy of the ’98 insurance cuts, citing structural differences in inflation as the key reason they won’t be reversed as quickly. Powell also seemed to tip his hat to the dovish wing, citing several officials who have embraced an inflation overshoot as ‘appropriate policy”.”“The USD may be overplaying the newsworthiness of the Fed’s dovish message but regardless, the overarching background is turning less dollar supportive.”“DXY seems vulnerable to a break of key support at 97.10 near term.”"
6,USD Weakness Continues as Traders Price-in no 2020 Rate Hikes,"Global stocks were mixed today on thin trading. In China, stocks rose, with the Shanghai composite and A50 rising by 10 and 13 points respectively. In Europe, markets in Germany, Sweden, Denmark, and Norway were closed while those in Belgium, France, and the United Kingdom had an early close. The FTSE declined by 33 points while CAC declined by 3 points. Meanwhile, US futures pointed to a lower open. Futures tied to the Dow declined by 10 points while those tied to the Nasdaq declined by 6 points. The price of crude oil declined below important support as tensions in the Middle East intensified. Today, protesters stormed the US embassy in Baghdad, Iraq. Donald Trump blamed the protesters on Iran. These protests were in response to military strikes by the US on Sunday. The strikes targeted Kataib Hezbollah, which is an Iranian-funded terrorist group. That was in retaliation to an American contractor who was killed last week. The price of crude oil has been on an upward trend in December after OPEC+ agreed to reduce supplies.The USD weakened against key currencies as traders continued to react to the dovish statement by the Federal Reserve. The dollar index, which measures the strength of the USD against a basket of currencies has declined by almost two percent in December. The market today received positive PMI data from China. Later on, the Conference Board will release the consumer confidence data for December. The market will also receive the house price index data for October. This will be a day after data showed a surprising rise of pending home sales.
 The EUR/USD pair continued the rally that started on December 22, when it was trading at 1.1065. The price reached a high of 1.1232. This was the highest level since August this year. The price is above the 14-day and 28-day moving averages. The RSI has moved above the overbought level of 70 while the signal line of the MACD has been rising. The pair may continue to rise ahead of the new year.
 The XBR/USD pair declined to a low of 65.45. This was the lowest level since December 26. As the price dropped, it broke past the important support of 66.40. The short and medium-term exponential moving averages made a bearish crossover. The pair also moved below the right shoulder of the head and shoulder pattern. There is a likelihood that the price will continue declining in the first days of the new year.
 The Japanese yen has been strengthening against the USD in the past few days. The pair has fallen from a high of 109.68 to a low of 108.50. The price is along the lower line of the Bollinger Bands while the RSI has remained below the oversold level. The pair may continue to decline to test the important support of 108.00.General Risk Warning for FX & CFD Trading. FX & CFDs are leveraged products. Trading in FX & CFDs related to foreign exchange, commodities, financial indices and other underlying variables, carry a high level of risk and can result in the loss of all of your investment. As such, FX & CFDs may not be appropriate for all investors. You should not invest money that you cannot afford to lose. Before deciding to trade, you should become aware of all the risks associated with FX & CFD trading, and seek advice from an independent and suitably licensed financial advisor. Under no circumstances shall we have any liability to any person or entity for (a) any loss or damage in whole or part caused by, resulting from, or relating to any transactions related to FX or CFDs or (b) any direct, indirect, special, consequential or incidental damages whatsoever."
7,US: CB Consumer Confidence Index edged lower to 126.5 in December from 126.8,"Consumer confidence in the US weakened slightly in December with the Conference Board's Consumer Confidence Index falling to 126.5 from November's revised reading of 126.8. Further details of the publication showed that the Present Situation Index improved in December but the Expectations Index fell to 97.4 from 100.3.Commenting on the data, “while consumers’ assessment of current conditions improved, their expectations declined, driven primarily by a softening in their short-term outlook regarding jobs and financial prospects,"" said Lynn Franco, Director of Economic Indicators at The Conference Board.The US Dollar Index, which was at 96.50 ahead of the data, is now down 0.32% on the day at 96.43."
8,Weekly Trading Plans: EUR/USD - EUR/JPY - SPX500 and TWTR [Video],"Its the last day of the year 2019, the EURO is going up actively making higher highs, while the EUR/JPY shows a high probability buy trade at current levels. It seems that the S&P500 is going to give us a special treat in 2020, expecting a corrective down for a discount. And TWTR ended its wave four as a bearish flag, and it is a short trade now with a target at 28.63Thank you for following our analysis during 2019, we wish you a healthy, profitable, wealthy and happy new year 2020.DISCLAIMER: No Earnings Projections, Promises or RepresentationsTrading currencies, stocks, futures, and options implicate significant risk of loss and is not suitable for every investor. The quotes of financial markets may fluctuate, and, as a result, clients could lose more than their investment. The highly leveraged of futures trading means that modest market movements will have a greater shock on your trading account, and this can go against your trading capital, that can result in considerable losses or can benefit your trading capital, resulting in significant gains.If the price of any financial instrument moves against you, you may result in more massive loss than the original money deposited into your account. You are entirely responsible for all the risks from your trading decisions and resources you use and for a trading system that you are using. You should not make any trading decisions unless you understand entirely the nature of the trades (transactions) you are entering into and your exposure to loss.

If you do not fully understand these risks, you must find independent advice from your financial advisor.All the trading reports, videos, webinars, and strategies are used at your own risk.All the content on elliottwavestreet.com should not be used as advice or recommendation of any type. It is your responsibility to confirm and decide which trades to make based on your analysis. Trade only with risk capital; that you can afford to lose, and that will not negatively impact your lifestyle and your financial obligations needs. Past results are no indication of future performance. The information found on this website should not be interpreted as an implied promise or guarantee.ElliottWaveStreet.com is not responsible for any losses incurred as a result of using any of our trading reports, courses, webinars, video, strategies and any information posted by us.There is no assurance that any prior successes or past results as to earnings or income (whether monetary, whether convertible to cash or not) will apply, nor can any prior successes be used, as an indication of your future success or results from any of the information, content, or strategies. Any and all claims or representations as to income or earnings (whether monetary or advertising credits, whether convertible to cash or not) are not to be considered as “average earnings”.(i) The Economy: The economy, both where you do business, and on a national and even worldwide scale, creates additional uncertainty and economic risk. An economic recession or depression might negatively affect the results produced by our Service.(ii) Your success or lack of it: Your success in using the information or strategies provided at elliottwavestreet.com depends on a variety of factors. We have no way of knowing how well you will do, as we do not know you, your background, your work ethic, your dedication, your motivation, your desire, or your business skills or practices. Therefore, we do not guarantee or imply that you will trade successfully.(iii) Forward-Looking Statements: Materials contained on this website or in materials purchased and/or downloaded from this website may contain information that includes or is based upon forward-looking statements within the meaning of the securities litigation reform act of 1995. Forward-looking statements give our expectations or forecasts of future events. You can identify these statements by the fact that they do not relate strictly to historical or current facts, they use words such as “anticipate,” “estimate,” “expect,” “project,” “intend,” “plan,” “believe,” and other words and terms of similar meaning in connection with a description of potential earnings or financial performance.Any and all forward looking statements here, in other materials contained on this website or in materials purchased and/or downloaded from this website are intended to express our opinion of earnings potential. Many factors will be important in determining your actual results and no guarantees are made that you will achieve results similar to ours or anybody else, in fact no guarantees are made that you will achieve any results from our ideas and techniques in our material.(iv) Due Diligence: You are advised to do your own due diligence when it comes to making trading decisions and should use caution and seek the advice of qualified professionals. You should check with your accountant, lawyer, or professional advisor, before acting on this or any information. You may not consider any examples, documents, or other content on the website or otherwise provided by us to be the equivalent of professional advice. Nothing contained on the website or in materials available for sale or download on the website provides professional advice in any way.We assume no responsibility for any losses or damages resulting from your use of any link, information, or opportunity contained within the website or within any information disclosed by the Company in any form whatsoever.Information provided in this website is intended entirely for informational and educational purposes and is gathered from sources considered to be safe. Information found on this website is not guaranteed. No guarantee of any kind is implied or possible when possible future price movements on the financial markets are published on this website.https://elliottwavestreet.com nor any of its directors, employees, employees, partners, agents or affiliates, collect money from the public or manage third-party accounts, we are not licensed for this purpose. All our services are focused solely for academic purposes that promote research. Reports, comments, opinions and any written or audiovisual expression do not represent a suggestion of trading or investment, past events do not guarantee future events, investments in stock markets, FOREX, derivatives among others are considered high risk and such risk may not be suitable for your investment capital, remember that handling your money is your responsibility, do not invest money that cannot bear to lose, we recommend you to seek advice before making any investment and verify with the authorities of your country the rules and laws on investment in financial markets.We have created alliances with third party brokers to reduce the cost of some products and services made available through https://elliottwavestreet.com; if you make the decision to deposit your money in one of the brokers that https://elliottwavestreet.com has alliance, remember that you are NOT depositing your money at https://elliottwavestreet.com or World Markets Academy LLC. Before depositing your money check the permits, regulations, disclosure of risk, terms and conditions of these brokers, this verification is your responsibility, do not forget to consult with the authorities of your country of residence all the requirements to make these investments.Remember that https://elliottwavestreet.com and World Markets Academy LLC do not have access to the management of your money, therefore the decisions that you take based on the technical analysis presented in the products, services, videos, courses and blog of https://elliottwavestreet.com and World Markets Academy LLC are your responsibility, when taking the products or services made available through https://elliottwavestreet.com you accept that the losses and / or profits are your responsibility, remember that https://elliottwavestreet.com is for the sole purpose to teach market analysis techniques, past situations do not guarantee future situations.Your use of https://elliottwavestreet.com is at your own risk. The products and services made available through https://elliottwavestreet.com are provided “as is” and “as available”, without warranties of any kind, expressed or implicit, including but not limited to, warranties of merchandising, suitability for a particular purpose, non-infringement or course of performance.World Markets Academy LLC, its affiliates and their licensor providers do not guarantee that a) https://elliottwavestreet.com will operate uninterrupted, secure or available at any time or place; b) errors or defects will be corrected; c) https://elliottwavestreet.com is free of viruses or other harmful components; or d) the results of the use of https://elliottwavestreet.com comply with your requirements or demands.CFTC RULE 4.41 – HYPOTHETICAL OR SIMULATED PERFORMANCE RESULTS HAVE CERTAIN LIMITATIONS. UNLIKE AN ACTUAL PERFORMANCE RECORD, SIMULATED RESULTS DO NOT REPRESENT ACTUAL TRADING. ALSO, SINCE THE TRADES HAVE NOT BEEN EXECUTED, THE RESULTS MAY HAVE UNDER-OR-OVER COMPENSATED FOR THE IMPACT, IF ANY, OF CERTAIN MARKET FACTORS, SUCH AS LACK OF LIQUIDITY. SIMULATED TRADING PROGRAMS IN GENERAL ARE ALSO SUBJECT TO THE FACT THAT THEY ARE DESIGNED WITH THE BENEFIT OF HINDSIGHT. NO REPRESENTATION IS BEING MADE THAT ANY ACCOUNT WILL OR IS LIKELY TO ACHIEVE PROFIT OR LOSSES SIMILAR TO THOSE SHOWN."
