,title,text
0,EUR/USD Forecast: Corrective advance could continue up to 1.0900,"The American dollar finally gave up on Friday, easing against most major rivals on the back of dismal US data. After hitting a fresh multi-year low of 1.0777, the EUR/USD pair finished the week with modest gains at around 1.0850. The shared currency began recovering with the release of the preliminary estimates of February Markit PMI, most encouraging. Manufacturing activity picked up in Germany and the EU, with the index for this last at 49.1. Both held within contraction territory. Services output in the Union remained in expansion levels, although the German index fell to 53.3.In the US, on the other hand, the figures disappointed. Services output contracted to 49.4, while the Manufacturing PMI came in at 50.8. The Composite PMI fell to 49.6, in contraction territory for the first time since October 2013. The figures helped triggering profit-taking ahead of the weekend, particularly as the greenback was extremely overbought. The pair’s bounce, however, fell short of changing the technical bearish stance.At the start of the new week, Germany will release the February Business Climate Survey, seen at 96 from the previous 95.9. The US will publish the Chicago Fed National  Activity Index and the Dallas Fed Manufacturing Business Index.The daily chart for the EUR/USD pair shows that it settled just below the 23.6% retracement of its latest daily decline at around 1.0850. The corrective recovery could continue, but technical readings indicate that bears are still in control. Technical indicators in the mentioned chart have barely corrected extreme oversold conditions, while the 20 DMA maintains its firm bearish slope, converging with the 50% retracement of the same slump around 1.0930. In the shorter term, and according to the 4-hour chart, the pair settled above a now flat 20 SMA for the first time since early February, although the larger moving averages retain their bearish slopes well above the larger one. Technical indicators have reached overbought levels, where they have started to lose strength.Support levels: 1.0770 1.0725 1.0690Resistance levels: 1.0860 1.0900 1.0930View Live Chart for the EUR/USD"
1,The next fortnight will see UK PM Johnson kick start the trade talks with the EU and US – The Telegraph,"The Telegraph recently spread the news that the UK PM Boris Johnson is set to kick start trade talks with the US within the next two weeks, amid frustration in Number 10 at EU “time-wasting.”The Prime Minister will next week (March 2) publish the Government’s ‘red lines’ for its US trade negotiations which are expected to push back on US demands for its drug and health firms to have greater access to the British market.In an apparent nod to US concerns over Britain’s tough stance on food and agricultural standards, George Eustice, the Environment Secretary, on Sunday appeared to soften the UK’s resistance to importing American chemically-treated chicken.While the news should ideally help the GBP/USD pair, the buyers and the sellers are jostling around 1.2950 by the press time of early Monday as markets are more interested in coronavirus updates amid risk-off."
2,Coronavirus update: Italy cases surge from three on Friday morning to more than 130 by Sunday,"Financial and commodity markets were drooping in the final sessions of last week, mostly due to the uncertainty among corporations surrounding the spread of the coronavirus (COVID-19) epidemic from China to neighbouring countries sparking-up a fresh dose of recession fear. US benchmarks ended a two-week win streak with the Dow Jones Industrial Average shedding 227.51 points, or 0.8% in its worst one-day percentage drop since February 7th. The Nasdaq Composite Index lost 174.37 points, or 1.8% for its worst single-day percentage fall since January 27th and the S&P 500  lost 35.48 points, or 1.1%, to settle at 3,337.75, its biggest one-day percentage decline since January 31st.There are now 78,854 confirmed cases of novel coronavirus and 2,465 deaths worldwide, according to the latest figures and while Tthe majority of the cases and deaths are in mainland China, followed by Japan and South Korea, Europe is now reporting its biggest outbreak in Italy, with confirmed cases surging from three on Friday morning to more than 130 by Sunday. Here are the top five countries to have experienced outbreaks beyond China:The immediate conclusion is how fast the coronavirus could spread beyond Italy and around Europa, although EU Economic Affairs Commissioner Paolo Gentiloni told reporters in Riyadh on Sunday, speaking after a meeting of G20 financial leaders in Saudi Arabia, “the EU has full confidence in the Italian authorities and the decisions they are taking."" The European Union “shares the concern” but sees “no need to panic”, Gentiloni proclaimed. The outbreak in Italy killed two people and infected 130 others. The government introduced an emergency lockdown in many municipalities in Italy’s north.  The euro is already on its knees, suffering due to economic weakness in the bloc and the market's demand for US stocks and USD denominated investments. On news such as this which will rear-up panic among consumers and uncertainty for businesses, the immediate concern will be the negative consequences for the European economy, further weighing on the single currency. The EUR/USD ended the week around the 23.6% retracement of its latest sell-off at 1.0853, (slightly north of a 78.6% Fibonacci retracement of the 2016 - 2018 range). The bias is to the downside although, should short-term retail sellers prefer to cash in at this juncture or the market seek out sell stop liquidity prior to a test below the 20th Feb lows as being 1.0777, then a meanwhile case could be made for an extension towards 1.0899, a 38.2% retracement and prior support structure. "
3,Forex Today: Fears to keep leading the way,"Here is what you need to know on Monday, February 24th:"
4,G20 Summary: Top economies coordinated response to the coronavirus outbreak," The world's top economies called on Saturday for a coordinated response to the coronavirus outbreak, which the IMF predicted would lower China's growth this year to 5.6% and shave 0.1 percentage points from global growth.The latest draft communique gives less prominence than an earlier version to the outbreak as a growth risk, saying only that the G20 would ""... enhance global risk monitoring, including the recent outbreak of COVID-19,"" the medical acronym for the coronavirus.We are likely to see a risk-off response for the start of the week – more on that here: What you need to know for the open: Coronavirus risk-off themes rule the waves. A source familiar with the discussions said the G20 countries had not made plans for any separate committee or meetings to coordinate a response. "
5,S&P 500 Index(SPX) scrambles for support around 3337.00,"The S&P 500 index was down two consecutive sessions at the end of last week finishing the last session of the week around 3337.00 support area. The index is more likely to pull back according to the trend and time-based calculation, which predicts its potential future price movements and the time which seems to have started in the last two trading session.I am expecting to see the index put up an intense fight around the current support area in the next upcoming trading session to push prices back up to 3358.90 price zone. However, if it fails, then prices could continue down to 3303.50 and 3282.50 or even all the way down to 3267.45 and 3248.00 to complete the pullback. "
6,What you need to know for the open: Coronavirus risk-off themes rule the waves,"The coronavirus remains front and centre of the theme for forex at the start of this week. Friday's close leaves a consolidative tone for today's open, if not a risk-off bias which could continue to fuel a bid into the greenback which gave up some marginal gains in a 23.6% retracement of the early Feb rally.  The week, on Wall Street, ended on a sour note, with the tech sector suffering on the fear of a global recession with Shares of Microsoft Corp, -3.16%  Apple Inc. AAPL, -2.26% and Intel Corp. INTC, -1.70%  being weighed by the potential fallout from the coronavirus (COVID-19) outbreak – more on that here. For a quick recap of the closing events for Friday, see here: Forex Today: Fears to keep leading the wayThe G20 meeting over the weekend will also be a factor for markets considering how concerned the world leaders are over the coronavirus whereby suggestions of governments to coordinate fiscal stimulus if global growth doesn't rebound will likely take its toll on risk appatite this week. More here: G20 Summary: Top economies coordinated response to the coronavirus outbreakPre-opening prices:Yen: Risk-off is seeing a potential paradigm shift in the yen which has fallen for day's on end, despite the growing concerns over global growth pertaining to the threat of the coronavirus. In Chart Of The Week, we see a bullish bias painted on the charts following an upside test of the symmetrical triangle and note the lack of volume towards a 138.2% Fibonacci resistance and the 118 handle. Still, there is plenty of resistance ahead, but the fact that Japan could be considered an unsafe investment should be compelling for forex traders.A number of factors could be blamed for the de-coupling to risk-off, and not least with the recent Gross Domestic Product miss in a -6.3% contraction as the economy faces a potential virus pandemic with its closest trading partners in Asia, (2019's total Japanese export: China: $134.7 billion (19.1%), South Korea: $46.3 billion (6.6%), Taiwan: $43 billion (6.1%), Hong Kong: $33.6 billion (4.8%) and Thailand: $30.2 billion (4.3%)). In recent figures, Japan has been reported to have the third-highest domestic number of coronavirus cases and investors are concerned, expecting the Japanese authorities to face some tough decisions ahead following the recent sales tax hikes which have potentially back fired. The Bank of Japan will likely become a keener central bank meeting for forex traders in anticipation of additional easing. It will also be interesting to monitor the relationship between the US stock market and the yen, for it could be that Japanese pension funds will seek out alternative holdings, other than the yen, at times of risk-off.With the Japanese tax-year coming up, seasonality should be noted as March is traditionally a month when forex traders need to be extra careful in selling the currency because Japanese exporters will be placing big yen bids ahead of their financial year-end. However, while repatriation obviously still takes place, it may not be too surprising if the yen continues to weaken despite the seasonality considering how much manufacturing now takes place overseas and if the recent data has anything to go by, obviously there has not been much in the way of manufacturing and exports in any case. US dollar: A host of tailwinds continue to support USD denominated assets, and the USD has been gaining ground since early January. The bulls had been mounting on a daily basis throughout this month so far, and there seemed to be no let-up, until Friday's close where profit-taking took place due to dismal US data. However, so long as the risk-off theme remains intact, the dollar should continue to attract overseas investment. This week will give us more to go on from the economic data side of things with the Federal Reserve's preferred inflation measure – PCE Inflation. CPI and PPI data point to an above-trend 0.3% m/m rise in the core PCE index; we estimate 0.28% before rounding. The YoY change likely rose to 1.8% from 1.6%, due in part to base effects, with more risk of 1.9% than 1.7%. (Core prices rose just 0.04% m/m in January 2019.) Even so, the pace remains below the 2.0-2.5% range that Fed officials appear to be aiming for ""for a time,""Analysts at TD Securities explained. For more insight on the US dollar, see here: US Dollar Strength: About more than the coronavirus' contagionEUR: The euro has been on the back foot vs the greenback as a slide in risk appetite coupled with growing concerns over the eurozone economic performance have taken their toll. The euro area remains burdened by low growth, weak inflation dynamics and underperforming financial assets. The European Central Bank is stuck between a rock and a hard place and it would appear that the eurozone nations are reluctant to provide the fiscal stimulus for which the ECB has been seeking.  With the coronavirus outbreak on their doorstep, (Italy's confirmed cases surged from three on Friday morning to more than 130 by Sunday), the lack of monetary policy space means the ECB will be constrained when reacting to any downturn in economic growth. Moreover, political risks remain in play. We have a possible breakdown in Germany's grand coalition, Brexit trade talks between EU and UK  and the lingering threat of US tariffs on the European auto sector will all pose a risk to its recovery, and that's what the markets are factoring in. There is scope from here for an extended recovery, perhaps to test the 1.09 handle as a key confluence area on the charts where buy stop liquidity is likely located, before further selling.  For the week ahead, the Flash Inflation (Feb, YoY) and Headline HICP will be a focus. Chart Of The Week: USD/JPY moves in on familiar price acceptance area         "
7,USD/JPY extends losses below 111.50 as coronavirus spreads outside China,"USD/JPY declines to 111.45, with the intra-day low of 111.28, amid the initial Asian session on Monday. That said, the pair stays under pressure as coronavirus pushes traders towards risk-safety whereas the pullback in the US dollar after Friday’s US PMI exerts additional downside pressure on the quote.Read: What you need to know for the open: Coronavirus risk-off themes rule the wavesThe fourth quarter (Q4) GDP figures renewed worries of recession inside the world’s third-largest economy while the fact that Japan is the biggest victim of coronavirus outside China (while counting cases of the Diamond Princess cruise) also keeps USD/JPY traders worried.As per the latest numbers, there have been a total of 738 infected cases and 3 deaths (including 639 cases on Diamond Princess cruise ship and 99 on land).China contributed nearly 19% of the total Japanese exports during 2019 and a deadly virus outbreak there could have a larger blow to the lingering economy that recently registered Q4 GDP as -1.6%.China’s President Xi Jinping and the World Health Organization (WHO) continues to try to placate traders but gained no sympathy as the increase in corona cases from Italy triggered fears that the bloc is under danger. The latest comments from the WHO suggest that no new countries reported coronavirus cases in the past 24 hours whereas Chinese President Xi Jinping mentioned that efforts to control coronavirus have reached a critical stage.Read: G20 Summary: Top economies coordinated response to the coronavirus outbreakLooking forward, Japanese markets are off today due to the Emperor’s Birthday and hence traders will keep eyes on the coronavirus updates for near-term direction. However, the pair is likely to remain under pressure following Friday’s pullback in the US dollar after marking mixed PMI data.FXStreet’s Ross J Burland mentions that the quote is nearing a familiar territory while spotting the monthly chart:The 2015-2020 downtrend has been taken put and bulls are controlling with a  weekly close above 110.31. Bulls can target a run beyond 112.50s for a move towards 114.55, 2018 high.   "
