,title,text
0,EUR/USD Forecast: ECB to give bulls a reality check,"The EUR/USD pair has reached a fresh seven-week high of 1.1152 this Friday, amid a better perception of risk factors fueling demand for high-yielding assets in detriment of the greenback. The initial catalyst for the pair’s rally was the announcement that the United Kingdom and the European Union made an accord on the UK’s departure from the Union. Optimism cooled down after the DUP announced it doesn’t support such a deal. The UK Parliament will have an extraordinary session this Saturday, anticipating opening gaps next week, probably larger in GBP crosses but extending into most major pairs.Things were quieter in the US-China trade front after the latest round of negotiations ended on a high note last week. Both countries are set to continue negotiating, although there’s no certain date on when representatives are to resume talks. A comfortable tension persists, although the matter has been set aside and overshadowed by Brexit.The positive sentiment has underpinned the shared currency, but is it enough? It is in the short-term, but at some point, the market would take account there are no valid reasons to keep buying the EUR.European data has been signaling a steepening economic slowdown, and there have been market talks suggesting fiscal stimulus in Germany. Macroeconomic figures released these days confirmed that the downturn would extend into Q4, with September inflation steady at 1.0% YoY. In this scenario, the ECB would need to keep stimulating the economy. Not that the US may not follow the same path, but despite fears, it is not there yet.Believe it or not, a Brexit deal could save the EU. Over the past three years, rivers of ink have been wasted on what would the effects be for the UK, ignoring the other half of the equation. European politicians have hidden their concerns pretty well, but the fact that they approved in a blink PM Johnson’s proposal after offering an extension, should ring some bells. This weekend events could be critical for European currencies.Fresher signs of EU economic developments will be out next week, as Markit will release the preliminary estimates of October PMI. The ECB is scheduled to meet and announce its latest monetary policy decision next Thursday. It will be Mario Draghi’s farewell, as the current President of the central bank ends its mandate by month-end, and will be replaced by Mrs. Christine Lagarde. It seems unlikely, therefore, that he will make shocking announcements.In the US, the most relevant macroeconomic figures will be September Durable Goods and the preliminary October PMI.The pair is now trading some 300 pips above the multi-year low set this September, up for a third consecutive week. In the long run, the bearish trend is finally giving some signs of easing, although there’s a long way ahead before a bullish trend surges.In the weekly chart, the pair is battling with a bearish 20 SMA, the first time around it since early August. The 100 and 200 SMA remain far above the current, while technical indicators continue advancing, approaching their midlines from below.In the daily chart, the pair is crossing above its 100 DMA, also for the first time since early August, although back then, it failed to surpass the indicator. The Momentum keeps heading north, despite being in extreme overbought readings, while the RSI is barely decelerating near 70, favoring additional gains ahead, particularly if the pair closes the week above the critical 1.1160 resistance. Beyond it, the next possible target comes at 1.1200.The 1.1100 figure is the immediate support, with a break below it putting the pair again in the bearish path. The next supports come at 1.0940 and 1.0870.The FXStreet Forecast Poll indicates that the ongoing advance is corrective, and could extend next week, as 82% of the polled experts are bullish. Such a stance offers a drastic U-turn, as, in the monthly view, bulls account for 15%, while bears jump to 85%, with the average target below 1.1000. In the three-month view, bears retain the majority with 80%, targeting on average 1.0937.The Overview chart shows that in all the time-frame under study, chances that the pair moves beyond 1.1200 are quite limited. The short-term moving average is firmly bullish, with the momentum fading in the 1-month view, to turn flat in the longer-term perspective.USD/JPY Forecast: Can Brexit optimism send it to 110? Durables and trade also eyedGBP/USD Forecast: Backing Boris? Crucial Brexit vote in parliament set to trigger wild volatility"
1,GBP/USD Forecast: Backing Boris? Crucial Brexit vote in parliament set to trigger wild volatility,"""We’ve got a great new deal,"" tweeted UK Prime Minister Boris Johnson and set alight sterling's surge. GBP/USD has risen some 800 pips within a week as a deal became a reality. The next move depends on the parliament approving the agreement. The critical vote on Saturday and also the events that follow are crucial.Intensive Brexit negotiations seemed to be losing the momentum it early in the week. Cautious comments from negotiators in Brussels were unable to seal a quick deal after last week's breakthrough made by Johnson and his Irish counterpart Leo Varadkar. Chief EU Negotiator Michel Barnier called on the UK to inject fresh ""political impulse – and that arrived on Wednesday. ""  Reports of a draft deal then helped cable top 1.28.The focus shifted from Brussels to London, where the PM tried to convince the Democratic Unionist Party (DUP) to back the accord. The small party from Northern Ireland (NI) was unhappy with keeping the province – at least de-facto – within the EU. The party's raison d'etre is holding up the union of the United Kingdom, and having a customs border in the Irish Sea was hard to swallow. Moreover, the accord includes a new mechanism for changing the current arrangements – stripping unionists from their veto.And then, on the morning of the EU Summit, Johnson decided to ignore the DUP's reservations and sign off on a deal. GBP/USD nearly hit 1.30 before falling as the DUP vowed to vote against the accord. On the other hand, the PM has secured the support of some of the hardliners in his party, known as the ""Spartans."" A handful of opposition Labour MPs also announced they would back the PM. But will it be enough to muster a majority?European Commission President Jean-Claude Juncker seemed to rule out an extension to Brexit, perhaps trying to help Johnson push MPs to support for a deal. However, it is up to heads of states – not Juncker – to accept or reject an extension. The focus now shifts to Westminster. For the first time since the Falklands war of 1982, the House of Commons will sit on a Saturday. Speaker of the House John Bercow has allowed for an ample debate of the deal and finally vote on it. The stakes are high, and the latest estimations are showing that the vote will be extremely tight. Various media outlets have calculated that the government may lose by two to nine votes, and Johnson is set to work around the clock to convince MPs to get behind the Brexit deal.When talking to hardline Brexiteers, the PM will likely praise the ""clean"" Brexit that the deal provides for the UK – or more precisely to Great Britain. After the transition period, the country may sign any free trade deal it wants. He will likely play down the danger to the union – not only from the customs border in the Irish Sea – but also due to rising support for independence in Scotland and even in Wales.Johnson will also pressure Labour MPs from Leave constituencies. He may promise them support for their region or perhaps more money to the National Health Service (NHS). Some are reluctant to support an agreement that is a ""Tory Brexit"" – allowing the UK to strip down labor and environment protections. While the government bureaucracy has announced it is unable to produce an economic analysis of the deal, other assessments point to significantly worse standards of living. The UK in a Changing Europe, an academic research network, has published an assessment stating:Relative to staying in the EU, income per capita in the UK would be 2.5% lower under Mr. Johnson’s proposals, compared to 1.7% under Mrs. May’s deal and 3.3% in the WTO scenario.MPs will weigh economic damage against being able to strike independent trade deals, as well as other factors. The most likely scenario is that the agreement is rejected, and the government asks for delaying Brexit to have time for elections. Under the Benn Act, the PM must send a letter to the EU, asking for a three-month Brexit extension by the end of the day on Saturday. Another option in case parliament rejects the deal is a confirmatory vote on the accord – a second referendum – which some in the opposition are considering.GBP/USD is set to surge if his deal is approved and react differently to the other potential outcomes. See Brexit: Four scenarios and GBP/USD reactions as the deal reaches parliamentA Sunday gap – to one direction or the other – is almost inevitable. It is essential to note that politicians' responses in both the UK and the EU will continue moving GBP/USD as the new week begins. Votes on elections, amendments, and comments from EU leaders on an extension are all in play.Brexit overshadowed Top-tier UK data, but they will likely have an impact once the dust settles. UK Average Earnings rose by 3.8% both when including and excluding bonuses in August, within expectations. The Consumer Price Index (CPI) missed with an annual increase of 1.7% in September, below expectations. Other inflation measures also pointed to a slowdown. Retail sales met expectations by remaining flat in September, and excluding fuel, they surprised to the upside with 0.2%.In the US, retail sales disappointed with the all-important control group remaining flat in September. The US consumer has been carrying the economy forward, and signs of a slowdown may push the Federal Reserve toward cutting interest rates on October 30. Several Fed officials spoke out during the week and refrained from straying from their regular opinions – the doves were dovish and hawks hawkish. The bank enters its ""quiet period"" without a clear message on the next move.China expressed its anger after the US required Chinese diplomats to notify Washington of its movements – a move that came in retaliation to similar moves by Beijing. Trade talks continue, aiming to conclude the first phase of a trade deal before December. Investors would like to see the US abandon its plans to slap new tariffs on December 15. The US Dollar has generally been on the back foot. After a week packed with significant releases, the calendar is light. Andy Haldane, Chief Economist at the Bank of England, may have a chance to respond to the vote in parliament in his speech. He has been one of the more dovish members of the BOE. Public Sector Net Borrowing will likely show a rise in funding. Here are the upcoming UK macro events, as they appear on the economic calendar:Any significant headline related to US-Sino trade talks – or tensions between the world's largest economies – may rock markets. While no specific event is scheduled, tweets from President Donald Trump and from Hu Xijin, the editor of the Chinese outlet Global Times, may move markets. The economic calendar features home sales figures, which are expected to show an ongoing recovery in the sector, as interest rates are lower. The main release of the week is Durable Goods Orders for September due out on Thursday. The figures feed into third-quarter growth estimates and are watched by the Fed. Last but not least, Markit´s Purchasing Managers' Indexes (PMIs) may have an impact if they fall below 50 – thus indicating contraction. While ISM's PMIs tend to have a more substantial effect, any fresh fear of a recession may move markets.Here is the list of US events from the FXStreet calendar: The Relative Strength Index on the daily chart has crossed the 70 level – indicating overbought conditions. Does this imply an imminent fall? If the Brexit deal is approved, GBP/USD is set to extend its gains regardless of the RSI. Momentum remains upbeat, and the pair has crossed the closely-watched 200-day Simple Moving Average.The currency pair is trading alongside a steep uptrend support line, which seems unsustainable. However, as mentioned earlier, the exceptional Brexit circumstances mean that the rally may continue. Resistance awaits at 1.2989, which was the high point in mid-October. It is followed by 1.3050, which capped cable in MAy. Next, we find 1.3130, a stubborn resistance line dating to April, followed by 1.3175 – the high point in May. The next lines are 1.3270 and 1.3380.Support awaits at 1.2780, which held GBP/USD in mid-June,1.2706, which held was a swing high in mid-October, and 1.2580, a high point in September. Next, 1.25 provided support in June, and it is followed by 1.2420, 1.2310, and 1.22.It is hard to predict how parliament will vote, but if pushed, the PM may have momentum on his side, leading to a small victory that would unleash the upside in the pound. The FX Poll is showing experts see current ranges in the short-term but rises afterward. All targets have been substantially upgraded. The variety of forecasts has also increased, as reflecting the high volatility that is likely. The three-month outlooks spread from 1.22 to 1.44.  "
2,Four key Brexit answers ahead of ‘Super Saturday’,"Saturday's vote on the Brexit deal in the UK parliament looks set to be extremely close. Whichever way it goes, an Article 50 extension still looks necessary. But after that, things get more complicated and it's not completely unimaginable that opposition MPs now try to block a 2019 general election.Saturday's parliamentary vote on prime minister Johnson's Brexit deal is on a knife-edge.We currently reckon that the British government may be just two votes short of winning – although there are of course several moving parts.We know the Democratic Unionist Party (DUP) will not vote for the deal, at least as things stand. And conventional wisdom suggests that without the DUP, many pro-Brexit Conservative MPs (from the European Research Group, or ERG) won't back the deal either.But that no longer appears to be the case. Buzzfeed reckons 10 out of 28 ERG MPs would not vote for the deal, although many others are keeping their cards close to their chest – former Conservative leader Ian Duncan-Smith has signalled concerns.But there is a chance that when push comes to shove, all of these 28 MPs back Johnson’s revised agreement. After all, there is a lot to like for them in this agreement - the UK (with the exception of Northern Ireland) is no longer tied into the single market and customs union.It also looks like the anti-‘no deal’ MPs who were ousted from the Conservative Party a few weeks ago - with the exception of those that didn’t vote for Mrs May’s deal - will also back the agreement.We currently reckon that the government may be just two votes short of winningThat probably means everything will hinge on Labour. Five of their MPs voted for Mrs May’s deal back in March, and it looks like they will be joined by a sixth. But that would still leave the government a few votes short – and more opposition lawmakers will be needed to get the deal over the line.That could be challenging. Johnson’s deal is economically-harsher than the previous agreement, mainly by virtue of the fact that the UK (excl NI to an extent) is outside of the EU’s customs union. But the clincher might be the so-called level playing field commitments.These cover things like alignment of workers’ rights, social and environmental standards – and the PM had originally signalled he was less committed to maintaining the level playing field as part of the future relationship.That’s a worry for Labour MPs, not just in terms of the direct impact of watering down these rules, but it could also make Brussels less inclined to negotiate a wide-ranging EU free trade deal in future.In the end though, the revised deal is a fudge. The level playing field commitments have been removed from the legally-binding withdrawal agreement, but there is still an aspiration to keeping them, contained within the non-binding political declaration.Many Labour MPs will still be wary – and if nothing else, voting for the deal could theoretically help hand Johnson a better election victory.If MPs approve a deal on Saturday, then the prime minister will not be obliged to ask for an Article 50 extension. The requirements of the so-called Benn bill would fall away.This could make for a nervous couple of weeks. That’s because approval of a deal is not the same as ratification – and there are several ways this latter process could go awry. There will need to be a raft of legislation published, scrutinised, passed, and maybe even amended. Don’t forget that if the deal does go through this weekend, it will be done on a narrow majority. PM Johnson will need to carry this majority with him through this potentially turbulent parliamentary process.Two weeks will not be long enough and more time will be needed for ratificationIn all likelihood then, two weeks will not be long enough and more time will be needed for ratification. But will PM Johnson ask for an extension? Perhaps – and he’d probably be ok with it if the UK had formally left by the time voters head to the polls in an election.But 'perhaps' does not mean 'definitely', and that means that there is still a latent risk (albeit pretty small) of ‘no deal’ on October 31 if a deal is approved.Backbench lawmakers, therefore, look set to try to insulate against this risk on Saturday. Oliver Letwin has reportedly put forward an amendment that would postpone approval of the deal until all of the associated legislation had passed. In plain English, this would mean that the Benn bill will still kick-in even if PM Johnson gets the deal approved, meaning he’d still be legally-obliged to ask for an extension tomorrow.However, it’s not yet clear whether this tactic has the backing of parliament.In short, yes. If PM Johnson loses the vote on Saturday, he’d be legally-obliged to ask the EU for a three-month extension. And while there may be a challenge in the courts, most legal experts think the law is watertight. Despite comments from European Commission President Juncker yesterday, the EU would most likely grant a delay.But three months is probably too short, given that we are likely heading for an election, and once Christmas is accounted for, there wouldn't be long left to get a deal over the line. We therefore wonder whether we could get a repeat scenario of last time. Back in April, the UK was offered a six-month delay – with a clause that allowed earlier exit if a deal were  ratified. This is just a guess – ultimately we won’t know for sure until EU leaders sit down to discuss a request, which according to The Times could happen at an emergency summit in the next ten days.This is a question that is probably not being asked enough at the moment.For a while now, a UK election has seemed almost inevitable. And with a deal under his belt, PM Johnson’s election prospects look pretty good – regardless of whether it passes on Saturday.If it is approved, he can claim to have “got Brexit done” as promised – although as we said earlier, technically the exit date is likely to be pushed back for the legislation.If a deal isn’t approved, then he will likely frame the election campaign as “parliament against the people”, and campaign on the basis that other parties are trying to block Brexit from happening.Both tactics could feasibly play out quite well for the government. As things stand, the Conservative Party is riding high in the polls – 37% according to the most recent YouGov tracker. With the opposition much more divided, in theory the UK’s first-past-the-post election system could deliver PM Johnson a decent majority.Things are rarely that simple of course, as Theresa May discovered in 2017. But it does pose a conundrum for Labour.Opposition leader Jeremy Corbyn said a few weeks ago that he was “champing at the bit” for an election and signalled the party would vote for one once the ‘no deal’ risk was eliminated. But Labour MPs appear much warier.There is a small chance that we get a ""zombie parliament"" scenarioAs a reminder., there are two ways to bring about an election. Either PM Johnson can hold a vote under the Fixed-Term Parliament Act, which would require 2/3 of MPs to back it. Alternatively, the opposition could table a motion of no confidence, where only a simple majority would be needed.In either scenario, it’s not unthinkable to imagine that many Labour MPs decide to abstain.That could mean that an election does not happen this side of Christmas, and these opposition lawmakers may calculate that during that time, the Conservative momentum in the polls could ebb away.To gain power at the next election, Labour will need to successfully navigate the national debate away from Brexit and back to domestic policies – and the extra delay could feasibly help them do that.Put simply then, there is a small chance that we get a ""zombie parliament"" scenario, whereby:This looks much more like a tail-risk than anything else at the moment. But then again, how many times has that been said so far in the Brexit process. Read the original analysis: Four key Brexit answers ahead of ‘Super Saturday’"
3,AUD/USD Forecast: bullish correction could continue next week,"The AUD/USD pair is finishing the week above the 0.6800 level for the first time in a month, after bottoming for the week at 0.6723. The pair posted most of its weekly gain Thursday, underpinned by hopes for a Brexit deal, and the Australian employment report. This last was mixed, as the country added 14.7K new jobs in September, slightly below the 15.0K expected. However, full-time jobs were up by 26.2K while part-time jobs declined by 11.4K. The unemployment rate fell to 5.2%, although the participation rate also shrunk, from 66.2% to 66.1%. The RBA’s unemployment rate target is 4.5%, and despite the down-tick is partially linked to the increase in the participation rate, it’s moving in the right direction.Not all are roses in Australia. The NAB Business Confidence Index fell to -2 in the third quarter of the year, down from 5 in Q2, while the Westpac Leading Index printed -0.08% in September. The Reserve Bank of Australia's latest meeting Minutes showed that policymakers are willing to keep on cutting rates, but would most likely pause, amid the negative effect lower rates are having on households and savers.Chinese Gross Domestic Product, released just this Friday, dropped to its lowest level in more than two decades, as the economy grew by 6.0% YoY in the three months to September. Indeed, trade tensions with the US are taking their toll.The weekly advance had more to do with Brexit headlines weighing on the dollar than anything else. The upcoming days will be light in terms of macroeconomic data, as only the preliminary October Commonwealth Bank PMI will be out.The AUD/USD pair is trading around 0.6850, at its highest for this month, and with the longer bullish potential limited, as in the weekly chart, technical indicators remain within negative territory, the Momentum flat and the RSI advancing just modestly. The pair is currently developing a few pips below a bearish 20 SMA, which remains far below a firmly bearish 100 SMA.The daily chart indicates that the rally may continue, as the pair is now well above its 20 DMA, and just a few pips below the 100 DMA, while technical indicators main their strong bullish slopes well into positive ground. The mentioned 100 DMA is the immediate resistance at 0.6860 en route to the 0.6900 figure. Beyond this last, the critical 0.7000 threshold comes next. Below 0.6820, the pair could enter in a bearish phase, with 0.6730 and 0.6630 as the next relevant supports.The FXStreet Forecast Poll shows that the pair could near 0.6900 these days, with most polled experts bullish. But the sentiment turns negative afterward, with bears surging to 63% in the monthly view and at 55% in the three-month perspective. The pair is not seen surpassing the 0.6900 region on average.The Overview chart indicates that beyond the short-term upward corrective movement, the pair remains under bears’ control, as most targets accumulate below the current level.EUR/USD Forecast: ECB to give bulls a reality checkUSD/JPY Forecast: Can Brexit optimism send it to 110? Durables and trade also eyedGBP/USD Forecast: Backing Boris? Crucial Brexit vote in parliament set to trigger wild volatility"
4,"Gold Price Forecast: Indecisive market, may attempt bullish breakout next week","Gold has been restricted largely to a narrow range of $1,500 to $1,480 since Monday and is about to end the week on a flat note at $1,491 per Oz. The market has turned indecisive despite global growth concerns. The International Monetary Fund (IMF) on Tuesday revised the 2019 global growth forecast lower by 0.2 percentage points to 3% – the lowest since the global financial crisis. The global economy is in a ""synchronized slowdown, weakened by rising trade barriers and increasing geopolitical tensions"", the fund said. The IMF added that the US-China trade tensions will cumulatively reduce the level of global GDP by 0.8% by 2020.  Moreover, China on Friday reported the third-quarter Gross Domestic Product (GDP) growth at 6% – the lowest reading since 1992. Even so, the metal failed to draw haven bids, possibly because the global growth slowdown is generally accepted by now and priced to a large extent. Gold will likely pick up a bid in the Asian session on Monday, especially in GBP and EUR terms, and the risky assets could take a beating if UK PM Boris Johnson's Brexit deal is rejected by the parliament on Saturday.Johnson has said that the UK will leave the European Union if the parliament votes down his proposed deal. In an extraordinary Saturday sitting, the first since 1982, parliament will vote on approving Brexit deal. Britain is due to leave the EU on Oct. 31.The US data docket is light except for Thursday when the Durable Goods (Sep) data will be released. A bigger-than-expected drop in corporate spending would underline the negative impact of the US-China trade war and bolster the Federal Reserve (Fed) rate cut expectations.As of now, there is an 89.3% chance the Fed will cut rates by 25 basis points on Oct. 30, according to CME's FedWatch tool. So, it seems safe to say that 22 basis point rate cut has been priced in and the remaining three basis points will likely be priced in on potential weak US data. Put simply, the upside in gold on dismal Durable Goods data looks limited.The metal, however, could suffer a significant drop if the Durable Goods blow past expectations, forcing markets to price out the 22 basis point worth of rate cut.The European Central Bank's (ECB) rate decision is also due on Thursday. The bank is expected to keep rates unchanged and reiterate September's dovish stance, leaving markets largely unaffected.Gold is trapped in a falling channel since early September, as seen in the daily chart.The daily MACD histogram, a widely used indicator to gauge trend strength and trend changes, has charted higher lows - a sign of weakening bearish momentum.The metal, therefore, looks set to challenge the upper edge of the bearish channel, currently at $1,510. A close higher would imply bullish breakout and a resumption of the rally from lows near $1,270 seen in May. Prices could then challenge resistance at $1,557 (2019 high).The bullish case would weaken if prices drop below $1,474 (Oct. 11 low).The Forex Forecast Poll is a sentiment tool that highlights near- and medium-term price expectations from leading market experts which shows the immediate trend is bearish, while the monthly and the quarterly outlook for Gold is bullish. 1 Week: Expecting sellers to make another push down towards 1450.0. 1 Month: Expecting price to pullback towards the price of 1440.0.By Navin Prithyani "
5,Top Trade Setups in Forex - Dollar Weakens Ahead of Philly Fed!,"The U.S. Dollar weakened for a third straight session on disappointing economic data. The ICE Dollar Index lost 0.4% on the day to a two-month low of 97.60.U.S. official data showed that housing starts fell to an annualized rate of 1.256 million units in September (1.32 million units expected) from 1.386 million units in August. Industrial production declined 0.4% on month in September (-0.2% expected, +0.8% in August). Initial jobless claims increased to 214,000 for the week ended Oct. 12 (215,000 expected) from 210,000 in the prior week.Later today, economists expect the U.S. leading index to stay flat.European stocks were broadly lower, with the Stoxx Europe 600 easing 0.1%. Germany's DAX edged down 0.1%, and France's CAC dropped 0.4%, while the U.K.'s FTSE 100 was up 0.2 %. The USD/JPY was closed at 108.637 after placing a high of 108.937 and a low of 108.452. The overall trend of USD/JPY remained Bearish for that day.The Governor o Bank of Japan Haruhiko Kuroda said at the International Monetary Fund Meeting that if the risks over the prospects for hitting the price target were increased then, BOJ was ready to ease the monetary policy without hesitation further.On the other hand, the Industrial Production and Manufacturing Production from the United States gave weaker than expected reports and weighed on Greenback. In response to this, the US Dollar Index dropped on Thursday; hence, USD/JPY also dropped.At 1:00 GMT, the Treasury International Capital (TIC) Long-term Purchases from the US Department of Treasury came in negative for the month of September as -41.1B against 74.3B expectations.At 17:30 GMT, the US Building House Permits came as 1.39M against 1.34M expectations and supported the US Dollar. On the other hand, the number of new Buildings that began construction in the month of September was 1.26M against 1.32M expectations weighed the US Dollar. The US job claims for September came as expected, 214K.At 18:15 GMT, the Industrial Production for September was dropped to -0.4% against -0.1% expectations. The Capacity Utilization Rate also dropped to 77.5% against 77.7% expectations.On the news front, Brexit remains under headlines on Thursday as European Union and the United Kingdom have finally reached on Brexit Deal. But PM Boris Johnson still needs to get support from UK Parliament in favor of this new deal. The news increased the risk factor in the market and decreased the safe-haven assets demand in the market.    The USD/JPY continues to hold above 108.600 support level, having formed Doji candles, which are suggesting indecision among traders. The 50 periods EMA is also supporting the pair around 108.600 level, suggesting odds of a bullish bias in the pair. In contrast, the MACD is indicating bearish sentiment.On the upper side, resistance stays at 108.800, and the violation of this level can extend the bullish trend until 109.20 today. AUD/USD was closed at 0.68211 after placing a high of 0.68329 and a low of 0.67512. The overall trend of AUD/USD remained Bullish for that day.At 5:30 GMT, the Employment Change from the Australian Bureau of Statistics came in as 14.7K against the expectations of 15.3K. The closely watched and long-awaited Unemployment Rate of Australia came in support of Aussie as 5.2% against the expectations of 5.3%. Traders reacted to the Unemployment Rate and started to buy Aussie on Thursday.Though the number of jobs in September fell in Australia, the surprising fall in the unemployment rate of Australia decreased the investors’ bets on the November rate cut from Reserve Bank of Australia. RBA has cut its rates three times this year and has left the rate to 0.75% in October. The cut was made to lift the growth and inflation rate of Australia. US-China trade war has weighed on Australian as well as global economic growth and has been a factor for rate cuts from all the central banks.The jobs have become a key driver for RBA decisions this year; the bank said that an increase in the unemployment rate would force it to cut its rates in the month of November until it achieves its full employment. RBA president Lowe said on Thursday that his team was still looking forward to December Rate cuts this year.On the other hand, the upward trend of AUD/USD was further boosted up because of disappointing macroeconomic data of Housing Starts and Industrial Production from the United States.  A day before, the AUD/USD has passed above the psychological trading level of 0.6800, and this presently opens possibilities of additional buying until 0.68400 level. Next to this, the bullish trendline is now extending substantial resistance at 0.6880 today. Consider trading bullish above 0.6812 to target 0.6880.  The USD/CAD was closed at 1.31343 after placing a high of 1.32115 and a low of 1.31308. The overall trend of USD/CAD remained Bearish for that day.At 17:30 GMT, the Manufacturing Sales for the month of September from Canada came 0.8% greater than expectations of 0.7% and supported Canadian Dollar. The ADP Non-Farm Employment Change from Canada showed a figure of 28.2K, which is less in comparison to the previous month’s 109.9K.The data from the Canadian side didn’t have much effect on the movement of USD/CAD on Thursday. However, the US side data drove the USD/CAD in a downward direction after the release of weak and disappointing macroeconomic data.The Housing Starts and Industrial Production of United States came in against US Dollar and weighed on Greenback amid the escalating hopes for the 3rd rate cut form Federal Reserve in the next meeting. Weak US Dollar drove USD/CAD in 5-weeks lowest level.The fall in prices of USD/CAD was also caused by the US Crude Oil inventories report at 20:00 GMT, which came in as 9.3M against the expectations of 2.7M. The rise in inventories indicated weaker demand for Crude Oil Prices. As a result, the prices of Crude Oil spiked up on Thursday to $54. The increased oil prices supported the commodity-linked currency – Loonie, and weighed further on the prices of USD/CAD.   The USD/CAD has traded in line with our forecast, having tested the next target level of 1.3130. The RSI and MACD are suggesting an oversold scenario, and this could trigger bullish retracement in the USD/CAD today.The Doji and Spinning Top candlestick patterns may help bring buying in the USDCAD above 1.3130. The bullish target remains 1.3160 and 1.3175.All the best for the U.S. session!  100% Anonymous Trading on EagleFX - Trade NOW!"
6,"USD/MXN keeps falling, moving closer to 19.00","The USD/MXN pair failed earlier today to break and hold on top of 19.20 and turned lower. As of writing, it trades at 19.13, testing Thursday’s low. It holds a bearish tone, as it has been the case over the last three weeks. The improvement in risk sentiment across financial markets and a weaker US Dollar pushed USD/MXN to the downside. At the beginning of the month, it was near 20.00, but it turned lower, breaking a week ago the 19.30 barrier, clearing the way to more losses. While holding under 19.35, the negative tone is likely to prevail. The next critical support is seen at 19.00/05, a long term uptrend line from 2017 that if broken, could lead to a slide to test the 2019 low at 18.73.  !The MXN’s recent rally in tandem with some improvements on the global trade picture and US official comments on USMCA ratification. Nevertheless, headlines surrounding this topic should continue creating volatility going forward, and we see limited room for a sustained appreciation in the peso from these levels,” explained Luis Hurtado, analysts at CIBC. They maintain their 19.9 USD/MXN year-end forecast, and expect Banxico to cut the overnight rate by 25 bps in November, and by another 25 bps in December.According to CIBC, the main obstacle preventing Banxico from signaling more aggressive easing was the high core inflation numbers. “However, we expect this to lose relevance as headline inflation drops below target and economic activity indicators suggest a further deceleration in growth.”More rate cuts from Banxico are widely expecting as inflation continues to slowdown, economic activity stagnates and the Mexican peso remains firm. What is not clear is how fast will it reduce them. Next week, mid-month inflation data for October and August’s economy activity index are due and will offer more information to the Banxico board.   "
7,UK PM Johnson spokeswoman: PM to hold cabinet meeting at 1500 GMT,"British Prime Minister Boris Johnson's spokeswoman crossed the wires in the last minutes, announcing that the PM will be holding a cabinet meeting at 15:00 GMT in Downing Street on Friday.""If the Brexit deal is approved, the bill to implement the deal could begin legislative process as early as Monday,"" the spokeswoman noted. ""The PM and his team will be speaking to lawmakers from across parliament today.""The British Pound largely ignored these comments and the GBP/USD pair was last seen posting small gains near the 1.2900 handle. "
8,Bank of America tests Ripple technology,"Bank of America, the second-largest U.S. bank, has publicly announced the tests of the technological solutions developed by cryptocurrency startup Ripple. The bank is considering further steps towards the adoption of the distributed ledger technology. CoinDesk reports.However, it is worth noting, that Ripple’s spokeswoman neither confirmed nor denied that the bank had become a client of the fintech startup. She only said that they had launched a joined pilot project. No other details were disclosed at this stage.Notably, BoA is part of a coordination group that advises RippleNet partners on legal compliance issues. The pilot project may be considered as a signal that their partnership goes beyond legal consulting services.  Despite the fact that in recent years, Bank of America has been quite active in the field of patents for blockchain-based solutions, in May technical director of the financial institution Katie Bessant said that the bank did not find the technology useful for the financial sector.“Bank of America has been part of Ripple’s Global Payment Steering Group since 2016 and we did a pilot with them,” she said in the interview with CoinDesk.Earlier, BoA filed a patent application for a blockchain cash processing system. apart from that, the bank aims to patent a settlement system pontetially based on Ripple’s distributed ledger technology. In addition, the Bank of America recently joined the Marco Polo consortium working on the blockchain solutions that may be used to improve the efficiency of global trade."
9,USD/JPY Elliott Wave Trade Plan,"The USD/JPY sustained an intense rally for the last two weeks, with strong bullish momentum.  How long is the upward trend going to last? Our Elliott Wave count is telling us that we are very close to the end of the trend. Once we have the Elliott Wave analysis, the second step is to validate the trade. The good news is that with a high probability, the validation happened. The short trade is active from 108.50 with a small stop loss and a considerable potential move to the downside. The target is 104.50. DISCLAIMER: No Earnings Projections, Promises or RepresentationsTrading currencies, stocks, futures, and options implicate significant risk of loss and is not suitable for every investor. The quotes of financial markets may fluctuate, and, as a result, clients could lose more than their investment. The highly leveraged of futures trading means that modest market movements will have a greater shock on your trading account, and this can go against your trading capital, that can result in considerable losses or can benefit your trading capital, resulting in significant gains.If the price of any financial instrument moves against you, you may result in more massive loss than the original money deposited into your account. You are entirely responsible for all the risks from your trading decisions and resources you use and for a trading system that you are using. You should not make any trading decisions unless you understand entirely the nature of the trades (transactions) you are entering into and your exposure to loss.

If you do not fully understand these risks, you must find independent advice from your financial advisor.All the trading reports, videos, webinars, and strategies are used at your own risk.All the content on elliottwavestreet.com should not be used as advice or recommendation of any type. It is your responsibility to confirm and decide which trades to make based on your analysis. Trade only with risk capital; that you can afford to lose, and that will not negatively impact your lifestyle and your financial obligations needs. Past results are no indication of future performance. The information found on this website should not be interpreted as an implied promise or guarantee.ElliottWaveStreet.com is not responsible for any losses incurred as a result of using any of our trading reports, courses, webinars, video, strategies and any information posted by us.There is no assurance that any prior successes or past results as to earnings or income (whether monetary, whether convertible to cash or not) will apply, nor can any prior successes be used, as an indication of your future success or results from any of the information, content, or strategies. Any and all claims or representations as to income or earnings (whether monetary or advertising credits, whether convertible to cash or not) are not to be considered as “average earnings”.(i) The Economy: The economy, both where you do business, and on a national and even worldwide scale, creates additional uncertainty and economic risk. An economic recession or depression might negatively affect the results produced by our Service.(ii) Your success or lack of it: Your success in using the information or strategies provided at elliottwavestreet.com depends on a variety of factors. We have no way of knowing how well you will do, as we do not know you, your background, your work ethic, your dedication, your motivation, your desire, or your business skills or practices. Therefore, we do not guarantee or imply that you will trade successfully.(iii) Forward-Looking Statements: Materials contained on this website or in materials purchased and/or downloaded from this website may contain information that includes or is based upon forward-looking statements within the meaning of the securities litigation reform act of 1995. Forward-looking statements give our expectations or forecasts of future events. You can identify these statements by the fact that they do not relate strictly to historical or current facts, they use words such as “anticipate,” “estimate,” “expect,” “project,” “intend,” “plan,” “believe,” and other words and terms of similar meaning in connection with a description of potential earnings or financial performance.Any and all forward looking statements here, in other materials contained on this website or in materials purchased and/or downloaded from this website are intended to express our opinion of earnings potential. Many factors will be important in determining your actual results and no guarantees are made that you will achieve results similar to ours or anybody else, in fact no guarantees are made that you will achieve any results from our ideas and techniques in our material.(iv) Due Diligence: You are advised to do your own due diligence when it comes to making trading decisions and should use caution and seek the advice of qualified professionals. You should check with your accountant, lawyer, or professional advisor, before acting on this or any information. You may not consider any examples, documents, or other content on the website or otherwise provided by us to be the equivalent of professional advice. Nothing contained on the website or in materials available for sale or download on the website provides professional advice in any way.We assume no responsibility for any losses or damages resulting from your use of any link, information, or opportunity contained within the website or within any information disclosed by the Company in any form whatsoever.Information provided in this website is intended entirely for informational and educational purposes and is gathered from sources considered to be safe. Information found on this website is not guaranteed. No guarantee of any kind is implied or possible when possible future price movements on the financial markets are published on this website.https://elliottwavestreet.com nor any of its directors, employees, employees, partners, agents or affiliates, collect money from the public or manage third-party accounts, we are not licensed for this purpose. All our services are focused solely for academic purposes that promote research. Reports, comments, opinions and any written or audiovisual expression do not represent a suggestion of trading or investment, past events do not guarantee future events, investments in stock markets, FOREX, derivatives among others are considered high risk and such risk may not be suitable for your investment capital, remember that handling your money is your responsibility, do not invest money that cannot bear to lose, we recommend you to seek advice before making any investment and verify with the authorities of your country the rules and laws on investment in financial markets.We have created alliances with third party brokers to reduce the cost of some products and services made available through https://elliottwavestreet.com; if you make the decision to deposit your money in one of the brokers that https://elliottwavestreet.com has alliance, remember that you are NOT depositing your money at https://elliottwavestreet.com or World Markets Academy LLC. Before depositing your money check the permits, regulations, disclosure of risk, terms and conditions of these brokers, this verification is your responsibility, do not forget to consult with the authorities of your country of residence all the requirements to make these investments.Remember that https://elliottwavestreet.com and World Markets Academy LLC do not have access to the management of your money, therefore the decisions that you take based on the technical analysis presented in the products, services, videos, courses and blog of https://elliottwavestreet.com and World Markets Academy LLC are your responsibility, when taking the products or services made available through https://elliottwavestreet.com you accept that the losses and / or profits are your responsibility, remember that https://elliottwavestreet.com is for the sole purpose to teach market analysis techniques, past situations do not guarantee future situations.Your use of https://elliottwavestreet.com is at your own risk. The products and services made available through https://elliottwavestreet.com are provided “as is” and “as available”, without warranties of any kind, expressed or implicit, including but not limited to, warranties of merchandising, suitability for a particular purpose, non-infringement or course of performance.World Markets Academy LLC, its affiliates and their licensor providers do not guarantee that a) https://elliottwavestreet.com will operate uninterrupted, secure or available at any time or place; b) errors or defects will be corrected; c) https://elliottwavestreet.com is free of viruses or other harmful components; or d) the results of the use of https://elliottwavestreet.com comply with your requirements or demands.CFTC RULE 4.41 – HYPOTHETICAL OR SIMULATED PERFORMANCE RESULTS HAVE CERTAIN LIMITATIONS. UNLIKE AN ACTUAL PERFORMANCE RECORD, SIMULATED RESULTS DO NOT REPRESENT ACTUAL TRADING. ALSO, SINCE THE TRADES HAVE NOT BEEN EXECUTED, THE RESULTS MAY HAVE UNDER-OR-OVER COMPENSATED FOR THE IMPACT, IF ANY, OF CERTAIN MARKET FACTORS, SUCH AS LACK OF LIQUIDITY. SIMULATED TRADING PROGRAMS IN GENERAL ARE ALSO SUBJECT TO THE FACT THAT THEY ARE DESIGNED WITH THE BENEFIT OF HINDSIGHT. NO REPRESENTATION IS BEING MADE THAT ANY ACCOUNT WILL OR IS LIKELY TO ACHIEVE PROFIT OR LOSSES SIMILAR TO THOSE SHOWN."
10,,
11,,
12,,
13,,
14,,
15,,
