,title,text
0,EUR/USD Forecast: Bulls pause but don’t give up,"The start of the week saw the greenback recovering its bullish tone, appreciating against most major rivals on the back of stronger than expected US data. The EUR/USD pair fell to 1.1035 bouncing from the level to settle around 1.1060, after the US ISM Manufacturing PMI resulted in 50.9 in January, largely surpassing the market’s expectations, while December index was upwardly revised from 47.2 to 47.8. The Markit Manufacturing PMI for the same period also beat the market’s expectations printing at 51.9. Earlier in the day, the final versions of the EU Markit Manufacturing PMI were revised higher from their preliminary estimates with the German index resulting in 45.3 and the Union’s index printing at 47.9.Concerns about the coronavirus outbreak continue to affect markets. Chinese stocks plummeted after the long holiday and the government took some measures to stabilize markets. The sentiment improved modestly after WHO Chief, Dr. Tedros, reiterated that there’s no need for measures that unnecessarily interfere with international travel and trade. There won’t be relevant releases from the EU and the US this Tuesday.The EUR/USD pair trades around the 38.2% retracement of its latest daily decline, after meeting buyers around the 23.6% retracement of the same slide. The pair has lost its bullish potential, according to the 4-hour chart, but the downside remains limited.  In the mentioned time-frame, technical indicators have eased from overbought levels but later stabilized within positive levels, while the 20 SMA maintains its bullish slope around the mentioned daily low and the mentioned Fibonacci support.Support levels: 1.1035 1.1005 1.0980  Resistance levels: 1.110 1.1145 1.1190View Live Chart for the EUR/USD "
1,"EUR/USD corrects from recent tops, back around 1.1080","EUR/USD los upside momentum at Friday’s peaks in levels just shy of the key barrier at 1.1100 the figure.The pair is losing ground for the first time after two consecutive daily advances, including a test of the 1.1100 vicinity on Friday on the back of the moderate sell-off in the greenback.The buck has started the week on a better note and is motivating the risk-associated complex to shed part of recent gains. In the meantime, coronavirus fears remain on the rise and are expected to keep driving the sentiment in the global markets for the time being.Later in the region, the focus of attention (or part of it) will be on the final prints of the manufacturing PMI in the euro region. In addition, ECB’s VP L. de Guindos will participate in an event in Athens, while President C.Lagarde is due to speak in Germany.In the US docket, the manufacturing gauge by the ISM will take centre stage. Additionally, Atlanta Fed R.Bostic (2021 voter, centrist) is due to speak.The pair comes under some selling pressure at the beginning of the week after reaching the boundaries of 1.1100 the figure on Friday. In the meantime, dynamics around the buck are expected to remain the exclusive driver of the pair’s price action for the time being along with alternating risk appetite trends in response to developments from the Wuhan coronavirus. On another scenario, the ECB is expected to finish its strategic review (announced last Thursday) by year-end, leaving speculations of any change of the monetary policy before that time pretty flat. Further out, some better-than-expected results in the euro region as of late seem to have lent support to the idea that the bloc could have left the worst behind, although that view looks premature, to say the least.At the moment, the pair is losing 0.19% at 1.1073 and a breakdown of 1.1068 (100-day SMA) would target 1.0992 (weekly/2020 low Jan.29) en route to 1.0981 (monthly low Nov.29 2019). On the flip side, the initial hurdle emerges at 1.1094 (weekly high Jan.31) followed by 1.1118 (weekly high Jan.21) and finally 1.1126 (200-day SMA)."
2,EUR/USD: Forecasts for a higher euro revised after coronavirus – MUFG,"Analysts at MUFG Bank, forecast the EUR/USD pair will trade in the range 1.0800/1.1300 during the first quarter, around 1.1200 in the second quarter and 1.14 in the fourth. “Our basic premise for a modestly higher EUR/USD rate this year based on a relatively better macro backdrop for the euro-zone versus the US than in 2018 or 2019 was undermined in January by the escalation of downside risks to global growth from the spreading of the coronavirus.”“With economic activity in China and Asia threatened over the short-term, the importance of exports to the region for Germany meant the euro suffered. It’s impossible to predict the outcome of this risk but at the time of writing it clearly looks serious enough to warrant some global growth adjustments to the downside and hence with it some lowering of our Q1 and Q2 EUR/USD forecasts.”“Most business sentiment indicators (but not IFO) revealed an upturn in sentiment and this was evident globally too suggesting a turnaround in a near two-year global manufacturing downturn. We believe that will have positive implications for the euro if it continues to unfold.”“We do not expect as much from the ECB review as we may get from the Fed’s review with some form of change in definition of price stability to make it more symmetrical a likely outcome.”“We still expect changes from the European Commission that may potentially result in a more flexible approach to fiscal policy. The Commission is expected to publish a document in February that highlights problems with the current fiscal framework. The potential for looser fiscal policy plus some modest pick-up in growth should help provide EUR with better support in 2020.”
 "
3,When is the US ISM Manufacturing PMI and how could it affect EUR/USD?,"The Institute of Supply Management (ISM) will release its latest manufacturing business survey result, also known as the ISM Manufacturing PMI at 15:00 GMT this Monday. Consensus estimate point to a modest recovery in the manufacturing sector activity and the index is seen rebounding from the previous month's reading of 47.2 to 48.5 in January – still marking the sixth consecutive month of contraction.Meanwhile, analysts at TD Securities expect the manufacturing ISM index to be lifted back toward 50 in January by more positive sentiment following the Phase One trade deal. “We expect that lift to offset negative news on Boeing. Even at 50, our forecast is relatively weak in an absolute sense, but it would be up from 47.8 in December (and 47.2 in the original report). Most of the regional manufacturing surveys that have been reported for January have signaled improvement, with the Chicago survey the main exception.”Any positive surprise might provide an additional boost to the already stronger US dollar and continue exerting some downward pressure on the major. Alternatively, a weaker reading might reinforce expectations that the Fed will ease monetary policy further and prompt some USD selling, albeit the negative reaction is likely to remain limited.Meanwhile, FXStreet's own Analyst Yohay Elam offered important technical levels to trade the EUR/USD pair: “EUR/USD is battling 1.1065, which was a stubborn support line in December. Next, 1.1040 capped it during January and is also where the 50 SMA hits the price. 1.1020 and 1.0990 are next. Some resistance awaits at 1.1075, a support line from January, and then 1.1095, Friday's high. It is followed by 1.1120 and 1.1145.”  •   US Manufacturing PMI Preview: Trade takes back seat to the virus  •   EUR/USD Forecast: Coronavirus gives, coronavirus takes away, downtrend resistance looms  •   EUR/USD Price Analysis: Strong resistance emerged at 1.1090/95The Institute for Supply Management (ISM) Manufacturing Index shows business conditions in the US manufacturing sector. It is a significant indicator of the overall economic condition in the US. A result above 50 is seen as positive (or bullish) for the USD, whereas a result below 50 is seen as negative (or bearish)."
4,"EUR/USD Forecast: Coronavirus gives, coronavirus takes away, downtrend resistance looms","China has issued an urgent appeal for protective equipment amid the coronavirus outbreak – but traders are taking a break from running to the safety of US treasuries. Higher US bond yields are pushing the dollar higher, allowing it to recover from Friday's sell-off.The outbreak continues gripping headlines. The respiratory disease has already taken the lives of around 360 people and more than 17,000 have been infected. The first fatality has been recorded out of China while new testing equipment and medication is applied. The economic impact is becoming more severe. Airlines are canceling flights to the mainland and several Chinese provinces have extended their New Year holidays. Financial markets have reopened in the world's second-largest economy with a significant downfall. Shanghai closed 8% lower despite efforts by the People's Bank of China's stabilization efforts. The PBOC cut interest rates on reserve repo operations and also took other measures.While China was catching up with last week's equity rout, stocks Europe is stable and S&P futures are pointing higher. Investors seem to be picking bargains on shares while taking profit on American bonds, allowing the greenback to recover.The euro has its own issues to grapple with. Luis de Guidos, Vice President of the European Central Bank, said that inflation will likely remain at low levels for some time. Markit's final Manufacturing Purchasing Managers' Indexes for January confirmed the initial read. The industry continues contracting, albeit at a slower pace than in late 2019.The focus later shifts to the US ISM Manufacturing PMI. Similar to Europe, the industrial sector continues struggling while consumers are driving the economy forward. A small improvement is on the cards for January, yet the indicator is set to remain below 50 points – reflecting contraction. See US Manufacturing PMI Preview: Trade takes back seat to the virusUS politics may also be of interest late in the day. The Democratic Party holds its first round of primaries in Iowa. Bernie Sanders, a firebrand US Senator, and Joe Biden, the centrist former Vice President, are in the lead.While this is the first contest, the complex caucus system and the small size of the state may result in little market reaction. The race is long and set to end only in June. Nevertheless, investors prefer Biden's mainstream approach to the economy rather than Sanders' socialist ideas. Overall, the coronavirus and also US data are set to dominate. Euro/dollar is trading below a downtrend resistance line that is set to converge with Friday's high of 1.1095. Other indicators are mixed. The currency pair enjoys upside momentum on the four-hour chart and trades above the 50 Simple Moving Average. However, it has fallen below the 100 and 200 SMAs.EUR/USD is battling 1.1065, which was a stubborn support line in December. Next, 1.1040 capped it during January and is also where the 50 SMA hits the price. 1.1020 and 1.0990 are next.Some resistance awaits at 1.1075, a support line from January, and then 1.1095, Friday's high. It is followed by 1.1120 and 1.1145. "
5,"GBP/JPY flirting with session lows, around 141.70 region","The GBP/JPY cross continued losing ground through the mid-European session and is currently placed near the lower end of its daily trading range, around the 141.70-65 region.The cross came under some aggressive selling pressure on the first day of a new trading week and has now reversed its gains recorded over the past two trading sessions – led by the Bank of England's hawkish decision to leave rates unchanged at 0.75%.Renewed uncertainty over the UK's future trade relationship with the European Union exerted some fresh downward pressure on the British pound, with bulls shrugging off Monday's stronger-than-expected final UK Manufacturing PMI print.The market concerns were further fueled by the EU chief Brexit negotiator Michel Barnier and the UK Prime Minister Boris Johnson's diverging comments on the UK-EU trade, which further dented the already weaker sentiment surrounding the cross.Meanwhile, fading safe-haven demand for the Japanese yen, amid a goodish rebound in the global risk sentiment, also did little lend any support or stall the pair's sharp intraday slide – further below the 142.00 round-figure mark.It will now be interesting to see if the pair is able to find any support at lower levels or continues with its downward momentum, which would mark a near-term bearish breakdown and pave the way for a further depreciating move.  "
6,EUR/USD New York Price Forecast: Triangle consolidation could be on the cards,  
7,GBP/USD Forecast: Hard-Brexit fears sent the Pound nosediving,"The Sterling Pound was the worst performer against the greenback this Monday, with the GBP/USD pair plummeting to 1.2989, down over 200 pips in the day. The slide came with comments from UK PM Boris Johnson, who stated that the kingdom does not need for “a free trade agreement to involve accepting EU rules on competition policy, subsidies, social protection, the environment or anything similar, any more than the EU should be obliged to accept UK rules.""  Johnson added that the UK wants a comprehensive free trade agreement like Canada's one.His words spurred concerns about a hard-Brexit, later fueled by words from EU’s Chief Brexit Negotiator, Michel Barnier, who said that they will defend the interests of EU citizens and business, adding that the EU is preparing for all options, “including a no-deal by year-end.” The market ignored the January Markit Manufacturing PMI, which came in at 50, better than the expected 49.8. On Tuesday, the UK will release the January Markit Construction PMI, foresee at 46.6 from 44.4 in December.The GBP/USD pair is struggling with the 1.3000 level after trading as low as 1.2989. The sharp retracement from a relevant Fibonacci resistance at 1.3210, the 50% retracement of its latest daily slump, skews the risk to the downside. In the 4-hour chart, the pair collapsed below all of its moving averages, which anyway remain directionless and confined to a tight range. Technical indicators head sharply lower, entering negative ground and coming straight from overbought levels, indicating substantial selling interest.Support levels: 1.2980 1.2945 1.2900Resistance levels: 1.3035 1.3070 1.3110View Live Chart for the GBP/USD"
8,AUD/USD hovers around 0.6690 ahead of RBA interest rate decision,"AUD/USD seesaws near 0.6690 at the start of Tuesday’s Asian session. The Aussie pair struggles around the yearly lows, clubbed between the recovery of the market’s risk-tone and the greenback, with all eyes on the Reserve Bank of Australia’s (RBA) interest rate decision.The US ISM Manufacturing PMI crossed 50.00 mark for the first time in six months while also surpassing 48.5 forecast during January. Even if the data doesn’t take full accounts of coronavirus impact, it managed to help the USD recover some of its latest losses. Additionally, the US Markit Manufacturing PMI for January also rose beyond 51.7 forecast and prior to 51.9, offering an extra leg-up to the US currency.The fear of China’s coronavirus outbreak remains on the cards as China's President Xi Jinping said, on Monday, that their most important task at the moment is the control of the coronavirus. The number of infected people reached close to 15,000 while the death toll rose beyond 350 globally. To avoid being a victim, global peers went on to cutting their trade/travel connection to China. However, the World Health Organization’s (WHO) Chief, Dr. Tedros, reiterated that there’s no need for measures that unnecessarily interfere with international travel and trade.The full markets return couldn’t do much harm to the rest of the equities except for China that lost more than 7% on the first day of trading since January 23. Also, the US 10-year and 2-year treasury yields, mostly known as the market’s risk-barometers, remain largely unchanged near 1.53% and 1.35% respectively.Considering the recently mixed picture of economics at home, the RBA isn’t expected to alter the current monetary policy, leaving the benchmark interest rate at 0.75%. However, the Australian central bank’s rate statement will be closely observed to predict the future course of action as underlying sentiment are still bearish and opt for rate cuts during the year.The recent shift in Aussie employment data and inflation numbers pushed TD Securities to change their imminent rate cut calls as they said, “We are looking for an on-hold decision and think the same is likely at their March meeting. Previously, we had anticipated the RBA cutting the cash rate next month. This view was based predominantly on domestic fundamentals, but the tone of data turned more positive since late last year. Our expectation for a dovish hold this week could certainly see AUDUSD test this low. Beyond that, however, we think the AUD has a lot of bad news in its price. That said, we prefer to be careful and selective in leaning against the market's pervasive AUD bearishness.”Read: RBA Preview: Imminent cut expectations to weigh heavily on AUDIt should also be noted that the US Factory Orders for December, expected +1.1% versus -0.7% prior, could entertain traders after the RBA. Though, one shouldn’t ignore news from China in any case.FXStreet’s Ross J Burland marks the AUD/USD pair’s nearness to the key supports as an important catalyst to watch for action surrounding the RBA:AUD/USD has dropped almost 5% since the start of the year and has moved to the lowest level since October 2019, a critical support structure that could make or break the pair for weeks ahead. The prior supports have not held up and there have been no long set-ups signaled on the four-hour charts while bears have been in control all the way, bar the occasional correction on glimmers of hope from Australian data ahead of the Reserve Bank of Australia this week.   "
9,"UK Final Manufacturing PMI rises to 50.0 in Jan, Cable off the lows","The UK manufacturing sector activity entered the neutral territory in the month of January, the final report from IHS Markit showed this Monday. The seasonally adjusted IHS Markit/CIPS UK Manufacturing Purchasing Managers’ Index (PMI) was revised higher to 50.0 in January versus 49.8 expected and a nine-month high of 49.8 – January’s first reading.New orders, employment and business confidence rise.New export orders fall for third consecutive month.“The start of 2020 saw the performance of the UK manufacturing sector stabilize, as receding levels of political uncertainty following the general election aided mild recoveries in new order intakes, employment and business confidence.”“A strengthened domestic market was the main source of new business. Overseas demand remained disappointing, however, as new export business fell for the third straight month in response to weak economic growth in key markets, notably European.”The GBP bears take a breather after the upward revision to the UK Manufacturing PMI for January, as GBP/USD attempts a bounce from daily lows of 1.3097. At the press time, Cable trades at 1.3106, still down -0.70% amid uncertainty over the post-Brexit EU-UK trade deal."
10,GBP/USD bears testing bull's commitments at 1.30 psychological figure,"GBP/USD is trading at 1.2997 between a rang of 1.2989 and 1.3183, falling heavily through sell-stop liquidity again as investors settle down and ponder on what Brexit trade negotiation risks await them for the year ahead. Additionally, the US dollar extended gains after ISM Manufacturing PMI beat with 50.9, way above 48.5 expected and putting the industrial sector back into the green. GBP/USD got a boost from, a) promising PMIs on the 24th Jan, albeit with a composite number still below the preferred 52, b) a hawkish surprise lean from the Bank of England and c) relief that the UK has finally left the European Union after many years of conjecture in the markets. The trigger for today’s drop was politically motivated. ""UK PM Johnson and EU Chief negotiator Barnier have been laying out their stalls ahead of the forthcoming UK/EU future relationship talks and the signals suggest that those talks could be testy,"" analysts at Rabobank explained, seeing risk of cable trading below the 1.30 level on a 1 and 3-month view as the talks progress.GBP is likely to remain vulnerable until businesses get a sense of where the negotiations are leading. Media will be all over each and every twist and turn. So, for those who banked on a firm pound purely on the basis that, perhaps, because the Bank of England vote was once again 7-2, despite what seemed like a more dovish tone from BoE speakers since the start of the year, or considering there wasn't a single additional vote for a rate cut compared to November and December, have been hung out to dry and will need to reconsider their outlooks. The forward guidance from the MPC's statement was also little changed from December, citing two-way risks for policy rates, however, business sentiment will depend hugely on how the trade talks go. On an encouraging note for GBP investors, the FT has reported that Nissan may pull out of mainland Europe and double down on the UK production if Brexit leads to tariffs on car exports. ""The company’s official policy, however, is that its entire business in the UK and the EU would not be sustainable in the event of WTO tariffs,"" analysts at Rabobank added: ""It is clear that for thousands of business across the UK and Europe, there is a lot riding on the outcome of the UK/EU future arrangement talks. Until more clarity emerges we expect GBP to be vulnerable.""  "
11,GBP/USD Outlook: fresh weakness signals false break above daily cloud,"Cable opened with gap-lower and extended pullback on Monday, signaling that Friday’s probe above daily cloud top after impressive rally (0.83%), was a false break.
Initial optimism after the Britain officially exited the EU, started to fade and drained demand.
The price action of past two weeks remains within daily cloud and lacking direction after cloud boundaries repeatedly contained attack, however, the cloud is narrowing and will twist on Wednesday, losing its significance.
Daily studies remain mixed (MA’s in positive setup and stochastic heading north are conflicted by fading bullish momentum and falling RSI) and lack clearer direction signal.
On the other side, negative signal is developing on monthly chart after the action in Dec was strongly rejected at the base of thick monthly Ichimoku cloud and January’s trading ended in Hanging man candle, adding to reversal signals after strong four-month uptrend showed signs of stall, weighed by massive monthly cloud.
Fresh weakness today probes below daily Kijun-sen (1.3119) and eyes pivotal supports at 1.3092/85 (daily Tenkan-sen / cloud base) with close below here expected to generate fresh negative signal and risk further easing towards psychological 1.30 support  and a higher base at 1.2975 zone (30/20 Jan lows).
Only firm break above 1.3200 zone would bring bulls in play and shift near-term focus higher.Res: 1.3138; 1.3166; 1.3183; 1.3209
Sup: 1.3092; 1.3085; 1.3066; 1.3032  "
12,USD/INR: Rupee weakness to ensue – MUFG,"Analysts at MUFG Bank, see the USD/INR pair trading in the 68.00/76.00 range during the first quarter. They forecast the pair at 72.75 but the second quarter and at 73.50 by the fourth quarter. “Indian rupee weakness in January was mainly driven by risk aversion stemming from the coronavirus outbreak, which accelerated after US-Iran tensions ebbed. With the spread of the coronavirus weighing on risk sentiment in the coming months, it would impinge the rupee. This is on top of other domestic factors which are potentially rupee negative such as fiscal slippage, slow growth, ongoing financial sector problems and negative real yields. In favour of boosting the ailing economy, the government has allowed fiscal slippage, with FY19/20’s fiscal deficit up by 50bps to 3.8% of GDP, and FY20/21’s target was revised much higher from 3.0% set out in its long term plan to 3.5%.”“Real yields have already turned negative since November 2019. The acceleration in headline CPI to 7.35% y/y in December pushed real yields deeper into negative territory. India is currently the only country within the ASEAN+India region to have a negative real yield. We doubt that the move to raise the foreign portfolio investor short-term debt limit to 30% from 20% would help stave those outflows in the coming months during this period of risk aversion.”“In view of the recent spike in inflation, the RBI is unlikely to cut rates again at the upcoming meeting on 6th February. Operation twists, conducted by buying long term bonds and selling short term bonds of the same amount in a bid to lower interest rates at the long end, may be the more probable policy move.”"
13,Waiting for positive news – Rabobank,"According to Piotr Matys, Senior Emerging Markets FX Strategist at Rabobank, the big sell-off in China after the local markets reopened following the extended Lunar New Year holidays had limited impact on the CEEMEA currencies as it was widely anticipated.“We remain of the view that it is too early to abandon a cautious approach towards risky EM assets as there is no sufficient evidence yet (despite various measures being implemented) that the deadly virus has been contained. The death toll now exceeds 360 and total confirmed cases of infection have risen sharply to almost 17,400. It is worth noting that the coronavirus is spreading much faster than the SARS outbreak in 2003. The Philippines confirmed the first dead from the virus outside China. Tension between the US and China may resurface after Beijing accused Washington for “overreacting” to the outbreak.”“The South African rand and the Russian ruble have been the most affected so far as both currencies suffered from the sharp fall in commodities. The Bloomberg Commodity Index plunged to the lowest level since early 2016 on the back of escalating concerns about a much lower demand from China – at least in Q1.”“After rising sharply last week, USD/RUB may consolidate its gains at current levels ahead of another leg higher towards the December high at 64.4880 (Figure 2). A sharp pullback below the 63.1057 (an important pivot) would dent the bullish bias.”“The ruble has not weakened sufficiently for the Bank of Russia to be seriously concerned about potential inflationary consequences. We therefore expect Governor Nabiullina to trim the policy rate by 25bps to 6.00% at the first meeting this year scheduled on Friday.”"
14,"The Currency Market, H15, GBP and Interest Rates","Federal funds (effective) 1 2 3 1.55 1.55 1.55 1.55 1.60Commercial Paper 3 4 5 6 1-month 1.57 1.54 1.54 1.56 1.572-month 1.53 1.56 1.56 1.55 1.553-month 1.55 1.57 1.57 1.56 1.55Financial1-month 1.55 1.56 1.54 1.54 1.602-month n.a. n.a. n.a. n.a. n.a.3-month 1.61 1.65 1.58 1.58 1.63Bank prime loan 2 3 7 4.75 4.75 4.75 4.75 4.75Discount window primary credit 2 8 2.25 2.25 2.25 2.25 2.25 Treasury bills (secondary market) 3 44-week 1.51 1.50 1.50 1.49 1.563-month 1.51 1.52 1.54 1.53 1.546-month 1.51 1.53 1.54 1.53 1.531-year 1.51 1.50 1.49 1.47 1.44 Nominal 91-month 1.54 1.53 1.53 1.52 1.593-month 1.54 1.55 1.57 1.56 1.576-month 1.55 1.57 1.58 1.57 1.571-year 1.55 1.53 1.53 1.51 1.482-year 1.49 1.44 1.45 1.42 1.413-year 1.48 1.41 1.45 1.39 1.375-year 1.51 1.44 1.47 1.41 1.397-year 1.61 1.52 1.56 1.51 1.4910-year 1.70 1.61 1.65 1.60 1.5720-year 2.00 1.91 1.95 1.89 1.8830-year 2.14 2.05 2.10 2.05 2.04Fed Funds on Thursday jumped an abnormal 5 basis points from 1.55 to 1.60. Last time an exorbitant move to this degree traded was Oct 16. Why 5 basis points is unusual and from Fed Funds directly is because central banks redesigned their own interest rate systems due to Libor elimination.The new focus for all central banks is to maintain Fed Funds and central bank overnight rates contained within tiny ranges over long periods until a change in headline interest rates. Fed Funds for example since Oct 30, traded 1.54 to 1.58 and closed at 1.55 for 48 days vs 60 trade days.By enforcing no movement to overnight rates allows interest rate maturities to not only trade below overnight rates but interest rate maturities must perform the daily and necessary interest rate obligations.Prior to central bank interest rate redesign, interest rate maturities dictated to overnight rates and overnight rates would comply by trading in wider ranges. Central banks turned the prior system upside down in a new dictatorial approach to interest rate markets. Control the interest rates then commands ability to control all market prices including and most especially FX as market prices and interest rates are synonymous as drivers to prices, trends and movements.The 5 basis point move Thursday lasted into Friday and explains higher moves to GBP, EUR and risk pairs and the massive drops to USD currencies. Thursday’s moves however severely disrupted the weekly balance to currency prices as GBP skyrocketed from deep overbought to extremes, AUD and USD pairs dropped to extremes from deep oversold. Despite the moves, the trades were untouchable. Pick any currency pair and it opens this week in extremes.The GBP reverses today  are the direct  result of 1.60 and its retracement."
15,Wall Street Close: Benchmarks recovering from coronavirus blues,"US benchmarks were trying to recover and pull themselves out from the coronavirus sickbed following a rout in China as traders returned from the prolonged holidays to face a barrage of stimulus measures from the Chinese authorities seeking to stimulate an ill economy. However, the optimism lived on Wall Street and we saw subsequent gains across the board, albeit below session highs for all three benchmarks.The Dow Jones Industrial Average, or DJIA, added 143.78 points, or 0.5%, to end t 28,399.80, while the S&P 500 index put up 23.40 points, or 0.7%, to close at 3,248.92. The Nasdaq Composite Index also moved higher, adding 122.47 points to 9,273.40, a gain of 1.3%. The performances were valiant and were a far cry from Friday's washout where the DJIA lost 603.41 points, or 2.1%, while the S&P 500 dropped 1.8% and the Nasdaq Composite gave up 1.6%.Forex Today: China's 'band-aid' efforts offset coronavirus led stocks crash; PMIs in focusIt was a bit of a blood bath overnight with China returning. Yohay Elam, Senior Editor and Analyst at FXstreet update us on the Coronavirus news as follows:Coronavirus news: The number of official cases has topped 17,000, and the death toll is around 360. The first death outside China has been reported, and additional airlines have limited flights to the mainland. Testing kits have improved, and medicine used for HIV may help in curing the virus. The worst is probably still ahead. 
Coronavirus market response: Chinese markets have reopened after the New Year's holiday with a sharp downfall, carrying down prices of metals. The People's Bank of China cut interest rates Meanwhile, European and US data were positive again. For Wall Street, the bulls were impressed with the outcome of the January ISM beat expectations, printing above 50 for the first time in six months.""The index rose to 50.9 vs 47.8. New orders rose 4.4 pts to 52.0, prices paid firmed (53.3 vs 51.7) and employment also lifted a touch (46.6 vs 45.2). Export orders surged to 53.3 vs 47.3, the highest reading since September 2018, showing significant relief at the Phase One trade deal,"" analysts at ANZ Bank explained.However, the analysts at ANZ warn that the measures taken in China to contain the novel coronavirus are expected to weigh on demand, making it difficult for China to meet its Phase One purchasing targets. ""The agreement does, however, include a clause that the two sides will consult in the event that a natural disaster or other unforeseeable event delays compliance. Chinese officials are reportedly hopeful that the US will agree to some flexibility.""    "
16,UK PM Johnson: We want thriving trade and economic partnership with EU,"The UK is not undermining the EU standards and wants to have a thriving trade and economic partnership with the EU, British Prime Minister Boris Johnson said on Monday.""We will not engage in a cut-throat race to the bottom, we will not engage in dumping,"" Johnson added. ""We will not insist the EU does everything we do, as price for free trade.""These comments don't seem to be helping the British pound stage a recovery. As of writing, the GBP/USD pair was down 1% on the day at 1.3065."
