,title,text
0,When is the US monthly jobs report (NFP) and how could it affect EUR/USD?,"Friday's US economic docket highlights the release of the closely watched US monthly jobs data, popularly known as nonfarm payrolls (NFP). The report is scheduled to be released at 12:30GMT and the headline NFP is expected to show that the US economy lost another 8 million jobs in May as compared to the previous month's disastrous loss of 20.5 million jobs. Meanwhile, the unemployment rate is expected to surge to 19.8%, a new post World War Two record.The data will underscore the economic meltdown caused by the coronavirus pandemic. However, the fact that layoffs eased considerably in May might fuel hopes that the worst was over. This, in turn, would further boost the already upbeat market mood, which might do little to provide any meaningful respite to the US dollar bulls.Meanwhile, Yohay Elam, Analyst Forex Crunch offered a brief technical outlook for the EUR/USD pair: “The Relative Strength Index on both the daily chart and the four-hour one is above 70 – pointing to overbought conditions. That implies a correction. Other indicators such as momentum remain positive.""Yohay also provided important technical levels to trade the major: “The daily and 11-week high is 1.1383, which may serve as immediate resistance. Further above, 1.1410 was a temporary cap in March and is the next line to watch. The peak in that turbulent month of 1.1495 is the upside target. The daily low 1.1325 is the first support line. It is followed by 1.1255, which held EUR/USD down on Thursday, just before the surge. It is followed by 1.12 and 1.1150.”US Non-Farm Payrolls May Preview: Context is everythingNonfarm Payrolls Preview: Economic reopenings’ hopes to overshadow sluggish old numbersEUR/USD Forecast: Overbought, so what? ECB fuel rally, Non-Farm Payrolls critical for next moveThe nonfarm payrolls released by the US Department of Labor presents the number of new jobs created during the previous month, in all non-agricultural business. The monthly changes in payrolls can be extremely volatile, due to its high relation with economic policy decisions made by the Central Bank. The number is also subject to strong reviews in the upcoming months, and those reviews also tend to trigger volatility in the forex board. Generally speaking, a high reading is seen as positive (or bullish) for the USD, while a low reading is seen as negative (or bearish), although previous months reviews and the unemployment rate are as relevant as the headline figure, and therefore the reaction depends on how the market asses them all."
1,"EUR/USD: ECB propels the euro, NFP crucial for next move","The European Central Bank's additional monetary stimulus has sent EUR/USD to the highest levels since mid-March. US Nonfarm Payrolls are critical to the next move, Yohay Elam, an analyst at FXStreet, reports.Don’t miss: Ten major banks expectations for NFP May report“The ECB exceeded expectations by expanding its Pandemic Emergency Purchase Program (PEPP) by €600 billion to a total of €1.35 trillion.”“Christine Lagarde, President of the ECB, said there was a unanimous agreement that action needed to be taken amid the coronavirus carnage. The bank staff's updated forecasts point to a loss of 8.7% in output this year. Fears of deflation were also part of the mix.”“Investors are sensing that Europe is finally getting its act together, ditching past austerity and debt concerns in favor of boosting growth.” “Economists foresee a loss of eight million jobs in the worst largest economy in May, with the unemployment rate nearing 20%. Wage growth is projected to remain high as many low-earners have lost their jobs – 40% of those earning below $40,000, according to a recent comment by the Fed.”"
2,EUR/USD shines at summer highs after ECB presses the stimulus button [Video],"EURUSD extended Thursday’s rocket rally to a fresh three-month high of 1.1376 after the ECB pushed the stimulus button more strongly than expected and is now set to claim its third consecutive weekly gain.In the short run, the bulls could remain in charge, but it seems that there are a few key obstacles which they need to clear first to confirm another smooth winning race. Particularly, they should close comfortably above the 200 simple moving average (SMA) at 1.1335 in the weekly chart, which managed to press the March rally and drive the price back to the 1.1100 territory (look at the weekly timeframe). A trendline connecting the troughs and the bottoms from the 1.0878 low is also in the neighborhood, adding more importance to the region.Then, a break above the 38.2% Fibonacci retracement level of the long-term 1.2554-1.0635 bearish wave, at 1.1370, could spark a new positive outbreak, bringing the key 1.1445 resistance next into scope. Above the 1.1495 peak, the pair would switch its 2020 neutral profileto a bullish one, opening the door for the with the 50% Fibonacci of 1.1595..In the negative scenario where the pair fails to hold above 1.1335, confirming the overbought signals the RSI and the stochastics are sending, the 1.1285 barrier could come to the rescue ahead of the 1.1230 support number. A dive below 1.1140 and the red Tenkan-sen line would put the market back to in the pevious range zone.Summarizing, EURUSD could attract additional buying interest in the short-term if it manages to hold gains above the 1.1335-1.1370 area. "
3,EUR/USD Forecast: Hopes overshadow it all,"It was a tough week for the greenback, and safe havens in general, as the market moved past the coronavirus pandemic, despite it’s far from over. Economic reopenings in the Union without signs of a re-escalation in contagions or deaths awakened appetite for riskier assets, amid hopes for economic recoveries.  The ECB’s decision to expand its stimulus program further underpinned high yieldings.The European Central Bank expanded its Pandemic Emergency Purchase Program by €600 billion to a total of €1,350 billion. “Unprecedented contraction,” according to President’s Lagarde, was the main reason behind the decision, as the coronavirus crisis has worsened inflation and growth outlooks. The horizon for net purchases under the PEPP will be extended to at least the end of June 2021, or until the Governing Council judges that the crisis is over. Policymakers expected real GDP to fall by 8.7% this year, and rebound by 5.2% in 2021. As per inflation, it was downwardly revised to 0.3% this year, and to 0.8% for the next one.Also, Germany announced a €130 billion stimulus package to boost the local economy. The package includes several measures, including the main value-added tax rate cut from 19% to 16% and the reduced rate from 7% to 5% for six months, starting 1 July. Municipalities in debt are to receive financial aid from the federal government, families will receive  €300 for each child, and those who purchase electric cars will get a government rebate. The country is determined to uplift consumption spending.Meanwhile, in the US the focus also shifted away from the pandemic, but for the wrong reasons. The death of a black citizen in the hands of a policy officer unwound unrest throughout the country. Protests turned into riots and looting, and US President Trump threatened to send the military to put a halt to the chaos. Things cooled down as the week went by, although tensions remain.  On a positive note, the New York state confirmed there were no coronavirus deaths in the last 24 hours for the first time since early March. The situation, however, is uneven as Florida reported a large increase in cases. Still, the news is encouraging towards economic reopenings.A shockingly positive US Nonfarm Payroll report had a limited impact on the pair. According to it, the US added 2.5 million jobs in May, against expectations of -8 million. The unemployment rate surged to 13.3%, much better than the 19.8% expected while the Labor Force Participation Rate increased to 60.8%.  Wall Street soared with the headline, lending support to the high-yielding EUR.With speculative interest fully concentrated in economic recoveries, data from these last few months have been pretty much ignored. Markit reported the final versions of its May Services PMIs and Manufacturing PMIs for the Union and the US, which bounced from record lows, although continued to signal a steep economic contraction.  Those indicators related to industrial activity and sales came in slightly better than anticipated but showing sharp falls amid the stalemate related to lockdowns.  Hopes are that a bounce may start in the third quarter of the year, which means that negative figures will be taken with a lighter tone, while any sign of economic recovery will surely boost sentiment.The upcoming week start with the EU June Sentix Investor Confidence, foreseen at -56.3 from -41.8 previously, and the final reading of the Q1  Gross Domestic Product for the Union, expected to be confirmed at -3.8%.  By the end of the week, the US will publish the preliminary estimate of the Michigan Consumer Sentiment Index, seen bouncing from 72.3 to 75.The macroeconomic calendar includes German Industrial Production and Trade Balance, but for April, which means that the figures will get little attention. The US will unveil May inflation data, and the usual weekly unemployment figures and their impact on price action could also be overshadowed by sentiment.The EUR/USD pair trades above the 1.1300 level, up for a third consecutive week and at levels last seen three months ago. The weekly chart shows that it has surpassed its 100 SMA for the first time since October 2018, although the rally stalled at around the 200 SMA. Technical indicators have reached yearly highs, holding nearby with uneven strength.In the daily chart, the pair is marginally lower after advancing for eight straight days, but posted yet another higher high and a higher low, in line with a bullish extension. The 20 DMA heads firmly north above the 100 DMA and nearing the 200 DMA, with a break above this last confirming further long-term gains. Technical indicators, in the meantime, ease within overbought readings, rather reflecting the ongoing correction than suggesting an upcoming decline.The pair hit 1.1383 this Friday, the level to surpass to see it extending its gains to 1.1460 a long term static resistance level. A break beyond this last will take more than just upbeat market mood, and if the level is reached, it could be a nice inflexion point from where speculative interest could take profits to a larger extent.The 1.1240 price zone is the first relevant support ahead of 1.1160. If the pair losses this last, it would mean that the corrective decline is already underway and that the pair may approach the 1.1000 level.The FXStreet Forecast Poll indicates that investors were not expecting the latest advance. The sentiment is bearish in all the time-frame under study, with an average target of 1.1300 for the weekly perspective, and the pair seen returning to 1.10 in the longer run. In the monthly and quarterly views, over 70% of the polled experts see the pair falling.The moving averages in the Overview chart show that the bullish momentum fades as time goes by, but the larger one is flat, rather a sign of caution than an indicator of upward exhaustion. The latest bullish breakout catch many off guard. A clearer picture will likely surge next week.Gold Price Forecast: The tide turned alongside sentimentGBP/USD Forecast: After the big breakout, Boris' Brexit move, UK GDP, and the Fed are keysAUD/USD Forecast: Is the highest in a year at reach? Fed, relations with China and COVID stats eyed"
4,"Forex technical analysis and forecast: Majors, equities and commodities","After finishing the correction at 1.1192, EURUSD continues moving upwards to reach 1.1360; right now, it is consolidating above 1.1310. Possibly, the pair may break the range to the upside and reach 1.1380 or even extend this wave up to 1.1412. After that, the instrument may resume trading downwards with the target at 1.1287. After breaking 1.2568 to the upside, GBPUSD is expected to trade upwards and reach 1.2650. After that, the instrument may start a new decline to return to 1.2568, thus forming a new consolidation range between these two levels. If later the price breaks the range to the upside, the market may grow to reach 1.2780; if to the downside – resume trading downwards. USD/RUB is finishing the correction at 69.60. Later, the market may resume trading inside the downtrend with the target at 67.80. After completing the correction at 108.70, USDJPY is growing to break 109.14 to the upside. Possibly, the pair may reach 109.70 and then start another decline towards 108.12. After finishing the descending wave at 0.9550, USDCHF is consolidating near the lows. If later the price breaks the range to the upside at 0.9565, the market may grow to reach 0.9590; if to the downside at 0.9545 – resume trading downwards with the target at 0.9525. After breaking 0.6934 to the upside, AUDUSD is expected to continue growing towards 0.7014. Later, the market may fall to break 0.6934 and then form a new descending structure with the target at 0.6868. After breaking 40.00, Brent is expected to continue growing towards 41.00. After that, the instrument may correct to reach 38.70 and then resume trading upwards with the target at 45.50. After finishing the ascending wave at 1720.40, Gold is moving downwards to reach 1704.60. Later, the market may break it and then continue trading downwards with the target at 1690.30. BTC/USD has finished the ascending structure at 9700.00. Today, the pair may continue trading upwards towards 10000.00 and then start another decline with the first target at 9000.00. The Index has completed the correctional wave at 3094.0; right now, it is moving upwards. Possibly, today the asset may break 3133.3 and reach the next target at 3167.2. After that, the instrument may start consolidating close to the highs."
5,Nonfarm Payrolls Preview: Upbeat reading to confirm loss of USD risk-premium,"Payrolls are expected to fall by 8 million in May while the Unemployment Rate is predicted to soar to 19.8%. Figures to confirm the US dollar capitulation to all of its panic-induced risk-premium, Joseph Trevisani, an analyst at FXStreet, reports.Don't miss: Ten major banks expectations for NFP May report“Nonfarm payrolls shed 20.5 million positions in April, over the last 11 weeks 43 million Americans have filed for unemployment insurance. From a market perspective the expected 8 million loss to May payrolls is old data.”“The unemployment rate is forecast to jump to 19.8% in May, which would be the highest since the 1938 recession but just barely since the peak that June was 20%.”“Unless the May NFP numbers are much worse than expected markets will not be moved by one more addition to the long tale of dismal statistics.” “If the payrolls are better than predicted reflecting the same improvement as the ADP figures it will confirm the existing market opinion that the economy has put the worst behind it, ratifying the current trends in equities, bonds and currencies.”“Over the past three weeks the US has lost all its pandemic risk-premium and is back to pre-crisis levels against all of the major pairs. Markets are not quite ready to resume a comparison of economic activity that will probably take until the second quarter is over, but, if the pandemic continues to recede it is next on the agenda.” "
6,Daily technical and trading outlook - EUR/USD,"Last Update At 05 Jun 2020 00:14GMTTrend Daily Chart
UpDaily Indicators
Rising21 HR EMA
1.129855 HR EMA
1.1246Trend Hourly Chart
UpHourly Indicators
Easing fm o/bot13 HR RSI
6814 HR DMI
+veDaily Analysis
Resumption of recent upmoveResistance
1.1458 - Mar 10 high
1.1389 - 50% proj. of 1.0871-1.1257 fm 1.1196
1.1361 - Thur's fresh 2-1/2 month highSupport
1.1313 - Hourly chart
1.1257 - Wed's high (now sup)
1.1196 - Thur's lowEUR/USD - 1.1338.. Although euro remained on the back foot in Asia Thur due to profit taking ahead of ECB's policy meeting, price fell to 1.1196 (Europe) b4 jumping to 1.1272 after ECB increased its asset purchase prog., then 1.1361.On the bigger picture, despite euro's LT upmove fm 2017 near 14-year low of 1.0341 to a fresh 3-year peak of 1.2555 in mid-Feb 2018, subsequent selloff to as low as 1.0778 in mid-Feb 2020 signals said impressive rise has ended. Although price staged a surprise rally to a 13-month high at 1.1494 in early part of Mar, euro's selloff to a near 3-year low of 1.0637 the same month n then a swift rise to 1.1147 suggests LT fall fm 1.2555 has made a low there. This week's rally abv 1.1147 after 2-months of choppy swings confirms said upmove has once resumed n price is en route twd 1.1370 (38.2% r of 1.2555-1.0637), a weekly close abv there would head twd 1.1494 in Jul/Aug. Only below 1.1000 risks 1.0871, 1.0728.Thur's impressive rally fm 1.1196 to a fresh 2-1/2 month high of 1.1361 suggests MT upmove fm 1.0637 is en route to re-test 2020 peak at 1.1494 (Mar) next week. Today, reckon upside is ltd to 1.1400/10 due to o/bot readings on hourly indicators n only below 1.1300 signals temp. top, 1.1257, 1.1200/10."
7,EUR/USD analysis: Jumped to 1.1350,"On Thursday, the EUR/USD currency pair jumped to the 1.1350 level. During today's morning, the pair tested the monthly R2 at 1.1385.On the one hand, it is likely that some downside potential could prevail in the market. In this case the exchange rate could decline to the support area formed by the 55– and 100-hour SMAs, as well the weekly and monthly S1, the Fibo 38.20% in the 1.1200/1.1265 area.Meanwhile, note that the rate could gain support from the weekly R2 at the 1.1216 mark. It is likely that the rate could get squeezed by the given level and the monthly R2, thus, trade sideways in the short run."
8,EUR/USD outlook: Bulls eye 2020 high after taking out the last barrier; US jobs data in focus,"The Euro continues to trend higher, extending steep uptrend into ninth consecutive day and hit new nearly three month high at 1.1383 in early European trading on Friday.
ECB’s decision to increase  bond-buying program for additional 600 billion Euros further boosted the single currency, already inflated by dollar’s strong fall that resulted in nearly 1% rally on Thursday.
Bulls ignored terrible data this morning which showed record fall in German factory orders in May and for now also ignore overbought daily studies, as Thursday’s long bullish candle and signal on close above Fibo barrier at 1.1292 (76.4% of 1.1494/1.0635) underpin the action.
Also, bulls today broke above 200WMA (1.1333) and weekly close above would add to bullish signals.
Key barrier at 1.1494 (2020 high, posted on 9 Mar) comes in focus, as bulls cleared the last obstacle on the way.
US NFP data is key event today and could further deflate dollar and boost Euro as US unemployment is expected to rise to a record near 20% in May, average earnings to rise 1.0% in May compared to 4.7% April, while non-farm payrolls are expected to show that 8 million people lost their jobs in May, after record drop to over 20 million in April.
Weaker than forecasted US jobs data would further pressure the greenback and push Euro towards its target.
On the other side, positive surprise may deflate Euro’s bulls, which could, accompanied with end-of-week profit-taking, push the price lower.
Broken 200WMA (1.1333) marks immediate support, ahead of weekly cloud top (1.1224) which is expected to hold extended dips and keep bulls in play.Res: 1.1383; 1.1400; 1.1457; 1.1494
Sup: 1.1333; 1.1292; 1.1244; 1.1224  "
9,GBPJPY: Possible setback at this Fibo level - FXStreet Signals,"Concerning our GBPJPY long (ID 44418490), this is a trend-following signal, entered approximately 100 pips below current prices at 137.03. Should this pair change course, it would easily erase our gains. We see support at 137.20 and then again an ascending support 136.50. The cross just reacted to its 61.8% Fibonacci retracement, where the potential for a change in trend increases. A sustained break above would open the doors for a ride along the upper channer border, and eventually meet the next Fibo level at 142.80. A reversal and loss of the 50% Fibo would invite for a serious down move. We expect to see important gyrations in JPY pairs in the near future. For more info on the FXStreet Signals service click here."
10,"USD/CAD prices solid Canada employment data, targets 1.38 – TDS","The Canadian labour market defied expectations and added back 289k jobs in May. Economists at TD Securities think USD/CAD is basing out mostly since it already front-loaded the data and set the initial target at 1.38, per TD Securities.“The Canadian labour market added back 289k jobs in May for the first signs of life since COVID-19 shut down large parts of the economy. Hours worked rose at a faster rate than total employment with a 6.3% m/m increase. The unemployment rate drifted higher to 13.7% (TD: 13.5%, market: 15.0%), but this was driven by higher participation.”“With risk assets, like CAD, already front-running some of the shift in the data, we don't expect USD/CAD to march much lower from here. On risk and global growth dynamics, USD/CAD still looks cheap, implying a move back to 1.38. For USD/CAD, we prefer buying rather than chasing the move lower.”“We expect extremely easy monetary policy to remain in place for the rest of the year, but if April was in fact the low tide mark for the economy, then it suggests that we're not likely to see much more stimulus from either the BoC or the government.” "
11,S&P 500: Second wave of coronavirus to trigger a correction,"Markets have been ignoring growing signs of a second wave and many other adverse developments. S&P 500, which closed yesterday at 3112.85, may experience a correction move, according to FXStreet's analyst Yohay Elam. See: “The rallying cry from President Trump and others may have also unleashed a second wave of coronavirus. Decisions to loosen restrictions have sometimes been based on economic and political considerations rather than health ones. That may backfire – causing worse health and also devastating economic outcomes.”“Jerome Powell, Chairman of the Fed, said the bank ‘crossed red lines’ to help the economy. The Fed's balance sheet ballooned by nearly $3 trillion and some of it went to stocks. Equities have been able to ignore lackluster earnings – already in 2019 – frictions between the US and China, and uncertainty about a path out of the pandemic.”“Closing for the first time causes hardship but also hopes that once after the effort, things will bounce back. However, an ongoing drag may trigger businesses to wave the white flag and declare bankruptcies. Deteriorating sentiment makes a second wave more devastating than the first one. That may eventually catch up with markets.” "
12,"USD/MXN Price Analysis: Another strong week for the Mexican peso, BRL outperforms","The Mexican peso reached on Friday the highest intraday level against the US dollar since mid-March and then pulled back modestly. USD/MXN managed to hold above 21.50 and near the end of the week is trading at 21.65, on its way to the lowest close in almost three months.The pair weakened on the back of risk appetite. Global markets received another boost with US employment data, that came in above expectations. The surprise in jobs numbers was so big that it finally moved markets.Emerging market currencies are extending weekly gains on Friday. The best performer is the Brazilian real, up by more than 6% against the US dollar from a week ago. Next in line is the Colombian peso that gained almost 5%. Latin American currencies held onto important gains despite Latin America becoming the epicentre of the coronavirus pandemic.The USD/MXN resumed the downside on Friday but it failed to break under 21.50 that is the new key support. The bearish trend still shows some momentum, although technical indicators are at extreme oversold levels. The 22.00/10 area is the immediate resistance.  "
13,"NFP Quick Analysis: Shocker surge in jobs may trigger a much needed dollar bounce, regardless of stocks","Shocker – but a positive one – America is getting back to work, or at least receiving support while staying at home and remaining officially on the payroll.The Non-Farm Payrolls report for May was initially hard to believe – all those surveyed by Bloomberg and Reuters had foreseen a loss of positions in May and the US gained 2.509 million jobs. The unemployment rate fell to 13.3%, defying expectations for a leap toward 20% – despite a bounce in the unemployment rate.The fall in wages suggests that many low-earners returned to work. Some of those classified as working are at home, yet receiving support from the government via the Paycheck program. The Bureau Labor of Statistics notes discrepancies, but that cannot explain everything. Stocks are rising in response to the good news, but the dollar is rising – that is a breakdown of correlation and has the following expectation.The surprisingly strong jobs report comes ahead of the Federal Reserve's decision next week. The Fed strives to achieve full employment and this labor report is going in the right direction. Therefore, it removes the need for the Fed to act. Without further money printing, the dollar may gain ground.Moreover, it also decreases the odds for further government stimulus. Democrats wanted an additional $3 trillion and Republicans seemed to settle for $1 trillion. That may be scrapped. President Donald Trump has announced he will talk about the labor figures shortly, potentially taking a victory lap.Without further funds, the dollar may rise – and it was long overdue for a correction. The greenback has suffered a losing streak against all currencies for long weeks, and not received the trigger to rise. "
14,US Non-Farm Payrolls Quick Analysis: The complete labor market surprise,"The labor market collapse reversed in May as a totally unexpected gain in employment underlined the resilience of the American economy and the positive impact of the government’s efforts under the $2 trillion Payroll Protection Program to keep people at work.Non-farm payrolls rose by 2.54 million last month, a vast improvement from the 20.5 million who were furloughed in April and less than half the -8 million forecast. Non-farm payrollsFXStreetContinuing unemployment claims had signaled two weeks ago that people might be returning to work when the total receiving unemployment benefits dropped 4.074 million instead of rising 838,000.Private payrolls for May from Automatic Data Processing (ADP), the paycheck preparation giant that covers about one-sixth of the US market, suggested the same when they fell just 2.76 million rather than the 9 million consensus forecast.The unemployment rate, U-3, fell to 13.3% in May from 14.7% in April and 4.4% in March. That 8.9% jump in sixty days of reporting is still the fastest rise in joblessness in US records that go back almost a century.  The highest unemployment in US history was 25.6% in May 1933.The underemployment or U-6 rate, that includes individuals who have looked for work in the past year rather than just the prior month of the traditional U-3 list declined to 21.2% from 22.8%.  Almost 43 million people have filed initial jobless claims, an astonishing 26% of the workforce. In the week of May 22  13% of workers, 21.5 million people, were collecting unemployment benefits.The economic debacle has practically vanished from the equity and currency markets. Dow futures jumped from 280 points before the release to more than 600.  The Dow and S&P have largely erased their pandemic losses with the Dow down 5.92% on the year and the S&P 500 off 2.59% before the market open on Friday.The dollar gained after the release initially rising about 30 points versus the euro  and about 50 against the yen. Over the past three weeks the dollar has surrendered all of its pandemic risk-premium and is trading at pre-crisis level in all the major pairs. Treasury yields spiked following the news with 10-year surging above 0.9%  and the 2-year scaling  0.2%. The economic collapse and the seemingly endless string of negative superlatives in economic statistics from the labor market, retails sales, durables good and soon to come second quarter GDP brought on by the imposed economic shutdowns has upended normal life in the United States.Early concerns that the food supply chain might crack as people hoarded food and transport workers were unavailable to ship produce and goods to markets have proved to be false. Except for a few early instances of stripped supermarkets and distancing regulations food shopping has been unaffected.Even though all states have lifted their shelter-in-place orders, many businesses remain closed and restrictions still limit social gatherings.The states that reopened their economies first, Georgia, Texas and Florida have seen no appreciable rise in coronavirus cases or fatalities but despite those examples states on the coast, California and New York for example remain under modified closure orders with large swatch of their commercial life still closed.    "
15,US Employment Report supports view of a decent rebound in GDP growth in Q3 – Rabobank,"""Today’s Employment Report supports our view that we will see a decent rebound in GDP growth in Q3,"" noted Rabobank analysts.""However, the extreme swings in economic activity that we are now seeing are caused by the lockdown and reopening of the economy, and it will take until Q4 before we see old fashioned – and more muted – demand fluctuations driving GDP growth. Then we will see how strong the recovery really is.""""On June 10, the FOMC is expected to publish its first set of economic projections since the outbreak of Covid-19, after conveniently skipping the March round and leaving it to others to prepare the public for the awful economic data that we have seen.""""In the near-term the Committee is likely to focus on working out its forward guidance on rates and asset purchases. In addition to tweaking its formal statement, the dot plot also gives the FOMC an opportunity to provide forward guidance. Meanwhile, the Board of Governors will continue to expand its special lending facilities."""
16,Crude oil: Prices move higher and further away from fundamental value – Rabobank,"Analysts from Rabobank explain how the crude oil market has been affected by the introduction of more retail traders. The see scope for the WTI-Brent spread to weaken in the weeks ahead as retail buying pressure wains and supply and inventory weigh on oil market sentiment.“Oil markets have been on a euphoric high in recent weeks as retail FOMO (fear of missing out) propels prices higher and further away from fundamental value, as we see it.”“It is worth noting that the surge of capital into oil ETPs has not been evenly distributed between the two most actively traded global oil contracts and an outsized portion of these passive flows have been benchmarked to WTI rather than Brent. This is not necessarily a new trend but the situation has been exacerbated by the sudden surge of retail participation in oil markets which tends to favor the US CME exchange and US benchmark WTI crude oil over the European ICE Brent contract.”“This divergence in flows has also likely played a role in the tightening of the spread between the two crude oils which has historically widened on rallies. Given the retail nature of the WTI buying and the extreme positioning in relative terms, we see scope for the WTI-Brent spread to weaken in the weeks ahead as retail buying pressure wains and supply and inventory weigh on oil market sentiment.”“While we continue to be extremely impressed by the scale and scope of retail oil buying, looking forward, we do see this FOMO bid waning in the coming weeks as regulatory pressures and market forces dampen the excitement around oil prices.”“While the euphoria is strong now, carrying a “long” spot Brent position at $40/bbl plus might begin to feel very expensive and especially if inventories continue to make new highs. Otherwise, retail investors may be left holding the bag.”"
17,"GBP/USD Forecast: Breakout or fakeout? Bulls brush off Brexit and break double top, NFP eyed","How high can cable climb? GBP/USD is rising amid the misery of the US dollar, which is losing its shine as a safe-haven. Markets remain optimistic, shrugging off US protests, Sino-American tensions, and even concerns about a second-wave of coronavirus in the US. Worries about an increase in cases in Florida only triggered a minor dip in stocks and a negligible advance of the dollar. Sterling is surging despite the Brexit gridlock. The current round of talks about future EU-UK relations concludes today and will unlikely result in any breakthrough. Hopes for mutual concessions have faded away but do not deter the pound.Michel Barnier, Brussels' chief negotiator will speak later in the day. According to reports, the bloc has its hopes on a summit between UK Prime Minister Boris Johnson and EU Commission President Ursula von der Leyen later this month. London dismisses this as wishful thinking. Without an accord, Britain will move to the World Trade Organization terms in 2021. The Bank of England called on commercial banks to prepare for such an option, yet without any visible impact on the pound's value so far.Will that change? There is a greater probability that US Non-Farm Payrolls will have a more significant impact on pound/dollar. America probably lost around eight million jobs in May, better than 20.5 million that were shed in April, yet still a devastating figure. The Unemployment Rate is set to rise to nearly 20% from just under 15%.That would be better than the Great Depression peak of 25% but of little comfort. The U-6 Underemployment Rate, which is a wider count, may advance toward that level after topping  20% in April. Average Earnings will likely remain skewed to the upside while participation is set to remain depressed.See:Stocks are rising and the dollar is falling amid the Federal Reserve's ongoing support to markets. Funds are stabilizing the financial system and boosting stocks.Pound/dollar broke above the double-top of 1.2645 which held it down in April. Before making the move, the currency pair found support at the top of the uptrend channel that supported it in May. Another positive sign is that the Relative Strength Index is below 70, outside the overbought territory.The high has been 1.2690, but after a quick retreat, the breakout is still not confirmed. 1.2690 is the first resistance line to watch, and it is followed by levels last seen before coronavirus – 1.2720, 1.2780, 1.2825. Support below 1.2645 is at 1.2575, which provided support in recent days, 1.25, a swing low from this week, and 1.2470, a peak from May.Will race relations rock markets? Election campaign, coronavirus, crippled economy all in the mix"
