,title,text
0,EUR/USD Forecast: Dollar down on worried Fed,"The EUR/USD pair reached a fresh multi-week high of 1.1144, up for the day amid dollar’s persistent weakness, and Fed’s conservative stance. Speculative interest has begun pricing in a delay in a US-China trade deal, while fearing the next round of tariffs scheduled for December 15, will come into effect as planned. Although both sides continue reaffirming they are close to an agreement, they are incapable of offering something material to work with. Furthermore, Chinese negotiators were said to want levies canceled as a pre-condition for continued negotiation of a trade deal.The greenback eased despite November inflation came in slightly better than anticipated, up for the month 0.3% and by 2.1% when compared to November 2018. Underlying inflation remained above 2.% up by 2.3% YoY. The US Federal Reserve, in the meantime, announced its latest monetary policy decision, and as expected, policymakers kept rates on hold. The FOMC funds rate was left at 1.50%-1.75%,  while the dot plot provided little of interest. The accompanying statement showed that policymakers would continue to monitor data for the economic outlook “including global developments and muted inflation pressures.” The dollar shed some additional ground with the news.This Thursday is the ECB’s turn to announce what’s next with monetary. It will be the first meeting presided by Mrs. Christine Lagarde. There are little clues on what she will do, although she promised an in-depth review of the central bank’s policies.The EUR/USD pair is trading at around 1.1135 ahead of the Asian opening at levels last seen early in November. The pair is currently advancing above the 23.6% retracement of its October rally, which skews the risk to the upside. In the 4-hour chart, the pair is developing above all of its moving averages, which anyway are confined to a tight range and lack directional strength. Technical indicators have turned higher within positive levels,  heading firmly north and suggesting additional gains ahead. The advance could continue toward October high at 1.1179. Support levels: 1.1100 1.1065 1.1030  Resistance levels: 1.1145  1.1180 1.1210View Live Chart for the EUR/USD "
1,When is the Fed interest rate decision and how could it affect EUR/USD?,"The Federal Reserve will announce its decision on monetary policy today at 19:00 GMT.   Chairman Jerome Powell will read a statement and will hold a press conference at 19:30 GMT. The Federal Reserve is expected to keep the Fed Funds rate unchanged at the 1.50 - 1.75% range. After cutting interest rate three times in a row, now market participants see no change today and also at the January meeting. Most members of the Federal Open Market Committee (FOMC) mentioned they consider the current stance of policy appropriate. Since the last meeting, global economic indicators stabilized and recession fears in the US eased. Last Friday, the NFP report surpassed expectations significantly and today’s inflation data showed the annual CPI at the highest level in a year. Trade concerns remain critical for uncertainty. The Fed will also release its updated economic projections and Chairman Powell will hold a press conference. “Most will look at the 'dots' for hints about what the Fed thinks about next year. Given the Fed has cut one more time than it thought in September, it will automatically be lowered but we think the Fed will signal it is on hold also next year. Markets are pricing in another cut during 2020”, explained Danske Bank analysts. “For the markets and the US dollar, the key to this FOMC lies in the Projection Materials. Will, the governors, mark down their fed funds estimate for next year to take account of the current 1.75% rate or will they see a brighter future and raise their GDP and rate projections for 2020. This rather straightforward economic analysis will either propel or retard the dollar for the next several weeks,” said Joseph Trevisani, Senior Analyst at FXStreet.The EUR/USD pair is moving with a bullish bias since the beginning of the week. Following Friday’s sell-off, the euro recovered and approached the 1.1100/1.1110 critical resistance area again. If the greenback drops sharply after the FOMC, the pair could rise to test the mentioned level that capped the upside several times in December. A break higher should clear the way to more gains, reinforcing the bullish outlook. The failure of the euro to hold above 1.1100 lead to the correction of the EUR/USD last week. In the case of a decline, immediate support is seen at 1.1065. Below that level, the bearish pressure could increase, favoring a test of the next support at 1.1055. On a wider perspective, the key level on the downside is 1.0990/1.1000: a daily close below would put the US dollar back on the offensive. With a pre-set regularity, a nation's Central Bank has an economic policy meeting, in which board members took different measures, the most relevant one, being the interest rate that it will charge on loans and advances to commercial banks. In the US, the Board of Governors of the Federal Reserve meets​ at intervals of five to eight weeks, in which they announce their latest decisions. A rate hike tends to boost the local currency. A rate cut tends to weaken the local currency. If rates remain unchanged (or the decision is largely discounted), attention turns to the tone of the FOMC statement, and whether the tone is hawkish, or dovish over future developments of inflation.Following the Fed's rate decision, the FOMC releases its statement regarding monetary policy. The statement may influence the volatility of USD and determine a short-term positive or negative trend. A hawkish view is considered as positive, or bullish for the USD, whereas a dovish view is considered as negative, or bearish."
2,"EUR/USD jumps toward 1.1150, hits one-month highs after FOMC meeting","The EUR/USD dropped to 1.1085 before bouncing sharply to the upside, minutes after the Federal Reserve released its decision. Near the end of the American session, it is trading at 1.1140, about to post the highest daily close since early September. A decline of the US dollar across the board and some technical factors triggered the rally of the EUR/USD. From a technical perspective, the break of the 1.1100/10 resistance area added more fuel to the rally. The decline of the greenback took place despite the decision of the Fed and the projections from the FOMC members. Unanimously the Fed decided to keep rates on hold and most members see rates unchanged during next year. “Looking ahead, 13 of 17 committee members expect no change in interest rates in 2020. That is consistent with our view that the Fed will remain on hold throughout next year. Our own GDP growth forecast for 2020 is slightly below the Fed's 2% projection, though we don't think a modest shortfall would be enough for policymakers to lower rates further. As to whether we might see a hike, Chair Powell indicated that he'd need to see a persistent increase in inflation for the Fed to withdraw the stimulus it added this year. That's a fairly high bar that we don't think will be met in 2020”, explained Josh Nye Senior Economist at RBC Economics.The 10-year dropped below 1.80% to the lowest in a week after the meeting and during Powell’s press conference. Wall Street indexes moved modestly higher. The US dollar tumbled, measured by the DXY, dropped to the lowest intraday level since August. If the DXY ends around current levels (97.10) it will post the weakest close since July 18. On Thursday, the Governing Council of the European Central Bank will have its policy meeting, the first of Christine Lagarde. No change in the policy is expected. In the US, the Producer Price Index for November is due.   "
3,When is the US CPI report and how could it affect EUR/USD?,"Wednesday's US economic docket highlights the release of the latest consumer inflation figures, due later during the early North-American session at 13:30GMT. The headline CPI is anticipated to have edged higher by 0.2% MoM in November as compared to a strong reading of 0.4% recorded in the previous month, lifting the yearly rate to 2.0% from 1.8% in October. Meanwhile, core CPI - excluding food and energy costs - is anticipated to have increased by 0.2% MoM, matching previous, and the annual core inflation is also seen holding steady at 2.3%.Barring any knee-jerk reaction, the data seems likely to provide any meaningful impetus to the EUR/USD pair and is likely to be overshadowed by some repositioning trade ahead of the highly anticipated FOMC monetary policy decision, due later during the US session on Wednesday.Meanwhile, Yohay Elam, FXStreet's own analyst provided some important technical levels to trade the major: “EUR/USD has significant support at 1.1059, which is the convergence of the Fibonacci 38.2% one-month, the 50-day Simple Moving Average, the Pivot Point one-day Support 2, the Bollinger Band one-day Middle, and the SMA 100-4h. Looking down, some support awaits at 1.1006, where the previous week's low and the PP one-week Support 1.”“Resistance is closer but weaker. At 1.1090, EUR/USD is mired in a dense cluster of lines, including the Fibonacci 38.2% one-day, the BB 15min-Lower, the Fibonacci 23.6% one-week, the Fibonacci 23.6% one-day, the SMA 5-4h, the BB 15min-Middle, the SMA 50-15m, SMA 5-1h, and more. Further up, 1.1180 is the upside target. It is the confluence of the PP one-week Resistance 2 and the previous month's high.”   •   US Consumer Price Index November Preview: Inflation nostalgia   •   EUR/USD Forecast: Fearful of the Fed and Trump's tariffs after setting a lower high   •   EUR/USD under pressure below 1.1100 ahead of US CPI, FedThe Consumer Price Index released by the US Bureau of Labor Statistics is a measure of price movements by the comparison between the retail prices of a representative shopping basket of goods and services. The purchasing power of USD is dragged down by inflation. The CPI is a key indicator to measure inflation and changes in purchasing trends. Generally speaking, a high reading is seen as positive (or bullish) for the USD, while a low reading is seen as negative (or Bearish)."
4,EUR/USD Forecast: Consolidation continues ahead of the Fed,"The shared currency was unable to extend its rally beyond 1.1100 against the greenback, despite the weakness of this last by the end of the day yesterday. The EUR/USD pair eased within range as low volatility reigned through the first half of the day, amid ruling uncertainty ahead of central banks’ announcements and any possible global trade update. The UK election and how Brexit could result afterward is also in the eye of the storm and keeping investors side-lined.The EU didn’t release relevant data, exacerbating range trading. The US, on the other hand, has just released November inflation data, which was up by 0.3% in the month and by 2.1% when compared to a year earlier. Core inflation met the market’s expectations, printing at 0.2% MoM and 2.3% YoY. The market is showing little reaction to the numbers.Later today, the US Federal Reserve will announce its latest decision on monetary policy. Powell & Co. are expected to keep rates on hold this time, after cutting rates three times in the latest months.The EUR/USD pair is trading around 1.1080, confined to familiar levels, and losing its bullish potential. In the 4-hour chart, the pair is holding above its moving averages, although the 20 SMA is turning south, while the larger ones lack directional strength. Technical indicators eased within positive levels, but lack clear directional strength. The downside seems limited by 1.1065, a Fibonacci support, while the upside is being limited by the 1.1110/20 price zone. The pair could see some directional strength on a break of either of those levels.Support levels: 1.1065 1.1030 1.0985  Resistance levels: 1.1090 1.1120 1.1150  View Live chart for the EUR/USD"
5,"5 Bullish Candlestick Patterns Every Bitcoin, Crypto Trader Must Know","Candlestick charts are favored by crypto traders due to their visual appeal and simple to understand nature. Their history lies in the Japanese rice trading and the system has been updated and utilized throughout the years, becoming the most popular method of charting assets.They are called candlesticks because of their rectangular shape and long lines (wicks) formed by price action during a certain time period. Candlesticks can also give clues to price action and the mood of the market towards an asset. Over time, multiple candlesticks form patterns that give traders signals that help bulls and bears make trading decisions.Here are 5 simple candlestick patterns that indicate a bullish price movement that every crypto trader should know.The bullish engulfing candle appears at the bottom of a downtrend and indicates an increase in buying pressure. This pattern often triggers a reversal in trend and it indicates that buyers have entered the market and are likely to drive prices up further. The pattern involves two candles, with the second candle completely engulfing the body of the previous red candle. This happens when price opens lower on the second day than the first day’s close, but price increases throughout the candle, closing higher than the opening of the first candle. The ideal way to trade this pattern (and any pattern) is to wait for confirmation on the following candle that price is continuing up. Conservative traders do not enter until the next candle closes higher than the price where the second candle of the pattern closed. Gaps are rarely seen in crypto markets, or candles opening significantly higher or lower than the previous one because there are no breaks in a 24/7 market. Therefore, an equal bottom (shown above) qualifies as a bullish engulfing.It is important to note that context and placement matter with every pattern. This is NOT valid in an uptrend, and is, in fact, a bearish pattern in that context — it is only tradeable when it appears at the bottom of a move.The bullish hammer is also a candle that indicates the likely bottom of a trend. It is characterized by a long wick at the bottom with a short body on top. That shows that bears pushed the price down during the time frame, only to see significant buying pressure step in to close higher than the candle open. Many traders consider a candle a bullish hammer even if the close is slightly below the open as long as there is a long tail and small candle body on top. This is a single candle pattern, but smart traders wait for a confirmation in the change of direction, characterized by subsequent bullish candles and increased buying volume.The three white soldiers pattern occurs over three candles. It consists of consecutive long green candles with small wicks, which open and close progressively higher than the previous day. It is a very strong bullish signal that occurs after a downtrend and shows a steady advance of buying pressure. In general, when a candle is closing with small or no shadows, it suggests that the bulls have managed to keep the price at the top of the range for the session. The three white soldiers appear when buyers take over the rally all session and close near the high of the day for three consecutive candles.The “rising three methods” is a bullish candlestick pattern that is comprised of three short bearish candles contained within the range of two larger bullish ones. The pattern shows traders that — despite some selling pressure — buyers are retaining control of the market. For classical pattern traders, the rising three methods pattern often forms as a bull flag or descending wedge — a form of bullish consolidation after a clear move up. This is a continuation pattern of a bullish trend, not the sign of a bottom or reversal.The piercing line is a two-stick pattern made up of a long bearish candle followed by a long green candle. A key signifier of this pattern is a significant gap down between the first candlestick’s closing price and the green candlestick’s opening. At the beginning of the trading session, it often appears bearish because of the significant drop during off-hours. However, buying pressure increases throughout the candle, with a close more than halfway up the body of the first, bearish candle, indicating that bulls have taken control and are interested in buying at the present price.There are hundreds of patterns that a trader can learn when mastering Japanese candlesticks but these are just a few simple ones that can help any trader in any market. "
6,Top Trade Setups in Forex - US FOMC In Highlights!,"On Wednesday, the greenback struggled to find demand ahead of the FOMC's monetary policy announcements, and the United States Dollar Index dropped below the 97.50 marks to support the pair limit its losses for the time being. Reviewing the FOMC meeting, ""the last FOMC minutes made it clear that most participants judged that the current stance of monetary policy is now well-calibrated and that another rate cut would require the outlook to change materially. Watch out the essential trade setups to trade today. The gold prices rose to a daily high of $1,468.68 but erased a significant portion of its gains due to recovering risk sentiment regarding trade deal between the United States and China.Earlier in the day, the shortage of positive developments surrounding the US-China trade dispute caused investors to continue careful and boosted the demand for traditional safe havens such as gold. However, after the Wall Street Journal reported that the United States was planning to delay the December 15 tariff hike on Chinese imports, risk on returned to markets and weighed on the gold prices.Moreover, White House acting chief of staff Mick Mulvaney said the trajectory toward a phase one trade deal with China was pretty good. After the upbeat mood, the ten-year United States Treasury bond yield made a sharp U-turn and was last up 1.2% on the day at 1.845%. Besides, after starting the day in the red, Wall Street's main indexes moved into the positive territory.On the other hand, the greenback struggled to find demand ahead of the FOMC's monetary policy announcements on Wednesday, and the United States Dollar Index dropped below the 97.50 marks to support the pair limit its losses for the time being. Reviewing the FOMC meeting, ""the last FOMC minutes made it clear that most participants judged that the current stance of monetary policy is now well-calibrated and that another rate cut would require the outlook to change materially.  Gold is trading nearby 1,460 levels, having created a candlestick pattern known as the hammer, which is underpinning gold on the 4-hour chart today. Gold is facing strong support around 1,458, along with resistance at 1,466. Where the violation of 1,458 support can extend gold bearish bias until 1,453 mark. On the higher side, the breach of 1,466 can lead to gold prices towards 1,473 levels today. We can expect such movement during the U.S. session, especially on the release of FOMC and CPI figures from the U.S. economy. The USD/CAD pair closed at 1.32293 after placing a high of 1.32492 and a low of 1.32241. Overall the trend for USD/CAD remained bearish that day. The pair lost its traction and closed near 1.323 level on Tuesday. Following the crude oil prices, the Canadian dollar remained in demand on Tuesday.Crude oil prices traded higher yesterday amid the increased hopes of U.S. delaying the December 15 tariff hike on Chinese goods. This eased the concerns over the global economic slowdown, which has hurt even the Canadian economy now.Moreover, the Energy Information Administration (EIA), in its monthly report, said that its prediction for 2020 global oil demand grew from 50K barrels per day to 1.42M barrels per day. This report increased the demand for crude oil prices by 0.6% to $59.2 and hence raised the commodity-linked Loonie against its rival U.S. dollar in the market.USD/CAD dropped on the back of raised demand for the Canadian dollar against the U.S. dollar. Greenback also remained under pressure due to the upcoming Federal Reserve meeting in which it will publish its monetary policy decisions and the renewed economic forecasts.Although investors are not expecting any rate cut this time, Chairman Jerome Powell's comments will be on the focus of traders to look for fresh motivation.  The technical side of the USD/CAD has mostly remained unchanged due to a lack of fundamentals from the Canadian economy. The USD/CAD exhibited some correction as it sinks beneath the 1.3270 resistance level achieve 38.2% Fibonacci retracement at 1.3225. Extension of bearish retracement can drive the USD/CAD currency pair towards 1.3200 now. The MACD is in the neutral zone, and histograms remain very near to 0; consequently, we should maintain a close eye on this. If the pair heads to drop beneath 1.3200, the next target can be nearby 1.3160 for the USD/CAD.  The AUD/USD pair closed at 0.68083 after placing a high of 0.68373 and a low of 0.68000. Overall the trend for AUD/USD pair remained bearish that day.At 5:30 GMT, the Housing Price Index for the third quarter from Australia was published and showed a growth of 2.4% from the expectations of 0.5% and supported Aussie.The National Australia Bank's Business Confidence Index remained flat at 4 in November but beat the market expectations of 2.Despite stronger than expected HPI & Business Confidence Index from Australia, the pair remained on the back foot on Tuesday as uncertainty surrounding the trade deal prevails in the market.Earlier Tuesday reports suggested that the U.S. was considering holding the latest tariff hikes on Chinese goods. But later the comments from Whitehouse Adviser Larry Kudlow that December 15 tariffs were still on board, Aussie traders got confused, and the pair started to fell to create a bearish trend.U.S. Treasury yields gained two basis points to 1.84%, but global stocks failed to respond. Increased uncertainty has threatened the traders to enter the market.On the other hand, the inflation reports & new loans report from China were also ignored by Aussie traders on Tuesday because of the AUD/USD pair's dependency on trade talks developments. Meanwhile, RBA Governor Philip Lowe said that the price of sending money out of the country has been consistently higher than the average for the rest of G-20 nations.He wanted to see the country's banking industry roll out new payment platforms at a faster rate. He said that the cost of sending money across the international border was very high and needed to be reduced.He added that digital money transfer operators were cheaper than the major banks. He further mentioned that the average mark-up over the wholesale exchange rate of banks was around 5.5% in comparison to 1% of digital money transfer operators. Lowe exclaimed that the long-term decline in the use of cheques would lead to the winding up of the cheque system entirely.  The AUD/USD is trading with selling bias since it has already violated and crossed below the 38.2% Fibo mark of 0.6820. The AUD/USD has also achieved a 50% Fibonacci retracement at 0.6795. The AUD/USD pair is presently consolidating near0.6808, within the range of 0.6820 - 0.6795. A bearish violation of 0.6795 marks can spread selling unto 0.6775. The MACD is operating under 0, implying the possibilities of a bearish trend continuation in the AUD/USD. Let's watch for buying above 0.6775 and selling below 0.6820. All the best for the New York session!  Try Secure Leveraged Trading with EagleFX!"
7,USD/JPY Forecast: Yen strong amid prevalent fears,"The USD/JPY pair continues trading uneventfully around its weekly opening in the 108.60 price zone, as the market is in wait-and-see mode, concerned about trade war developments and hoping the upcoming events will bring some needed answers. The first event will be the US Federal Reserve monetary policy meeting taking place today and should be dollar positive, as the central bank is expected to stay on hold after cutting rates for three consecutive months. Despite having taken such measures, Chief Powell has been overall optimistic about the economic developments, and he will likely maintain that stance.Japanese data released overnight failed to impress, as the November Producer Price Index was up by 0.2%MoM and by 0.1% YoY, slightly better than expected, but the BSI Large Manufacturing Conditions Index for Q4 plummeted to -7.8 from -0.2 and against the 4.5 expected.The US will publish November CPI figures ahead of the opening. Monthly inflation is foreseen up by 0.2%, while when compared to a year earlier, the market’s forecast is 2.0%. The core readings are foreseen at 0.2% and 2.3%, respectively.The USD/JPY pair is trading below the 38.2% retracement of the previous week´s decline at 108.90, the immediate resistance. In the 4-hour chart, the pair is trapped between directionless moving averages, while technical indicators lack directional strength, stuck to their midlines. The pair is neutral, although the risk is skewed to the downside amid prevalent fears. The immediate support is 108.40, where the pair bottomed last Friday.Support levels: 108.40 108.10 107.75Resistance levels: 108.90 109.20 109.50  View Live Chart for the USD/JPY"
8,AUD/USD Forecast: Heading toward the 0.6900/30 resistance area,"The Australian dollar was among the best performers against the greenback, rallying to a fresh 6-week high of 0.6888, despite data coming from Australia disappointed. The December Consumer Confidence Index fell to -1.9% much worse than the expected -0.7%. The market also ignored persistent tension between the US and China, although headlines suggesting that both economies are working on delaying the tariffs scheduled to come into effect next December 15, further underpinned the Aussie.This Thursday, the country will release the December Consumer Inflation Expectations, foreseen at 3.5% from the previous 4.0%.The AUD/USD pair is trading near the mentioned daily high, bullish according to intraday technical readings, as it’s firmly above the 61.8% retracement of the November decline, the immediate support at 0.6865. In the 4-hour chart, technical indicators maintain their bullish slopes in overbought levels, while the price is well above all of its moving averages, which remain directionless. The immediate resistance is 0.6900, while a more relevant one comes at 0.6930, October 31st high.Support levels: 0.6865 0.6830 0.6800Resistance levels: 0.6900 0.6930 0.6970View Live Chart for the AUD/USD"
9,GBP/USD Forecast: Sterling strong as UK election looms,"The GBP/USD pair has fallen to 1.3107 early Wednesday, following the latest YouGov poll, which showed that Conservatives’ lead on Labors kept shrinking, now at just 9 points, which means that PM Johnson won’t be able to get enough seats to pass its Brexit deal through Parliament. At this point, it seems Conservative will have a majority of just 28 seats, way below the 68 seats shown in previous surveys. The pair later trimmed early losses amid persistent dollar’s weakness, now trading near the 7-month high reached this week at 1.3214.The UK will vote this Thursday, although the results won’t be out until late in the day. Ahead of it, little should be expected around Pound crosses, particularly considering the kingdom won’t release relevant macroeconomic data.The GBP/USD pair retains its intraday gains, trading around the 1.3200 figure. The short-term picture is bullish as the pair pierced, but recovered above, its 20 SMA in the 4-hour chart, which now heads north. Technical indicators, in the meantime, advance within positive levels, although below their weekly lows. The Pound is all about the general election now, and it seems unlikely there will be relevant moves ahead of the result of it.Support levels: 1.3165 1.3120 1.3085Resistance levels: 1.3215 1.3250 1.3290View Live Chart for the GBP/USD"
10,Gold Price Analysis: XAU/USD challenges the 1472 resistance ahead of the FOMC,  
11,Commodity report: Oil Price Forecast: December 2019 [Video],"Oil prices fell on Wednesday after industry data showed an unexpected build in crude inventory in the United States and as investors waited for news on whether a fresh round of US tariffs on Chinese goods would take effect on Sunday. US crude stocks clocked a surprise rise in the recent week while gasoline and distillate inventories also rose, data from industry group the American Petroleum Institute shows. Later on Wednesday the US Energy Information Administration (EIA) is due to publish official inventory data. Meanwhile hedge funds and money managers cut their net long positions in crude oil in the latest week.Where are commodity prices heading next?  Watch Phil Carr at The Gold & Silver Club review Crude Oil with the latest price forecast and predictions:   "
12,GBP and Election Fever,"Sterling dropped sharply overnight following the release of the latest YouGov poll, which shows that the Tory's lead is receding. The highly regarded MRP poll shows that the Conservative advantage has slipped from 68 to just 28 seats. This is the poll that correctly predicted a hung Parliament in 2017 and indicates that the scenario could repeat itself given that many constituents are hard to call.The sharp selloff in the pound gives us a taste of what could be to come. Should the Conservatives win an overall majority, sterling gains are expected to be less pronounced than in the case of a hung Parliament or a Corbyn victory. These are outcomes which are considered less market friendly either due to the Brexit impasse continuing or in the case of a Labour government, economic policy concerns. There would be a less pronounced gain on a Tory majority because the market is anticipating this outcome; a market friendly outcome. 1. Large Conservative Majority (by 30 plus seats) This is the most market friendly outcome and could see sterling extend its gains. A high Tory majority would mean reduced uncertainty over Brexit and the transition period. The pound could advance towards 1.35 in the near term. 2. Smaller Conservative Majority The pound could advance but gains would be limited. Whilst the Withdrawal Agreement would be passed through Parliament concerns would arise over whether an extension to the transition period would be agreed in 2020. Looking beyond the election result, historically the pound has under performed in small majority governments.3. Hung ParliamentThe prospect of Brexit being done early next year would evaporate and the pound would price in further Brexit uncertainty taking it back to 1.26.4. Small Labour MajorityThis is the least market friendly outcome given market concerns over Labour's nationalisation and fiscal policies, in addition to further Brexit uncertainty. The market is not pricing in a Labour win.Will we see an impact on other G10 currencies?If there is any spill over we expect it to be short lived given that Brexit is a domestic event. Post the Brexit referendum, the US dollar and Japanese yen outperformed, whilst the euro came under pressure."
13,USD/CHF falls to three-months lows as USD tumbles after FOMC meeting,"The USD/CHF is falling sharply for the third day in a row and is about to post the lowest daily close since early September. The pair dropped modestly after the Federal Reserve (Fed) announced its decision, but later it accelerated the decline amid a sell-off of the US dollar. The Fed, as expected, kept the interest rate unchanged at 1.50-1.75%. The statement contained no significant changes from the October meeting and the projections from FOMC members showed they don’t see moves in rates next year. Despite the rate path projected from the “dot plot,” US yields turned lower, weakening the greenback across the board. The US Dollar Index fell toward 97.00 and is on its way to the lowest close since July. The weaker greenback pushed USD/CHF sharply lower. The pair bottomed so far at 0.9813, the lowest intraday level since September 5. If the decline continues, the next key support is located at 0.9795/0.9800 (September lows). More levels    "
14,UK Election 2019,"Its the final day of campaigning for UK General Election 2019 and tomorrow is election day. Some last-minute drama has been injected by the latest YouGov poll — using its famed MRP methodology (massive survey size and deep analysis to take in account of local factors), which correctly called 93% of seats in the 2017 election — showing that a Conservative majority of 28 seats is likely, down from the 68 seats the same survey predicted two weeks ago. The result is significant as it suggests that the possibility of the Conservatives falling short of a majority is within statistical margins of error.Seasoned political pundits in the UK have been warning about unpredictability in this election, despite polling showing a consistent 10-point odd lead for the Conservatives, due to the relatively large degree of undecided voters, most of which were people who had voted for Labour in the 2017 election, along with the pro-EU campaign to encourage tactical voting. For sure, a Conservative-with-majority remains the most likely scenario.Survation, a conventional pollster which was closest to the result in 2017, is showing a 14-point Conservative lead, while Politico’s poll tracker has the Conservatives at 43% support, unchanged since Monday last week, and Labour with 34% support, up a point from yesterday. One thing that stands in the YouGov MRP poll is that it shows the Brexit Party failing to win a single seat. That is significant as it would mean that a no-deal Brexit would be off the table, as the party wouldn’t be in any position to hold the Conservative Party’s feet to the fire over the next election cycle (5 years).The assumption here is that Johnson’s past rhetoric about a no-deal-Brexit-if-necessary was essentially a bluff. If the Conservatives are forced to form a minority or coalition government, they would have to look to either Northern Ireland’s DUP (again – but the relationship has soured significantly) or the Liberal Democrats (would they really get into bed with Johnson following the disaster for the Lib-Dems of the Cameron-Clegg coalition?). The DUP would insist on re-doing the Brexit deal (back to square one), while the Liberal Democrats would insist on there being a second referendum. If there is a shock Labour victory, or Labour-led minority or coalition government, then a soft Brexit deal would be proposed and then be put to a confirmatory referendum.ING Economics have various scenarios for Sterling shown above. Cable is currently pivoting at 1.3150 whilst EURGBP holds north of today’s pivot at 0.8420.Join me on Friday morning at 09:00 GMT on our Facebook page to discuss the aftermath of the UK Election and the impact for Sterling, UK Bonds and the UK100."
15,US: CPI at one-year high hardly signals inflation is getting out of hand – Wells Fargo,"Analysts at Wells Fargo point out higher energy and services prices pushed the Consumer Price Index up 0.3% in November. They explained the underlying trend is nowhere near strong enough to worry the Federal Reserve, despite the annual rate reaching the highest level in a year. “The Consumer Price Index (CPI) rose 0.3% in November and is up 2.1% over the past year. That marks the strongest 12-month pace in a year, but hardly signals inflation is getting out of hand. Much of the pickup in the CPI over the past year has stemmed from a diminishing drag from energy prices after oil prices swooned last fall.”“We continue to see few signs of recent tariffs having a meaningful effect on inflation, with core goods inflation flat in November and weakening on a year-ago basis.”“Core CPI is up 2.3%. That is toward the top end of this cycle’s range, but is unlikely to move the FOMC away from its easing bias. FOMC Chair Powell has suggested higher inflation is the main criteria for the committee to reverse course again and raise rates. But the trend in core CPI has not strengthened meaningfully in recent months; on a three-month average annualized basis, the core has been rising at a 2.1% pace.“The FOMC has been emphasizing symmetry around its inflation target since 2017. Even as the core PCE deflator looks poised to return to 2.0% within the first half of next year, we suspect it will need to push well above that for a time considering it has averaged just 1.6% this expansion. With slowing growth expected to keep a lid on inflation and longterm inflation expectations near historic lows, the Fed’s next move on interest rates is much more likely to be down than up.”"
16,"Bitcoin (BTC) bulls find another evidence of BTC growth to $100,000 by the end of 2020","Bitcoin (BTC) market is painfully slow today. The first cryptocurrency dropped below the local support of $7,300 to trade marginally above $7,200 during European hours. While the first digital asset struggles to come up with a clear direction, cryptocurrency enthusiasts are looking for evidence of upcoming dramatic growth.Recently, the founder of Silk Road, an online black market, Ross Ulbricht, suggested that Bitcoin has the potential to reach $100,000. He applied Elliot waves to Bitcoin's charts to come up with this conclusion. After an extensive analysis, he concluded:""Thus, we have a price and target for the end of wave I of ~$100,000 some time in or near 2020. However, there is no rule that market moves have to be proportional. This is just a pattern we see unfolding that may or may not continue. I should also note that these estimates are based on readings of the price of a bitcoin in the distant past. The best I can find is not very precise. If you have more precise numbers, please them in the comments with your source.""However, such forecasts are quite common in the industry. Thus, recently, a famous cryptocurrency trader Peter Brandt also forecasted that Bitcoin would reach $100,000. The same view is shared by ac co-founder of Morgan Greek Capital Antony Pompliano, while a venture capitalist Tim Draper expects to see BTC closer to $250,000 by 2023.On long-tern charts, BTC/USD is moving within the downside channel. The sloping resistance line that comes all the way down from this year's high of $13,862, serves as a critical resistance that separates BTC from a new bullish trend. Currently, it is registered at $9,000. Once it is broken, the bullish sentiments will start snowballing with the next focus on $9,700 ( 38.2% Fibo retracement) and psychological $10,000. However, before we will have to pass quite a number of other resistance levels before we get to $9,000. SMA50 (Simple Moving Average) daily at $8,300 and 50% Fibo retracement at $8,400 may slow down the recovery, once it starts unraveling. "
17,Where does the sudden loss of liquidity come from? Fed will not explain it,"Today we get the Fed decision and acres of newsprint on why the Fed thinks the way it does. This is largely a waste of time because Mr. Powell is as clear as can be—the Fed would have to see a ""material change"" in the economy to do anything, including cut again. Even the new dot-plot is not going to be interesting, although some will try to force a meaningful interpretation. We can expect some downward revisions to growth and perhaps a jiggering of what level of low unemployment is supposed to trigger inflation, but we have not heard the term ""Phillips Curve"" in many a moon, so that concept is back-burnered.The thing the Fed is not going to talk about is the one thing that is genuinely important—what is this sudden loss of banking sector liquidity all about? In September the overnight repo rate went to 10% and scared the pants off everyone, and ever since the official story is it's just plumbing and nothing systemic, while the Fed offers tens of billions of extra cash, inadvertently inflating the balance sheet. Again.In other words, the system is fine. Mention ""system"" and out come the crackpots who don't like or understand QE, giant central bank balance sheets, and that whole line of thinking. At least one analyst says that far too many dollars live outside the US, in fact, more dollars are abroad than are counted domestically. When you don't have control over your money supply, your central bank cannot control inflation or much of anything else. The concept of a ""neutral"" rate is the worst of academic constructs—in fact, it's a myth. That means the wizards of London or the mandarins of Beijing are the ones really in control of the US money supply.There is a whisper of truth in this. But that doesn't mean we should go whole-hog tinfoil hat. The BIS story has it that the big four US banks are hoarding cash and that's what is behind the liquidity issue. We say these big banks (1) face exceptionally high regulatory requirements and/or (2) they have private information about upcoming failures, aka non-performing loans. Note that regs did not change from last year. Perhaps the banks are conspiring to get the regs changed, using the Fed as their agent with Congress. Or perhaps foreigners are withdrawing money from the US and plunking it down outside the US, where is can't be counted as ""available.""But the BIS also says smaller banks can't get access to the repo market and are using currency swaps for immediate liquidity, which we don't buy for a minute. We doubt the smaller banks have the expertise to use currency swaps, and besides, why should they need extra liquidity—typically, the regionals are suppliers of funds to the big money center banks.Yesterday a Credit Suisse analyst boldly said the emergency measures to stabilize the repo market are not working and the Fed will have to resort to QE4 and very soon, like before year-end. The analyst, Zoltan Pozsar, goes on to say ""Year-end in the [currency] swap market is thus shaping up to be the worst in recent memory, and the markets are not pricing any of this... If we're right about funding stresses, the Fed will be doing ‘QE4' by year-end: the safe asset – U.S. Treasurys – is funded by [relative value] hedge funds on the margin and if the [currency] swap market pulls balance sheet and funding away from them, the safe asset will go on sale. Treasury yields can spike into year-end, and the Fed will have to shift from buying bills to buying what's on sale – coupons,"" he warned.""Well, this version of events may explain the sudden and otherwise inexplicable change in the Swiss franc, which returned to the highest high since early November. This is not due to anything happening in Switzerland, although every once in a while there is talk of re-introducing intervention against the euro. Perhaps the new popularity of the Swiss franc is due to perception of structural problems in the US banking system. That doesn't mean the perception is based on facts and has more to deliver.Then there is the futures rollover. Nobody ever mentions this factor but we follow both markets and we say it can have more effect than is recognized. Everyone long dollars has to dump them in the closing Dec contract before next Tuesday and then if they want to stay long, buy the March contract. A delay in re-buying dollars over this critical few days—UK vote, Phase One--can reverberate heavily and deafen us all. We won't know until next Tuesday or so if this is a big factor or just a burp.So which to follow—the leader, the AUD? It's down, chiefly on China. Or the Swiss franc? It's up, chiefly on worries about the Fed getting more dovish, if we see QE4 as dovish. We are not sure this is the right way to pose the issue, but neither does anyone else. We advise extreme caution. In fact, we'd get out and stay out.  This is an excerpt from “The Rockefeller Morning Briefing,” which is far larger (about 10 pages). The Briefing has been published every day for over 25 years and represents experienced analysis and insight. The report offers deep background and is not intended to guide FX trading. Rockefeller produces other reports (in spot and futures) for trading purposes.To get a free trial, please write to [email protected] and you will be added to the mailing list.. "
18,Elliott Wave View: Copper Rallying as an Impulse [Video],"Short-term Elliott Wave view in Copper (HG_F) suggests that the metal is rallying as a 5 waves Elliott wave impulsive structure from November 15, 2019 low. Up from there, wave ((i)) ended at 2.69, and wave ((ii) pullback ended at 2.619. Subdivision of wave ((ii)) unfolded as a double zigzag. Wave (w) of ((ii)) ended at 2.653, wave (x) of ((ii)) ended at 2.679, and wave (y) of ((ii)) ended at 2.619. The metal has resumed higher in a powerful wave ((iii)) with more than 161.8% extension of wave ((i)). Up from 2.619, wave (i) of ((iii)) ended at 2.676, wave (ii) of ((iii)) ended at 2.676 and wave (iii) of ((iii)) is proposed complete at 2.77.Expect the metal to continue to extend higher to end wave ((iii)) as 5 waves up from 2.619 low. Afterwards, it should correct the cycle from December 4, 2019 low (2.619) before the rally resumes again. We don’t like selling Copper. We expect dips to continue to find support in the sequence of 3, 7, or 11 swing for further upside. This view is valid as far as pivot at 2.619 low stays intact.   "
19,Gold Raises Expecting FOMC Meeting Ahead," The Gold prices advanced on Wednesday, boosted by the expectations of the Federal Reserve's interest rate decision.
 
The yellow metal advanced $2.45 per ounce or 0.17% reaching $1,470.55 per ounce, while Silver gains a modest 0.1 cents or 0.01% climbing up to $16.703 per ounce. Copper on its part raises 0.9 cents or 0.31%, soaring up to $2.774 cents.
 
This Wednesday will take place the monetary policy decision by the Federal Reserve. The analysts' consensus expects the interest rate to be held at 1.75%.Gold, in its daily chart, shows that it is still developing a consolidation movement as a wave (4) labeled in black. The internal formation looks like an expansive triangle, which suggests the continuation of the previous move.
 

 
In the big picture, price action reveals that the bias remains bullish as long as the price of yellow metal is moving above $1,341.84 per ounce.
 
This level corresponds to the highest level achieved by Gold on February 19, 2019, when the precious metal reached the $1,341.84 level. In the chart, we observe this level as the completion of wave (1) labeled in black.
 
The following chart shows Gold advancing in the 8-hour range. From the figure, we observe that price action in the short term keeps sideways with a bearish pressure.
 

 
In summary, in the short term, while the price action of the precious metal does not surpass the previous swing high at $1,520, Gold still could see a new low.
 
From the latest CFTC report, institutional traders reported an increase by the second consecutive week in the short-side, rising to 55,820 in the last week from 51,437 informed on October 19. However, the speculative net positioning continues being growing at 613,492 positions.  This level is 6.13% higher than the previous week.
 

 
In conclusion, Gold could develop a new bearish movement completing a near-term corrective sequence. However, in the long term, we expect a further bullish move in 5 waves.  Try Secure Leveraged Trading with EagleFX!"
