,title,text
0,"USD/INR: Indian Rupee is overvalued, scope for gradual depreciation ahead – TD Securities","Analysts at TD Securities forecast the USD/INR pair at 72.60 during the fourth quarter, at 73.00 in Q1 2020 and at 74.00 in Q3 2020. “RBI cut its policy rate by 25% to 5.15% in October and maintained an accommodative stance. This was the fifth straight cut from the RBI. RBI sees an improved outflook for food inflation and persistence of weak demand conditions but sees volatile oil and market risks and upside risks from geopolitical tensions.”“As RBI continues to forecast CPI below target they see further monetary policy space to address growth concerns. However, after 135bp of easing in this cycle the RBI may wish to wait to assess the impact of past rate cuts before easing again. We maintain our view that the next move is likely in Q1 2020.”“INR has been a relative underperformer this year among Asian currencies and has also maintained a high degree of sensitivity to CNY movements as India’s trade deficit with China has grown. Given our view that CNY will weaken further over the months ahead, prospects for INR do not look particularly rosy.”“We think RBI may not be overly concerned about INR depreciation and in fact may actually favour FX weakness as a means to stimulate exports and the economy, especially as the pass through to inflation is relatively low. The fact that INR is overvalued by many measures also suggests scope for some, albeit gradual depreciation in the months ahead.”
 "
1,When is the Canadian jobs report and how could it affect USD/CAD?,"Statistics Canada is scheduled to publish the monthly jobs report for September later this Friday at 12:30 GMT. According to the consensus estimates, the number of employed people is expected to have risen by 10K during the reported month as compared to a massive increase of 81.1K in the previous month, while the unemployment rate is expected to hold steady at 5.7%.In contrast, the analysts at TD Securities forecast an addition of 10K jobs last month, as explained here, “details should prove largely downbeat, with private employment projected to contract on the month while the unemployment rate is expected to edge higher by 0.1pp to 5.8% (market: 5.7%). Wage growth should be the one bright spot, with average hourly earnings forecast to hold at 3.8% y/y.”“Low expectations and a series of better-than-expected headline job figures imply higher chances that Canada's job growth easily surpasses 10,000 job gains expected. In that case, the Canadian dollar may rise. If the nation lost positions in September, the loonie has room to fall. If the actual figures meet expectations, other job figures will likely play a role in determining the trend. The USD/CAD reaction is slow and price action lasts longer, allowing retail traders a level playing field with the big investors,” FXStreet’s Senior Analyst, Yohay Elam, notes.On an upbeat headline reading, USD/CAD could extend losses and test the 100-DMA support at 1.3243. A break below the last would open the floors towards the 1.32 handle.Should the jobs data disappoint, the CAD bears will be offered some reprieve, as the pair could attempt a bounce to 1.3305 (5-DMA), above which the next resistances are aligned at 1.3350 (intermittent tops) and 1.3384 (Sept 3 high).However, the reaction to the data is likely to be limited, as the sentiment around the spot will be primarily driven by the trade-related developments.  Canada: Labour market data in focus – NBFUSD/CAD struggles near weekly lows, below 1.3300 mark amid rising Oil pricesUSD/CAD Analysis: breaches channel patternThe employment Change released by Statistics Canada is a measure of the change in the number of employed people in Canada. Generally speaking, a rise in this indicator has positive implications for consumer spending which stimulates economic growth. Therefore, a high reading is seen as positive, or bullish for the CAD, while a low reading is seen as negative or bearish.The Unemployment Rate released by Statistics Canada is the number of unemployed workers divided by the total civilian labor force. It is a leading indicator for the Canadian Economy. If the rate is up, it indicates a lack of expansion within the Canadian labor market. As a result, a rise leads to weaken the Canadian economy. Normally, a decrease of the figure is seen as positive (or bullish) for the CAD, while an increase is seen as negative or bearish."
2,GBP/USD Forecast: Three Brexit scenarios as a deal seems real,"A deal or no deal? At the time of writing, there is no clear answer but only one certainty – high volatility is set to prevail. GBP/USD's range may exceed the 500 pips seen now as an accord is within reach. Apart from Brexit headlines, top-tier figures from the UK and US-Sino trade talks may also have an impact.It has been a week of two tales – despair up to midday on Thursday and a wild rally afterward. The EU deemed Boris Johnson's plan as insufficient but agreed to continue talking. Sources at the PM's office spoke to the Spectator and seemed to threaten countries that would not support an extension of Brexit with reducing British defense support. The mood worsened after 10 Downing Street released a readout of a call between Johnson and German Chancellor Angela Merkel. Many European journalists and politicians were bemused by the aggressive tone portrayed in the leaks from London – which seemed distant from the cautious German leader's style. European Commission President Donald Tusk criticized the UK for ""playing a stupid blame game."" Chief EU Negotiator Michel Barnier added that ""we are not in a position to reach a deal.""The downbeat news kept GBP/USD depressed around 1.22 – until the game-changing then came the game-changing meeting between Johnson and his Irish counterpart Leo Varadkar. The two men met at a wedding venue near Liverpool and talked about the UK's divorce from the EU. After three hours, they announced ""a pathway to a possible deal."" Details are trickling out slowly, but the aim is to find a solution that would keep Northern Ireland (NI) aligned with EU regulations and customs – allowing borders to remain open and maintain the peace. An accord would also give citizens a say on what future they want, along the lines of Johnson's proposal. Sterling surged and has been on the up and up. After a meeting between Barnier and Brexit Secretary Stephen Barclay, the bloc gave a green light to intense negotiations that some Brussels insiders called ""a tunnel.""GBP/USD has hit a high of 1.2685 at the time of writing, jumping by nearly 500 pips. The tunnel talks mean intense negotiations also over the weekend, aimed to clinch a deal ahead of the critical EU Summit on October 17-18. Merkel, one of the protagonists of the past week, will meet French President Emmanuel Macron on Sunday. They will likely take stock of the negotiations and may issue a statement about it – determining GBP/USD's open on Monday. Both sides are close to a deal, but it is unclear if Johnson will continue receiving support for the deal from the hardliners in his party or the Democratic Unionist Party (DUP). The small group of 10 MPs objects any changes that would undermine the union. There are three scenarios In this scenario, the PM convinces the Brexiteers that letting NI drift away – proposals that he objected in the past – is the best possible option to get Brexit done. Labour MPs from Leave-voting constituencies to back it and it is then set for sailing through parliament on Saturday, October 19.GBP/USD would surge and perhaps hit 1.32.Markets prefer a soft deal – perhaps the Norwegian model – and preferably no Brexit at all. However, the pound has been pricing in a no-deal as late as September and its recovery does not price in an accord – just a short delay. The rally we have seen may only be the beginning. The DUP may convince Conservative hardliners to reject the deal and Labour MPs would refuse to back a ""Tory Brexit"" in this scenario. However, all sides may agree that elections are the way out – and the UK asks for an extension. Johnson may be convinced that a new House of Commons would provide the seal of approval.In this case, the pound may drift lower on uncertainty, but not collapse. A victory for Johnson may seal the deal, while a Labour-Liberal Democrat win may trigger a second referendum and eventually revoke Brexit. Despite uncertainty and markets' preferred options, the downside is limited. If the UK and the EU fail to agree on a pathway to Brexit, Britain will be on course to ask for an extension – but greater uncertainty may send it lower – even if an imminent no-deal is averted. The EU may be growing tired of endless Brexit negotiations – just like the British public. Macron and other leaders may want the UK to just get over with it and leave – even if the price is economic damage. A failure to reach an accord means fresh negotiations as the best-case scenario – and that means prolonged suffering.US-Sino trade talks have seen a similar dynamic of gloomy headlines early in the week and then seeing a deal within reach later on. At the time of writing, President Donald Trump and also the Chinese media have been positive. An accord may fail to include all problematic items, but provides relief for the global economy and weighs on the safe-haven US Dollar.The Federal Reserve's meeting minutes have repeated similar messages – content about the US economy but worries about the global headwinds. The hawks wanted to communicate when the rate reductions will end while doves were worried about signals of a recession.US data have been mixed with marginally worse than expected inflation numbers but upbeat consumer sentiment. In the UK, Gross Domestic Product (GDP) dropped in August but came on top of an upward revision for July. Brexit headlines before, during, and after the EU Summit are set to be left, right, and center for pound trading. However, the UK's jobs report on Tuesday is also of interest. The labor market remained robust in July with the unemployment rate standing at 3.8% and wages rising by 4% yearly (bonuses included). While the jobless rate is set to increase to 3.9% and wage growth to slow to 3.7%, these remain upbeat figures. Inflation figures for September are due out on Wednesday. After a disappointing fall to 1.7% in August, acceleration is on the cards for September. The Bank of England has maintained its hawkish bias despite uncertainty. An increase in inflation will likely keep it from changing its mind and forecasting rate cuts.Retail sales complete the trio of top-tier figures. After a slide of 0.2% in August, the volume of sales is set to increase in the report for September. It will be interesting to see if Brexit anxiety has had any impact on shopping. Here are the upcoming UK macro events, as they appear on the economic calendar:Further developments on the trade front remain central to USD trading. A deal may weaken it while a breakdown of talks may boost it. Markets await a US announcement of postponing the planned tariff increases scheduled for October 15. Retail sales stand on the US calendar. Shoppers have been active and kept the economy afloat in recent months. Satisfactory growth rates of 0.3-0.4% are expected in September, similar to the rises seen in August.Here is the list of US events from the FXStreet calendar:The surge in GBP/USD sent it to the 200-day Siple Moving Average, shattering the 50 and 100 SMAs on its way up. Momentum has turned positive and the Relative Strength Index remains below 70 – below overbought conditions. The fresh high of 1.2705 is the first level of resistance. It is followed by 1.2780 which was the high point in June. Further above, 1.2960, 1.3050, and 1.3130 await cable. However, it may enter overbought conditions at some point.Looking down, support awaits at 1.2580, which was September's high. Next, we find 1.2415 that separated ranges in September, followed by 1.2390 that played a similar role. The next level to watch is 1.2310, which capped it in August, followed by the recent low of 1.22. It is hard to bet on Brexit, but Boris Johnson may have a point by saying that Brits are tired of Brexit. He may convince enough MPs to sign off on a deal. While a hard Brexit is not optimal for markets, growing uncertainty and the risk of a no-deal are far worse. The FX Poll is showing a bearish sentiment on all-time frames, with falling targets. While average targets have risen, only the short-term outlook has been substantially upgraded. Forecasters may have been caught by surprise by the news, or remain skeptical that an accord can be clinched. "
3,"EUR: Misleading indicators, portfolio flows and hot money","One gauge of EUR/$ sentiment in the FX options world gives the impression that EUR/$ should turn higher. Yet we think that's a misleading indicator. Instead, interest rate differentials and hot money are swamping what otherwise would be a good Balance of Payments story for the euro. Unless the Fed cuts much more aggressively, expect EUR/$ to stay offered  In the FX market, one measure of sentiment comes from the derivatives world and is called the ‘Risk Reversal'. This represents the difference in price the market (corporates and institutional investors) is prepared to pay for a similar EUR call or EUR put option. When the market has a negative view on EUR/USD, conventional wisdom goes that the market will be more interested in buying EUR puts to protect against a weaker EUR than EUR call options to protect against a stronger EUR. The ‘skew', or difference in those prices, can be as much as 3%, as you can see in the chart above.Typically the EUR/USD Risk Reversal trades very much in line with the EUR/USD spot rate and divergence is rare. Yet this year has seen EUR/USD sink below 1.10, whilst the Risk Reversal has resolutely moved higher. Does this mean the market doesn't believe the EUR/USD bear story and EUR/USD could be overdue a turn higher? Not necessarily.Speaking to our experts in the FX options team, a couple of views come through – with which we agree. The first is that the Risk Reversal should, in theory, represent the market pricing a higher probability of the environment becoming more volatile as spot moves in the direction of the skew. For example, if the market prices EUR puts more expensively than EUR calls, volatility should rise as EUR/USD sinks. That has certainly not been the story this year.Driving that change we think has been negative rates in Europe and now a fresh round of Quantitative Easing due to start from the ECB in November. As we outline in the chart below, bouts of money printing (both from the Fed and the ECB) typically in the early stages see the local currencies take on negative correlations with risk (in our case the performance on the MSCI World equity index). The EUR is now exhibiting the characteristics of a funding currency, represented by the phrase ‘Risk on, EUR off'. That's why the relationship between a weaker EUR and higher volatility has broken down and the current divergence is not a harbinger of an imminent upside rally in EUR/USD.The second argument is that the one-year area of the FX options market is dominated by corporates. Since actual volatility is so low (one year EUR/USD realised volatility has now dropped back to the cycle low of summer 2014 because of the low rate environment), corporates have less urgency to buy their typical downside protection in EUR/USD. The demand for EUR puts has faded and actually the Risk Reversal skew is now flat out over the next ten years. This actually suggests buying downside EUR/USD protection is cheap, but again does not make the case for a EUR/USD rally.  Away from the FX options market, the Eurozone Balance of Payments story should, in theory, be a little more positive for the EUR. The Eurozone still runs a large current account surplus (2.7% of GDP) and instead of this being re-cycled out of the Eurozone via Direct Investment and Portfolio outflows – which was certainly the case over the last couple of years – these outflows have declined markedly.For example, on a twelve-month basis Eurozone direct investment outflows of EUR180bn have reversed to EUR85bn of inflows over the last year. EUR211bn of portfolio investment outflows have reversed to EUR15bn of inflows over the period. We'd characterise most of this activity as ‘de-leveraging', where Eurozone residents have cut overseas investments in a more significant number than foreigners have cut investments in the Eurozone. In theory that should have been positive for the EUR, but it clearly hasn't. We think ‘hot money' or short-term money market flows explains a lot.  Normally defined as fast-moving, short-term portfolio flows, eg. placed in short term deposits, ‘hot money' can define FX trends, but also mean that FX trends can quickly reverse. Typically a country running a large current account deficit would prefer the imbalance to be funded by long term, sticky direct investment, rather than hot money flows which can turn on a dime.Typically it's quite hard to get a full gauge on these hot money flows, but some clues can be found in the Eurozone BoP data. Here we've said that the current account, plus direct and portfolio investment make a good story for the EUR – actually worth EUR400bn of inflows over the last twelve months. But also in the Financial account is a line item called ‘Other Investment, MFIs'. This represents private sector banks flow in areas like money markets. These Euro area banks have seen their foreign short-term assets grow by a staggering €350bn over the last year – nearly wiping out those other inflows. This has to be a function of the wide interest rate differentials at the short end of the curve.  Read the original article: EUR: Misleading indicators, portfolio flows and hot money"
4,Biggest GBP Jump in 2 years,"Sterling made its biggest weekly percentage gain vs USD in over 2 years and its 4th fastest rise in 10 years amid successive positive news on the Brexit negotiations front (more below). The Premium long trade in GBPUSD hit its final target for 260-pip gain. A solid Canadian jobs report dragged USDCAD lower by nearly 80 pips to 1.32. Markets now await comments from Trump on his meeting with China's vice premier as the US-China talks enter their 13th round. The other story is that of USDX selloff as the index broke its 55-DMA.GBP extended its rally this morning when UK Brexit minister Stephen Barclay told ambassadors from the 27 EU member states earlier on Friday that sufficient progress had been made with his EU counterpart Michel Barnier in order for discussions to intensify. More developments are awaited ahead of next week's EU summit as well as the reaction from the DUP. GBP bulls are now reasoning that Boris Johnson had little choice (either to ask for a delay, or accept a deal) instead of being ready to leave without a deal.GBP is now the best G10 currency performer since the start of Q3 (beginning of H2) and is the 3rd best performer year-to-date (behind CAD & JPY)The market is pricing in a US-China trade deal that includes no new tariffs in exchange for agricultural purchases and a hollow FX pledge. That's nothing like the comprehensive deal many were hoping for but there is a reason the market liked it anyway. The Canadian jobs report is due on Friday but trade headlines will continue to dominate.
A 'trade deal' is the wrong term to describe what appears to be shaping up between the US and China. This is more of a ceasefire that includes the bare minimum for both sides to save face at home and mitigate economic damage.This wasn't what anyone was hoping for but markets are signaling it's good enough for now. Why? Mainly because it appears the US is backing down. If the truce comes together (and that's still far from certain at this point), it's because the US has backed down. They have been the aggressor in this fight and if Trump has had enough for now then he's not likely to escalate it until after the election.In addition, this type of deal leaves enough uncertainty intact to keep the Fed easing cycle going. Or at least the market thinks it does. We will be watching for any signals to the contrary ahead of the Oct 19 blackout.Looking further out, the deterioration in the US-China relationship is dire. The 'uncertainty' that the Fed has been lamenting on trade is now a permanent feature. It's entirely clear that a decoupling is underway and the only variable is the pace.There are also important questions outside of the two countries. Those who can continue to trade openly with both sides stand to benefit, even if the overall picture means slower global growth. "
5,Tip of the Iceberg: Emergency Repos Stretch to 2020 Q2,"Emergency Fed actions for the end of 3nd Quarter 2019 now stretch to the second quarter of 2020.Statement Regarding Treasury Bill Purchases and Repurchase Operations The FOMC directed the Desk, effective Oct 15, to purchase T-bills at least into Q2 2020 to maintain ample reserve balances at or above level that prevailed in early Sep. We will purchase T-bills at initial pace of approx $60B/month, starting mid-Oct. Term repos will generally be 2x/week, initially in an offering amount of at least $35B per operation. Overnight repos will be daily, initially in an offering amount of at least $75B per operation. Details available around 9th business day each month.New York Fed @NewYorkFedIn a term auction today, the Fed did $61 billion.The emergency repo auctions to get through the quarter end on September 30 have been extended and added to.Today, the Fed announced it would add roughly $60 billion a month through the end of the second quarter of 2020.Please consider the Repo Market Incident May Be The Tip Of The Iceberg by Daniel Lacalle.The Federal Reserve has injected $278 billion into the securities repurchase market for the first time. Numerous justifications have been provided to explain why this has happened and, more importantly, why it lasted for various days.The first explanation was quite simplistic: an unexpected tax payment. This made no sense. If there is ample liquidity and investors are happy to take financing positions at negative rates all over the world, the abrupt rise in repo rates would simply vanish in a few hours.Sudden bursts in the repo lending market are not unusual. What is unusual is that it takes days to normalize and even more unusual to see that the Federal Reserve needs to inject hundreds of billions in a few days to offset the unstoppable rise in short-term rates.What the Repo Market Crisis shows us is that liquidity is substantially lower than what the Federal Reserve believes, that fear of contagion and rising risk are evident in the weakest link of the financial repression machine (the overnight market) and, more importantly, that liquidity providers probably have significantly more leverage than many expected.In summary, the ongoing -and likely to return- burst in the repo market is telling us that risk and debt accumulation are much higher than estimated. Central banks believed they could create a Tsunami of liquidity and manage the waves. However, like those children’s toys where you press one block and another one rises, the repo market is showing us a symptom of debt saturation and massive risk accumulation.Lacalle notes Quantitative Easing Is BackThe Federal Reserve, through its president Jerome Powell, has indicated that it is preparing to increase its balance “organically”. The effort to separate this latest monetary policy change of course from a full-blown new QE (quantitative easing) is, at the very least, amusing. If we look at what is being discussed, it has nothing to do with organic expansion and looks a lot like a new repurchase program.What the Fed proposes has very little to do with organic expansion. The Quantitative Easing programs repurchased between 60 to 85 billion dollars in assets per month. If we look at the organic growth of the Federal Reserve balance sheet prior to quantitative easing, it barely reached 3 billion dollars in a month. The Federal Reserve is discussing between 200 and 300 billion per quarter. That is not organic expansion but it is neither the type of measure that would trigger a surge in risk appetite from financial agents. So it is quite a lot more than organic expansion and also a lot less than what beta-chasing investors may require to keep their negative dollar carry-trade on cyclical assets.This is a measure that will not satisfy those who need more excess liquidity and more stimuli to continue playing against the dollar but, at the same time, it further distances the Federal Reserve from normalization. If we assume the figures mentioned in different sources, the Federal Reserve balance sheet is unlikely to go below 25% of GDP in the next years.The average investor may find contradictory messages in the Fed statements. Powell confirms that the economy is growing at a good pace, that unemployment is at the lowest level in 50 years and that core inflation remains above the Federal Reserve threshold, yet they also tell us that they have to cut rates and expand the balance sheet. Something does not match, and the explanation may lie in the need to keep an excessively leveraged market afloat and prevent the chain of bubbles in financial assets from bursting.To me, these apparent contradictions in communication mean that the Federal Reserve is looking to prevent a financial asset meltdown while at the same time trying to avoid a higher concentration of risk. It may be, again, trying to manage the waves in the tsunami.The Fed says these injections are not QE and not related to monetary policy.Both statements are lies.I commented on repos a few days ago in Fed Seeks Firm Grip On Interest Rates, Supposedly Not QE.How the heck can operations needed to control interest rates not be considered monetary policy?  This material is based upon information that Sitka Pacific Capital Management considers reliable and endeavors to keep current, Sitka Pacific Capital Management does not assure that this material is accurate, current or complete, and it should not be relied upon as such."
6,"USD/MXN tumbles to 19.30 support area, heads for lowest weekly close since July","The USD/MXN pair dropped sharply on Friday and extended weekly losses, on the back of a weaker US Dollar across the board. From the level it had a week ago is 1% lower and on its way to the lowest weekly close in ten weeks. Price yesterday broke below the 19.45/50 critical support and today it reached the next one at 19.30. It bottomed at 19.27 and quickly bounced back above 19.30. Near the end of the session it is hovering around 19.35, below the 20-week moving average that stands at 19.42. The weekly chart points to further losses but the 19.30 support should hold for the moment. The sharp decline of the US Dollar amid risk appetite was the key factor behind the USD/MXN move. The improvement in market sentiment amid expectation about a deal between the US and China and also following the latest Brexit headlines triggered the demand for emerging-market currencies; among those, the South African Rand rose the most over the week. “Markets were very volatile during the week, with investors focused on how U.S.-China trade talks and Brexit negotiations evolve. Market volatility (VIX) hit levels above 20 but retreated to 16 as optimism about a potential trade deal rose towards the end of the week. Increased prospects of a limited U.S.-China trade deal underpinned the risk-on mood, with equity indices rallying, led by cyclicals, while safe-haven assets declined”, explained BBVA analysts.   "
7,US Treasury Secretary Mnuchin to hold press conference at 17:45 GMT,"The White House announced that the United States (US) Treasury Secretary, Steven Mnuchin, will be holding a press briefing at 17:45 GMT on Friday.Although it's unclear what the briefing will be about, there is market chatter that he won't be touching on trade negotiations with China. Earlier in the session, CNN reported that China had officially invited US Trade Representative Lighthizer and Secretary Mnuchin and their teams for additional trade talks in China ahead of next month's APEC summit in Santiago.Wall Street's main indexes haven't reacted to this development yet and the 10-year US Treasury bond yield was adding 4.5% on the day at 1.747%."
8,USD/CNY: Near-term resistance at 7.20 – Westpac,"According to Frances Cheung, analyst at Westpac, near-term resistance for USD/CNY is at 7.20.“The economic backdrop – with persistent impact from tariffs on trade flows, which filters through onto production and investment – should put upward pressure on USD/CNY, and we maintain our year-end forecast of 7.30.”“We are not more bearish RMB than this as the still stable onshore RMB sentiment and expected continued bond inflows are likely to check RMB weakness. Foreign buying of onshore CGBs (China Government Bonds) rose to CNY53.2bn during September (CNY88bn into all CNY bonds), the biggest monthly purchase since August 2018.”“Index inclusions can potentially bring in up to CNY50bn of monthly purchase of CNY bonds, we estimate. Most of the flows are likely to go into CGBs and PFBs (policy financial bonds) before newcomers become more familiar with the Chinese credit market.”"
9,Brexit negotiations back on track – Danske Bank,"Danske Bank analysts point out that the Brexit negotiations got back on track after Irish PM Varadkar and UK PM Johnson met.“We have not received many details yet (probably because neither side wants to risk jeopardising the fragile negotiations) but the most difficult part of the negotiation is customs, so Varadkar and Johnson may have found a way forward here.”“The problem is that PM Johnson's potential majority in the House of Commons is also very fragile and he cannot afford to lose support from DUP and the group of hard Brexiteers within his own party. This means that one should not get hopes too high yet, and our base case remains another extension followed by snap election but the coming days are going to be extremely important.”“Today, UK Brexit Secretary Barclay and EU Chief negotiator Barnier meet at 09.30 CET followed by a briefing to the EU ambassador. EU has set a deadline today to reach an agreement before the EU summit next week but this is probably a soft deadline so a deal can be reached at a later stage (also the EU still has an possibility to call an extraordinary EU summit to ratify an agreement).”"
10,GBP/USD Bullish Price Action Might Be Going For Wizz 5 Test,"The GBP/USD has formed a bullish POC zone within Wizz Lvl1/2 and the price might bounce to the upside straight from the zone.If the price proceeds with a bullish momentum, we might see a good continuation pattern. A close above the M H3 camarilla 1.2460 implies further continuation up. Targets are W H5 1.2542 as the fist target, M H4- 1.2632 as the second target and Wizz 5 – 1.2690 as the final target. Have in mind that not all targets might be hit in a swing as the price usually retraces back and bounce. Daily close above W H5, M H4 will imply a possible continuation. The GBP is still in the mood of the Headline Risk so be careful as any BREXIT related news might turn the price upside down, negating an interim momentum to the north.   The analysis has been done with the CAMMACD.MTF template.For more daily technical and wave analysis and updates, sign-up up to our ecs.LIVE channel."
11,"Ripple rebrands products, removes xRapid, xVia and xCurrent mentions from its website","Ripple caused quite a stir earlier when they removed mentions of xRapid, xVia and xCurrent from its website. The company has since told Japanese media outlet Morningstar, that this is part of its rebranding campaign. Ripple representatives revealed that both xCurrent and xVia will now be referred to as RippleNet. xRapid will now be called “On-Demand Liquidity.”“Rather than purchasing xCurrent or xVia, customers connect to RippleNet via on-premises or the cloud, and instead of purchasing xRapid, customers use on-demand liquidity.These are not new products, but a rebrand of existing products. There will be little change and no impact on customers.”Ripple said that instead of promoting a host of software solutions, they wanted to double down on the company’s aim to build a payment network. They feel that this shift in messaging will help them achieve that.“With a single connection, access the best blockchain technology for global payments, payout capabilities in 40+ currencies, On-Demand Liquidity as an alternative to pre-funding, and operational consistency through a common rulebook…While all the financial institutions on our network enjoy faster, lower-cost global payments, those who use the digital asset XRP to source liquidity can do so in seconds. XRP is quicker, less costly and more scalable than any other digital asset.”"
12,Singapore: MAS to reduce the slope of SGD NEER by 50bps – Westpac,"Frances Cheung, analyst at Westpac, expects the Monetary Authority of Singapore (MAS) to reduce the slope of its SGD NEER by 50bps, from a currently-assumed 1%, while keeping the centre and band width unchanged.“We also expect a dovish statement. Given the relatively high position of the SGD NEER with respect to the band (1.1% above midpoint), a reduction in the slope despite being priced in will still likely point to downside for SGD NEER. This is likely to translate into USD/SGD movement as room for SGD underperformance against regional peers may be limited, with the next resistance at 1.39.”“If the day turns out to be a riskoff one, safe-haven flows will likely counteract the SGD reaction to MAS easing. The rates and forward curves, meanwhile, appear fairly priced.”"
13,US: UoM Consumer Sentiment Index rose to 96 in October (preliminary),"According to the University of Michigan's (UoM) Surveys of Consumers' preliminary results for October, consumer confidence continued to improve with the Index of Consumer Sentiment rising to 96 from 93.2 in September, compared to analysts' estimate of 92.The upbeat data, however, failed to help the Greenback stage a recovery. As of writing, the US Dollar Index was at its lowest level in three weeks at 98.23, losing 0.45% on a daily basis.Commenting on the data, ""Sentiment rebounded in early October as consumers anticipated larger income gains and lower inflation during the year ahead. As a result, real income expectations rose to their most favorable level in two decades,"" said Surveys of Consumers chief economist, Richard Curtin. ""A slower pace of overall economic growth is still anticipated, including some modest increases in the national unemployment rate during the year ahead."" "
14,"Patterns: CHF/JPY, CAD/CHF","The Swiss Franc made a U-turn from a support level formed by the monthly S1 at 106.90 during last week's trading sessions. As a result, the currency pair has gained about 1.50% in value during this period.The CHF/JPY exchange rate could aim for September 13 swing high at 109.50 within the following trading sessions. Moreover, the monthly pivot point and the combination of the 100– and 200– period SMAs are providing support for the pair at 108.24.However, given that the currency exchange rate is currently trading in a downtrend line, bears could have the upper hand in the market within next week's sessions. Since the beginning of October, the Canadian Dollar has been falling against the Swiss Franc. The currency pair has lost about 1.46% in value during this short period.However, the CAD/CHF exchange rate bounced off a support cluster at the 0.7427 area during yesterday's trading session. Most likely, bulls could drive the price towards the 0.7560 marks in the shorter term.The long-term target for the currency exchange rate would be at the upper boundary of an ascending channel pattern at 0.7615.Although, bulls will have to surpass the weekly R1 at 0.7544 before reaching the given target."
15,"The USD Index: Having Reached Important Supports, It’s Primed for Upswing Now","The USD Index is setting itself up for a sizable move that we won’t watch disinterested. The charts have sent their message, upon which we have acted. Let’s assess the outlook for the days ahead as it stands right now.Today, we will cover the USD Index as opposed to the individual currency pairs. It’s also tradable, as there are futures on it (DX symbol) as well as ETFs, for instance the UUP and the UDN.In short, based on the overnight decline to the previous lows and the rising support line, our yesterday’s waiting order has been executed, opening the long position in the USD Index. 
 
Let’s take a closer look.The USD Index declined in a visible manner yesterday and it moved a bit lower today as well. At the moment of writing these words, the USD Index is trading at 98.36, so the new long position is almost flat (profitable, but very insignificantly). No wonder – the position is open for less than 24 hours so far and its potential is likely to be realize in the following days (or weeks, if you choose to follow the medium-term trade that we also described yesterday). The double support that was reached: the early October low and the rising red support line based on the August lows is likely to trigger a reversal, just as it did in September. Please note that, just as it was the case in September, the USD Index might move below the red line temporarily (perhaps to the 50-day moving average at about 98.15 or so) before rallying. Such a move would not invalidate the bullish setup at all.Our comments on USD’s long-term charts remain up-to-date:Why are we focusing on the long positions in the USD Index? Because of the long-term trend, which remains up.The USD Index is after a major long-term breakout and this breakout was already verified a few times. The most recent rally is just the very early part of the post-breakout rally. Much higher USD Index values are likely to follow in the upcoming months.The long-term trend is up as even the dovish U-turn by the Fed, rate cuts, and myriads of calls from President Trump for lower U.S. dollar and much lower (even negative) interest rates, were not able to trigger any serious decline.What we saw instead was a running correction that’s the most bullish kind of corrections. It’s the one in which the price continues to rally, only at significantly smaller pace. 
   Want free follow-ups to the above article and details not available to 99%+ investors? Sign up to our free newsletter today! "
16,Japan: moving to yield curve slope control?,"Fixed income investors are starved for yield. Reluctantly, they take more risk but, considering that everybody is adopting the same approach, this doesn’t stop yields from dropping below zero. This week, Greece has been able to issue 3 month treasury bills at a negative rate of 2 basis points. Back in August, Germany sold EUR 824 million of a new 30 year bond with an average yield of -0.11%1 . The phenomenon of declining bond yields is global because of the synchronised global slowdown but also because of international capital flows which create huge correlation amongst bond markets. Japanese institutional investors are actively contributing to this development by buying long-dated paper abroad on a currency-hedged basis. They are doing this because in Japan yields have been moving down as well.The Japanese government bond (JGB) curve has been flattening in recent months, with very long maturities coming dangerously close to 0%. This is creating concerns amongst institutional investors with long-dated liabilities (insurance companies, pension funds). In a recent speech, Bank of Japan (BoJ) Governor Kuroda2 has shown that he is very much aware of the issue: “an excessive decline in superlong-term interest rates could lower the rates of return such as on insurance and pension products, and this may exert a negative impact on economic activity through a deterioration in people's sentiment.”Download The Full Ecoflash"
17,Tuskegee vs. Morehouse in a Classic,"This weekend, two of the most prominent historically black colleges will head to Columbus, Georgia for the 84th annual Tuskegee-Morehouse Classic, the longest running historically black college football rivalry series. The game is played every year in A.J. McClung Memorial Stadium, known for hosting the annual Auburn-Georgia game—""the Deep South's Oldest Rivalry""—from 1916 until 1958. For most of that period black residents and soldiers from nearby Fort Benning were not allowed to attend, and the Tuskegee-Morehouse classic was founded in 1936 in response to create an event for the community as well as a showcase of two of the top black football programs. The Auburn-Georgia game eventually grew too big for the 15,000-seat stadium in Western Georgia, a challenge the organizers of the Tuskegee-Morehouse Classic are now facing, as stadiums with better amenities angle to lure the game away from Columbus.Historically black colleges and universities (HBCUs) are generally defined as an institution of higher learning founded before the passage of the Civil Rights Act of 1964 with the primary purpose of educating African Americans. This is the second HBCU matchup we have previewed this year. For a history of HBCUs in general please see our report on the Prairie View A&M-Grambling State game. This week we feature two of the most influential HBCUs—Tuskegee, founded by Booker T. Washington and attended by the Tuskegee Airmen, and Morehouse, the alma mater of Martin Luther King Jr. and the first HBCU to produce a Rhoades Scholar.The football programs are two of the most popular in Division II, leading in average home game attendance. The Tuskegee Golden Tigers first took the field in 1913, and have racked up over 680 wins—the most of any HBCU—and 29 Southern Intercollegiate Athletic Conference (SIAC) titles. The Morehouse Maroon Tigers kicked off their season this year playing in the inaugural Black College Hall of Fame Classic in Canton, Ohio, where they lost 35-30 to Division I Alabama A&M. Tuskegee was founded in 1881 by Lewis Adams, George Campbell and Booker T. Washington, a leading advocate of African American advancement through education, entrepreneurship and economic well-being. Washington led the school, originally known as the Tuskegee Institute, from 1881 until his death in 1915, a period in which the school gained academic independence and a national reputation. Washington was a prolific fundraiser, soliciting donations from major philanthropists including Andrew Carnegie and John D. Rockefeller, while insisting on an all-black faculty to ""develop Black leadership to the maximum extent."" He believed in black self-reliance and emphasized a more practical, often agrarian education, rather than a more classical liberal arts education. George Washington Carver was instrumental as head of the Tuskegee agriculture department, where he advocated for crop rotation and the cultivation of alternative crops—most famously peanuts—as a way for impoverished farmers and sharecroppers to overcome soil depletion from the overproduction of cotton.As mechanization, the boll weevil and the Great Migration dragged on Southern agriculture, the school's academic programs gradually evolved. The veterinary school, which has educated roughly 75% of black veterinarians, was established in 1944, followed by engineering, architecture and eventually a full range of liberal arts, technical and professional programs.As World War II loomed, the U.S. military remained strictly segregated, and the Army Air Corps— the predecessor to the Air Force—did not admit black pilots. After President Roosevelt authorized black enlistment in 1941, the 99th Pursuit Squadron was founded and began training black pilots on Moton Field, just a few miles from the Tuskegee campus. The 992 pilots from the training program, who were educated at Tuskegee and known as the Tuskegee Airmen, went on to see tremendous success in the skies over Europe, serving primarily as bomber escorts. The men returned to the United States victorious on the battlefield but still facing Jim Crow laws on the home front. By 1948, however, President Truman ordered the full integration of the U.S. armed forces, in no small part due to the Airmen's exemplary service.With so much history at Tuskegee, it is easy to forget it is still a major source of innovation to this day, particularly in agricultural sciences—continuing the legacy of George Washington Carver— advanced materials, atmospheric science, biotechnology and information security. It has over 3,000 students and is the only university campus registered as a National Historic Landmark. The city of Tuskegee is about 40 miles east of Montgomery and 20 miles west of Auburn, with a population of just around 10,000. In addition to its historical importance as the site of the Tuskegee Institute, it was home to the Tuskegee Veterans Administration Medical Center, built to provide care for thousands of black World War I veterans, who were blocked from receiving care at segregated facilities. Morehouse has plenty of history of its own. Founded in 1867 as a seminary for freed slaves, it moved to its present location in southwest Atlanta after the donation of a parcel of land from John D. Rockefeller. Morehouse emphasized a more rigorous, classical liberal arts education, in contrast to Booker T. Washington's more experiential and skills-based philosophy at Tuskegee.Today Morehouse is one of only three all-male non-religious four-year schools in the nation, along with Hampden-Sydney College in Virginia and Wabash College in Indiana. Currently Morehouse has around 3,000 students and offers 26 majors, and it has awarded bachelor's degrees to more African American men than any other school in the United States.Morehouse has close ties to Atlanta—alumnus Maynard Jackson was the first African American mayor of the city, and several Morehouse graduates have also gone on to distinguished careers in public service and politics. Morehouse graduates are well integrated throughout the Atlanta economy, attaining key leadership positions in the region's financial services, healthcare, construction, entertainment and publishing industries. Morehouse is also a member of the Atlanta University Center Consortium, which consists of four HBCUs: Clark Atlanta University, Spelman College (the nation's oldest higher education institution for black women), Morehouse and the Morehouse School of Medicine. Combined, the four institutions have 9,000 students.The Morehouse class of 2019 made headlines when billionaire Robert F. Smith, one of the nation's wealthiest African Americans, pledged in his commencement speech to pay off all of the class's student loan debt, instantly becoming the largest donation to a HBCU in history. Smith did not attend Morehouse himself, but the school has a tremendously influential roster of alumni, including Martin Luther King Jr., Edwin Moses, Herman Cain, Spike Lee and Samuel L. Jackson. It was also the first HBCU to produce a Rhoades Scholar, and has since produced three more. Morehouse comes into the game 2-3, while Tuskegee has had somewhat of a rough start to the season, going 1-4 and in the midst of their first three-game losing streak since 2011. They have not lost four in a row since 2003, adding even more fuel to the fire of this rivalry game. Still, there is more to this weekend than the contest on the gridiron. Festivities surrounding the game include community-based religious services, a parade and tailgating, all meant to raise funds to provide scholarships to aspiring college students.The game will kick off at 2 PM Eastern and will be broadcast on ESPN3. Tuskegee comfortably leads the overall series 72-28-7 and has won 20 of the last 25. The point differential the last five years has been 213-83 in favor of the Golden Tigers, but Morehouse came away victorious last year in a game that extended into triple overtime. Tuskegee is favored by four points on Saturday.Download The Full Special Reports"
18,Vitalik Buterin: What to expect after Ethereum 2.0,"The co-founder of Ethereum Vitalik Buterin has come out to clear the air after a Twitter war erupted following the recent Ethereum Devcon conference. Questions were raised regarding the transition from the Proof-of-Work (PoW) to Proof of Stake (PoS) consensus algorithms.The release of Ethereum 2.0 was on the agenda alongside questions directed to Buterin and Joseph Lubin for selling the Ethereum scam knowing that there were scaling limitations.However, Buterin has shared what is expects the transition to feel like saying:“The eth1 chain technically continues but it is valueless; eventually it will die off when the difficulty ice age hits.”Notably, the actual transition is expected to take place in a period of six hours. However, the entire process will take two years. The first stage is to move to the PoS protocol while leaving Ethe1 chain running. During this phase withdrawal will not be allowed to take place.“From a user’s point of view, Ethereum would “feel” the same pre-and post- transition (except that post-transition it would feel smoother due to Po Sans EIP 1159).” "
19,Russia and China take opposite sides on state-backed cryptocurrency issue,"There are no obvious reasons to issue a state-backed cryptocurrency at this stage, the head of the Russian central bank Elvira Nabiullina said at the forum of innovative financial technologies Finopolis.She added that the central bank had been exploring the idea of creating a so-called CBDC (Central Bank Digital Currency), but at this stage, there were no clear benefits in issuing such currency.  The central bank studied technical aspects of the state-based cryptocurrency issuance and tried to evaluate its advantages over the existing electronic non-cash payment systems. “The risks are platy, but the benefits are not clear enough,” - Nabiullina explained to the Vice Chairman of the People’s Bank of China Fan Yifei.Meanwhile, Fan Yifei said that China was exploring the possibility of creating a national cryptocurrency. He believes that it is important to cooperate with other countries in developing regulatory standards for the industry. Ifei did not specify the launch dates for the national cryptocurrency in China. He said that it was necessary to do numerous researches and take into account the experience of other countries.The State Duma in Russia approved the first reading a bill on digital financial assets.The second reading of the bill with the latest amendments has been delayed numerous times as the lawmakers fail to come to the agreement on cornerstone aspects including the definition of digital asset."
