,title,text
0,"EUR/USD remains directionless near 1.1070, focus on data, USD","The shared currency is struggling for direction on Wednesday, prompting EUR/USD to remain so far cautious around the 1.1070 region.After a negative start of the week, the pair appears to have met some decent support in the area of last week’s lows near 1.1070, always amidst a moderate rebound in the demand for the buck.In fact, the improved mood in the risk-complex in response to positive developments from the US-China trade front has given extra oxygen to the greenback via higher yields and persistent outflows from the safe havens like the Japanese yen, all weighing down on spot and forcing it to abandon the upper end of the range in the 1.1170 region.Today, some support for EUR came from the German docket after Factory Orders rebounded markedly 1.3% during September, bringing in some relief to the beleaguered sector.Still in Euroland, final Services PMIs are due later today along with Retail Sales in the broader euro area. Across the pond, Non-farm Productivity and Unit Labor Costs are expected along with the EIA’s report on US crude oil inventories. Additionally, Chicago Fed C.Evans, Philly Fed P.Harker and NY Fed J.Williams are all due to speak.The pair has come under extra selling pressure since the beginning of the week on the back of the renewed buying interest in the buck and the broad-based improvement in the sentiment around the riskier assets. In the meantime, the failure to break above October’s high near 1.1180 triggered a move lower to the 1.1070 region, coincident with recent lows. In spite of occasional positive results in the euro docket, the outlook in Euroland remains fragile and does nothing but justify the ‘looser for longer’ monetary stance by the ECB and the bearish view on the single currency in the medium term at least. In addition, the possibility that the German economy could slip into recession in Q3 remains a palpable risk for the outlook and is expected to weigh on EUR in the short/medium term horizon.At the moment, the pair is gaining 0.05% at 1.1079 and faces the next up barrier at 1.1119 (100-day SMA) followed by 1.1179 (monthly high Oct.21) and finally 1.1186 (61.8% Fibo of the 2017-2018 rally). On the downside, a breakdown of 1.1063 (monthly low Nov.5) would target 1.1043 (55-day SMA) en route to 1.0925 (low Sep.3)."
1,EUR/USD Forecast: Bearish outlook is back as Double Top confirms downward trend,"- EUR/USD has drawn a very bearish chart pattern, looks to the downside.- A lighter economic calendar in the upcoming days should favor an extension of the recent slide.- ECB's monetary policy stance is out-dovishing the Fed's one, which keeps driving the pair.EUR/USD has built a double-top formation which opens up another bearish scenario. The consecutive upbeat releases from the US jobs report and both the ISM Manufacturing and Non-Manufacturing PMIs have finally propelled some US dollar buying, stopping the greenback's route from October. The month of November has started on the downward path and a lighter economic calendar for the upcoming days indicates that bears could ride their trend back for some time, as they keep profiting from the monetary policy and macroeconomic differential between the US and the Eurozone.The euro dollar 1-hour chart comes in handy to picture the current double-top formation. It is showing the textbook chart pattern, confirmed by looking at the Investopedia definition of what a double top means: ""extremely bearish technical reversal pattern that forms after an asset reaches a high price two consecutive times with a moderate decline between the two highs. It is confirmed once the asset's price falls below a support level equal to the low between the two prior highs"".A meaningful high was set at 1.1180, where EUR/USD bulls were rejected on Friday after better-than-expected Non-Farm Payrolls figures. From then on, sellers have taken over, breaking below the support level located at the lows set between October 25th and October 29th around 1.1075. A weak recovery after some positive data from Germany and the Eurozone seen in the last hours confirms that the bias is clearly bearish.This double-top formation has some acute EUR/USD bearish potential, particularly taking into account that the economic calendar will take a step back from the exhilarating sequence of high-impact events that we have seen for the last week. Germany is set to release Industrial Production figures on Thursday and we will get from the US the preliminary results from November's University of Michigan Consumer Sentiment survey, but those are events a tier below from the high-top ones we have got in the last seven days. That should help the market set a stable trend favoring more downside momentum, as the bullish steam gathered in October is reversed. Euro dollar's daily chart shows that the recent double-top fits quite nice within the long-term bearish trend that the pair has been riding for the last year and a half. It is a slow but deliberate slide that has just provided another strong confirmation signal. Therefore, bears should be targeting a return to the psychological 1.10 figure before staring at the just-below 1.09 lows set at the end of September.These targets should be reachable during November, as there's some cyclical demeanour going on that downward trend that relates well to the current picture. Let's take a look at the monthly data.By gaining around 270 pips, October has been the most bullish month in the euro dollar since the start of 2018 – there have only been seven bullish months out of 22 in such period, with last June being the only one close to that gain, which was quickly reversed with a 310-pip slide in July, when the Fed started cutting its interest rates. That one could be a similar scenario to the one we are now facing, as the Fed has hinted a pause to its three consecutive rate cuts while the ECB, under Christine Lagarde's new leadership, is set to continue looking for unconventional (and unsuccessful) ways to stimulate the economy.All in all, it's easy to see why the market keeps coming to the same point: the fact that the European Central Bank keeps out-dovishing the Federal Reserve, which was the case again in October, is the most relevant factor to keep pulling EUR/USD lower. There is not an end at sight for this monetary policy differential and while this lasts, the long-term forecast will always tend to favor the US dollar.Risks to the upside could be located on the risk that the US-China trade negotiations – reportedly working more smoothly lately – were to be derailed, which could trigger some USD short-term selling. That could trigger some short-term USD sell-off, probably translating into some bad US consumer and business sentiment surveys, although in the mid- and long-term, the greenback is much better equipped to work as a safe-haven asset than the euro and its other counterparts.On the euro side, an ordered Brexit finally happening could provide some relief to the common currency, so December 12th UK election has to be seen as a key date. Markets would look like a positive a stabilizing result – at this point, only a Boris Johnson comfortable win would probably do that – but even that effect would be limited until Brexit is confirmed. The UK is now expected to leave the European Union on January 31st. Any other outcome which triggers more uncertainty and likely further delays to the Brexit deadline should be looked as EUR-negative, so there's even more downside potential looming there."
2,USD/ZAR Forming Cup and Handle but Must Fill the Gap First!,"The South African Rand gapped lower on Sunday evening as Moody’s maintained its investment grade rating for South Africa.  Many were expecting the credit agency to downgrade the rating, as the budget forecast for South Africa showed that the financials of the county were deteriorating.  However, although Moody’s did maintain the investment grade rating, they did cut the outlook from stable to negative.   On a daily timeframe, it looks as if USD/ZAR could be forming a cup-and-handle formation dating back to August of 2018.  After the pair broke higher in February of 2018, it spiked higher to a high of 15.3861. The pair pulled back to near the 61.8% retracement level of that same timeframe to 13.3243 and began a rounding bottom formation (the cup) back towards the highs.  USD/ZAR retraced back to near the prior highs to 15.4939 and appears to be currently putting in the “handle” portion of the cup-and-handle formation.  The target for the cup-and-handle formation is the distance from top of the cup to the bottom, added to the breakout point from the handle.  In this case the target for USD/ZAR is near 17.4000. On a 240-minute chart, we get clearer picture of the “handle”.  USD/ZAR began pulling back and trading in a downward sloping channel.  Before the initial pullback off the high, the pair put in a double top and reached the target near 14.5000 in mid-September.  Price has been range trading within the channel between 14.5000 and 15.4000 since then.  However, on Sunday, price gapped lower from 14.9858 down to 14.8886.  Currently, price appears to be trying to trade into the gap.    First resistance comes in at the gap fill of 14.9856.  Above there, resistance is at the top of the downward sloping trendline near 15.2500.  Next resistance is at the “handle” highs near 15.4939.  First support is yesterday’s lows at 14.6761.  Below that is horizontal support from the lows on both September 13 and October 28th at 14.5108. Keep an eye on the gap!  That is the first step in fulfilling the cup-and-handle formation!"
3,EUR/USD Forecast: EU data underpin the common currency,"The EUR/USD pair has bounced from a critical Fibonacci support level tested late Tuesday but has been unable to recover the 1.1100 threshold. The shared currency advance was backed by German data, as September Factory Orders beat the market’s expectations, rising by 1.3% MoM and falling by 5.4% YoY. Also, the final versions of the October Markit Services PMI came in better than anticipated, up to 51.6 for Germany and to 52.2 for the whole Union.In the meantime, optimism prevails, although the market needs some material signs of progress in US-China trade negotiations to push high-yielding assets higher. Equities were up in Asia, while European indexes have recovered from negative levels, currently barely up for the day.The US macroeconomic calendar is quite light this Wednesday, as the country released the weekly MBA Mortgage Applications, which were down by 0.1% in the week ended November 1.  Q3 Nonfarm Productivity missed expectations, down by 0.2% while Unit Labor Costs for the same quarter were sharply up, to 3.6% from 2.4%.The EUR/USD is trading in the 1.1080/90 price zone, trapped between Fibonacci levels and maintaining the bearish stance in the short-term. The 4 hours chart shows that the 20 SMA extended its decline above the current level, while the larger ones remain directionless. Technical indicators have corrected oversold conditions but turned flat well into negative ground, indicating limited buying interest. The upside potential should increase once beyond 1.1110, while a break below 1.1065 should signal a steeper decline ahead.Support levels: 1.1065 1.1020 1.0970Resistance levels: 1.1110 1.1145 1.1180  View Live chart for the EUR/USD "
4,US500 index prints fifth week of gains; bias positive overall [Video],"The US 500 stock index (cash) is recording its fifth week of gains within an ascending channel.Having reached a fresh record high of 3,087, the market may experience some weakness in the short-term as the price touches the upper Bollinger band and the RSI reverses lower just below its 70 overbought mark. Yet, with the latter holding well above its 50 neutral mark and the market trend showing no signs of reversing as the index keeps printing higher lows and higher highs, the bulls are likely to dominate medium-term.Immediate support to downside corrections could be the area around 3,020 where the bullish action topped twice from July onwards. Crossing under the middle Bollinger band, the former barrier of 2,960 could take control before the way opens towards the bottom of the channel and the 200-day simple moving average (SMA) currently around 2,890.On the flip side, a resumption of the bullish momentum could test the upper surface of the channel currently seen around 3,110. Interestingly, if buyers manage to clear that obstacle, the next stop could be somewhere between 3,150 and 3,200; levels that hold psychological significance as the index is moving in uncharted territory.Looking at the three-month picture (medium-term), the index is back on a positive track following the close above the 3,027 level, with the upward-sloping SMAs endorsing the bullish sentiment.In short, the US500 stock index could face some downside pressure in the near-term but overall the market is expected to hold its upside direction, with the upper line of the ascending channel coming into focus."
5,Commodity Report: Gold Price Forecast: November 2019 [Video],"Gold steadied on Wednesday after a 2% decline on Tuesday, as a rally in equities stalled and the outcome of U.S.-China trade talks looked uncertain again.Traders now await new developments on the talks after reports that China is pushing U.S. President Donald Trump to remove more tariffs imposed in September as part of a ""phase one"" trade deal. Meanwhile hedge funds and money managers increased their bullish positions in COMEX contracts in the latest week.Where are commodity prices heading next?  Watch Phil Carr at The Gold & Silver Club review Gold with the latest price forecast and predictions:
 "
6,Australian Dollar struggles with 69c vs the Greenback,"In the absence of any top tier local data on Wednesday AUD/USD moves were limited moving within a tight range of 0.6886 and 0.6900. The pair unable to break the 69c resistance level with offshore markets driving the Australian Dollar lower touching 0.6869 on the back of better than expected US labor force data and trade optimism. Investors are waiting for further details about the potential signing of the US-Sino trade deal, with Australia being one of China’s largest trading partners the deal could have an impact on the Aussie.Looking ahead, the domestic docket sees the release of AIG Construction Index, September showed a further contraction with the index dropping to 42.6. Investors are braced for another reading in negative territory. We will also have trade balance due where the surplus narrowed for a second straight month, falling to A$5.93 billion in August. This was down sharply from the July release of A$8.04 billion. The downturn is expected to continue in September, with an estimate of A$5.10 billion.From a technical perspective, the Aussie is currently trading at 0.6882. We continue to expect support to hold on moves approaching 0.6820 followed by 0.6800. While any upward push will likely meet resistance at 0.6900 and 0.6930.Markets have been quite uneventful in the last 24 hours, we saw data out the U.S on Wednesday showed Labor Costs for the third quarter increased 3.6 percent beating market expectations of 2.2 percent. Also, the latest on the US-China trade deal was that they were still working together to potentially sign a “phase one” trade deal as early as this month. The U.S Dollar index has strengthened and currently trades around 97.95.The UK election campaign has officially began as Boris Johnson visited Buckingham Place to notify the Queen of the parliament’s dissolution ahead of a Conservative Party rally. Financial markets now see opinion polls as the main barometer to watch in terms of gauging Brexit outcomes which means any major swings in polls could impact on Sterling. The latest opinion poll shows Boris Johnson’s Conservatives in a comfortable 11 point lead on 38 percent ahead of the December 12 general election, labour lagging on 27 percent, the Brexit party seeing their vote shrink to only 10%, whilst the Liberal Democrats are on 16 percent. GBP/USD sits at 1.2856 having dropped from a high of 1.2897. The main event for the Pound this week has been the highly anticipated Bank of England meeting today, it is not expected that they will announce a change in policy but there is growing speculation that they will begin to adopt a more neutral stance due to weaker growth.AUD/USD: 0.6800 - 0.6930 ▲

GBP/AUD: 1.8550 - 1.8800 ▼

AUD/NZD: 1.0740 - 1.0880 ▲

AUD/EUR: 0.6160 - 0.6240 ▲

AUD/CAD: 0.9040 - 0.9130 ▲IMPORTANT: This information has been prepared for distribution over the internet
and without taking into account the investment objectives, financial situation and particular
needs of any particular person. Oz Forex Foreign Exchange makes no recommendations as to the merits of
any financial product referred to in this website, emails or its related websites. Please read our Product Disclosure Statement and our Financial Services Guide.Regulated in Australia by ASIC (AFS Licence number 226 484)
© 2010 Copyright Oz Forex Foreign Exchange Pty Ltd ABN 65 092-375-703
OzForex Foreign Exchange ServicesMember of FOS (Financial Ombudsman Service)
Full Member of AFMA (Australian Financial Markets Association)"
7,GBP/JPY: Range Breakout,"Bullish: Currently we are at 140.75 in a range. If we Break out we should hit the ATR target today @ 141.89. Watch the 141.49 area. WATCH THE USDX for more clues. The ATR is 117 Pips per day.ProAct Traders™ (hereafter, PAT) assumes no responsibility for errors, inaccuracies, or omissions, nor does it warrant the accuracy or completeness of the information in the materials that comprised the text, graphics or other items contained in the ProAct Charts as a result of computer or power failures or interruptions in the electronic delivery systems via the Internet. PAT shall not be liable for any special, indirect, incidental or consequential damages including without limitation losses, lost revenue, or lost profits that may result from these materials.Foreign Currency Trading carries a level of risk / reward that may not be suitable for all considering participation in the market known as Forex. The Forex is a ""zero sum"" market and its end effect is that there are an equal number of winners and losers. Consequently, the possibility exists that you could sustain an eventual loss of some or all of you initial investment. Therefore, you should never invest money that you cannot afford to lose. Before deciding to trade the Forex, you should become thoroughly educated in how the market works, have a sound money management plan and then carefully consider your investment objectives, level of experience, and risk appetite. If you have any doubts, seek advice from an independent financial advisor."
8,Labor Productivity Dives as Unit Labor Costs Soar,"Worker productivity unexpectedly took a steep dive. As a result, production costs soared.The BLS report on Productivity and Costs shows nonfarm business sector labor productivity decreased 0.3 percent in the third quarter of 2019.Labor productivity, or output per hour, is calculated by dividing an index of real output by an index of hours worked by all persons, including employees, proprietors, and unpaid family workers.The BLS says output increased 2.1% and hours worked increased 2.4% in the third quarter.Given the GM strike and huge problems at Boeing, I struggle to see output and hours worked are both up, but that is what the reports says.Missing the BoatEconomists were well off the mark.Both results were outside the consensus range. This material is based upon information that Sitka Pacific Capital Management considers reliable and endeavors to keep current, Sitka Pacific Capital Management does not assure that this material is accurate, current or complete, and it should not be relied upon as such."
9,GBP/USD Forecast: Bearish potential increasing,"The GBP/USD pair has settled in the 1.2840/50 price zone, having spent the this Wednesday at the lower end of its weekly range, directionless. The UK didn’t release macroeconomic data, and in the political front, little changed. Tories continue to lead polls, while PM Boris Johnson said that if they win the election, he would put an end to Brexit parliamentary paralysis and “unleash the country’s potential.”Market players are now waiting for the Bank of England, which will unveil its latest monetary policy decision this Thursday. Given Brexit in the way, the most likely scenario is that policymakers will maintain the status quo and the meeting a non-event. However, it is a central bank meeting and has the chance of triggering volatile moves.The short-term picture indicates that the GBP/USD pair is at risk of falling further, although it would need to break below 1.2820, a Fibonacci support, to confirm a steeper downward move. In the 4 hours chart, a bearish 20 SMA capped advances, while the pair is currently below its 100 SMA. Technical indicators, in the meantime, remain within negative levels, with uneven bearish strength yet anyway heading lower.Support levels: 1.2820 1.2785 1.2750Resistance levels: 1.2910 1.2950 1.2990View Live Chart for the GBP/USD"
10,Is China a Financial Risk to the Global Economy?,"China's importance in the global economy has clearly risen significantly over the past few decades. As it has grown from an emerging economy of modest size to the world's second largest economy, China has become one of the most dominant players in global trade flows. Although the country's financial interactions with the rest of the world have also grown meaningfully, China does not have the same heft in the global financial system as it does in the global economic system. China is fairly open in terms of trade flows, but its use of capital controls has restrained its financial integration with the rest of the world.Because foreigners have limited amounts of direct financial exposure to China, a financial meltdown, should one occur, would likely not be as consequential for the global economy as the financial crisis that emanated in the United States beginning in 2007. But the indirect effects would not be inconsequential. A financial meltdown in China would probably cause a painful economic downturn in that country, which would impart a significant shock to global growth via the exports that China takes in from the rest of the world. A few decades ago, when China was an emerging economy of only very modest size, it had very little economic and financial interaction with the rest of the world. In 1988, China took in less than 2% of the world's exports and only 2% of the world's imports were supplied by China (Figure 1). Thirty years later, China's absorption of the rest of the world's exports has grown to 10% and it supplies around 14% of the goods that the rest of the world imports. In other words, China has become a significant player in global trade flows in a relatively short period of time.China also has become a more important player in the global financial system. Foreign holdings of Chinese assets have grown from less than $700 billion in 2004 (earliest available data) to more than $5 trillion in 2018 (Figure 2). Foreign direct investment (FDI) accounts for nearly $2.8 trillion of the current total, but foreigners' portfolio investment holdings include $700 billion of Chinese equities and more than $400 billion of Chinese bonds. On the other side of the ledger, China's ownership of foreign assets has mushroomed as well. Chinese holdings of foreign assets shot up from less than $1 trillion in 2004 to more than $7 trillion last year. Download The Full Special Reports"
11,Q3 Earnings Season – Teva Pharmaceutical Industries,"Teva Pharmaceutical Industries Ltd. is an Israeli American multinational pharmaceutical company with dual headquarters in Petah Tikva, Israel, and Parsippany, New Jersey. It was incorporated in Israel on February 13, 1944, and is the successor to a number of Israeli corporations, the oldest of which was established in 1901. The company was created with the mission of being a global leader in generics, specialty medicines, and biopharmaceuticals. They are now the largest generic drug manufacturer in the world and one of the 15 largest pharmaceutical companies worldwide.Teva began trading on TASE (Tel Aviv Stock Exchange) as the Teva Middle East Pharmaceutical Chemical Works Company Ltd. in 1951. Today, Teva (TEVA) is listed on the NASDAQ stock exchange.The company Q3 Earnings report for 2019, will be released on Thursday, November 7, before the US markets open. According to Zacks Reports, in the last reported quarter, the company delivered a positive earnings surprise of 3.45%. Teva’s earnings surpassed expectations in three of the last four reported quarters, with the average positive surprise being 6.30%.In the past three years, TEVA has derived most of its revenue from products including: Copaxone, Treanda, ProAir, Austedo and Qvar. See the chart below from “statista.com”.Usually, TEVA’s earnings report is based on three different regions, North America, Europe, and the international market. Before going to check the market forecast, we will review the past reports for these regions, based on company reports on their own website.
Comparing the revenue and gross profit of the second quarter, ended June 30 of 2019 and 2018, in different markets: (US $ in millions) Revenue: 2,071 – A decrease of $192 million, or 8%, compared to the second quarter of 2018 at 2,263.Gross profit: 1,067 – A decrease of 9%, compared to $1,179 million in the second quarter of 2018. Revenue: 1,183 – A decrease of 11% or $145 million, compared to the second quarter of 2018 at 1,328.Gross profit: 674 – A decrease of 7% compared to $727 million in the second quarter of 2018. Revenue: 741 – A decrease of $48 million, or 6%, compared to the second quarter of 2018 at 789.Gross profit: 312 – A decrease of 5% compared to $328 million in the second quarter of 2018.The data above show that the North American market is the most important market for TEVA products. Additionally, in the Earnings Per Share (EPS) reports of past quarters report, as mentioned above, Teva’s earnings surpassed expectations in three of the last four reported quarters, with the average positive surprise being 6.30%, more details we can see in the below chart by separated quarters, provided by Nasdaq. As Zacks reports, “in the third quarter, sales are expected to have been hurt once again by rapid erosion in sales of Copaxone, lower sales of other branded drugs, Bendeka/Treanda and ProAir, pricing erosion in the US generics business and negative currency impact due to the strengthening of the Dollar. Meanwhile, sales of the other new product Austedo are likely to have increased in the third quarter.” With this general estimate, Zacks’s ranking for this company in the stock market is #2, as buy recommendation. In the chart below with more details we can see Seeking Alpha’s estimate for the third quarter of 2019, as well. Since January 2019, after October 15, for very first-time candles could clearly open and close above 50-day EMA, which can be interrupted as a positive signal, even though the share price has seen a 92% decline in the past 4 years. Technical indicators have been slightly returning to the positive side, in the higher timeframe charts, Weekly, Daily, and H4 charts, while in the H1 and M30 charts remain channel bound with a bearish bias.  $7.46 and the all-time low of $6.05 are next support levels, while 50-week EMA at $11.72, after key resistance level at $9.25 and $12.55 are the key resistance areas."
12,Christine Lagarde Said What? Are You Kidding Me?,"Good day... And a Wonderful Wednesday to you! After experiencing a cold front going through our region last week, and then warming up again, the cold front is coming back again tonight! UGH! I totally despise having to put on a winter coat, hat, scarf and gloves just to go outside! But this is one of the things my mom loved about St. Louis, we get to experience all 4 seasons... It's just that spring and fall always seem to be short compared to winter and summer... Oh well, it is what it is... I had to cut the Uni-boot off yesterday, as the problems arose with it... My leg wound is NOT getting any better, and this is after 1 month of being seen by a wound specialist doctor... I get very discouraged about things that move along in a timely manner, so you maybe you can imagine just how discouraged I am right now! The Ozark Mountain Daredevils greet me this morning with their song: Jackie Blue...Well, the currencies didn't live up to the challenge I laid before them yesterday, and instead of adding to their Friday gains, they lost more ground to the dollar, with the euro falling back below 1.11 and the Aussie dollar falling back below 69-cents... It was a good day, however, for the Chinese renminbi, which saw another appreciation that has taken the onshore currency to the brink of falling below the 7 figure... The offshore version of the renminbi did fall below 7 yesterday... That currency is more a market driven currency and not the State controlled version that I usually quote and talk about.An old friend from his Agora days, Tom Dyson, is back writing again, as he and his family are traveling the world, and for the past 3 weeks they've been in China, and he sends his daily postcard each day, that chronicles his travels, and what he sees going on in economies of countries he visits... His latest postcard mentioned all the building that's going on in China, of infrastructure, bridges, roads, and most of all apartment buildings...Many years ago at a Conference a dear reader cornered me and plead his case that he thought that the Chinese were overbuilding and it would end up in ruins for their economy... I pointed out to him then and even more so now, that there are hundreds of Millions of people throughout China that I saw eventually moving into these apartments... Maybe not the mom and pops but the kids when they grow up, and China's Capitalist economy matures more... That's how I see it... period. Oh, and did I mention their Treasure chest of reserves, that need to have some spending out of it each year?Reuters says that the dollar rally is buoyed by strong data.... OK, am I missing something here? Did we not just print a second month of negative Factory Orders? Maybe they're referring to the uptick in the services index... OK, big deal, we have become a servicing country, and we suck at service! Or the Trade Deficit, which narrowed in September, and could be viewed as a good thing, but when you get right down to it, U.S. consumers cause the Trade Deficit as they buy hand over fist goods from China and elsewhere... Well, this narrowing only indicates, to me that is, that Consumers aren't spending what they normally do... And this is a very bad thing for our economy folks... We are a consumer based economy, and without the consumer contributing, there will be no economic growth!I'm waiting for the results of the Retail Sales data in the Eurozone this morning, and it looks like it might not be out before I hit send... I guess there's always tomorrow... No wait, we are only promided today... Oh, well if we're not here tomorrow, we won't care what the data was! But much to my surprise, there they are! And they aren't as bad as I expected them to be! For September, Eurozone Retail Sales were up 0.1%, but on a year on year basis, they were up 3.1%.Not the results that would say that the Eurozone is out of the woods... No way, no how, just plain no! But better than the average bear Retail Sales for the Eurozone... but the euro can't find a bid this morning... hmmm?Gold got taken back below the $1,500 figure once again, this time by $25 on the day, closing at $1,483..... Back and forth over and below the $1,500 figure was my call when Gold finally went over $1,500 a couple of months ago... And that's exactly what we've seen... Back and forth, back and forth, until one day... When it makes a definitive move either way... I keep thinking about the Gold chartists told me a month ago, and that is that Gold could very well see a correction back to $1,425... Before beginning it's move higher once again... There's an old saying by traders about these kinds of moves... And it is that the asset needs to go back and fill in the prices it skipped over on the way up...Ahhhh, trader talk... It used to be something you had to be pretty good at doing, each day as you bought and sold currencies... But it's a dead art, folks... Currency traders now a days, simply put their trades into a computer and they get back their prices... no horse trading, no bidding back on the price. The new way is obviously quicker, more efficient, as the computer then generates the tickets for the back office so they can settle the trade. But... no trader talk, any longer... Old time traders like me, have been put out to pasture...OK... history lesson for the day is over with... Let's move on... The Trade War negotiations continue to make progress or so says the media... China's president, Xi, seems to want to get this done, so maybe, just maybe, because you never know... it will get done... The euphoria over the idea that it could get done is what has Gold at the selling window the past couple of days.I read where Xi wants Trump to drop the Tariffs and never use them again... I'm guessing here that Xi is speaking for the rest of the world, like Europe, who has suffered from the Trump Tariffs as well. Isn't that what the knight in shiny armor does as he rides in on his white stallion? He speaks for the ""little people""... Whoda Thunk it... ""Xi, a man for the people of the world""...The U.S. Data Cupboard has the stupid Productivity report for the 3rd QTR today. In addition we'll also see the Unit Labor Costs for the 3rd QTR... I would only be half interested in the latter of the two, but it will be interesting to see how the markets view them.To Recap... The dollar bugs have taken back all the ground they lost on Friday, and we're back to the currencies trading with levels seen before last Friday. Gold got taken down by $25 yesterday... That along with Silver which also got taken down, are seen to be caught up in the Trade Talk euphoria, but Chuck thinks that's just an excuse the price manipulators throw out there to confuse us...Or, here's your snippet: "" Any hopes that the replacement of Mario Draghi, who on Halloween left the ECB more polarized than ever, as the core European nations revolted against the Italian's profligately loose monetary policy in an unprecedented public demonstration of discord within the European Central Bank...... with the ECB's new head, former IMF Director and convicted criminal, Christine Lagarde would result in some easing of tensions, were promptly crushed when Lagarde picked up where Draghi left off, calling on Germany and the Netherlands to use their budget surpluses to fund investments that would help stimulate the economy, in a sharp rebuke that will not win the former French finance minister any friends in fiscally conservative Germany.In an appeal to Germany's sense of solidarity, and in hopes that Germany's memory of hyperinflation has faded enough, Lagarde said that there ""isn't enough solidarity"" in the single currency area, adding: ""We share a currency, but we don't share much budgetary policy for now.""""Those that have the room for manoeuvre, those that have a budget surplus, that's to say Germany, the Netherlands, why not use that budget surplus and invest in infrastructure? Why not invest in education? Why not invest in innovation, to allow for a better rebalancing?"" asked Lagarde, blaming Germany and the Netherlands for living within their means, and demanding they should no longer do so, just because most other Europeans decided to pull a page out of the American playbook, and live exorbitantly outside of their means.Lagarde's direct attempt at shaming Europe's fiscal conservatives was nothing short of shocking: normally ECB officials avoid naming individual countries in public statements, because their mandate is to act in the interests of the eurozone as a whole. But when Lagarde made her speech she had not yet officially taken over at the Frankfurt-based institution - she succeeds Mario Draghi on Friday.And just to guarantee she is as resented by Germany as was Mario Draghi, she said that the German and Dutch governments, which last year had budget surpluses of 2% and 1.5% respectively, ""have not really made the necessary efforts,"" she added, referring to establishment's increasing desperation to force anyone with an even remotely normal balance sheet to sink to the same level as their insolvent peers.As for the punchline, Lagarde defended the negative interest rates introduced by her predecessor Draghi, arguing that people should be happier to have a job than a higher savings rate. This, as a reminder, comes at a time when virtually everyone who is not named ""Draghi"" or ""Lagarde"" thinks that negative rates are catastrophic, and assure doom for the Eurozone.""Chuck again... Zerohedge.com said it best when they called her comment "" We should be happier to have a job than to have savings"" The new Marie Antionette quote about letting them eat cake! What a, now wait a minute Chuck no need to go to calling her names... Remember what you mother taught you!Currencies today 11/6/19 American Style: A$.6898, kiwi .6377, C$ .7595, euro 1.1085, sterling 1.2885, Swiss $1.o085, European Style: rand 14.7924, krone 9.1556, SEK 9.6105, forint 298.97, zloty 3.8501, koruna 22.9996, RUB 63.41, yen 109.02, sing 1.3585, HKD 7.8238, INR 70.78, China 7.0069, peso 19.21, BRL 4.0030, Dollar Index 97.83, Oil $57.21, 10-year 1.84%, Silver $17.54, Platinum $926.19, Palladium $1,784.70, and Gold... $1,485.57That's it for today... I've not been getting my full night's sleep the last two nights, as the pain in my leg acts up when I lay down... UGH! I've got a high tolerance of pain, but this is getting ridiculous! I don't like it when I don't get a full night's sleep! Well, our Blues sure are on another roll, winning their 5th straight game last night in Vancouver in overtime. In fact, a good number of their wins this year have come in overtime... Which is far better than losing or having to go to a shootout! The Blues are finding a way to win without their star player, who will be out for 5 months! UGH! I have another test tomorrow, this one to see if I have a perforated vein in my leg... The doc hasn't told me yet what it means if I do have one... Oh, boy, I get another conversation with a doctor! Where do I sign up for that one? Oh well, it is what it is, and life goes on, right? The Late great Dan Fogelberg takes us to the finish line with his song: The Last Nail... (I used to play this one on my guitar!) I hope you have a Wonderful Wednesday, and will Be Good To Yourself!"
13,"Top 3 price prediction BTC, ETH, XRP: Microsoft opens its windows to Ethereum and the sky is the limit","The leading player of the day among the Top 3 cryptocurrencies is undoubtedly Ethereum. Microsoft has unveiled the launch of a platform that will allow the global economy to approach the blockchain phenomenon.Using its Azure platform as a base, the system designed by Microsoft provides open resources for developers to implement different types of utilities in tokens that run on the Ethereum blockchain. This initiative represents the most ambitious approach between the real economy and blockchain technology ever seen. Some practical examples:- A logistics operator will be able to create a token that will allow them to guarantee and trace their shipments. - A musician would add a pay-per-use token that will generate micro-payments every time that song is played. - A manufacturer of sneakers may encode in a unique and unrepeatable way each one of its products, user by user.The impact on Ethereum´s price has been immediate and may turn into the catalyst for a long-term rally expected for many months by the followers of Vitalik Buterin's project.  ETH/BTC is currently trading at 0.0203 after leaving the intraday high at 0.0207, momentarily exceeding the EMA50.Above the current price, the first resistance level is at 0.0205, then the second at 0.022 and the third one at 0.023.Below the current price, the first support level is at 0.020, then the second at 0.0197 and the third one at 0.019.The MACD presents the preferred profile of any buyer – a bullish cross in evolution. As always, the cut will is unlikely to be clean and bearish rejections will appear. The DMI on the daily chart shows an absolute tie between the bulls and the bears. Both sides of the market are above the ADX line so that the winner can move very quickly upwards. BTC/USD is currently trading at the price level of $9,395 on a new day of enclosure between moving averages. Bitcoin needs to exceed $9,500 to set in the bullish mode. If BTC/USD loses the  $7,500 price level, it will be the end of the bullish stretch from December lows.Above the current price, the first resistance level is at $9,500, then the second at $10,600 and the third one at $11,300.Below the current price, the first support level is at $9,150, then the second at $9,100 and the third one at $8,800.The MACD on the daily chart shows the loss of bullish inclination as well as decreasing the distance between moving averages. Despite the worsening of the upward profile, it is noticeable that after 11 days of contraction of the daily range, maintaining this profile denotes a significant underlying bullish force.The DMI on the daily chart shows both sides of the market moving lower at the same time. The distance between them has not changed and confirms that the bullish strength remains despite the difficulty of overtaking the SMA200.ETH/USD is currently trading at the $191.5 price level, after hitting an intraday high of $194.80. Ethereum has a clear path to the $215 level, where the SMA200 is sure to oppose the passage of the price.Above the current price, the first resistance level is at $195, then the second at $200 and the third one at $213.Below the current price, the first support level is at $188, then the second at $183 and the third one at $180.The MACD on the daily chart shows a moderate bullish profile, with a little opening between the moving averages. ETH/USD does not currently have a profile that favors significant price rises, so what the price does in the next few hours may be key to medium-term development.The DMI on the daily chart shows us how bulls move quickly upwards while bears lose the support of the ADX line. The selling side starts a bearish pattern, and the bullish momentum of the ETH/USD pair is confirmed.XRP/USD is currently trading at $0.3015 and fails to move higher. Above the current price, the first resistance level is at $0.31, then the second at $0.32 and the third one at $0.345.Below the current price, the first support level is at $0.295, then the second at $0.293 and the third one at $0.288.The MACD on the daily chart continues to cross to the downside, a strange situation that has been going on for several weeks. The current structure of the indicator is unfavorable and calls into question a possible price improvement.The DMI on the daily chart shows the bulls are leading, while the bears retreat and seem to desist from the attempt to break the bullish ADX line.
Get 24/7 Crypto updates in our social media channels: Give us a follow at @FXSCrypto and our FXStreet Crypto Trading Telegram channel "
14,Huobi Global stops servicing US citizens,"
The cryptocurrency exchange Huobi Global announced it would stop working with the citizens of the United States.     The company asked the customers from the USA to stop margin trading and withdraw money before November 13. ""Huobi Global is serving millions of users in more than 130 countries around the world and strictly complying with laws and regulations in various countries and regions. In line with the laws and regulations of the United States with respect to crypto assets, our User Agreement expressly prohibits users in the United States from using our platform,"" the company wrote in the official statement.  If the customers have some residual assets on their balances that are lower than below the minimum withdrawal amount, they can contact the customer support service for assistance. Notably, the same decision was made earlier by Malta-based Binanace. The exchange opted for a local subsidiary and opened Binanse.US.Meanwhile, Huobi recently opened a subsidiary in Argentina to capitalize on strong demand for cryptocurrencies in the country. It is worth noting, that the government lowered the limits for foreign currency purchases both for individuals and corporates. This move caused a spike in biotin prices. The digital asset is trading with 30% premium in Argentina.Read more about this here.

 "
15,Coca-Cola partnered with SAP for blockchain services,"Coca-Cola, the world’s largest beverage company, has partnered with German software firm SAP to manage its massive number of partners and franchises. SAP provides blockchain services to businesses. Coca-Cola works with Coke One North America (CONA) to manage the technology platform behind its franchise business. According to a Business Insider’s report, Coca-Cola’s bottlers will now be benefitting from the efficiency offered by the blockchain technology. This is expected to improve order fill rates and enhance the business between franchises. At times where these bottlers have a shortage of supply, CONA allows multiple Coca-Cola franchises to communicate among themselves. This will ensure that the orders can be fulfilled by purchasing the required surplus from another bottler.CONA’s blockchain-enabled system enables the Coca-Cola franchises to identify whether one can help another without revealing proprietary information about their clients and order volume. This partnership will also help in ensuring payments between the franchises are processed quickly. Andrei Semenov, the senior manager at CONA said:There are a number of transactions that are cross-companies and multiparty that are inefficient. They go through intermediaries; they are very slow. And we felt that we could improve this and save some money.Overall, the collaboration will reduce the order-reconciliation time down to just a few days. This is a significant improvement over the 50 days it used to take before.
 "
16,,
17,,
18,,
19,,
