,title,text
0,BoJ's Kuroda: BoJ ready to ease without hesitation if needed,"The Bank of Japan (BoJ) is ready to ease its monetary policy without hesitation if needed, BoJ Governor Kuroda said on the sidelines of a conference in Riyadh on Saturday but added that their view of Japanese economy recovering moderately hasn't changed yet.""There is a lot of uncertainty over the impact of coronavirus impact but I don't think Japan's economy will slump sharply,"" Kuroda further noted. Regarding the heightened volatility in foreign exchange markets, Kuroda argued that the movements were a product of broad USD strength and said he wasn't expecting to see a big change in FX trends."
1,Japan's Aso: Almost all G20 ministers mentioned risk from coronavirus,"G20 members generally agreed on the need to coordinate in responding to the impact of the coronavirus outbreak on the global economy and almost all ministers mentioned risks from the epidemic, Japanese Finance Minister Aso told reporters in Riyadh on Saturday.Aso refrained from commenting on the recent JPY weakness and said that he doesn't think risks to Japan's economy has heightened dramatically. Aso further noted that he told G20 ministers that Japan hopes counties with fiscal space will take ""bold fiscal steps."""
2,WHO's Tedros: Concerned about number of COVID-19 cases with no clear epidemiological link,"""Although the total number of COVID-19 cases outside China remains relatively low, I stressed our concern about cases with no clear epidemiological link (travel history to China, contact with a confirmed case),"" World Health Organization (WHO) chief Tedros Adhanom Ghebreyesus said in a Twitter thread on Saturday.""More than 80% of patients have mild disease and will recover, 20% have critical COVID-19, in 2% of reported cases, the coronavirus is fatal.""""We have just appointed special envoys to provide strategic advice and high-level political advocacy and engagement in Africa.""""We have published a strategic preparedness & response plan, with a call for $675 million to support countries, especially the most vulnerable.""""The UN Agency has identified 13 priority countries in Africa because of their direct links to China or the high volume of travel with China.""""We have shipped more than 30,000 sets of personal protective equipment to six countries in Africa, and we are ready to ship almost 60,000 more sets to 19 countries in the coming weeks.""""We are calling on all countries to invest urgently in preparedness."""
