,title,text
0,EUR/USD challenges daily highs near 1.0940,"After a brief test of daily lows in the 1.09 neighbourhood, EUR/USD has managed to regain some shine and us now back around the 1.0940 region, coincident with daily highs.The pair is so far failing to extend the bounce beyond the key resistance area around 1.0950, where appears to be a cluster of selling orders. If this area is cleared, minor hurdles are located at 1.0963 and 1.1003, the 10-day and 21-day SMAs, respectively.Spot stayed apathetic after the US private sector created 135K jobs during last month, a tad below the 140K jobs initially forecasted.Further out, EUR/USD is deriving extra support from the shrinking yield spread differential between the US and German bonds, taking the gap to 217 pts. The recent poor print from the US ISM manufacturing continues to weigh on sentiment and keeps yields under extra downside pressure.Moving forward, global assets are expected to remain sidelined amidst the usual pre-Payrolls lull. Additional relevant data will come in earlier with the ISM Non-manufacturing and Factory Orders, while Chief Powell will close the weekly calendar on Friday evening.EUR dropped to new 2-year lows vs. the Greenback in the 1.0880/75 band earlier in the week, as investors’ sentiment remains sour and without any hint of getting any better, at least in the near/medium term. In fact, the slowdown in the euro area stays far from abated and carries the potential to deteriorate further, as per the latest PMIs in core Euroland and despite the lacklustre improvement in a couple of German sentiment gauges. Speaking of Germany, the likeliness that the country could slip back into recession in the third quarter just adds to the already gloomy panorama for the bloc and weighs further on the single currency. The unremitting slowdown in the region does nothing but justify the ‘looser for longer’ monetary stance by the ECB. On another front, potential US tariffs on imports of EU cars remain well on the table, while the Brexit limbo and UK politics adds to the ongoing concerns.At the moment, the pair is gaining 0.05% at 1.0937 and faces the next hurdle at 1.1002 (21-day SMA) followed by 1.1109 (monthly high Sep.13) and finally 1.1163 (high Aug.26). On the downside, a breach of 1.0879 (2019 low Oct.1) would target 1.0839 (monthly low May 11 2017) en route to 1.0569 (monthly low Apr.10 2017). "
1,US Dollar Index Technical Analysis: The ongoing correction is seen as temporary,  
2,"GBP/USD rebounds and stabilizes around 1.2300, ignores Brexit headlines","The GBP/USD pair peaked at 1.2323 during the American session, slightly below yesterday’s top and as of writing, it is hovering around 1.2300, flat for the day. The pair managed to erase losses for the second-day in-a-row. Today it bottomed at 1.2226 before bouncing back to 1.2300. The DOW JONES dropped more than 500 points on Wednesday as US economic data continues to fuel concerns about a global slowdown.  “The only relevant data was the US private employment data, which grew less than expected in September (135k, consensus 140k, prior 157k) with the prior month’s gain downwardly revised, increasing concerns about the global economic cycle, especially after yesterday’s weak manufacturing figures in the US. All eyes will be on Friday’s non-farm payrolls, as a tone of caution prevails in financial markets,” said BBVA analysts. Tomorrow, service sector data is due ahead of Friday’s official employment report. According to US President Trump, the decline in equity prices is the result of the “impeachment nonsense.” US yields are sharply lower today as demand for safe-haven assets soared. The Greenback weakened across the board on the bond rally. Today, UK PM Boris Johnson outline a new set of proposals for Brexit. Johnson also spoke with EC President Jean-Claude Juncker. European Union negotiator Michel Barnier said that progress is being made on Brexit, but warned a lot of work remains. More meetings between EU and UK negotiators will take place over the next days. The new headlines had a limited impact on the Pound. Price action in GBP/USD was mostly explained by the US Dollar. It followed (inversely) the DXY.  Since last Friday, Cable has been unable to move away from the 1.2280/1.2300 area.   "
3,"NZD/USD stays on the recovery mode, eyes on NZ second-tier data, trade news","With the US Dollar (USD) paring its gains against major currencies, the NZD/USD pair holds on to recovery gains while taking the bids to 0.6270 at the start of Thursday’s Asian session.The Kiwi pair bounced off multi-month low on Wednesday after the sluggish print of the US ADP Employment Change and escalation in the US-EU trade tension added fuel to the previous speculations concerning the US recession.With this, the greenback weakened across the board while ignoring comments from the President of the Federal Reserve Bank of New York, John Williams, who signaled that the US economy was in a favorable place.On the contrary, commodity-linked currencies like the New Zealand Dollar (NZD) benefited from the USD’s declines despite pessimism surrounding the global trade front after the US got the World Trade Organization’s (WTO) go for fresh tariffs on the EU imports worth of $7.5 billion. As a result, the US Trade Representative’s office announced retaliatory tariffs of 10% on EU aircraft, 25% on agricultural, industrial goods in WTO aircraft subsidies case.Investors will now look forward to New Zealand’s (NZ) ANZ Commodity Price Index data for September month, expected 0.4% versus 0.3% prior, as an immediate catalyst while also keeping an eye over the trade headlines amid China’s holidays. During the US session, the US ISM Non-Manufacturing Purchasing Managers’ Index (PMI) data for September, forecast 55.1 against 56.4 earlier, and the US Factory Orders for August, consensus -0.2% compared to 1.4% previous, will be closely followed together with a slew of the US Federal Reserve officials’ speech.While China’s absence and a lack of major data could keep the Asian trading activity under pressure, the recent weakness of the USD might help the Kiwi going forward.A three-week-old falling trend-line at 0.6285 acts as nearby upside resistance holding the keys to pair’s further recovery towards a 21-day simple moving average (SMA) level of 0.6330. However, a downside break of 0.6250 will recall sellers targeting 0.6200 round-figure."
4,"S&P500 technical analysis: The Index is in free fall below the 2,900.00 handle",  
5,US: ADP Employment Change drops to 135K in September vs. 140K expected,"The data published by the Automatic Data Processing (ADP) showed that employment in the private sector in September increased by 135,000 following August 's reading of 157,000 (revised from 195,000) reading and came in slightly worse than the market expectation of 140,000.The Greenback's reaction to the data was relatively muted and the US Dollar Index was last up 0.07% on the day at 99.25.Commenting on the data, “The job market has shown signs of a slowdown,” said Ahu Yildirmaz, vice president and co-head of the ADP Research Institute. “The average monthly job growth for the past three months is 145,000, down from 214,000 for the same time period last year.”"
6,XAU/USD Bearish ABC Correction in Bullish Trend,"The XAU/USD (Gold) has broken the support trend line (blue) of the uptrend channel. Does this indicate a bearish reversal or is it simply a mild retracement before the bulls regain control? DailyThe XAU/USD is most likely just building a pullback within the uptrend as a wave 4 (blue) pattern. The Fibonacci 38.2%-50% retracement levels of wave 4 vs 3 will probably hold as support for a bullish bounce and uptrend continuation. This would only change if price is able to break below the 50% Fib, which makes a bearish reversal possible. A bullish breakout above the resistance trend line (red) could confirm the uptrend.4 hour The XAU/USD is building a bearish ABC (green) zigzag pattern within the wave 4 (blue) correction. The current bullish push higher could be a wave bullish wave 4 (orange) of the larger wave C (green) as long as price stays below the resistance levels (red box). The next lower low should find support at the Fibs of wave4, unless price breaks below the 50% Fib or above the resistance box (red).  The analysis has been done with the CAMMACD.MTF template.For more daily technical and wave analysis and updates, sign-up up to our ecs.LIVE channel."
7,"Q4 2019: last Train Out for Gold, Silver and Platinum Bulls?","The people who are prepared are going to reap rewards such as they have never dreamed. We're going to have the biggest transfer of wealth in history – from the fools – to those who are prepared. – Bob MoriartyThe run up of the last few months to $1,565 gold and $19 silver has stalled out into a relatively high-level correction, giving back less than might be expected after such a spirited rise.Many people are focusing on the downside, without asking themselves, ""What's the relative reward?""Even if you only believe the upside case to be around $2,000, that's still a potential 5x:1 reward compared to perceived risk.Whatever gold's potential gain, silver's will almost certainly be considerably greater, as has historically been the case.In the 1970's bull run, my biggest holding was silver bullion. The stagflation theme made it the go-to asset. Is history about to repeat? I think so.Note the excellent overall performance of silver against gold during the 1970s. Singapore dealers are suddenly reporting that investors are buying more silver than gold. My simple advice to investors in the West is: Join them and buy silver bullion now! – Stewart Thomson, Graceland UpdatesSilver's bullish (and highly unusual) upward stair-stepping behavior. On the above chart above we can see that silver tends to be quite volatile on the upside – and as recent trading sessions have demonstrated – on the downside too!This is why you should be leery of adding leverage or margin. Just stick with tubes of physical trade rounds, and/or bars from reputable dealers.Could I be wrong? Of course. Risk and reward go hand in hand. Remember, without risk, there would be no profit potential either. (Though negative interest bonds are attempting to disprove this thesis!).""Platinum declining into support.""Check your premise. How big is your picture? How much and for how long are you willing to wait? Does any other current investment theme offer such asymmetric potential?Though platinum is a smaller market, it holds a certain allure. Largely an industrial metal, the questionable supply profile, coming mostly from South Africa, Zimbabwe and Russia, makes it an interesting speculation.Until a few years ago, this metal (known as ""little silver"" by early Spanish Conquistadors who tossed it back into a stream to ""grow up""), has usually sold for several hundred dollars/ounce more than gold.Now at almost six hundred dollars less, the profit potential in platinum could be substantial, if it can regain its normal relationship.Throwing the Bones. In ancient cultures, animal bones were heated and tossed onto a mat, looking for ""patterns"" to predict the future. Today, Elliott microWavers, Japanese Candlestickers and other precious metals' ""bone throwers"" seek to divine data from charts and graphs.In fact, we use some of those tools ourselves. But occasionally, a massively profitable opportunity arises when a sector has reached a certain ""tenor"" that a bone toss can't tease out.Where the best efforts at interpreting the questions Mr. Market poses cannot be answered until later. Where maybe this time it is different. Where those who don't hold anything at all – regardless of the current price – run the risk of being left completely behind.It's not easy to ""buy the correction."" You can either take a position and accept information risk or wait until later and deal with price risk. Stu Thomson nails it when he says,We are all cowards on price weakness. Those who admit it, who bet against it make money. Those who hide it and lie about it, lose money. End of story.Don't forget that during a correction, most news is negative. You'll be dealing with the crowd's uncertainty.You'll start doubting yourself, waiting for even lower prices, and more than likely fail to carry out the most critical step – acting on what you've already decided.Maybe you didn't buy gold at $1,100, or $1,250 or $1,350. Perhaps you kept waiting for the arrival of a well-known analyst's call of $700. (Whose tune has now changed to predicting $1,800!). What to do now?At certain times in history owning money is the best available ""investment"" idea, because all other investment classes have become so corrupted and distorted that having money is the only sensible choice. We are at such a point today, which means people who are the best informed, choose to place a portion of their wealth into the precious metals. David MorganConfusing linear with exponential. Markets spend most of the time trading in a linear, predictable manner – usually in congestion; occasionally in an up or down trend run.Over 90 percent of the time, Bollinger Bands contain price movement within two standard deviations above or below the mid line. But once in awhile an outlier – stronger and more durable than the markets expect – is capable of driving the price exponentially in one direction.This is where really big money can be made... or missed. If you wait for it to become obvious, these exceptional gains can reduce a speculator to the status of... a spectator.The Gold story, while showing more of the same, is also shifting emphasis. It is making all-time highs in most of the world's major currencies. Central banks bought a record 651 tonnes in 2018 – a 75% increase from the previous year, and the highest level of net purchases since 1971 when President Nixon closed the gold window.Additions by China, Russia, India and Turkey remain robust. But in recent months, a larger percentage of the world's gold refining, which routes through Switzerland on its way to Asia, is being siphoned off to the U.K. Germany, and France.This shift is a strong indicator that the crucial ""missing link"" – a metaphorical spark which can ignite the supply-demand powder keg, destroying the market's delicate balance – may soon be lit.Add the fear of missing out by North Americans as it becomes obvious that the last train is leaving the station, and in short order a demand contagion could spread across the entire precious metals' space.It would be wise rather soon to decide if you want to participate...or just watch and wish you had."
8,USD is expected to lose ground vs. other majors – UOB,"The Greenback is seen losing its shine vs. its main rivals in the next months on the back of a persistent easing bias from the Federal Reserve, suggested Researchers at UOB Group in the Quarterly Global Outlook.“Whilst Asian FX is expected to weaken further against the USD, we now see a constructive scenario for a weaker USD against most of G-10 majors spurred by aggressive Fed easing. We now expect 25bp rate-cut at each of the remainder three FOMC meetings for 2019 bringing the Fed Funds Target Rate to a range of 1.25%- 1.50%. If that comes to pass, the interest rate advantage that the USD currently enjoys over its G-10 peers will close significantly and structural USD longs set during Fed hiking cycle from end- 2015 to end-2018 may start to get unwound”.“With intensifying discussions of a global recession and the resulting portfolio reallocation towards preparing for one, we expect the JPY to stay strong and update our view towards further strength towards 103/USD by mid-2020. Overall, investors are urged to hedge their JPY liabilities as the twin tail risks of US-China trade conflict and Brexit remain unresolved and tilted to the downside”.“… if the previous QE by the ECB from 2015-2018 was any guide, EUR/USD may even stabilize after bond purchases commence (“sell of rumor, buy on fact”). Coupled with a more aggressive easing profile by the Fed, we expect EUR/USD to gradually recover to 1.12 in 2Q20 and 1.14 in 3Q20”.“Overall, we maintain the view that the GBP/USD would stay depressed at 1.20 in the immediate two quarters until the fog of Brexit is lifted. Combining our negative GBP and positive JPY view, we expect GBP/JPY to drop further to 126 in Q120, near to its 2016’s flash crash lows of 121.60”."
9,When Will the Turnaround in Gold Likely Come? Implications for Silver?,"In yesterday’s analysis, we emphasized that even though a big decline in gold is already underway, it’s likely that it won’t be a straight move down and there will be periodic corrections. Moreover, we provided price targets from which the bounce could start. Based on the circumstances, it might even be a tradable move. In today’s analysis, we’re going to show you that there are signals suggesting that the turnaround might start relatively soon – during this month.But first, let’s take a look at the most recent price changes.
The most important thing that happened on the gold market is the breakdown below the $1,500 level and below the neck level of the head-and-shoulders pattern. Earlier, both levels prevented gold from declining further and now this is no longer the case. Gold can slide.The head and shoulders pattern suggests a move to at least $1,425 as that’s the size of the head of the pattern. There are other factors that need to be considered as well. The Fibonacci retracements provide useful targets as well. The first one is relatively close, at about $1,450, the second is at about $1,416, which is relatively close to the above-mentioned $1425 level, and the third is at about $1,381.The previous highs and lows also play a part. There are quite a few such extremes that formed in June and July, but they are more or less in tune with the Fibonacci retracements, so they don’t add much to the above.Taking both: the head-and-shoulders and the Fibonacci retracements into account, it seems that gold is more likely to bounce from about $1,420 than from other price levels. The $1,381 level might be the something that generates a rebound as well but it’s not as likely as the $1,420 level. At least not based on the above chart.Based on the long-term gold and silver charts that we featured in yesterday’s Gold & Silver Trading Alert, we have indications that gold might bounce from about $1,420, and from the $1,360 – 1,380 area. This coincides very well with the above-mentioned price levels.The most important take-away, though, is that gold is not likely bottoming right now. Sure, it moved higher yesterday, but it didn’t rally back above the neck level of the head-and-shoulders pattern, which means that yesterday’s rally was just a verification of the breakdown – nothing more. Consequently, it didn’t change the bearish implications of the latter, and the short-term outlook remains bearish.Please note that while gold moved visibly higher on a day-to-day basis, gold miners didn’t. The HUI Index ended the session just 0.5% higher. This underperformance shows that the breakdown below the head and shoulders pattern was not accidental and that it’s likely to slide further.In the opening paragraph of today’s analysis, we wrote that there are signs that we’ll see a corrective upswing in the following weeks. Both signs come from applying the triangle-vertex-based reversal technique. Let’s take a look at them.
Both silver and the HUI Index are very close to the point in time where two (silver) or four (HUI) previous resistance and support lines cross. These moments tend to mark important reversals for a given market. Of course, this is not always the case, but it is the case often enough to make this trading technique useful, especially if it’s confirmed by more than one vertex. There are three vertexes (two in case of the HUI Index and one in silver) that point to a nearby reversal. And by nearby, we mean the middle of the month. The entire precious metals sector is likely to correct more or less at the same time, so this implies also a correction in gold.Does it mean that the gold, silver, and miners’ decline is about to be over? Absolutely not. Gold probably has hundreds of dollars to go before the bottom is in, similarly to how it declined in the second part of the 90s or in late 80s. This does, however, mean that we might see a short-term turnaround after gold, silver, and mining stocks decline some more.This month’s seasonality chart for silver confirms the bearish indications. You can read more detailed seasonal silver analysis over here, but the long story short is that the declines are likely to take place in the 3 weeks of the month, in particular at the very beginning of the month. Any strength is likely to be seen closer to the end of the month, and perhaps in early November.All the above paints a quite coherent short-term picture: the precious metals sector declines shortly, but starts a corrective upswing from lower price levels close to the middle of the month.Before summarizing, we would like to briefly reply to a boomerang question that we just received. “Boomerang” because it comes back every couple of weeks or months. The question is why is comparing the current price moves to a relatively distant past (like the mid-90s) useful, if the fundamental situation is different (e.g. interest rates, sovereign debt levels). Surely, the fundamental situation differs. Not only interest rates, debt levels, but geopolitics in general. The presidents and prime ministers come and go, the monetary authorities change, and the world is developing in a non-linear way in general. However, fear and greed have been and will always be present and as long as the capital markets are available, their participants will make decisions based not only on logical fundamental factors, but also based on the emotional determinants. No geopolitical situation will make any free market (let’s not debate the gold manipulation and silver manipulation theories here – they are definitely free to a major extent and at the same time no market is completely free as long as the interest rates are artificially set) price move up or down in a straight line continuously. People will always get ahead of themselves with their optimism and greed and then they will get ahead of themselves with their pessimism and desperation and hate toward a particular sector. And that’s what makes bull markets and bear markets unfold in specific ways – where there are periodic corrections and where there are medium-term downtrends that are opposite of the very long-term uptrends.The Western world’s debt is ballooning, interest rates are ridiculously low and there are massive trade tensions. Monetary officials are determined to stimulate the economy even though it doesn’t really want to respond to the stimuli in the way that it used to. And it’s all very positive for gold… In the long run.And in the long run, we don’t expect gold to decline as low as it declined after the mid-90s top. As a reminder, gold bottomed several years later very close to $250. No, we don’t expect anything like that. The fundamentals definitely justify much higher gold prices. Will gold’s upcoming bottom be twice as high as the one that we saw about 20 years ago? Or three times as high? Or more? Please note that by saying that a medium-term slide is very likely, we are not telling anyone that gold should get back to its value from 20 years ago.However, based on the way gold performed after parabolic upswings (when greed was at its extreme), it tends to perform relatively similarly. For instance, both the 1980 and 2011 price spikes were followed by very sharp declines. There are numerous other ways in which we can detect what kind of situation is similar to what we see right now and when more of them point to the same outcome, the latter becomes likely. There are numerous reasons for gold to decline right now, even though it’s likely to rally in the long run. The massive breakout in the USD Index is one of the most important factors, but there are also many others. The fact that gold was the only part of the precious metals sector that really rallied this year serves as a perfect confirmation. Gold stocks should be rallying strongly in the early part of the bull market, just like they did in the early 2000s. The opposite has been happening in the previous months. Why? Because gold, silver, and mining stocks haven’t fallen enough and need to decline some more before the investors enter the fear, desperation and hate stage. That’s when true bottoms are formed, not when people continue to expect higher gold prices (which was the case based on the surveys conducted in the late 2015).Summing up, the big decline in the precious metals sector appears to be finally underway. While there will be periodic corrections, it seems that we will see them only after gold, silver and mining stocks decline some more – possibly close to the middle of October. In today’s analysis, we updated our short-term downside targets based on the latest information as the recent decline is not as sharp as the 2011 one, so the technique that predicted the 2011 correction might not apply here. Want free follow-ups to the above article and details not available to 99%+ investors? Sign up to our free newsletter today! "
10,UK: A revised Brexit deal remains elusive – ING,"James Smith, developed markets economist at ING, suggests that with less than a month to go until the current 31 October Brexit deadline, the probability of a deal being struck is falling rapidly.“UK prime minister Boris Johnson has a little over two weeks to both secure a revised Brexit deal from the EU and gain parliamentary approval for it. Failure to do so by the 19th of October would, under the terms of the so-called Benn bill passed by lawmakers in mid-September, oblige the prime minister to ask the EU for another Article 50 extension.”“The government will reportedly table fresh proposals for the contentious Irish backstop this week – that’s the mechanism to avoid a return to a hard border between Northern Ireland and the Republic of Ireland. But while the UK appears more open to allowing NI to abide by EU rules on certain goods, it is much more reluctant to allow alignment on customs and VAT.”“All of this means a compromise looks unlikely to be reached by the mid-October European Council meeting. If nothing else, EU leaders will be acutely aware that there is still probably no majority in parliament for a mutually-acceptable deal.”"
11,"GBP/USD technical analysis: Slides below mid-1.2200s post-UK PMI, remains vulnerable","The GBP/USD pair on Tuesday staged a solid intraday bounce of over 125 pips from the 1.2200 neighbourhood - a support marked by 61.8% Fibonacci level of the 1.1958-1.2583 recent strong move up. The uptick, however, lacked any strong follow-through and once again faltered near the 1.2340-50 supply zone.
 
The mentioned barrier marks a confluence region - comprising of 200-hour EMA and 38.2% Fibonacci level - and should now act as a key pivotal point for short-term traders. The pair met with some fresh supply on Wednesday and remained depressed following the release of yet another disappointing UK construction PMI.
 
Meanwhile, technical indicators on hourly charts maintained their bearish bias and have just started drifting into the bearish territory on the daily chart. The set-up support prospects for a further depreciating move back towards the 1.2235-30 intermediate support en-route the 1.2200 round-figure mark.
 
Failure to defend the mentioned handle, leading to a subsequent break below the 1.2170-65 horizontal zone will set the stage for a slide back towards testing sub-1.2100 levels. On the flip side, the 1.2280-85 region now seems to act as immediate resistance and any further recovery beyond the 1.2300 handle seems more likely to remain capped near 1.2340-50 region.  "
12,Stock market crash has three drivers – and they are here to stay,"US stock markets are falling for the second day in a row – and Wednesday's declines are worse than Tuesday. Safe-haven assets such as the Japanese yen and gold are moving higher. Tuesday's disappointing ISM Manufacturing PMI – the worst level since June 2009 – which indicates a higher chance of a US recession next year. A small miss in the ADP Non-Farm Payrolls – showing an increase of only 135,000 private-sector jobs in September – added to the misery.The biggest test is Friday's Non-Farm Payrolls report – which will likely show further moderation, but the exact number matters. Preview. Unless the NFP is spectacular, markets will continue struggling. China is celebrating its Golden Week and 70 years to the Communist revolution – but the US is working regularly. Reports that the US is considering limits on Chinese investments continue weighing despite a denial from the White House – which was only half-hearted. The US is not considering delisting Chinese companies ""at the moment.""Financial controls serve as a major escalation. High-level talks are scheduled for next week and if we have learned something from previous rounds – they are bound to fail.And to top it off, the fast-moving impeachment inquiry increases political uncertainty and also hurts stocks. Secretary of State Mike Pompeo's admission that he listened to the famous July 25 Trump-Zelensky call and Democrats' subpoena of White House documents are the latest developments that weigh.Significant developments in the Democratic party also weigh. The announcement that Bernie Sanders temporarily suspends his campaign for medical reasons increases the chances that Elisabeth Warren – already gaining traction – wins the Democratic nomination. Warren enjoyed Joe Biden's retreat in the polls – partially related to his role in the Ukraine-gate scandal. Warren is not favored by Wall Street after fighting for financial regulation.New opinion polls are set to show Trump's falling approval rating and Warren's emerging status as the front-runner. Overall, the toxic mix of weak economic data, trade concerns, and political uncertainty all weigh on stocks."
13,Impact of low rates on the saving behavior of Japanese households,"Alongside the quasi-uninterrupted decline in Japanese interest rates since the early 1990s, the household savings rate has declined by more than 10 percentage points, from a net rate of 12.9%(1) in 1994(2) to 2.5% in 2017(2). The savings rate consists of a net financial savings rate (gross financial savings flow minus borrowings flow) and a net housing investment rate (gross housing investment flow minus (in Japan) fixed capital consumption). The decrease in the financial savings rate resulted from the decline in the gross financial savings flow rather than from a rise in the borrowings flow. Thus, the flow of gross financial savings not only contracted, but was also reshaped in favour of monetary deposits, owing to the decline in opportunity costs. Gross housing investment flows diminished, falling below the level of depreciation (fixed capital consumption) throughout most of the period, resulting in a net dissaving in housing (in the midst of a slowly deflating housing bubble). Lastly, despite the ongoing decline in financing costs, the household debt rate tended to decline between 2001 and 2012, before picking up mildly again as of 2013.(1) Japan, like the United States but unlike the European Union, reports the net savings rate, i.e. after fixed capital consumption.(2) ""Fiscal year"" n begins on 1 April of civil year n and ends on 31 March of civil year n+1. ECONOMIC RESEARCH DEPARTMENT. Impact of low rates on the saving behavior of Japanese households Download The Full Ecoflash"
14,,
15,,
16,,
