,title,text
0,Gold Price Prediction: XAU/USD rising wedge pattern breakdown looms,"After gold prices hit an eight-year high on Wednesday this week, consolidation took over. Investors saw the US dollar gain traction following the majestic price action on Thursday. This created some turbulence for the precious metal especially with the ten-year United States Treasury yield diving sharply to 60-basis points in addition to ending the session at the third-lowest level in history. Besides, this was the lowest level since mid-April 2020. Panic continues to grip the US economy even as the COVID-19 curve continues to spike.Gold closed the session on Friday at 1,799.20 after a period of consolidation that followed a minor retreat from the eight-year high around 1,818.17. All indicators are pointing towards the dominance of sideways trading action. For instance, the RSI is motionless above the midline (50) after a dire retreat from levels within the overbought region.On the other hand, the MACD shows that the US dollar has the potential to continue gaining traction against gold. The indicator does not only feature a bearish divergence but also grinding towards the mean line (0.00).Consequently, the formation of a rising wedge pattern hints that a breakdown is in the offing. If support at the wedge pattern crumbles, we can expect gold to dive farther down. Support is anticipated at 1,790, the 50 SMA in the 4-hour range (1,788.13), the 100 SMA (1,774.08), 1,770 and 1,760.  "
1,"Bitcoin Price Prediction: BTC/USD calm in readiness for explosion to $10,000","Bitcoin is still stuck in consolidation during the weekend session on Saturday. An attempt was made in the course of the Asian session to push BTC towards the range limit at $9,400 but the momentum lost steam at $9,302.BTC/USD has adjusted to $9,278 (prevailing market value). Meanwhile, the existing trend is bullish which places the bulls in the driver seat. Unfortunately, the shrinking volatility could continue to limit the bulls despite the effort to break barriers at $9,300 and $9,400 respectively.Technically, Bitcoin will hold onto the ongoing sideways action a while longer. There is literally no signal from the RSI of an impending downward or upward movement. In other words, buying pressure and selling pressure is currently canceling out.The RSI is horizontal at the average and is likely to remain in the same position longer. With the MACD holding above the midline, it means that further losses are unlikely. Moreover, the gap made by the 50 SMA above the 100 SMA puts the bulls slightly in control.As the market continues to squeeze, volatility is bound to return to the market. A break above $9,500 (weekly hurdle) would most likely allow gains to close in on the coveted $10,000. Some altcoins such as Ripple, Tezos, Chainlink and Cardano have already woken up from slumber and are intentional in making gains above the yearly highs traded in February. "
2,,
