,title,text
0,"EUR/USD fails to confirm above 1.1000, eases to 1.0980 area","The euro has pushed higher against the USD on Friday, rallying for the third consecutive day in spite of the risk-off market sentiment. The EUR/USD has appreciated in five of the last six days, extending its recovery from April lows at 1.0725 to reach four-week highs at 1.1020 before easing back below 1.1000.The euro has pushed higher during the US session, with the US dollar losing ground on the back of weaker than expected US manufacturing data. The US ISM Manufacturing PMI has dropped to the lowest level in 11 years, increasing concerns after the sharp decline in consumer spending and the increment of unemployment seen on Thursday.With an empty Eurozone Calendar, with the major European markets closed for Labor Day, the EUR/USD has remained steady during the European session.After the 2% rally witnessed this week, the FX Analysis team at TD Securities see the euro ripe for another downtrend: “The pop higher has not yet seriously threatened to break above key resistance around 1.10. In line with this, we think the latest move higher represents a good entry point to initiate EURUSD shorts.”   "
1,"Forex technical analysis and forecast:  EUR/USD, GBP/USD, USD/RUB, USD/JPY, USD/CHF, AUD/USD, Brent, Gold, BTC/USD, SP500","After finishing the fifth ascending wave at 1.0970, EURUSD is consolidating close to this level. According to the main scenario, the price is expected to expand the range down to 1.0910 and then grow towards 1.0940. After that, the instrument may form a new descending structure to break 1.0910 and then continue trading inside the downtrend with the first target at 1.0847. After completing the fifth ascending wave at 1.2638, GBPUSD is forming the first descending impulse towards 1.2525. Later, the market may form one more ascending structure to reach 1.2585 and then resume trading downwards with the first target at 1.2410. After finishing the correction at 74.10 to the downside, USDRUB is expected to resume growing towards 74.45. After that, the instrument may start a new decline with the short-term target at 72.00 and then form one more ascending structure to reach 73.10. Later, the market may resume trading downwards with the first target at 71.30. USD/JPY has completed the third ascending structure at 107.44. The main scenario implies that the price may correct towards 106.91 and then form one more ascending structure with the first target at 107.55. After breaking the previous consolidation to the downside and then reaching 0.9660, USDCHF is forming a new consolidation range near the lows. Today, the pair may start another growth to break 0.9686 and then continue trading upwards with the target at 0.9733. After finishing the descending impulse at 0.6494 along with the correction, AUDUSD has broken the low of this impulse; right now, it is still falling with the short-term target at 0.6430. After that, the instrument may form one more ascending structure to test 0.6494 from below and then start a new decline with the first target at 0.6410. After breaking 27.00 to the upside, Brent is expected to continue growing towards 32.02. After that, the instrument may correct to return to 27.00 and test it from above. Later, the market may resume trading upwards with the short-term target at 38.18. After completing the fifth descending correctional wave at 1677.77, Gold has formed the ascending impulse towards 1692.52; right now, it is consolidating. Possibly, the pair may break the top of the first impulse to the upside and then continue growing with the first upside target at 1714.94. BTC/USD is forming the first descending impulse towards 8300.00. After that, the instrument may correct to reach 8860.00 and then start a new decline with the short-term target at 7994.00. After finishing the third ascending wave at 2971.5, S&P 500 is correcting with the target at 2691.5. Later, the market may form the fifth ascending structure towards 3160.3."
2,EUR/USD Outlook: Euro holds positive tone after Thursday's 0.5% advance and looks for test of next key barriers,"The Euro maintains positive tone and consolidating under new two-week high at 1.0972 in early Friday's trading.
The pair rallied strongly in the US session on Thursday, boosted by dollar's month-end sell-off, advancing nearly 0.5% for the day, the biggest one-day gains since 7 Apr.
Decision of the ECB to keep the interest rates unchanged but leaving the door open for further stimulus in order to help bloc's economy which faces strong economic contraction in Q2 and likely in whole 2020 year, also helped the Euro.
Thursday's break above pivotal Fibo barrier at 1.0887 which capped the action for two weeks and extension and close above 1.0937/47 (50% of 1.1147/1.0727/55DMA) generated strong bullish signal.
Bulls eye strong barriers at 1.0986/88 (Fibo 61.8%/daily cloud base) and psychological 1.1000 level, reinforced by 100DMA, with 200DMA (1.1033) coming in focus. Momentum indicator turned positive on daily chart after being in neutral mode for several days, underpinning the action, along with faster MA's (10/20/30) in bullish setup, as holiday-thinned volumes can also help rally.
On the other side, overbought stochastic warns that bulls would face a tough job to clear strong 1.0986/1.1033 resistance zone.
Corrective dips towards 1.0900 zone are expected to provide better opportunities for re-entering bullish market.Res: 1.0986; 1.1003; 1.1033; 1.1048
Sup: 1.0947; 1.0937; 1.0887; 1.0874  "
3,"EUR/USD Forecast: Growth smashed, central banks on alert","The EUR/USD pair trimmed the past two weeks’ losses these last few days, now struggling with the critical 1.1000 threshold. To the usual sentiment-related fluctuation, the market had to deal with Q1 Gross Domestic Product data and central bankers.As expected, growth figures were smashed by the economic stalemate triggered by the coronavirus pandemic. The US economy contracted by 4.1% in the three months to March and according to preliminary estimates. In the Union, the contraction was of 3.3% in the same period, also worse than anticipated.  The greenback has been under selling pressure ever since the Fed’s announcement mid-week, and while the ECB disappointed investors, the decline continued on the back of soft US data and mounting US-China tensions.Central banks had monetary policy meetings, leaving the current policies unchanged. However, US Federal Reserve chief’s Powell pledged to do “whatever it takes,” to keep the economy afloat. By the end of the week, the central bank expanded access to its Paycheck Protection Program Liquidity Facility to additional lenders and expanded the collateral that can be pledged.The ECB, on the other hand, made minor twists to its current policy, as it left rates unchanged while easing TLTRO conditions, by reducing interest rates between June 2020 and June 2021. President Lagarde acknowledged the EU is going an unprecedented contraction and that the Union’s GDP may fall between 5%-12% this year, and quite similar to what Powell said, the announced that the ""ECB stands ready to adjust all instruments.""Policymakers recognise that the main target today is to keep the economies afloat throughout the pandemic. Outrageous debt levels, inflation, and whatever else will have to wait until the crisis is over. One key economic indicator, however, is being watched around the world. Unemployment figures skyrocketed, particularly in the US.Initial Jobless Claims for the week ended April 24 printed at 3.84M, bringing the total to over 30M since mid-March when the lockdowns began in most economies and some US states.Meanwhile, US President Trump has threatened China with more tariffs, accusing the country from miss-handling the coronavirus outbreak. The pandemic has taken over 230,000 lives around the world. Most European countries and some US states are easing their lockdowns, but stand ready to go back to stricter measures if the curves start rising again.Economies are meant to keep struggling with the current conditions for some more weeks. The light is not yet clear at the end of the tunnel, although several countries are rushing vaccines’ tests and Gilead reported a positive outcome of a trial of its drug remdesivir. In the best-case scenario, however, a vaccine could be ready for September.Back to employment, the US will publish the Nonfarm Payroll report next week. The record levels of unemployment hint the country could have lost 20 million jobs in April, while the unemployment rate is seen up to 14%. Ahead of the event, the ADP survey on private jobs’ creation is seen printing -13M. For once, the fact that the numbers are being widely anticipated, it does not mean it would be fully priced in.The EU macroeconomic calendar will be quite scarce, as it will include Markit revisions of April PMIs and March Retail Sales, seen down monthly basis by 10% and by 12% when compared to a year earlier.The EUR/USD pair is trading a few pips above the 1.1000 level, its highest in a month. The bullish case could become stronger if the pair finished the week above the psychological threshold. Meanwhile, the weekly chart shows that it’s battling with a mild-bearish 20 SMA, while the 100 SMA continues to extend its decline below the 200 SMA, both above the shorter one. Technical indicators have recovered, but are currently dealing with their midlines, lacking enough momentum to confirm additional gains ahead.In the daily chart, the pair seems poised to extend its advance, challenging a bearish 100 SMA and with the 200 SMA a handful of pips above the current level. Technical indicators have entered positive levels, maintaining their strength upward at their highest in over a month. The 1.1040/50 area comes as the immediate resistance, followed by 1.1120 and 1.1160. Supports, on the other hand, are located at 1.0920 and the 1.0860 region, while below this last 1.0790 comes next.The FXStreet Forecast Poll is showing that speculative interest doesn’t believe the ongoing recovery could last long. Bears are a majority in the three time-frame under study, with over 60% of the polled experts willing to sell in the next few weeks. The quarterly perspective shows that most investors are sideways, with bears at 36% and bulls just at 21%. On average, the pair is seen around the 1.0900 level.The Overview chart reflects the ongoing recovery, as moving averages have turned north. However, they all stand below the current level. Overall, there’s a wide spread of possible targets, which partially distort the averages. Nevertheless and with quite a few exceptions, the pair is not seen far above its current levels in the upcoming weeks.GBP/USD Forecast: Upside locked in? Ongoing UK lockdown, BOE, and NFP to determine next movesAUD/USD Forecast: Is defeating coronavirus enough to maintain the Aussie uptrend? RBA, NFP eye"
4,"Ichimoku cloud analysis: XAU/USD, GBP/USD, EUR/USD","XAU/USD is trading at 1670.00; the instrument is moving below Ichimoku Cloud, thus indicating a bearish tendency. The markets could indicate that the price may test the cloud’s downside border at 1697.00 and then resume moving downwards to reach 1610.00. Another signal to confirm further descending movement is the price’s rebounding from the downside border of the Triangle pattern. However, the scenario that implies further decline may be canceled if the price breaks the cloud’s upside border and fixes above 1720.00. In this case, the pair may continue growing towards 1765.00. GBP/USD is trading at 1.2558; the instrument is moving above Ichimoku Cloud, thus indicating a bullish tendency. The markets could indicate that the price may test the cloud’s upside border at 1.2530 and then resume moving upwards to reach 1.2705. Another signal in favor of further ascending movement is the price’s rebounding from the rising channel’s downside border. However, the scenario that implies further growth may no longer be valid if the price breaks the cloud’s downside border and fixes below 1.2425. In this case, the pair may continue falling towards 1.2335. EUR/USD is trading at 1.0951; the instrument is moving above Ichimoku Cloud, thus indicating a bullish tendency. The markets could indicate that the price may test the cloud’s upside border at 1.0890 and then resume moving upwards to reach 1.1025. Another signal to confirm further ascending movement is the price’s rebounding from the rising channel’s downside border. However, the scenario that implies further growth may be canceled if the price breaks the cloud’s downside border and fixes below 1.0825. In this case, the pair may continue falling towards 1.0745."
5,RBA to keep rates on-hold until end-2021 – Reuters poll,"The latest Reuters poll of 23 economists showed on Friday, the Reserve Bank of Australia (RBA) is likely to keep its Official Cash Rate (OCR) unchanged at a record low of 0.25% when its meeting next Tuesday.The Reuters survey showed all but one of the 23 economists polled expect the RBA to keep rates steady at least until end-2021."
6,May Day blues – But why is EUR/USD bid?,"Risk-off across the boardManufacturing data on tapNikkei 2.14% Dax -2.22%UST 10Y 0.61%Oil $18/bblGold $674/ozBTCUSD $8811GBP UK Manufacturing PMI 32.6 USD ISM Manufacturing 10:00Markets were markedly lower on the first day of May weighed down by disappointing results from Amazon and Apple and a general sense of profit-taking after a strong rebound in the month of April.In North America, yesterday Amazon announced that the company was allocating $4 Billion against COVID-19 expenses and although it had a banner quarter, investors balked at the high price tag of accomodating the business to new lockdown realities and sent the stock lower in aftermarket trade. Apple for its part tried to assuage investors with a stock buyback and some reassuring data points that April hardware business appeared to have stabilized after a sharp dropoff in March but in the end, it failed to provide guidance for the first time in years and that in turn spooked investors.The two big tech heavyweights which account for a significant portion of US indices weighed on SP500 and especially Nasdaq keeping futures lower by 2% overnight. The US open may see further profit-taking ahead of the weekend as some specs may want to lock in the profits from the massive rebound in the past two weeks.Now that major economies begin to slowly re-open their economies the gradual grinding rebound in business activity will likely provide a sharp contrast to the V-shaped fantasies imagined by most market participants and will likely cause a new wave of selling in equities.In FX land the action was muted, with many European bourses quiet due to the May Day holiday. The EURUSD continued its ascent higher, no doubt taking many shorts by surprise, as it now eyes the psychologically key 1.1000 level. There were many attempts to explain the unexpected move in the pair, but perhaps the simplest reason is the divergence in monetary and fiscal policies between the EZ and the US. Although both regions are trying to maintain expansionary posture, the massive monetary and fiscal spend in the US is far greater and is starting to perhaps weigh on the dollar.One other factor that could be hurting the buck was casual speculation yesterday that the US could renege on its debt obligation to China. Larry Kudlow quickly squashed those rumors, but the fact that they circulated suggests that perhaps such policy action was considered. If there is even an iota of truth to such speculation than it casts a very dark shadow over the dollar going forward. Any tampering with the “full faith” part of US credit – even for foreign policy purposes – could create a massive crisis of confidence in the buck. Generally, such ideas would be well outside the normative function of the market but given Trump administration’s constant flaunting of societal norms it is not out of the realm of possibility that the economic cold war against China could lead to a currency crisis and the strength of the EURUSD may be starting to reflect that possibility. Past performance is not indicative of future results.  Trading forex carries a high level of risk, and may not be suitable for all investors. The high degree of leverage can work against you as well as for you. Before deciding to trade any such leveraged products you should carefully consider your investment objectives, level of experience, and risk appetite. The possibility exists that you could sustain a loss of some or all of your initial investment and therefore you should not invest money that you cannot afford to lose. You should be aware of all the risks associated with trading on margin, and seek advice from an independent financial advisor if you have any doubts."
7,EUR/USD bullish break kick starts reversal to 1.13?,"The EUR/USD is breaking the counter trend resistance lines (dotted red) for a potential bullish reversal. The bullish breakout could confirm a wave C (purple). The EUR/USD needs to break above the 1.10 round level to confirm (green check) a larger push up. A break above 1.11 is making it even more likely that the current bullish price swing is a wave 3. The main target could be all the way up at 1.1339, which is the 38.2% Fibonacci retracement level of wave 4 vs 3.A break below the bottom and 100% Fibonacci level at 1.0636 invalidates (red x) the bullish wave outlook. A break below the 21 ema zone and support trend line (blue) already makes the current impulsive wave 3 (green and blue) unlikely.  The analysis has been done with the CAMMACD.Core System.For more daily technical and wave analysis and updates, sign-up up to our ecs.LIVE channel."
8,When is the US ISM Manufacturing PMI and how could it affect EUR/USD?,"The Institute of Supply Management (ISM) will release its latest manufacturing business survey result, also known as the ISM Manufacturing PMI at 14:00 GMT this Friday. Consensus estimate point to a slump in the manufacturing sector activity due to the coronavirus-induced lockdowns. The index is anticipated to fall deep into the contraction territory, to 36.9 for April, down from 49.1 in March.Ahead of the important release, the EUR/USD pair built on this week's positive move and stood tall just below the key 1.10 psychological mark. Given that a disastrous reading might have already been priced in the market, the data seems unlikely to provide any meaningful impetus to the major. However, a negative surprise might be enough to exert some additional pressure on the already weaker US dollar and provide an additional boost to the pair.Meanwhile, Yohay Elam, Analyst Forex Crunch offered important technical levels to trade the EUR/USD pair: "" Resistance awaits at 1.0970, the daily high, and it is followed by April's peak of 1.0995. Next, 1.1045 and 1.1090 await it. Support is at 1.0935, the daily low, followed by the former stubborn cap of 1.0890. The next levels are 1.0860 and 1.0810.""  •   US ISM Manufacturing PMI April Preview: Free fall, is there a parachute?  •   EUR/USD Forecast: Market gloom and overbought conditions set to bring it down after the surprise rise  •   EUR/USD Price Analysis: Focus now shifted to the 200-day SMAThe Institute for Supply Management (ISM) Manufacturing Index shows business conditions in the US manufacturing sector. It is a significant indicator of the overall economic condition in the US. A result above 50 is seen as positive (or bullish) for the USD, whereas a result below 50 is seen as negative (or bearish)."
9,"UK Final Manufacturing PMI arrives at 32.6 in April vs. 32.8 exp, Cable unfazed","The UK manufacturing sector activity contracted more-than-expected in the month of April, the final report from IHS Markit showed this Friday. The seasonally adjusted IHS Markit/CIPS UK Manufacturing Purchasing Managers’ Index (PMI) was revised down to 32.6 in April versus 32.8 expected and 32.9 – April’s first reading.Business sentiment remains close to record low.Series-record lengthening of supplier lead times.“UK manufacturing suffered its worst month in recent history in April, as output, orders books and employment all fell at rates far surpassing anything seen in the PMI survey's 28-year history. Huge swathes of industry were hit hard by company closures, weak global demand, lockdowns and social distancing measures in response to COVID-19. The only pockets of growth were seen at firms making medical and food products.”“Supply-chains also felt the full force of the outbreak as average supplier delays rose to the greatest extent seen since PMI records began. International goods flows were constrained by delays in air freight, shipping and border control issues, and staff shortages often limited production.”The GBP bears retain control following the downward revision to the UK Manufacturing PMI for April, as GBP/USD looks to extend the bounce from a daily low of 1.2534.At the press time, Cable trades at 1.2560, still down -0.25%, as the focus now shifts towards the US ISM Manufacturing PMI for fresh dollar trades."
10,USD/CAD jumps to 1.4100 as BoC's Macklem mentions negative rates," The Canadian dollar has taken a hit after the incoming Governor of the Bank of Canada, Tiff Macklem, suggested that the possibility of negative interest rates is on the table. The USD/CAD has bounced up from 1.4008 area to reach fresh five-day highs right above 1.4100 so far.Tiff Macklem, who will replace Governor Poloz in the Bank of Canada on June the 2nd, has been rather pessimistic about the economic impact of the coronavirus. In a press conference held on Friday, Macklem has warned that there will not be a snap back to normal after the pandemic-induced crisis.Regarding the Bank’s monetary policy, the next BoC Governor observes the disruptive impact of negative interest rates and affirms that he feels “comfortable with lower bound of rates at 0.25%.” Furthermore, he has guaranteed the Bank’s commitment to providing essential liquidity to the system, in order to keep credit flowing.”The USD/CAD has gone through a v-shaped recovery this week, dropping from 1.4095 to find support at 1.3850 and bounce back again over the last two days, to reach 1.4100 again on Friday. On the way up, the pair should confirm above 1.4075/80 (April 28 high/Intraday high) then 1.4120 (April 24 high) and then 23 April high at 1.4200.On the downside, below the 200-hour SMA the pair would lose momentum and might seek support at 1.4009 (intraday low) and then 1.3960 (April 29 high)"
11,Fed's Kaplan: Interest rates will stay low for long,"Commenting on the Federal Reserve's monetary policy outlook, Dallas Fed President Robert Kaplan said that interest rates will stay for long and added that the Fed will need to do more to bridge this period.""Oil producers will shut wells globally, including in the US with industry contracting this year.""""It will take until second half of 2021 or into 2022 to work off excess oil inventory.""""In near term, disinflation is more likely than inflation.""The market reaction was largely muted to these comments with the US Dollar Index remains stuck in the lower half of its daily range near 99."
12,FX Update – Mixed USD,"The commodity currencies have come under pressure after US President Trump soured the mood in equity markets, raising his accusations against China about the coronavirus outbreak, threatening new tariffs while, according to an unnamed source connected to the White House cited by Bloomberg, considering blocking a government fund — the Thrift Savings Plan (which is the federal government’s retirement savings fund — from investing in Chinese equities. Sources cited by Reuters said that a range of options against China were being discussed, but considerations were at an early stage.The S&P 500 closed on Wall Street yesterday with a 0.9% decline, which capped out the best month the index has seen since 1987 as shares rebounded from the deep declines that were seen in March. Trading in S&P 500 futures has seen losses accelerate, racking up declines of over 2% so far in the overnight session. Trading conditions have been thinned by the absence of Singapore, China and Hong Kong, which are closed today for Labour Day holidays, and with many European countries also taking the day off. Final PMI survey data out of Japan and Australia reaffirmed the dismal economic picture due to the lockdowns.The biggest mover out of the main currencies has been the Australian dollar, which dropped nearly 1% in posting a three-day low at 0.6446 against the US dollar. The Kiwi dollar also came under pressure, while USDCAD lifted by over 0.6% in printing a three-day high at 1.4027, despite oil prices rising to a two-week high.Elsewhere, EURUSD has been rooting in the mid 1.09s, holding below yesterday’s 16-day at 1.0937. USDJPY has been holding a narrow range in the lower 107.0s. Sterling has come under pressure, giving back gains seen yesterday. The UK currency has been correlating with global equity market direction, similar to a commodity currency, over the last couple of months. The Swiss franc also remains in demand with USDCHF moving down to 0.9630 from 0.9750 yesterday."
13,"Gold Price Analysis: XAU/USD rebounds modestly, looks to close below $1,700","The XAU/USD pair dropped to its lowest level since April 10th at $1,670 on Friday but staged a rebound during the American session as risk-off flows provided a boost to the safe-haven precious metal. As of writing, the pair was up 0.5% on the day at $1,695. Despite this latest recovery, the pair remains on track to close the week nearly $30 lower.The data published by both the IHS Markit and the Institute for Supply Management (ISM) on Friday revealed that the business activity in the US' manufacturing sector contracted sharply in April. Reflecting the souring market sentiment, Wall Street's main indexes started the day deep in the negative territory and continued to push lower. At the moment, both the S&P 500 and the Nasdaq Composite indexes are down more than 3% on a daily basis.On the other hand, the US Dollar Index, which slumped to a 16-day low 98.78 earlier in the day, erased its losses and was last seen posting small daily gains at 99.05. Nevertheless, the index is still losing more than 1% on a weekly basis.In a recently-published report, “we continue to expect the appeal for precious metals to firm, as capital seeks shelter from negative real rates, but components of market structure remain worrisome,” said TD Securities analysts. “We suspect that we are in the early stages of a multi-year bull market and that, when the dust settles, investment demand will continue to flow to the yellow metal — the balance of risks remains to the upside for gold.”  "
14,India extends lockdown for another two weeks after May 4,"The Indian government announced on Friday that it will be extending the coronavirus lockdown for two more weeks after May 4th with an aim to limit the spread of the contagion, as reported by Reuters.The government further stated that it will be allowing some ""considerable relaxations"" in districts that are considered to be lower-risk areas.The USD/INR pair is staying near the upper limit of its daily ranged around 75.70 after this announcement and rising 0.8% on a daily basis."
15,Copper prices expected to recover in H220 – UOB,"Strategists at UOB Group’s Quarterly Global Outlook noted prices of the base metal are seen recovering ground towards the second half of the year.“There was no escape from the sharp global growth slowdown. Industrial metals, given their high sensitivity to global industrial activity have started to encounter selling pressure since late January when COVID-19 first broke out in China.”“Industrial metals are particularly sensitive to China’s manufacturing activity. For a guide of how much further LME Copper may fall, a good indicator may be China’s official Purchasing Managers’ Index (PMI).”“Before we can countenance a headlong plunge in LME Copper from USD 4,800 to USD 3,000 / MT, we need to appreciate that the Copper demand-supply equation is much tighter now (although demand will start to deteriorate significantly from here on).”“Overall, we downgrade our LME Copper forecast further and see a risk of a further fall to USD 4,000 / MT in 2Q, before mild recovery to USD 4,300 / MT in 3Q, USD 4,600 / MT in 4Q and USD 5,000 / MT in 1Q21.”"
16,Spanish Economy Minister: GDP will contract 9.2% in 2020,"Speaking to Reuters on Friday, Spanish Economy Minister Nadia Calvino noted that the economy will contact 9.2% in 2020 amid the coronavirus crisis.She added: “GDP is expected to grow 6.8% in 2021.”"
17,WTI crawls to $20 after Baker Hughes data,"WTI Crude oil prices have appreciated nearly $1 to test two-week highs right above $20 following Baker Hughes data. According to the report, US oil drillers have cutback rigs for the seventh consecutive week, with the total active US rig count falling to 408 from 465 last week.The June WTI crude has welcomed the report advancing from $19.39 to $20.34, although it has been unable to remain above the $20 level and has retreated shortly afterwards to $19.60 area.Crude prices have celebrated the agreement of the OPEC countries and their allies to start cutting production by 9.7 million barrels per day, starting on May 1. This action is aimed to push prices higher after the collapse of demand caused by the coronavirus crisis.WTI oil prices have advanced more than 3% on Friday, and are on track to a 14% rally this week, following three consective weeks of decline. Likewise, Brent oil prices have risen more than 20% this week, reaching $26 per barrel."
18,EUR/GBP clinches new weekly highs near 0.8750,"The correction lower in the sterling is allowing EUR/GBP to move to the area of weekly highs in the mid-0.8700s at the end of the week.EUR/GBP is prolonging the erratic performance for yet another session, although it has managed to pick up further pace following the breakout of the key 200-day SMA at 0.8729.The cross met extra buying pressure following the selling bias in the quid after market participants continue to assess the economic impact of the coronavirus on the economy as well as recent rumours that the government could extend the lockdown.In the docket, the UK manufacturing PMI came in short of expectations at 32.6 in April (from 47.8) showing the increasing deterioration of the outlook amidst the coronavirus outbreak. Additional data saw the BoE’s M4 Money Supply expanding 2.8% MoM in March and Consumer Credit contracting £3.841 billion during the same period. Earlier in the session, house prices tracked by the Nationwide HPI rose 0.7% inter-month and 3.7% on a year earlier.The cross is gaining 0.58% at 0.8745 and faces the next resistance at 0.8863 (high Apr.6) seconded by 0.9019 (monthly high Oct.20 2019) and then 0.9324 (2019 high Aug.12). On the flip side, a drop below 0.8670 (monthly low Apr.30) would expose 0.8637 (100-day SMA) and then 0.8595 (monthly high Jan.14)."
19,Coronavirus update: Germany’s new infections rise to the highest in five days,"According to the German disease and epidemic control center, Robert Koch Institute (RKI), the number of confirmed coronavirus cases rose to 160,758, with a total of 6,481 deaths reported.Cases increased by 1,639 in Germany, the daily rate of increase ticks up 1.0% from a 0.9% rise seen on Thursday. The death toll rose by 193 vs. 173 seen a day before.There is at least an estimated 126,900 recoveries from the infection, the institute reports.On Thursday, it was reported that Germany is to re-open museums, galleries, zoos and playgrounds and allow religious services to resume, in measures agreed by the Chancellor, Angela Merkel, and the leaders of 16 federal states.The euro is unmoved on the latest German stats, with EUR/USD flirting with weekly highs near 1.0970."
