,title,text
0,EUR/USD: Fundamentals are favorable for the euro over the greenback,"The euro has two advantages over the dollar thanks to Europe's relative success in beating coronavirus and EU Fund hopes, according to FXStreet’s analyst Yohay Elam. EUR/USD is gaining 0.13% at 1.1390 as of writing.“Powell continued urging the Federal government to extend its support. While he did not touch on specifics, he may have referred to the expiry of several support programs in late July. Republicans may eventually push through an extension, but they seem reluctant at the moment.”“The ‘Frugal Four’ – Austria, Denmark, the Netherlands, and Sweden – seem to relent on their objections to the ambitious EU Fund program. The common currency currently has an advantage on the fiscal stimulus front, contrary to the earlier days of the disease.”“Coronavirus cases and deaths remain depressed in the old continent, which continues its cautious return to normal. Jumping to the other side of the world, California is suffering from an increase in hospitalizations – reaching the highest in a month – following the footsteps of Texas. Concerns about Florida are persisting for several days. The illness is far from being under control and struggling states seem unwilling to change course and halt the reopening process.”"
1,EUR/USD plummets toward 1.1300 on broad USD strength,"The EUR/USD pair gained traction and rose to a daily high of 1.1402 during the American session. However, the risk-averse market environment boosted the demand for the safe-haven greenback and caused the pair to lose its traction. As of writing, the pair was down 0.47% on a daily basis at 1.1316.The broad-based selling pressure surrounding the USD on the FOMC's dovish outlook lifted EUR/USD to its best level in three months at 1.1423 on Wednesday. The US Dollar Index (DXY) stayed relatively calm near 96.00 during the first half of the day on Thursday pressured by the falling US Treasury bond yields.However, the sharp drop witnessed in major equity indexes in the US amid resurfacing fears over a second coronavirus wave allowed the DXY to stage a decisive recovery. At the moment, the index is up 0.56% on the day at 96.60.The data published by the US Department of Labor showed that Initial Jobless Claims fell to 1.54 million from 1.9 million last week but was largely ignored by the market participants.On Friday, Industrial Production data will be featured in the European economic docket. Later in the day, the University of Michigan's Consumer Sentiment Index from the US will be looked upon for fresh impetus. Additionally, Richmond Fed President Thomas Barkin is scheduled to deliver a speech at 1400 GMT.  "
2,EUR/USD to extend the correction below 1.1310,"The EUR/USD pair hovers around the 1.1370 level this Thursday, marginally lower daily basis, and could correct lower once below 1.1310, FXStreet’s Chief Analyst Valeria Bednarik reports.“The US has just published Initial Jobless Claims for the week ended June 5, which came in at  1.54 million, slightly better than anticipated. The Producer Price Index in the country rose by 0.4% in the month and increased by 0.3% when compared to a year earlier.”“The 4-hour chart shows that a mildly bullish 20 SMA continues to provide intraday support around the mentioned daily low. Technical indicators, in the meantime, turned lower but hold within positive levels.”“The 100 and 200 SMA maintain their bullish slopes far below the current level. The bearish case could be stronger if the pair pierces the 1.1310 static support level.” "
3,EUR/USD ichimoku cloud: Price has pulled back into cloud support,"The below ichimoku cloud charts refer to EURUSD. The left chart reflects the daily time frame. Key takeaways:Price is above the cloud and the forward cloud reflects support (the red leading span A is above the green leading span B) (green area).Price is above the black base line and the line is moving in a general north-easterly direction.The orange lagging span is above price, reflecting bullishness.The blue dotted conversion line is above the black base line.The right chart reflects the hourly time frame. Key takeaways: Price has pulled back into cloud support. The black base line has remained horizontal and has not turned down.This may be reflecting a pullback as opposed to a trend change.We continue to watch and assess if the hourly yields to support, possibly signaling the next leg up."
4,"EUR/USD loses strength, below 1.1322 to slump toward 1.1261 – Credit Suisse","EUR/USD strength looks to have peaked for now, according to analysts at Credit Suisse. Below 1.1322/16, the pair can see a setback with support next at 1.1241/37. However, TDS and Danske Bank aims the 1.15 level.“With a daily bearish RSI divergence in place, the best of the strength looks to have been seen for now and we look for a retracement lower and a correction/consolidation phase.” “Below 1.1322/16 should see a minor top established to add weight to this view with support then seen next at 1.1261, then 1.1241/37 – the low from earlier this week and 23.6% retracement of the entire Match/June rally – which we look to try and hold. A break would warn of a larger top and a more concerted setback, with support next at 1.1160/54.” “Resistance is seen at 1.1363/69 initially, with a break above 1.1395 needed to reassert a bullish tone again with resistance then at 1.1423/28, then the key 1.1495 high for the year.” "
5,"Forex technical analysis and forecast: Majors, equities and commodities","After expanding the range up to 1.1420, EURUSD is correcting downwards. Possibly, the pair may fall to reach 1.1330, thus forming a consolidation range around 1.1360. If later the price breaks the range to the upside, the market may resume trading upwards to reach 1.1460; if to the downside – start a new correction with the target at 1.1180. GBP/USD has completed the descending wave at 1.2682. Today, the pair may form one more ascending structure to reach 1.2747, thus forming a new consolidation range between these two levels. If later the price breaks the range to the downside, the market may form a new descending structure to reach 1.2600. USD/RUB is still consolidating below 69.00. Possibly, today the pair may correct to reach 69.60 and then start a new decline with the short-term target at 67.57. USD/JPY is falling; after rebounding from 107.44, it is forming another descending structure towards 106.60. After that, the instrument may start a new growth to break 107.44 and then continue the correction with the target at 108.20. After rebounding from 0.9464 to the downside, USDCHF is expected to fall towards 0.9414. Later, the market may form one more ascending structure to break 0.9484 and then continue the correction with the target at 0.9566. AUD/USD is forming a new descending wave towards 0.6903. After that, the instrument may correct to reach 0.6986, thus forming a wide consolidation range around this level. If later the price breaks the range to the downside, the market may start another decline with the target at 0.6747. Brent is still consolidating around 41.00. Today, the pair may correct towards 38.80 and then resume trading upwards with the short-term target at 43.43. Gold has rebounded from 1707.50. Possibly, the pair may grow to reach 1741.90 and then form a new descending wave to break 1707.00. After that, the instrument may continue trading inside the downtrend with the target at 1658.30. After breaking the consolidation range to the upside, BTCUSD is expected to reach 10000.00. Later, the market may fall to break 9500.00 and then continue trading downwards with the target at 9100.00. The Index has broken 3182.2 to the downside. Possibly, today the asset may fall to reach 3120.2 and then start another wave to return to 3182.2, thus forming a new consolidation range. After that, the instrument may break the range to the downside and resume trading downwards with the first target at 3000.3."
6,EUR/USD recedes from monthly peaks above 1.1400,"Following two consecutive daily advances, including fresh 3-month tops beyond 1.1400 the figure on Wednesday, EUR/USD has receded to the 1.1370/60 band at the time of writing on Friday.In spite of the ongoing correction, the constructive prospect around EUR/USD looks unchanged and the yearly highs just below the 1.1500 mark still remains the near-term target.The offered tone in the single currency follows the generalized correction in the broader risk-appetite universe and against the backdrop of the renewed buying pressure surrounding the dollar.In fact, the greenback picked up extra pace in the second half of the week after the Federal Reserve suggested interest rates could remain at these low levels for longer (end 2022?), supporting the idea that the recovery from the coronavirus pandemic could take longer than initially estimated.It is worth recalling that the Fed left unchanged its bonds-purchase programme and now sees the US economy contracting by around 6.5% in 2020 followed by moderate/strong rebounds in 2021 and 2022.Later in the docket, the EuroGroup will meet to evaluate the potential candidates to succeed former President Centeno. Earlier in the session, French Non-Farm Payrolls rose 2.0% inter-quarter in Q1, surpassing consensus.Across the pond, the usual weekly Claims will take centre stage once again seconded by May’s Producer Prices.EUR/USD has regained poise after weekly lows in the 1.1250 region recorded on Tuesday. The constructive view in the euro, however, remains well sustained by the gradual and relentless re-opening of economies in Europe and by the ongoing monetary stimulus announced by the ECB, Germany and the European Commission. On top, the solid performance of the region’s current account is also adding to the attractiveness of the shared currency.At the moment, the pair is losing 0.10% at 1.1360 and faces the next support at 1.1241 (weekly low Jun.9) seconded by 1.1186 (61.8% Fibo of the 2017-2018 rally) and finally 1.1020 (200-day SMA). On the other hand, a break above 1.1422 (weekly/monthly high Jun.10) would target 1.1448 (50% Fibo of the 2017-2018 rally) en route to 1.1495 (2020 high Mar.9)."
7,"Riksbank’s Jansson: Negative rates for economy, households would create rather big problem for central bank","Swedish central bank, Riksbank, Deputy Governor Per Jansson said on Thursday, negative deposit rates for economy and households would create rather a big problem for the central bank.“Pandemic should not affect central banks' ability to meet inflation target long term.”“Pretty happy with recent numbers on inflation expectations.”“Yield curve control is not something we have discussed very much in Sweden.”Stefan Ingves, Riksbank’s Governor, said on Wednesday that the economic development is closer to the positive scenario given in the latest monetary report.The EUR/SEK pair keeps its range around 10.4800 on the above comments. At the press time, the cross gains 0.40% on a daily basis to trade at 10.4779.  "
8,Forex Today: Sell! Sell! Sell!,"What you need to know on Friday, May 12th: Fear turned into panic during US trading hours, leading to one of the worst days in Wall Street for this year. The conservative view from the US Federal Reserve about an economic recovery led the way. The dollar edged higher against most major rivals, except those considered safe havens.US President Trump was unable to come to the rescue, although he tried. Mid-US afternoon, he tweeted: “ The Federal Reserve is wrong so often. I see the numbers also and do MUCH better than they do. We will have a very good Third Quarter, a great Fourth Quarter, and one of our best ever years in 2021. We will also soon have a Vaccine & Therapeutics/Cure. That’s my opinion. WATCH!”US weekly unemployment claims hit 1.54 million in the week ended June 5, slightly better than anticipated.  Continuing Jobless Claims, however, edged higher to roughly 21 million in the week ended May 29.The Pound was among the worst performers ahead of critical UK growth-related data. Brexit woes added pressure, as UK Cabinet Minister Michael Gove hit the wires this Thursday, repeating that they won’t ask for an extension, despite the lack of progress in talks with the EU.  GBP/USD settled around 1.2580.The EUR/USD pair lost the 1.1300 figure ahead of the close, finally giving up to risk-aversion. Commodity-linked currencies, however, were the most affected by Wall Street’s slump.Crude oil prices plummeted over 6% amid decreasing hopes for an economic recovery.Gold prices reached fresh weekly highs, with spot hitting $1,744.70 a troy ounce. The metal, however, lost momentum as the day went by, ending it in the red around 1,730. Cryptocurrency Market News: Bitcoin drops to $9,100, the rest of the market follows suit"
9,EUR/USD regains upward momentum and returns to 1.1400 resistance area," The downside EUR/USD correction from three-month highs a 1.1423 on Wednesday has been contained at 1.1320 and the pair has bounced up again on Thursday’s US session to retest 1.1400/20 resistance area. The euro remains bid, trading quite steady near multi-month highs despite the deterioration of the market sentiment after the Federal Reserve’s downbeat economic report. The Fed dampened hopes of a v-shaped recovery signaling to a painful economic return from the coronavirus shutdown that will require years of extraordinary support.The Bank foresees a 6.5% economic contraction in the US in 2020 and the unemployment rate to reach 9.3% by the year-end. Against this backdrop, the Fed has committed to using its tools to support the economy and has discarded any monetary tightening at least until the end of 2022.These predictions have thwarted the risk rally seen over the previous days, boosting demand for safe assets like the Swiss Franc or the Japanese yen. The US dollar, however, has failed to take advantage of the negative sentiment, hit by investors’ concerns about the possibility of a second COVID-19 wave in the US with some states reporting increases on infections.The FX analysis team at Credit Suisse observe that the euro rally might have peaked and points out to the 1.1322/16 support level, “below 1.1322/16 should see a minor top established to add weight to this view with support then seen next at 1.1261, then 1.1241/37 – the low from earlier this week and 23.6% retracement of the entire Match/June rally – which we look to try and hold. A break would warn of a larger top and a more concerted setback, with support next at 1.1160/54.” "
10,EUR/USD Outlook: Bulls focus 2020 high; US jobless claims and eurogroup meeting could trigger stronger volatility,"The Euro is consolidating under new three-month high (1.1422), after Fed's projections for the long way recovery of the US economy and signal that rates will remain at ultra-low levels for some time, raised traders' concerns and inflated safe-haven dollar.
Negative impact on Euro in post-Fed trading was so far limited as bulls remain firm on daily chart. Momentum continues rise and MA's are in full bullish configuration, with third consecutive close above broken Fibo 76.4% barrier (1.1292), adding to positive signals.
The pair is set for final push towards 2020 high (1.1494), but bulls may pause for consolidation before resuming.
Fundamentals are key factors today, with US weekly jobless claims expected to fall further (1.55M vs 1.87M last week), following surprise increase in nonfarm payrolls last Friday that raises optimism that the worst for the US labor sector might be over.
Eurogroup meeting is another key event for the single currency as EU finance ministers will discuss zone's recovery fund, with persisting disagreement between the EU and some countries expected to keep the Euro volatile.
Bulls are expected to remain fully in play while holding above 1.1292 (broken Fibo 76.4% of 1.1494/1.0635) and rising 10DMA (1.1263) and keep 1.1494 target in focus. Caution on break of these levels that may trigger deeper pullback and expose lower pivots at 1.1240 (9 June trough) and 1.1211 (Fibo 38.2% of 1.0870/1.1422 upleg).Res: 1.1395; 1.1422; 1.1457; 1.1494
Sup: 1.1325; 1.1292; 1.1263; 1.1240 "
11,AUD/USD to trade above 0.70 next week – Westpac,"Economists at Westpac Institutional Bank expect the AUD/USD pair to trade above the 0.70 next week as the Aussie economy is showing signs of improvement and the RBA is not taking as much action as its counterparts.“The Australian economic narrative continues to improve steadily, with reopenings earlier than previous guidance and Treasury lowering its peak unemployment forecast. Headline consumer sentiment continued to rebound in June and fears of higher unemployment have eased.”“Iron ore above $100 reinforces A$’s degree of insulation from swings in the global risk mood, with another C/A surplus likely over Q2.”“A meltdown in global stocks would of course hit the Aussie, but with G10 central banks overall very much in balance sheet expansion mode while the RBA just holds the line, AUD probably has enough fuel for further trade above 0.70 in the week ahead.” "
12,"GBP/USD points to the downside, next support at 1.2655","GBP/USD Thursday's 4-hour chart is pointing to the downside, as FXStreet’s analyst Yohay Elam notes. The cable trades at 1.2683 and the next support sits at the 1.2655 daily low. “Momentum on the 4-hour chart has turned negative, a bearish sign. Moreover, cable fell below the uptrend channel, with the current break seemingly more convincing than the previous dip. On the other hand, GBP/USD is still trading above the 50, 100, and 200 Simple Moving Averages.” “Initial support awaits at the daily low of 1.2655, followed by 1.2620, a swing low recorded a few days ago, and then by 1.2575.”“Some resistance awaits at 1.2730, an initial cap on the way up, followed by 1.2750, another hurdle.” "
13,"S&P 500 plunges to 3,100, down more than 2.5%","Major equity indexes in the United States opened deep in the negative territory on Thursday with fears over a second wave of coronavirus triggering an intense flight to safety. Reflecting the risk-off environment, the CBOE Volatility Index, Wall Street's fear gauge, was up 16.25% on the day at 32.95, the highest level in nearly a month.As of writing, the S&P 500 Index was down 2.7% on the day at 3,110 points, the Dow Jones Industrial Average and the Nasdaq Composite were losing 2.9% and 2.3%, respectively.Among the 11-major S&P 500 sectors, the Energy Index is down 6% on the day as the top-decliner pressured by a 6.3% loss in West Texas Intermediate (WTI) prices. Meanwhile, the Financials Index and the Industrials Index are both losing more than 4%. The 10-year US Treasury bond yield is falling nearly 8% on Thursday to weigh on financial shares."
14,US Dollar Index remains bid around 96.30,"The greenback, when tracked by the US Dollar Index (DXY), keeps the firm note so far around the 96.30/40 region on Thursday.The index is reversing the recent decline to fresh 3-month lows in sub-96.00s levels on the back of the resumption of the risk aversion in the US markets.In fact, the US benchmark indices for stock markets are trading with strong losses on Thursday as investors continue to gauge the recent pick-up in coronavirus cases vs. the re-opening of the economy.Adding to the sour mood, the FOMC left unchanged its monetary stance at Wednesday’s meeting, as expected, although it said the economy could take longer to recover from the coronavirus fallout. Fed’s Powell reiterated that interest rates are seen at current levels for longer.In the docket, weekly Initial Jobless Claims rose by 1.54 million, surpassing expectations and Producer Prices rose at a monthly 0.4% during May, also coming in above estimates.The dollar met support below the 96.00 mark so far this week, recording at the same time fresh multi-month lows. As usual in past weeks, price action around the dollar is expected to keep tracking the performance of the broad risk appetite trends, US-China trade developments and the progress on the re-opening of the economy. On the constructive stance around the buck, bouts of risk aversion should support the investors’ preference for the greenback as a safe haven along with its status of global reserve currency and store of value.At the moment, the index is gaining 0.28% at 96.32 and a breakout of 97.87 (61.8% Fibo of the 2017-2018 drop) would aim for 98.43 (200-day SMA) and finally 98.98 (100-day SMA). On the downside, immediate contention emerges at 95.72 (monthly low Jun.10) followed by 95.03 (2019 low Jan.10) and then 94.65 (2020 low Mar.9)."
15,VIX lights the fuse to explode – Charles Schwab,"The Volatility Index currently sits around 27, having retraced 50% of the highs made in March. The decline has stalled in recent weeks, though, and could potentially be setting up for a rally that repeats history as VIX tends to rests highs after significant spikes, per Charles Schwab.Don't miss: “With numerous potential market-moving events on the horizon, it’s easy to think of scenarios that could bring volatility back into markets. 2020 election, official US economic recession, COVID-19 and geopolitical turmoil are just a few events that could test investor resolve.”“25 is a key level to carry forward. Prices gapped up above this level in March and represent an area of recent support for declining prices. A sustained downside break would indicate a clear shift in momentum and could lead to serious declines.”“Moving averages are clearly cascading lower as prices printed consecutive weekly lows. Short-term bounces could be met with resistance as sellers remain in control until trends shift. Prices would need to rally over the 37 level to end the trend of lower highs and lower lows.”  “Stochastic RSI is turning positive after entering oversold territory. This, paired with bearish momentum could indicate stalling price levels and sideways chop in coming weeks.”$VIX is a real-time market index representing stock market's expectation of 30-day forward-looking volatility. Derived from the price inputs of the S&P 500 index options, it provides a measure of market risk and investors' sentiments."
16,Mark Stock Price: Remark Holding inc may rise while other shares fall on coronavirus second wave fears,"Have broader stock markets hit the peak? Remark Holding could stand out and climb while that happens. The primary reason for the fall is the Federal Reserve's pessimism about an economic recovery. The world's most powerful central bank foresees a return to pre-pandemic output not before 2022. Only then do some officials consider raising rates, while the vast majority leave it beyond the horizon.The Fed will continue buying bonds at an elevated pace and called on the government to do more. Jerome Powell, Chairman of the Federal Reserve, emphasized by saying that the bank is ""not even thinking about thinking of raising rates."" The pessimism is weighing on markets and Remark is not immune to the falls.The stock is holding above the June low, a bullish sign. However, it needs to recapture the previous peaks above $3 to confirm a fresh uptrend.However, another market downer is one that NASDAQ: MARK may benefit from. Investors are growingly concerned with a potential second wave of coronavirus in the US. While the greater New York area is bending the curve down, cases are on the rise in three large states – California, Texas, and Florida. Remark's thermal scanners are useful for detecting people with fever, allowing for a safer return to normal – or preventing new lockdowns. The equipment can scan up to 120 people per minute, allowing for quick movement into small and large spaces alike. Moreover, Remark produces AI kit that is coming into high demand in China. That may also allow the stock to hold its ground and rise. Remark also has a stake in a company founded by Dr. Oz."
17,NZD/USD drops below 0.6500 on risk-aversion,"The NZD/USD pair took advantage of the broad-based selling pressure surrounding the greenback and closed modestly higher on Wednesday. However, with the market sentiment turning sour on Thursday, the pair lost its traction and was last seen losing 0.6% on the day at 0.6498.The data from New Zealand revealed that Electronic Card Retail Sales in May increased by 78.9% following April's decline of 47.5% but failed to help the kiwi find demand. Meanwhile, major Asian equity indexes suffered heavy losses amid renewed concerns over the second wave of coronavirus.On the other hand, the FOMC's dovish outlook on Wednesday weighed on the greenback and caused the US Dollar Index (DXY) to register its lowest daily-close in three months at 96.05. Nevertheless, the USD seems to be showing some resilience against its rivals amid risk aversion and keeping the bearish pressure on NZD/USD intact. As of writing, the DXY was up 0.1% at 96.15.In the second half of the day, weekly Initial Jobless Claims and Producer Price Index (PPI) data from the US will be looked upon for fresh impetus. Investors will be paying close attention to Wall Street's performance as well. At the moment, the S&P 500 futures are down 1.65% on the day, suggesting that the major stock indices in the US are likely to open deep in the negative territory.   "
18,"GBP/USD keeps the red near daily lows, around mid-1.2600s","The strong intraday USD buying picked up some additional pace in the last hour and pushed the GBP/USD pair further below mid-1.2600s, back closer to weekly lows.The pair witnessed some aggressive long-unwinding trade on Thursday and extended the previous session's post-FOMC retracement slide from three-month tops – levels beyond the 1.2800 mark. The steep intraday decline was exclusively sponsored by a strong pickup in the US dollar demand.The Federal Reserve on Wednesday offered a bleak outlook and stated that the economy is expected to contract by 6.5% in 2020. The downbeat assessment took its toll on the global risk sentiment, which, in turn, provided a strong boost to the greenback's perceived safe-haven status.The greenback maintained its strong bid tone following the release of slightly better-than-expected US macro data – Producer Price Index for May and Initial Weekly Jobless Claims data – and continued exerting downward pressure on the GBP/USD pair.The pair has now retreated back closer to weekly swing lows, around the 1.2620-15 region, set on Tuesday. The mentioned region coincides with 200-day EMA, which if broken will set the stage for a further near-term depreciating move for the GBP/USD pair, possibly towards mid-1.2500s.  "
